(kicad_pcb (version 20171130) (host pcbnew 5.0.0-fee4fd1~66~ubuntu18.04.1)

  (general
    (thickness 1.6)
    (drawings 5)
    (tracks 90)
    (zones 0)
    (modules 8)
    (nets 40)
  )

  (page A4)
  (layers
    (0 F.Cu signal)
    (31 B.Cu signal)
    (32 B.Adhes user)
    (33 F.Adhes user)
    (34 B.Paste user)
    (35 F.Paste user)
    (36 B.SilkS user)
    (37 F.SilkS user)
    (38 B.Mask user)
    (39 F.Mask user)
    (40 Dwgs.User user)
    (41 Cmts.User user)
    (42 Eco1.User user)
    (43 Eco2.User user)
    (44 Edge.Cuts user)
    (45 Margin user)
    (46 B.CrtYd user)
    (47 F.CrtYd user)
    (48 B.Fab user)
    (49 F.Fab user)
  )

  (setup
    (last_trace_width 0.25)
    (trace_clearance 0.2)
    (zone_clearance 0.508)
    (zone_45_only no)
    (trace_min 0.2)
    (segment_width 0.2)
    (edge_width 0.15)
    (via_size 0.8)
    (via_drill 0.4)
    (via_min_size 0.4)
    (via_min_drill 0.3)
    (uvia_size 0.3)
    (uvia_drill 0.1)
    (uvias_allowed no)
    (uvia_min_size 0.2)
    (uvia_min_drill 0.1)
    (pcb_text_width 0.3)
    (pcb_text_size 1.5 1.5)
    (mod_edge_width 0.15)
    (mod_text_size 1 1)
    (mod_text_width 0.15)
    (pad_size 2.1 2.1)
    (pad_drill 1.3)
    (pad_to_mask_clearance 0.2)
    (aux_axis_origin 0 0)
    (visible_elements FFFFFF7F)
    (pcbplotparams
      (layerselection 0x010fc_ffffffff)
      (usegerberextensions true)
      (usegerberattributes false)
      (usegerberadvancedattributes false)
      (creategerberjobfile false)
      (excludeedgelayer true)
      (linewidth 0.100000)
      (plotframeref false)
      (viasonmask false)
      (mode 1)
      (useauxorigin false)
      (hpglpennumber 1)
      (hpglpenspeed 20)
      (hpglpendiameter 15.000000)
      (psnegative false)
      (psa4output false)
      (plotreference true)
      (plotvalue true)
      (plotinvisibletext false)
      (padsonsilk false)
      (subtractmaskfromsilk false)
      (outputformat 1)
      (mirror false)
      (drillshape 0)
      (scaleselection 1)
      (outputdirectory "gerber/protel/"))
  )

  (net 0 "")
  (net 1 "Net-(A1-Pad1)")
  (net 2 "Net-(A1-Pad17)")
  (net 3 "Net-(A1-Pad2)")
  (net 4 "Net-(A1-Pad18)")
  (net 5 "Net-(A1-Pad3)")
  (net 6 "Net-(A1-Pad19)")
  (net 7 GND)
  (net 8 "Net-(A1-Pad20)")
  (net 9 "Net-(A1-Pad5)")
  (net 10 "Net-(A1-Pad21)")
  (net 11 "Net-(A1-Pad6)")
  (net 12 "Net-(A1-Pad22)")
  (net 13 "Net-(A1-Pad7)")
  (net 14 "Net-(A1-Pad23)")
  (net 15 "Net-(A1-Pad8)")
  (net 16 "Net-(A1-Pad24)")
  (net 17 "Net-(A1-Pad9)")
  (net 18 "Net-(A1-Pad25)")
  (net 19 "Net-(A1-Pad10)")
  (net 20 "Net-(A1-Pad26)")
  (net 21 "Net-(A1-Pad11)")
  (net 22 +5V)
  (net 23 "Net-(A1-Pad12)")
  (net 24 "Net-(A1-Pad28)")
  (net 25 "Net-(A1-Pad13)")
  (net 26 "Net-(A1-Pad14)")
  (net 27 "Net-(A1-Pad30)")
  (net 28 "Net-(A1-Pad15)")
  (net 29 "Net-(A1-Pad16)")
  (net 30 "Net-(J1-Pad2)")
  (net 31 "Net-(J1-Pad3)")
  (net 32 "Net-(J1-Pad4)")
  (net 33 "Net-(J1-Pad5)")
  (net 34 "Net-(U2-Pad5)")
  (net 35 "Net-(U2-Pad6)")
  (net 36 "Net-(U2-Pad7)")
  (net 37 "Net-(U2-Pad10)")
  (net 38 "Net-(U2-Pad11)")
  (net 39 "Net-(U2-Pad12)")

  (net_class Default "This is the default net class."
    (clearance 0.2)
    (trace_width 0.25)
    (via_dia 0.8)
    (via_drill 0.4)
    (uvia_dia 0.3)
    (uvia_drill 0.1)
    (add_net GND)
    (add_net "Net-(A1-Pad1)")
    (add_net "Net-(A1-Pad10)")
    (add_net "Net-(A1-Pad11)")
    (add_net "Net-(A1-Pad12)")
    (add_net "Net-(A1-Pad13)")
    (add_net "Net-(A1-Pad14)")
    (add_net "Net-(A1-Pad15)")
    (add_net "Net-(A1-Pad16)")
    (add_net "Net-(A1-Pad17)")
    (add_net "Net-(A1-Pad18)")
    (add_net "Net-(A1-Pad19)")
    (add_net "Net-(A1-Pad2)")
    (add_net "Net-(A1-Pad20)")
    (add_net "Net-(A1-Pad21)")
    (add_net "Net-(A1-Pad22)")
    (add_net "Net-(A1-Pad23)")
    (add_net "Net-(A1-Pad24)")
    (add_net "Net-(A1-Pad25)")
    (add_net "Net-(A1-Pad26)")
    (add_net "Net-(A1-Pad28)")
    (add_net "Net-(A1-Pad3)")
    (add_net "Net-(A1-Pad30)")
    (add_net "Net-(A1-Pad5)")
    (add_net "Net-(A1-Pad6)")
    (add_net "Net-(A1-Pad7)")
    (add_net "Net-(A1-Pad8)")
    (add_net "Net-(A1-Pad9)")
  )

  (net_class Stepper ""
    (clearance 0.2)
    (trace_width 0.5)
    (via_dia 0.8)
    (via_drill 0.4)
    (uvia_dia 0.3)
    (uvia_drill 0.1)
    (add_net +5V)
    (add_net "Net-(J1-Pad2)")
    (add_net "Net-(J1-Pad3)")
    (add_net "Net-(J1-Pad4)")
    (add_net "Net-(J1-Pad5)")
    (add_net "Net-(U2-Pad10)")
    (add_net "Net-(U2-Pad11)")
    (add_net "Net-(U2-Pad12)")
    (add_net "Net-(U2-Pad5)")
    (add_net "Net-(U2-Pad6)")
    (add_net "Net-(U2-Pad7)")
  )

  (module Button_Switch_THT:SW_Tactile_SPST_Angled_PTS645Vx31-2LFS (layer F.Cu) (tedit 5B85713B) (tstamp 5B917A8B)
    (at 96.3 78.8 90)
    (descr "tactile switch SPST right angle, PTS645VL31-2 LFS")
    (tags "tactile switch SPST angled PTS645VL31-2 LFS C&K Button")
    (path /5B8519D5)
    (fp_text reference SW1 (at 2.25 1.68 90) (layer F.SilkS)
      (effects (font (size 1 1) (thickness 0.15)))
    )
    (fp_text value SW_Push (at 2.25 5.38988 90) (layer F.Fab)
      (effects (font (size 1 1) (thickness 0.15)))
    )
    (fp_line (start 4 -3.15) (end 4 -2.59) (layer F.Fab) (width 0.1))
    (fp_line (start 0.5 -3.15) (end 4 -3.15) (layer F.Fab) (width 0.1))
    (fp_line (start 0.5 -3.15) (end 0.5 -2.59) (layer F.Fab) (width 0.1))
    (fp_text user %R (at 2.25 1.68 90) (layer F.Fab)
      (effects (font (size 1 1) (thickness 0.15)))
    )
    (fp_line (start -1.09 0.97) (end -1.09 1.2) (layer F.SilkS) (width 0.12))
    (fp_line (start 5.7 4.2) (end 5.7 0.86) (layer F.Fab) (width 0.1))
    (fp_line (start -1.5 4.2) (end -1.2 4.2) (layer F.Fab) (width 0.1))
    (fp_line (start -1.2 0.86) (end 5.7 0.86) (layer F.Fab) (width 0.1))
    (fp_line (start 6 4.2) (end 6 -2.59) (layer F.Fab) (width 0.1))
    (fp_line (start -2.5 -2.8) (end 7.05 -2.8) (layer F.CrtYd) (width 0.05))
    (fp_line (start 7.05 -2.8) (end 7.05 4.45) (layer F.CrtYd) (width 0.05))
    (fp_line (start 7.05 4.45) (end -2.5 4.45) (layer F.CrtYd) (width 0.05))
    (fp_line (start -2.5 4.45) (end -2.5 -2.8) (layer F.CrtYd) (width 0.05))
    (fp_line (start -1.61 -2.7) (end 6.11 -2.7) (layer F.SilkS) (width 0.12))
    (fp_line (start 6.11 -2.7) (end 6.11 1.2) (layer F.SilkS) (width 0.12))
    (fp_line (start -1.61 4.31) (end -1.09 4.31) (layer F.SilkS) (width 0.12))
    (fp_line (start -1.61 -2.7) (end -1.61 1.2) (layer F.SilkS) (width 0.12))
    (fp_line (start -1.5 -2.59) (end 6 -2.59) (layer F.Fab) (width 0.1))
    (fp_line (start -1.5 4.2) (end -1.5 -2.59) (layer F.Fab) (width 0.1))
    (fp_line (start 5.7 4.2) (end 6 4.2) (layer F.Fab) (width 0.1))
    (fp_line (start -1.2 4.2) (end -1.2 0.86) (layer F.Fab) (width 0.1))
    (fp_line (start 5.59 0.97) (end 5.59 1.2) (layer F.SilkS) (width 0.12))
    (fp_line (start -1.09 3.8) (end -1.09 4.31) (layer F.SilkS) (width 0.12))
    (fp_line (start -1.61 3.8) (end -1.61 4.31) (layer F.SilkS) (width 0.12))
    (fp_line (start 5.05 0.97) (end 5.59 0.97) (layer F.SilkS) (width 0.12))
    (fp_line (start 5.59 3.8) (end 5.59 4.31) (layer F.SilkS) (width 0.12))
    (fp_line (start 5.59 4.31) (end 6.11 4.31) (layer F.SilkS) (width 0.12))
    (fp_line (start 6.11 3.8) (end 6.11 4.31) (layer F.SilkS) (width 0.12))
    (fp_line (start -1.09 0.97) (end -0.55 0.97) (layer F.SilkS) (width 0.12))
    (fp_line (start 0.55 0.97) (end 3.95 0.97) (layer F.SilkS) (width 0.12))
    (pad 4 thru_hole circle (at 5.76 2.49 90) (size 2.1 2.1) (drill 1.3) (layers *.Cu *.Mask)
      (zone_connect 1))
    (pad 2 thru_hole circle (at 4.5 0 90) (size 1.75 1.75) (drill 0.99) (layers *.Cu *.Mask)
      (net 11 "Net-(A1-Pad6)"))
    (pad 1 thru_hole circle (at 0 0 90) (size 1.75 1.75) (drill 0.99) (layers *.Cu *.Mask)
      (net 7 GND))
    (pad 3 thru_hole circle (at -1.25 2.49 90) (size 2.1 2.1) (drill 1.3) (layers *.Cu *.Mask))
    (model ${KISYS3DMOD}/Button_Switch_THT.3dshapes/SW_Tactile_SPST_Angled_PTS645Vx31-2LFS.wrl
      (at (xyz 0 0 0))
      (scale (xyz 1 1 1))
      (rotate (xyz 0 0 0))
    )
  )

  (module Connector_PinHeader_2.54mm:PinHeader_1x04_P2.54mm_Vertical (layer F.Cu) (tedit 5B854325) (tstamp 5B9186E0)
    (at 109.1 69.8 90)
    (descr "Through hole straight pin header, 1x04, 2.54mm pitch, single row")
    (tags "Through hole pin header THT 1x04 2.54mm single row")
    (path /5B852210)
    (fp_text reference U1 (at 0 -2.33 90) (layer F.SilkS)
      (effects (font (size 1 1) (thickness 0.15)))
    )
    (fp_text value SSD1306 (at 0 9.95 90) (layer F.Fab)
      (effects (font (size 1 1) (thickness 0.15)))
    )
    (fp_text user %R (at 0 3.81 180) (layer F.Fab)
      (effects (font (size 1 1) (thickness 0.15)))
    )
    (fp_line (start 1.8 -1.8) (end -1.8 -1.8) (layer F.CrtYd) (width 0.05))
    (fp_line (start 1.8 9.4) (end 1.8 -1.8) (layer F.CrtYd) (width 0.05))
    (fp_line (start -1.8 9.4) (end 1.8 9.4) (layer F.CrtYd) (width 0.05))
    (fp_line (start -1.8 -1.8) (end -1.8 9.4) (layer F.CrtYd) (width 0.05))
    (fp_line (start -1.33 -1.33) (end 0 -1.33) (layer F.SilkS) (width 0.12))
    (fp_line (start -1.33 0) (end -1.33 -1.33) (layer F.SilkS) (width 0.12))
    (fp_line (start -1.33 1.27) (end 1.33 1.27) (layer F.SilkS) (width 0.12))
    (fp_line (start 1.33 1.27) (end 1.33 8.95) (layer F.SilkS) (width 0.12))
    (fp_line (start -1.33 1.27) (end -1.33 8.95) (layer F.SilkS) (width 0.12))
    (fp_line (start -1.33 8.95) (end 1.33 8.95) (layer F.SilkS) (width 0.12))
    (fp_line (start -1.27 -0.635) (end -0.635 -1.27) (layer F.Fab) (width 0.1))
    (fp_line (start -1.27 8.89) (end -1.27 -0.635) (layer F.Fab) (width 0.1))
    (fp_line (start 1.27 8.89) (end -1.27 8.89) (layer F.Fab) (width 0.1))
    (fp_line (start 1.27 -1.27) (end 1.27 8.89) (layer F.Fab) (width 0.1))
    (fp_line (start -0.635 -1.27) (end 1.27 -1.27) (layer F.Fab) (width 0.1))
    (pad 11 thru_hole oval (at 0 7.62 90) (size 1.7 1.7) (drill 1) (layers *.Cu *.Mask)
      (net 14 "Net-(A1-Pad23)"))
    (pad 10 thru_hole oval (at 0 5.08 90) (size 1.7 1.7) (drill 1) (layers *.Cu *.Mask)
      (net 16 "Net-(A1-Pad24)"))
    (pad 14 thru_hole oval (at 0 2.54 90) (size 1.7 1.7) (drill 1) (layers *.Cu *.Mask)
      (net 22 +5V))
    (pad 7 thru_hole rect (at 0 0 90) (size 1.7 1.7) (drill 1) (layers *.Cu *.Mask)
      (net 7 GND))
    (model ${KISYS3DMOD}/Connector_PinHeader_2.54mm.3dshapes/PinHeader_1x04_P2.54mm_Vertical.wrl
      (at (xyz 0 0 0))
      (scale (xyz 1 1 1))
      (rotate (xyz 0 0 0))
    )
  )

  (module Module:Arduino_Nano_WithMountingHoles (layer F.Cu) (tedit 5B8570F1) (tstamp 5B917A42)
    (at 105.355001 77.185001)
    (descr "Arduino Nano, http://www.mouser.com/pdfdocs/Gravitech_Arduino_Nano3_0.pdf")
    (tags "Arduino Nano")
    (path /5B85175B)
    (fp_text reference A1 (at 7.62 -5.08) (layer F.SilkS)
      (effects (font (size 1 1) (thickness 0.15)))
    )
    (fp_text value Arduino_Nano_v3.x (at 8.89 15.24 90) (layer F.Fab)
      (effects (font (size 1 1) (thickness 0.15)))
    )
    (fp_text user %R (at 6.35 16.51 90) (layer F.Fab)
      (effects (font (size 1 1) (thickness 0.15)))
    )
    (fp_line (start 1.27 1.27) (end 1.27 -1.27) (layer F.SilkS) (width 0.12))
    (fp_line (start 1.27 -1.27) (end -1.4 -1.27) (layer F.SilkS) (width 0.12))
    (fp_line (start -1.4 1.27) (end -1.4 39.5) (layer F.SilkS) (width 0.12))
    (fp_line (start -1.4 -3.94) (end -1.4 -1.27) (layer F.SilkS) (width 0.12))
    (fp_line (start 13.97 -1.27) (end 16.64 -1.27) (layer F.SilkS) (width 0.12))
    (fp_line (start 13.97 -1.27) (end 13.97 36.83) (layer F.SilkS) (width 0.12))
    (fp_line (start 13.97 36.83) (end 16.64 36.83) (layer F.SilkS) (width 0.12))
    (fp_line (start 1.27 1.27) (end -1.4 1.27) (layer F.SilkS) (width 0.12))
    (fp_line (start 1.27 1.27) (end 1.27 36.83) (layer F.SilkS) (width 0.12))
    (fp_line (start 1.27 36.83) (end -1.4 36.83) (layer F.SilkS) (width 0.12))
    (fp_line (start 3.81 31.75) (end 11.43 31.75) (layer F.Fab) (width 0.1))
    (fp_line (start 11.43 31.75) (end 11.43 41.91) (layer F.Fab) (width 0.1))
    (fp_line (start 11.43 41.91) (end 3.81 41.91) (layer F.Fab) (width 0.1))
    (fp_line (start 3.81 41.91) (end 3.81 31.75) (layer F.Fab) (width 0.1))
    (fp_line (start -1.4 39.5) (end 16.64 39.5) (layer F.SilkS) (width 0.12))
    (fp_line (start 16.64 39.5) (end 16.64 -3.94) (layer F.SilkS) (width 0.12))
    (fp_line (start 16.64 -3.94) (end -1.4 -3.94) (layer F.SilkS) (width 0.12))
    (fp_line (start 16.51 39.37) (end -1.27 39.37) (layer F.Fab) (width 0.1))
    (fp_line (start -1.27 39.37) (end -1.27 -2.54) (layer F.Fab) (width 0.1))
    (fp_line (start -1.27 -2.54) (end 0 -3.81) (layer F.Fab) (width 0.1))
    (fp_line (start 0 -3.81) (end 16.51 -3.81) (layer F.Fab) (width 0.1))
    (fp_line (start 16.51 -3.81) (end 16.51 39.37) (layer F.Fab) (width 0.1))
    (fp_line (start -1.53 -4.06) (end 16.75 -4.06) (layer F.CrtYd) (width 0.05))
    (fp_line (start -1.53 -4.06) (end -1.53 42.16) (layer F.CrtYd) (width 0.05))
    (fp_line (start 16.75 42.16) (end 16.75 -4.06) (layer F.CrtYd) (width 0.05))
    (fp_line (start 16.75 42.16) (end -1.53 42.16) (layer F.CrtYd) (width 0.05))
    (pad 1 thru_hole rect (at 0 0) (size 1.6 1.6) (drill 0.8) (layers *.Cu *.Mask)
      (net 1 "Net-(A1-Pad1)"))
    (pad 17 thru_hole oval (at 15.24 33.02) (size 1.6 1.6) (drill 0.8) (layers *.Cu *.Mask)
      (net 2 "Net-(A1-Pad17)"))
    (pad 2 thru_hole oval (at 0 2.54) (size 1.6 1.6) (drill 0.8) (layers *.Cu *.Mask)
      (net 3 "Net-(A1-Pad2)"))
    (pad 18 thru_hole oval (at 15.24 30.48) (size 1.6 1.6) (drill 0.8) (layers *.Cu *.Mask)
      (net 4 "Net-(A1-Pad18)"))
    (pad 3 thru_hole oval (at 0 5.08) (size 1.6 1.6) (drill 0.8) (layers *.Cu *.Mask)
      (net 5 "Net-(A1-Pad3)"))
    (pad 19 thru_hole oval (at 15.24 27.94) (size 1.6 1.6) (drill 0.8) (layers *.Cu *.Mask)
      (net 6 "Net-(A1-Pad19)"))
    (pad 4 thru_hole oval (at 0 7.62) (size 1.6 1.6) (drill 0.8) (layers *.Cu *.Mask)
      (net 7 GND))
    (pad 20 thru_hole oval (at 15.24 25.4) (size 1.6 1.6) (drill 0.8) (layers *.Cu *.Mask)
      (net 8 "Net-(A1-Pad20)"))
    (pad 5 thru_hole oval (at 0 10.16) (size 1.6 1.6) (drill 0.8) (layers *.Cu *.Mask)
      (net 9 "Net-(A1-Pad5)"))
    (pad 21 thru_hole oval (at 15.24 22.86) (size 1.6 1.6) (drill 0.8) (layers *.Cu *.Mask)
      (net 10 "Net-(A1-Pad21)"))
    (pad 6 thru_hole oval (at 0 12.7) (size 1.6 1.6) (drill 0.8) (layers *.Cu *.Mask)
      (net 11 "Net-(A1-Pad6)"))
    (pad 22 thru_hole oval (at 15.24 20.32) (size 1.6 1.6) (drill 0.8) (layers *.Cu *.Mask)
      (net 12 "Net-(A1-Pad22)"))
    (pad 7 thru_hole oval (at 0 15.24) (size 1.6 1.6) (drill 0.8) (layers *.Cu *.Mask)
      (net 13 "Net-(A1-Pad7)"))
    (pad 23 thru_hole oval (at 15.24 17.78) (size 1.6 1.6) (drill 0.8) (layers *.Cu *.Mask)
      (net 14 "Net-(A1-Pad23)"))
    (pad 8 thru_hole oval (at 0 17.78) (size 1.6 1.6) (drill 0.8) (layers *.Cu *.Mask)
      (net 15 "Net-(A1-Pad8)"))
    (pad 24 thru_hole oval (at 15.24 15.24) (size 1.6 1.6) (drill 0.8) (layers *.Cu *.Mask)
      (net 16 "Net-(A1-Pad24)"))
    (pad 9 thru_hole oval (at 0 20.32) (size 1.6 1.6) (drill 0.8) (layers *.Cu *.Mask)
      (net 17 "Net-(A1-Pad9)"))
    (pad 25 thru_hole oval (at 15.24 12.7) (size 1.6 1.6) (drill 0.8) (layers *.Cu *.Mask)
      (net 18 "Net-(A1-Pad25)"))
    (pad 10 thru_hole oval (at 0 22.86) (size 1.6 1.6) (drill 0.8) (layers *.Cu *.Mask)
      (net 19 "Net-(A1-Pad10)"))
    (pad 26 thru_hole oval (at 15.24 10.16) (size 1.6 1.6) (drill 0.8) (layers *.Cu *.Mask)
      (net 20 "Net-(A1-Pad26)"))
    (pad 11 thru_hole oval (at 0 25.4) (size 1.6 1.6) (drill 0.8) (layers *.Cu *.Mask)
      (net 21 "Net-(A1-Pad11)"))
    (pad 27 thru_hole oval (at 15.24 7.62) (size 1.6 1.6) (drill 0.8) (layers *.Cu *.Mask)
      (net 22 +5V))
    (pad 12 thru_hole oval (at 0 27.94) (size 1.6 1.6) (drill 0.8) (layers *.Cu *.Mask)
      (net 23 "Net-(A1-Pad12)"))
    (pad 28 thru_hole oval (at 15.24 5.08) (size 1.6 1.6) (drill 0.8) (layers *.Cu *.Mask)
      (net 24 "Net-(A1-Pad28)"))
    (pad 13 thru_hole oval (at 0 30.48) (size 1.6 1.6) (drill 0.8) (layers *.Cu *.Mask)
      (net 25 "Net-(A1-Pad13)"))
    (pad 29 thru_hole oval (at 15.24 2.54) (size 1.6 1.6) (drill 0.8) (layers *.Cu *.Mask)
      (net 7 GND))
    (pad 14 thru_hole oval (at 0 33.02) (size 1.6 1.6) (drill 0.8) (layers *.Cu *.Mask)
      (net 26 "Net-(A1-Pad14)"))
    (pad 30 thru_hole oval (at 15.24 0) (size 1.6 1.6) (drill 0.8) (layers *.Cu *.Mask)
      (net 27 "Net-(A1-Pad30)"))
    (pad 15 thru_hole oval (at 0 35.56) (size 1.6 1.6) (drill 0.8) (layers *.Cu *.Mask)
      (net 28 "Net-(A1-Pad15)"))
    (pad 16 thru_hole oval (at 15.24 35.56) (size 1.6 1.6) (drill 0.8) (layers *.Cu *.Mask)
      (net 29 "Net-(A1-Pad16)"))
    (pad "" thru_hole circle (at 0 -2.54) (size 1.78 1.78) (drill 1.78) (layers *.Cu *.Mask))
    (pad "" thru_hole circle (at 15.24 -2.54) (size 1.78 1.78) (drill 1.78) (layers *.Cu *.Mask))
    (pad "" thru_hole circle (at 15.24 38.1) (size 1.78 1.78) (drill 1.78) (layers *.Cu *.Mask))
    (pad "" thru_hole circle (at 0 38.1) (size 1.78 1.78) (drill 1.78) (layers *.Cu *.Mask))
    (model ${KISYS3DMOD}/Module.3dshapes/Arduino_Nano_WithMountingHoles.wrl
      (at (xyz 0 0 0))
      (scale (xyz 1 1 1))
      (rotate (xyz 0 0 0))
    )
  )

  (module Connector_JST:JST_EH_B05B-EH-A_1x05_P2.50mm_Vertical (layer F.Cu) (tedit 5A0EB040) (tstamp 5B917A65)
    (at 104.9 63.4)
    (descr "JST EH series connector, B05B-EH-A (http://www.jst-mfg.com/product/pdf/eng/eEH.pdf), generated with kicad-footprint-generator")
    (tags "connector JST EH side entry")
    (path /5B859348)
    (fp_text reference J1 (at 5 -2.8) (layer F.SilkS)
      (effects (font (size 1 1) (thickness 0.15)))
    )
    (fp_text value Conn_01x05 (at 5 3.4) (layer F.Fab)
      (effects (font (size 1 1) (thickness 0.15)))
    )
    (fp_line (start -2.5 -1.6) (end -2.5 2.2) (layer F.Fab) (width 0.1))
    (fp_line (start -2.5 2.2) (end 12.5 2.2) (layer F.Fab) (width 0.1))
    (fp_line (start 12.5 2.2) (end 12.5 -1.6) (layer F.Fab) (width 0.1))
    (fp_line (start 12.5 -1.6) (end -2.5 -1.6) (layer F.Fab) (width 0.1))
    (fp_line (start -3 -2.1) (end -3 2.7) (layer F.CrtYd) (width 0.05))
    (fp_line (start -3 2.7) (end 13 2.7) (layer F.CrtYd) (width 0.05))
    (fp_line (start 13 2.7) (end 13 -2.1) (layer F.CrtYd) (width 0.05))
    (fp_line (start 13 -2.1) (end -3 -2.1) (layer F.CrtYd) (width 0.05))
    (fp_line (start -2.61 -1.71) (end -2.61 2.31) (layer F.SilkS) (width 0.12))
    (fp_line (start -2.61 2.31) (end 12.61 2.31) (layer F.SilkS) (width 0.12))
    (fp_line (start 12.61 2.31) (end 12.61 -1.71) (layer F.SilkS) (width 0.12))
    (fp_line (start 12.61 -1.71) (end -2.61 -1.71) (layer F.SilkS) (width 0.12))
    (fp_line (start -2.61 0) (end -2.11 0) (layer F.SilkS) (width 0.12))
    (fp_line (start -2.11 0) (end -2.11 -1.21) (layer F.SilkS) (width 0.12))
    (fp_line (start -2.11 -1.21) (end 12.11 -1.21) (layer F.SilkS) (width 0.12))
    (fp_line (start 12.11 -1.21) (end 12.11 0) (layer F.SilkS) (width 0.12))
    (fp_line (start 12.11 0) (end 12.61 0) (layer F.SilkS) (width 0.12))
    (fp_line (start -2.61 0.81) (end -1.61 0.81) (layer F.SilkS) (width 0.12))
    (fp_line (start -1.61 0.81) (end -1.61 2.31) (layer F.SilkS) (width 0.12))
    (fp_line (start 12.61 0.81) (end 11.61 0.81) (layer F.SilkS) (width 0.12))
    (fp_line (start 11.61 0.81) (end 11.61 2.31) (layer F.SilkS) (width 0.12))
    (fp_line (start -2.91 0.11) (end -2.91 2.61) (layer F.SilkS) (width 0.12))
    (fp_line (start -2.91 2.61) (end -0.41 2.61) (layer F.SilkS) (width 0.12))
    (fp_line (start -2.91 0.11) (end -2.91 2.61) (layer F.Fab) (width 0.1))
    (fp_line (start -2.91 2.61) (end -0.41 2.61) (layer F.Fab) (width 0.1))
    (fp_text user %R (at 5 1.5) (layer F.Fab)
      (effects (font (size 1 1) (thickness 0.15)))
    )
    (pad 1 thru_hole rect (at 0 0) (size 1.7 1.95) (drill 0.95) (layers *.Cu *.Mask)
      (net 22 +5V))
    (pad 2 thru_hole oval (at 2.5 0) (size 1.7 1.95) (drill 0.95) (layers *.Cu *.Mask)
      (net 30 "Net-(J1-Pad2)"))
    (pad 3 thru_hole oval (at 5 0) (size 1.7 1.95) (drill 0.95) (layers *.Cu *.Mask)
      (net 31 "Net-(J1-Pad3)"))
    (pad 4 thru_hole oval (at 7.5 0) (size 1.7 1.95) (drill 0.95) (layers *.Cu *.Mask)
      (net 32 "Net-(J1-Pad4)"))
    (pad 5 thru_hole oval (at 10 0) (size 1.7 1.95) (drill 0.95) (layers *.Cu *.Mask)
      (net 33 "Net-(J1-Pad5)"))
    (model ${KISYS3DMOD}/Connector_JST.3dshapes/JST_EH_B05B-EH-A_1x05_P2.50mm_Vertical.wrl
      (at (xyz 0 0 0))
      (scale (xyz 1 1 1))
      (rotate (xyz 0 0 0))
    )
  )

  (module Button_Switch_THT:SW_Tactile_SPST_Angled_PTS645Vx31-2LFS (layer F.Cu) (tedit 5B857235) (tstamp 5B917AB1)
    (at 96.31 88.8 90)
    (descr "tactile switch SPST right angle, PTS645VL31-2 LFS")
    (tags "tactile switch SPST angled PTS645VL31-2 LFS C&K Button")
    (path /5B851ABB)
    (fp_text reference SW2 (at 2.25 1.68 90) (layer F.SilkS)
      (effects (font (size 1 1) (thickness 0.15)))
    )
    (fp_text value SW_Push (at 2.25 5.38988 90) (layer F.Fab)
      (effects (font (size 1 1) (thickness 0.15)))
    )
    (fp_line (start 0.55 0.97) (end 3.95 0.97) (layer F.SilkS) (width 0.12))
    (fp_line (start -1.09 0.97) (end -0.55 0.97) (layer F.SilkS) (width 0.12))
    (fp_line (start 6.11 3.8) (end 6.11 4.31) (layer F.SilkS) (width 0.12))
    (fp_line (start 5.59 4.31) (end 6.11 4.31) (layer F.SilkS) (width 0.12))
    (fp_line (start 5.59 3.8) (end 5.59 4.31) (layer F.SilkS) (width 0.12))
    (fp_line (start 5.05 0.97) (end 5.59 0.97) (layer F.SilkS) (width 0.12))
    (fp_line (start -1.61 3.8) (end -1.61 4.31) (layer F.SilkS) (width 0.12))
    (fp_line (start -1.09 3.8) (end -1.09 4.31) (layer F.SilkS) (width 0.12))
    (fp_line (start 5.59 0.97) (end 5.59 1.2) (layer F.SilkS) (width 0.12))
    (fp_line (start -1.2 4.2) (end -1.2 0.86) (layer F.Fab) (width 0.1))
    (fp_line (start 5.7 4.2) (end 6 4.2) (layer F.Fab) (width 0.1))
    (fp_line (start -1.5 4.2) (end -1.5 -2.59) (layer F.Fab) (width 0.1))
    (fp_line (start -1.5 -2.59) (end 6 -2.59) (layer F.Fab) (width 0.1))
    (fp_line (start -1.61 -2.7) (end -1.61 1.2) (layer F.SilkS) (width 0.12))
    (fp_line (start -1.61 4.31) (end -1.09 4.31) (layer F.SilkS) (width 0.12))
    (fp_line (start 6.11 -2.7) (end 6.11 1.2) (layer F.SilkS) (width 0.12))
    (fp_line (start -1.61 -2.7) (end 6.11 -2.7) (layer F.SilkS) (width 0.12))
    (fp_line (start -2.5 4.45) (end -2.5 -2.8) (layer F.CrtYd) (width 0.05))
    (fp_line (start 7.05 4.45) (end -2.5 4.45) (layer F.CrtYd) (width 0.05))
    (fp_line (start 7.05 -2.8) (end 7.05 4.45) (layer F.CrtYd) (width 0.05))
    (fp_line (start -2.5 -2.8) (end 7.05 -2.8) (layer F.CrtYd) (width 0.05))
    (fp_line (start 6 4.2) (end 6 -2.59) (layer F.Fab) (width 0.1))
    (fp_line (start -1.2 0.86) (end 5.7 0.86) (layer F.Fab) (width 0.1))
    (fp_line (start -1.5 4.2) (end -1.2 4.2) (layer F.Fab) (width 0.1))
    (fp_line (start 5.7 4.2) (end 5.7 0.86) (layer F.Fab) (width 0.1))
    (fp_line (start -1.09 0.97) (end -1.09 1.2) (layer F.SilkS) (width 0.12))
    (fp_text user %R (at 2.25 1.68 90) (layer F.Fab)
      (effects (font (size 1 1) (thickness 0.15)))
    )
    (fp_line (start 0.5 -3.15) (end 0.5 -2.59) (layer F.Fab) (width 0.1))
    (fp_line (start 0.5 -3.15) (end 4 -3.15) (layer F.Fab) (width 0.1))
    (fp_line (start 4 -3.15) (end 4 -2.59) (layer F.Fab) (width 0.1))
    (pad 3 thru_hole circle (at -1.25 2.49 90) (size 2.1 2.1) (drill 1.3) (layers *.Cu *.Mask))
    (pad 1 thru_hole circle (at 0 0 90) (size 1.75 1.75) (drill 0.99) (layers *.Cu *.Mask)
      (net 7 GND))
    (pad 2 thru_hole circle (at 4.5 0 90) (size 1.75 1.75) (drill 0.99) (layers *.Cu *.Mask)
      (net 13 "Net-(A1-Pad7)"))
    (pad 3 thru_hole circle (at 5.76 2.49 90) (size 2.1 2.1) (drill 1.3) (layers *.Cu *.Mask))
    (model ${KISYS3DMOD}/Button_Switch_THT.3dshapes/SW_Tactile_SPST_Angled_PTS645Vx31-2LFS.wrl
      (at (xyz 0 0 0))
      (scale (xyz 1 1 1))
      (rotate (xyz 0 0 0))
    )
  )

  (module Button_Switch_THT:SW_Tactile_SPST_Angled_PTS645Vx31-2LFS (layer F.Cu) (tedit 5B857247) (tstamp 5B917AD7)
    (at 96.3 98.8 90)
    (descr "tactile switch SPST right angle, PTS645VL31-2 LFS")
    (tags "tactile switch SPST angled PTS645VL31-2 LFS C&K Button")
    (path /5B851B10)
    (fp_text reference SW3 (at 2.25 1.68 90) (layer F.SilkS)
      (effects (font (size 1 1) (thickness 0.15)))
    )
    (fp_text value SW_Push (at 2.25 5.38988 90) (layer F.Fab)
      (effects (font (size 1 1) (thickness 0.15)))
    )
    (fp_line (start 4 -3.15) (end 4 -2.59) (layer F.Fab) (width 0.1))
    (fp_line (start 0.5 -3.15) (end 4 -3.15) (layer F.Fab) (width 0.1))
    (fp_line (start 0.5 -3.15) (end 0.5 -2.59) (layer F.Fab) (width 0.1))
    (fp_text user %R (at 2.25 1.68 90) (layer F.Fab)
      (effects (font (size 1 1) (thickness 0.15)))
    )
    (fp_line (start -1.09 0.97) (end -1.09 1.2) (layer F.SilkS) (width 0.12))
    (fp_line (start 5.7 4.2) (end 5.7 0.86) (layer F.Fab) (width 0.1))
    (fp_line (start -1.5 4.2) (end -1.2 4.2) (layer F.Fab) (width 0.1))
    (fp_line (start -1.2 0.86) (end 5.7 0.86) (layer F.Fab) (width 0.1))
    (fp_line (start 6 4.2) (end 6 -2.59) (layer F.Fab) (width 0.1))
    (fp_line (start -2.5 -2.8) (end 7.05 -2.8) (layer F.CrtYd) (width 0.05))
    (fp_line (start 7.05 -2.8) (end 7.05 4.45) (layer F.CrtYd) (width 0.05))
    (fp_line (start 7.05 4.45) (end -2.5 4.45) (layer F.CrtYd) (width 0.05))
    (fp_line (start -2.5 4.45) (end -2.5 -2.8) (layer F.CrtYd) (width 0.05))
    (fp_line (start -1.61 -2.7) (end 6.11 -2.7) (layer F.SilkS) (width 0.12))
    (fp_line (start 6.11 -2.7) (end 6.11 1.2) (layer F.SilkS) (width 0.12))
    (fp_line (start -1.61 4.31) (end -1.09 4.31) (layer F.SilkS) (width 0.12))
    (fp_line (start -1.61 -2.7) (end -1.61 1.2) (layer F.SilkS) (width 0.12))
    (fp_line (start -1.5 -2.59) (end 6 -2.59) (layer F.Fab) (width 0.1))
    (fp_line (start -1.5 4.2) (end -1.5 -2.59) (layer F.Fab) (width 0.1))
    (fp_line (start 5.7 4.2) (end 6 4.2) (layer F.Fab) (width 0.1))
    (fp_line (start -1.2 4.2) (end -1.2 0.86) (layer F.Fab) (width 0.1))
    (fp_line (start 5.59 0.97) (end 5.59 1.2) (layer F.SilkS) (width 0.12))
    (fp_line (start -1.09 3.8) (end -1.09 4.31) (layer F.SilkS) (width 0.12))
    (fp_line (start -1.61 3.8) (end -1.61 4.31) (layer F.SilkS) (width 0.12))
    (fp_line (start 5.05 0.97) (end 5.59 0.97) (layer F.SilkS) (width 0.12))
    (fp_line (start 5.59 3.8) (end 5.59 4.31) (layer F.SilkS) (width 0.12))
    (fp_line (start 5.59 4.31) (end 6.11 4.31) (layer F.SilkS) (width 0.12))
    (fp_line (start 6.11 3.8) (end 6.11 4.31) (layer F.SilkS) (width 0.12))
    (fp_line (start -1.09 0.97) (end -0.55 0.97) (layer F.SilkS) (width 0.12))
    (fp_line (start 0.55 0.97) (end 3.95 0.97) (layer F.SilkS) (width 0.12))
    (pad 3 thru_hole circle (at 5.76 2.49 90) (size 2.1 2.1) (drill 1.3) (layers *.Cu *.Mask))
    (pad 2 thru_hole circle (at 4.5 0 90) (size 1.75 1.75) (drill 0.99) (layers *.Cu *.Mask)
      (net 15 "Net-(A1-Pad8)"))
    (pad 1 thru_hole circle (at 0 0 90) (size 1.75 1.75) (drill 0.99) (layers *.Cu *.Mask)
      (net 7 GND))
    (pad 3 thru_hole circle (at -1.25 2.49 90) (size 2.1 2.1) (drill 1.3) (layers *.Cu *.Mask))
    (model ${KISYS3DMOD}/Button_Switch_THT.3dshapes/SW_Tactile_SPST_Angled_PTS645Vx31-2LFS.wrl
      (at (xyz 0 0 0))
      (scale (xyz 1 1 1))
      (rotate (xyz 0 0 0))
    )
  )

  (module Button_Switch_THT:SW_Tactile_SPST_Angled_PTS645Vx31-2LFS (layer F.Cu) (tedit 5B857284) (tstamp 5B917AFD)
    (at 96.3 108.8 90)
    (descr "tactile switch SPST right angle, PTS645VL31-2 LFS")
    (tags "tactile switch SPST angled PTS645VL31-2 LFS C&K Button")
    (path /5B851B6C)
    (fp_text reference SW4 (at 2.25 1.68 90) (layer F.SilkS)
      (effects (font (size 1 1) (thickness 0.15)))
    )
    (fp_text value SW_Push (at 2.25 5.38988 90) (layer F.Fab)
      (effects (font (size 1 1) (thickness 0.15)))
    )
    (fp_line (start 0.55 0.97) (end 3.95 0.97) (layer F.SilkS) (width 0.12))
    (fp_line (start -1.09 0.97) (end -0.55 0.97) (layer F.SilkS) (width 0.12))
    (fp_line (start 6.11 3.8) (end 6.11 4.31) (layer F.SilkS) (width 0.12))
    (fp_line (start 5.59 4.31) (end 6.11 4.31) (layer F.SilkS) (width 0.12))
    (fp_line (start 5.59 3.8) (end 5.59 4.31) (layer F.SilkS) (width 0.12))
    (fp_line (start 5.05 0.97) (end 5.59 0.97) (layer F.SilkS) (width 0.12))
    (fp_line (start -1.61 3.8) (end -1.61 4.31) (layer F.SilkS) (width 0.12))
    (fp_line (start -1.09 3.8) (end -1.09 4.31) (layer F.SilkS) (width 0.12))
    (fp_line (start 5.59 0.97) (end 5.59 1.2) (layer F.SilkS) (width 0.12))
    (fp_line (start -1.2 4.2) (end -1.2 0.86) (layer F.Fab) (width 0.1))
    (fp_line (start 5.7 4.2) (end 6 4.2) (layer F.Fab) (width 0.1))
    (fp_line (start -1.5 4.2) (end -1.5 -2.59) (layer F.Fab) (width 0.1))
    (fp_line (start -1.5 -2.59) (end 6 -2.59) (layer F.Fab) (width 0.1))
    (fp_line (start -1.61 -2.7) (end -1.61 1.2) (layer F.SilkS) (width 0.12))
    (fp_line (start -1.61 4.31) (end -1.09 4.31) (layer F.SilkS) (width 0.12))
    (fp_line (start 6.11 -2.7) (end 6.11 1.2) (layer F.SilkS) (width 0.12))
    (fp_line (start -1.61 -2.7) (end 6.11 -2.7) (layer F.SilkS) (width 0.12))
    (fp_line (start -2.5 4.45) (end -2.5 -2.8) (layer F.CrtYd) (width 0.05))
    (fp_line (start 7.05 4.45) (end -2.5 4.45) (layer F.CrtYd) (width 0.05))
    (fp_line (start 7.05 -2.8) (end 7.05 4.45) (layer F.CrtYd) (width 0.05))
    (fp_line (start -2.5 -2.8) (end 7.05 -2.8) (layer F.CrtYd) (width 0.05))
    (fp_line (start 6 4.2) (end 6 -2.59) (layer F.Fab) (width 0.1))
    (fp_line (start -1.2 0.86) (end 5.7 0.86) (layer F.Fab) (width 0.1))
    (fp_line (start -1.5 4.2) (end -1.2 4.2) (layer F.Fab) (width 0.1))
    (fp_line (start 5.7 4.2) (end 5.7 0.86) (layer F.Fab) (width 0.1))
    (fp_line (start -1.09 0.97) (end -1.09 1.2) (layer F.SilkS) (width 0.12))
    (fp_text user %R (at 2.25 1.68 90) (layer F.Fab)
      (effects (font (size 1 1) (thickness 0.15)))
    )
    (fp_line (start 0.5 -3.15) (end 0.5 -2.59) (layer F.Fab) (width 0.1))
    (fp_line (start 0.5 -3.15) (end 4 -3.15) (layer F.Fab) (width 0.1))
    (fp_line (start 4 -3.15) (end 4 -2.59) (layer F.Fab) (width 0.1))
    (pad 3 thru_hole circle (at -1.25 2.49 90) (size 2.1 2.1) (drill 1.3) (layers *.Cu *.Mask))
    (pad 1 thru_hole circle (at 0 0 90) (size 1.75 1.75) (drill 0.99) (layers *.Cu *.Mask)
      (net 7 GND))
    (pad 2 thru_hole circle (at 4.5 0 90) (size 1.75 1.75) (drill 0.99) (layers *.Cu *.Mask)
      (net 17 "Net-(A1-Pad9)"))
    (pad 3 thru_hole circle (at 5.76 2.49 90) (size 2.1 2.1) (drill 1.3) (layers *.Cu *.Mask))
    (model ${KISYS3DMOD}/Button_Switch_THT.3dshapes/SW_Tactile_SPST_Angled_PTS645Vx31-2LFS.wrl
      (at (xyz 0 0 0))
      (scale (xyz 1 1 1))
      (rotate (xyz 0 0 0))
    )
  )

  (module Package_SO:SOIC-16_3.9x9.9mm_P1.27mm (layer B.Cu) (tedit 5A02F2D3) (tstamp 5B917B3A)
    (at 113.1 95.1 180)
    (descr "16-Lead Plastic Small Outline (SL) - Narrow, 3.90 mm Body [SOIC] (see Microchip Packaging Specification 00000049BS.pdf)")
    (tags "SOIC 1.27")
    (path /5B851C53)
    (attr smd)
    (fp_text reference U2 (at 0 6 180) (layer B.SilkS)
      (effects (font (size 1 1) (thickness 0.15)) (justify mirror))
    )
    (fp_text value ULN2003A (at 0 -6 180) (layer B.Fab)
      (effects (font (size 1 1) (thickness 0.15)) (justify mirror))
    )
    (fp_text user %R (at 0 0 180) (layer B.Fab)
      (effects (font (size 0.9 0.9) (thickness 0.135)) (justify mirror))
    )
    (fp_line (start -0.95 4.95) (end 1.95 4.95) (layer B.Fab) (width 0.15))
    (fp_line (start 1.95 4.95) (end 1.95 -4.95) (layer B.Fab) (width 0.15))
    (fp_line (start 1.95 -4.95) (end -1.95 -4.95) (layer B.Fab) (width 0.15))
    (fp_line (start -1.95 -4.95) (end -1.95 3.95) (layer B.Fab) (width 0.15))
    (fp_line (start -1.95 3.95) (end -0.95 4.95) (layer B.Fab) (width 0.15))
    (fp_line (start -3.7 5.25) (end -3.7 -5.25) (layer B.CrtYd) (width 0.05))
    (fp_line (start 3.7 5.25) (end 3.7 -5.25) (layer B.CrtYd) (width 0.05))
    (fp_line (start -3.7 5.25) (end 3.7 5.25) (layer B.CrtYd) (width 0.05))
    (fp_line (start -3.7 -5.25) (end 3.7 -5.25) (layer B.CrtYd) (width 0.05))
    (fp_line (start -2.075 5.075) (end -2.075 5.05) (layer B.SilkS) (width 0.15))
    (fp_line (start 2.075 5.075) (end 2.075 4.97) (layer B.SilkS) (width 0.15))
    (fp_line (start 2.075 -5.075) (end 2.075 -4.97) (layer B.SilkS) (width 0.15))
    (fp_line (start -2.075 -5.075) (end -2.075 -4.97) (layer B.SilkS) (width 0.15))
    (fp_line (start -2.075 5.075) (end 2.075 5.075) (layer B.SilkS) (width 0.15))
    (fp_line (start -2.075 -5.075) (end 2.075 -5.075) (layer B.SilkS) (width 0.15))
    (fp_line (start -2.075 5.05) (end -3.45 5.05) (layer B.SilkS) (width 0.15))
    (pad 1 smd rect (at -2.7 4.445 180) (size 1.5 0.6) (layers B.Cu B.Paste B.Mask)
      (net 12 "Net-(A1-Pad22)"))
    (pad 2 smd rect (at -2.7 3.175 180) (size 1.5 0.6) (layers B.Cu B.Paste B.Mask)
      (net 10 "Net-(A1-Pad21)"))
    (pad 3 smd rect (at -2.7 1.905 180) (size 1.5 0.6) (layers B.Cu B.Paste B.Mask)
      (net 8 "Net-(A1-Pad20)"))
    (pad 4 smd rect (at -2.7 0.635 180) (size 1.5 0.6) (layers B.Cu B.Paste B.Mask)
      (net 6 "Net-(A1-Pad19)"))
    (pad 5 smd rect (at -2.7 -0.635 180) (size 1.5 0.6) (layers B.Cu B.Paste B.Mask)
      (net 34 "Net-(U2-Pad5)"))
    (pad 6 smd rect (at -2.7 -1.905 180) (size 1.5 0.6) (layers B.Cu B.Paste B.Mask)
      (net 35 "Net-(U2-Pad6)"))
    (pad 7 smd rect (at -2.7 -3.175 180) (size 1.5 0.6) (layers B.Cu B.Paste B.Mask)
      (net 36 "Net-(U2-Pad7)"))
    (pad 8 smd rect (at -2.7 -4.445 180) (size 1.5 0.6) (layers B.Cu B.Paste B.Mask)
      (net 7 GND))
    (pad 9 smd rect (at 2.7 -4.445 180) (size 1.5 0.6) (layers B.Cu B.Paste B.Mask)
      (net 22 +5V))
    (pad 10 smd rect (at 2.7 -3.175 180) (size 1.5 0.6) (layers B.Cu B.Paste B.Mask)
      (net 37 "Net-(U2-Pad10)"))
    (pad 11 smd rect (at 2.7 -1.905 180) (size 1.5 0.6) (layers B.Cu B.Paste B.Mask)
      (net 38 "Net-(U2-Pad11)"))
    (pad 12 smd rect (at 2.7 -0.635 180) (size 1.5 0.6) (layers B.Cu B.Paste B.Mask)
      (net 39 "Net-(U2-Pad12)"))
    (pad 13 smd rect (at 2.7 0.635 180) (size 1.5 0.6) (layers B.Cu B.Paste B.Mask)
      (net 33 "Net-(J1-Pad5)"))
    (pad 14 smd rect (at 2.7 1.905 180) (size 1.5 0.6) (layers B.Cu B.Paste B.Mask)
      (net 32 "Net-(J1-Pad4)"))
    (pad 15 smd rect (at 2.7 3.175 180) (size 1.5 0.6) (layers B.Cu B.Paste B.Mask)
      (net 31 "Net-(J1-Pad3)"))
    (pad 16 smd rect (at 2.7 4.445 180) (size 1.5 0.6) (layers B.Cu B.Paste B.Mask)
      (net 30 "Net-(J1-Pad2)"))
    (model ${KISYS3DMOD}/Package_SO.3dshapes/SOIC-16_3.9x9.9mm_P1.27mm.wrl
      (at (xyz 0 0 0))
      (scale (xyz 1 1 1))
      (rotate (xyz 0 0 0))
    )
  )

  (gr_text "Hadrien\n26/09/2018" (at 112.2 101.4 90) (layer F.SilkS)
    (effects (font (size 1.5 1.5) (thickness 0.3)))
  )
  (gr_line (start 124 61) (end 94.498475 61) (layer Edge.Cuts) (width 0.15))
  (gr_line (start 124 116.7) (end 124 60.999911) (layer Edge.Cuts) (width 0.15))
  (gr_line (start 94.5 116.7) (end 124 116.7) (layer Edge.Cuts) (width 0.15))
  (gr_line (start 94.5 61) (end 94.5 116.7) (layer Edge.Cuts) (width 0.15))

  (segment (start 119.795002 104.325002) (end 120.595001 105.125001) (width 0.25) (layer B.Cu) (net 6))
  (segment (start 115.8 94.465) (end 116.8 94.465) (width 0.25) (layer B.Cu) (net 6))
  (segment (start 116.8 94.465) (end 117.099978 94.764978) (width 0.25) (layer B.Cu) (net 6))
  (segment (start 117.099978 101.629978) (end 119.795002 104.325002) (width 0.25) (layer B.Cu) (net 6))
  (segment (start 117.099978 94.764978) (end 117.099978 101.629978) (width 0.25) (layer B.Cu) (net 6))
  (segment (start 120.560001 102.585001) (end 120.595001 102.585001) (width 0.25) (layer F.Cu) (net 8))
  (segment (start 117.549989 99.539989) (end 119.795002 101.785002) (width 0.25) (layer B.Cu) (net 8))
  (segment (start 115.8 93.195) (end 116.25 93.195) (width 0.25) (layer B.Cu) (net 8))
  (segment (start 116.255 93.2) (end 117.1 93.2) (width 0.25) (layer B.Cu) (net 8))
  (segment (start 116.25 93.195) (end 116.255 93.2) (width 0.25) (layer B.Cu) (net 8))
  (segment (start 119.795002 101.785002) (end 120.595001 102.585001) (width 0.25) (layer B.Cu) (net 8))
  (segment (start 117.549989 93.649989) (end 117.549989 99.539989) (width 0.25) (layer B.Cu) (net 8))
  (segment (start 117.1 93.2) (end 117.549989 93.649989) (width 0.25) (layer B.Cu) (net 8))
  (segment (start 115.8 91.925) (end 116.8 91.925) (width 0.25) (layer B.Cu) (net 10))
  (segment (start 116.8 91.925) (end 118 93.125) (width 0.25) (layer B.Cu) (net 10))
  (segment (start 118 97.45) (end 120.595001 100.045001) (width 0.25) (layer B.Cu) (net 10))
  (segment (start 118 93.125) (end 118 97.45) (width 0.25) (layer B.Cu) (net 10))
  (segment (start 97.174999 75.174999) (end 97.974999 75.174999) (width 0.25) (layer F.Cu) (net 11))
  (segment (start 96.3 74.3) (end 97.174999 75.174999) (width 0.25) (layer F.Cu) (net 11))
  (segment (start 97.974999 75.174999) (end 102.2 79.4) (width 0.25) (layer F.Cu) (net 11))
  (segment (start 102.2 86.73) (end 105.355001 89.885001) (width 0.25) (layer F.Cu) (net 11))
  (segment (start 102.2 79.4) (end 102.2 86.73) (width 0.25) (layer F.Cu) (net 11))
  (segment (start 116.8 90.655) (end 118.6 92.455) (width 0.25) (layer B.Cu) (net 12))
  (segment (start 115.8 90.655) (end 116.8 90.655) (width 0.25) (layer B.Cu) (net 12))
  (segment (start 118.6 95.51) (end 120.595001 97.505001) (width 0.25) (layer B.Cu) (net 12))
  (segment (start 118.6 92.455) (end 118.6 95.51) (width 0.25) (layer B.Cu) (net 12))
  (segment (start 104.435001 92.425001) (end 105.355001 92.425001) (width 0.25) (layer F.Cu) (net 13))
  (segment (start 96.31 84.3) (end 104.435001 92.425001) (width 0.25) (layer F.Cu) (net 13))
  (segment (start 116.72 91.12) (end 116.72 69.8) (width 0.25) (layer F.Cu) (net 14))
  (segment (start 120.565001 94.965001) (end 116.72 91.12) (width 0.25) (layer F.Cu) (net 14))
  (segment (start 96.3 94.3) (end 97.7 95.7) (width 0.25) (layer F.Cu) (net 15))
  (segment (start 97.7 95.7) (end 101.3 95.7) (width 0.25) (layer F.Cu) (net 15))
  (segment (start 102.034999 94.965001) (end 105.355001 94.965001) (width 0.25) (layer F.Cu) (net 15))
  (segment (start 101.3 95.7) (end 102.034999 94.965001) (width 0.25) (layer F.Cu) (net 15))
  (segment (start 120.595001 92.425001) (end 118.4 90.23) (width 0.25) (layer F.Cu) (net 16))
  (segment (start 118.4 90.23) (end 118.4 69.2) (width 0.25) (layer F.Cu) (net 16))
  (segment (start 115.88 68.1) (end 114.18 69.8) (width 0.25) (layer F.Cu) (net 16))
  (segment (start 118.4 69.2) (end 117.3 68.1) (width 0.25) (layer F.Cu) (net 16))
  (segment (start 117.3 68.1) (end 115.88 68.1) (width 0.25) (layer F.Cu) (net 16))
  (segment (start 97.537436 104.3) (end 98.137436 104.9) (width 0.25) (layer F.Cu) (net 17))
  (segment (start 96.3 104.3) (end 97.537436 104.3) (width 0.25) (layer F.Cu) (net 17))
  (segment (start 98.137436 104.9) (end 100.2 104.9) (width 0.25) (layer F.Cu) (net 17))
  (segment (start 100.2 104.9) (end 102.8 102.3) (width 0.25) (layer F.Cu) (net 17))
  (segment (start 102.8 100.060002) (end 105.355001 97.505001) (width 0.25) (layer F.Cu) (net 17))
  (segment (start 102.8 102.3) (end 102.8 100.060002) (width 0.25) (layer F.Cu) (net 17))
  (segment (start 120.595001 84.805001) (end 121.935002 83.465) (width 0.5) (layer F.Cu) (net 22))
  (segment (start 104.9 63.525) (end 104.9 63.4) (width 0.5) (layer F.Cu) (net 22))
  (segment (start 108.375 67) (end 104.9 63.525) (width 0.5) (layer F.Cu) (net 22))
  (segment (start 119.463631 84.805001) (end 120.595001 84.805001) (width 0.5) (layer B.Cu) (net 22))
  (segment (start 110.4 99.545) (end 111.65 99.545) (width 0.5) (layer B.Cu) (net 22))
  (segment (start 111.65 99.545) (end 114.100033 97.094967) (width 0.5) (layer B.Cu) (net 22))
  (segment (start 114.100033 97.094967) (end 114.100033 90.168599) (width 0.5) (layer B.Cu) (net 22))
  (segment (start 114.100033 90.168599) (end 119.463631 84.805001) (width 0.5) (layer B.Cu) (net 22))
  (segment (start 118.4 67) (end 122.8 71.4) (width 0.5) (layer F.Cu) (net 22))
  (segment (start 122.8 82.600002) (end 120.595001 84.805001) (width 0.5) (layer F.Cu) (net 22))
  (segment (start 122.8 71.4) (end 122.8 82.600002) (width 0.5) (layer F.Cu) (net 22))
  (segment (start 111.64 68.56) (end 113.2 67) (width 0.5) (layer F.Cu) (net 22))
  (segment (start 111.64 69.8) (end 111.64 68.56) (width 0.5) (layer F.Cu) (net 22))
  (segment (start 113.2 67) (end 118.4 67) (width 0.5) (layer F.Cu) (net 22))
  (segment (start 108.375 67) (end 113.2 67) (width 0.5) (layer F.Cu) (net 22))
  (segment (start 110.4 77.706798) (end 110.4 89.855) (width 0.5) (layer B.Cu) (net 30))
  (segment (start 110.4 89.855) (end 110.4 90.655) (width 0.5) (layer B.Cu) (net 30))
  (segment (start 107.4 63.525) (end 106.093202 64.831798) (width 0.5) (layer B.Cu) (net 30))
  (segment (start 107.4 63.4) (end 107.4 63.525) (width 0.5) (layer B.Cu) (net 30))
  (segment (start 106.093202 64.831798) (end 106.093202 73.4) (width 0.5) (layer B.Cu) (net 30))
  (segment (start 106.093202 73.4) (end 110.4 77.706798) (width 0.5) (layer B.Cu) (net 30))
  (segment (start 110.85 91.925) (end 110.4 91.925) (width 0.5) (layer B.Cu) (net 31))
  (segment (start 112 78.3) (end 112 91) (width 0.5) (layer B.Cu) (net 31))
  (segment (start 112 91) (end 111 92) (width 0.5) (layer B.Cu) (net 31))
  (segment (start 106.9 66.525) (end 106.9 73.2) (width 0.5) (layer B.Cu) (net 31))
  (segment (start 109.9 63.525) (end 106.9 66.525) (width 0.5) (layer B.Cu) (net 31))
  (segment (start 109.9 63.4) (end 109.9 63.525) (width 0.5) (layer B.Cu) (net 31))
  (segment (start 106.9 73.2) (end 112 78.3) (width 0.5) (layer B.Cu) (net 31))
  (segment (start 115 66.125) (end 112.4 63.525) (width 0.5) (layer B.Cu) (net 32))
  (segment (start 112.4 63.525) (end 112.4 63.4) (width 0.5) (layer B.Cu) (net 32))
  (segment (start 111.805 93.195) (end 110.4 93.195) (width 0.5) (layer B.Cu) (net 32))
  (segment (start 112.700011 92.299989) (end 111.805 93.195) (width 0.5) (layer B.Cu) (net 32))
  (segment (start 118.4 71.2) (end 112.700011 76.899989) (width 0.5) (layer B.Cu) (net 32))
  (segment (start 118.4 68.4) (end 118.4 71.2) (width 0.5) (layer B.Cu) (net 32))
  (segment (start 112.700011 76.899989) (end 112.700011 92.299989) (width 0.5) (layer B.Cu) (net 32))
  (segment (start 117.025 67.025) (end 118.4 68.4) (width 0.5) (layer B.Cu) (net 32))
  (segment (start 115.9 67.025) (end 117.025 67.025) (width 0.5) (layer B.Cu) (net 32))
  (segment (start 112.4 63.525) (end 115.9 67.025) (width 0.5) (layer B.Cu) (net 32))
  (segment (start 111.65 94.465) (end 110.4 94.465) (width 0.5) (layer B.Cu) (net 33))
  (segment (start 113.400022 92.714978) (end 111.65 94.465) (width 0.5) (layer B.Cu) (net 33))
  (segment (start 113.400022 77.589942) (end 113.400022 92.714978) (width 0.5) (layer B.Cu) (net 33))
  (segment (start 119.1 71.889964) (end 113.400022 77.589942) (width 0.5) (layer B.Cu) (net 33))
  (segment (start 119.1 67.725) (end 119.1 71.889964) (width 0.5) (layer B.Cu) (net 33))
  (segment (start 114.9 63.525) (end 119.1 67.725) (width 0.5) (layer B.Cu) (net 33))
  (segment (start 114.9 63.4) (end 114.9 63.525) (width 0.5) (layer B.Cu) (net 33))

  (zone (net 7) (net_name GND) (layer B.Cu) (tstamp 5BAC086B) (hatch edge 0.508)
    (connect_pads (clearance 0.508))
    (min_thickness 0.254)
    (fill yes (arc_segments 16) (thermal_gap 0.508) (thermal_bridge_width 0.508))
    (polygon
      (pts
        (xy 92.6 59.8) (xy 124.9 59.8) (xy 124.8 117.5) (xy 92.6 117.5)
      )
    )
    (filled_polygon
      (pts
        (xy 123.29 115.99) (xy 121.953629 115.99) (xy 122.120001 115.588342) (xy 122.120001 114.98166) (xy 121.887834 114.421158)
        (xy 121.458844 113.992168) (xy 121.367833 113.95447) (xy 121.629578 113.779578) (xy 121.946741 113.30491) (xy 122.058114 112.745001)
        (xy 121.946741 112.185092) (xy 121.629578 111.710424) (xy 121.277243 111.475001) (xy 121.629578 111.239578) (xy 121.946741 110.76491)
        (xy 122.058114 110.205001) (xy 121.946741 109.645092) (xy 121.629578 109.170424) (xy 121.277243 108.935001) (xy 121.629578 108.699578)
        (xy 121.946741 108.22491) (xy 122.058114 107.665001) (xy 121.946741 107.105092) (xy 121.629578 106.630424) (xy 121.277243 106.395001)
        (xy 121.629578 106.159578) (xy 121.946741 105.68491) (xy 122.058114 105.125001) (xy 121.946741 104.565092) (xy 121.629578 104.090424)
        (xy 121.277243 103.855001) (xy 121.629578 103.619578) (xy 121.946741 103.14491) (xy 122.058114 102.585001) (xy 121.946741 102.025092)
        (xy 121.629578 101.550424) (xy 121.277243 101.315001) (xy 121.629578 101.079578) (xy 121.946741 100.60491) (xy 122.058114 100.045001)
        (xy 121.946741 99.485092) (xy 121.629578 99.010424) (xy 121.277243 98.775001) (xy 121.629578 98.539578) (xy 121.946741 98.06491)
        (xy 122.058114 97.505001) (xy 121.946741 96.945092) (xy 121.629578 96.470424) (xy 121.277243 96.235001) (xy 121.629578 95.999578)
        (xy 121.946741 95.52491) (xy 122.058114 94.965001) (xy 121.946741 94.405092) (xy 121.629578 93.930424) (xy 121.277243 93.695001)
        (xy 121.629578 93.459578) (xy 121.946741 92.98491) (xy 122.058114 92.425001) (xy 121.946741 91.865092) (xy 121.629578 91.390424)
        (xy 121.277243 91.155001) (xy 121.629578 90.919578) (xy 121.946741 90.44491) (xy 122.058114 89.885001) (xy 121.946741 89.325092)
        (xy 121.629578 88.850424) (xy 121.277243 88.615001) (xy 121.629578 88.379578) (xy 121.946741 87.90491) (xy 122.058114 87.345001)
        (xy 121.946741 86.785092) (xy 121.629578 86.310424) (xy 121.277243 86.075001) (xy 121.629578 85.839578) (xy 121.946741 85.36491)
        (xy 122.058114 84.805001) (xy 121.946741 84.245092) (xy 121.629578 83.770424) (xy 121.277243 83.535001) (xy 121.629578 83.299578)
        (xy 121.946741 82.82491) (xy 122.058114 82.265001) (xy 121.946741 81.705092) (xy 121.629578 81.230424) (xy 121.245893 80.974054)
        (xy 121.450135 80.87739) (xy 121.826042 80.462424) (xy 121.986905 80.07404) (xy 121.864916 79.852001) (xy 120.722001 79.852001)
        (xy 120.722001 79.872001) (xy 120.468001 79.872001) (xy 120.468001 79.852001) (xy 119.325086 79.852001) (xy 119.203097 80.07404)
        (xy 119.36396 80.462424) (xy 119.739867 80.87739) (xy 119.944109 80.974054) (xy 119.560424 81.230424) (xy 119.243261 81.705092)
        (xy 119.131888 82.265001) (xy 119.243261 82.82491) (xy 119.560424 83.299578) (xy 119.912759 83.535001) (xy 119.560424 83.770424)
        (xy 119.471075 83.904145) (xy 119.46363 83.902664) (xy 119.376469 83.920001) (xy 119.376466 83.920001) (xy 119.118321 83.971349)
        (xy 118.899476 84.117577) (xy 118.899475 84.117578) (xy 118.825582 84.166952) (xy 118.776208 84.240845) (xy 114.285022 88.732032)
        (xy 114.285022 77.95652) (xy 117.899882 74.34166) (xy 119.070001 74.34166) (xy 119.070001 74.948342) (xy 119.302168 75.508844)
        (xy 119.731158 75.937834) (xy 119.822169 75.975532) (xy 119.560424 76.150424) (xy 119.243261 76.625092) (xy 119.131888 77.185001)
        (xy 119.243261 77.74491) (xy 119.560424 78.219578) (xy 119.944109 78.475948) (xy 119.739867 78.572612) (xy 119.36396 78.987578)
        (xy 119.203097 79.375962) (xy 119.325086 79.598001) (xy 120.468001 79.598001) (xy 120.468001 79.578001) (xy 120.722001 79.578001)
        (xy 120.722001 79.598001) (xy 121.864916 79.598001) (xy 121.986905 79.375962) (xy 121.826042 78.987578) (xy 121.450135 78.572612)
        (xy 121.245893 78.475948) (xy 121.629578 78.219578) (xy 121.946741 77.74491) (xy 122.058114 77.185001) (xy 121.946741 76.625092)
        (xy 121.629578 76.150424) (xy 121.367833 75.975532) (xy 121.458844 75.937834) (xy 121.887834 75.508844) (xy 122.120001 74.948342)
        (xy 122.120001 74.34166) (xy 121.887834 73.781158) (xy 121.458844 73.352168) (xy 120.898342 73.120001) (xy 120.29166 73.120001)
        (xy 119.731158 73.352168) (xy 119.302168 73.781158) (xy 119.070001 74.34166) (xy 117.899882 74.34166) (xy 119.664156 72.577387)
        (xy 119.738049 72.528013) (xy 119.933652 72.235274) (xy 119.985 71.977129) (xy 119.985 71.977125) (xy 120.002337 71.889965)
        (xy 119.985 71.802805) (xy 119.985 67.812161) (xy 120.002337 67.725) (xy 119.985 67.637839) (xy 119.985 67.637835)
        (xy 119.933652 67.37969) (xy 119.821888 67.212424) (xy 119.787424 67.160845) (xy 119.787423 67.160844) (xy 119.738049 67.086951)
        (xy 119.664156 67.037577) (xy 116.370538 63.74396) (xy 116.385 63.671255) (xy 116.385 63.128744) (xy 116.298839 62.695582)
        (xy 115.970625 62.204375) (xy 115.479417 61.876161) (xy 114.9 61.760908) (xy 114.320582 61.876161) (xy 113.829375 62.204375)
        (xy 113.65 62.472829) (xy 113.470625 62.204375) (xy 112.979417 61.876161) (xy 112.4 61.760908) (xy 111.820582 61.876161)
        (xy 111.329375 62.204375) (xy 111.15 62.472829) (xy 110.970625 62.204375) (xy 110.479417 61.876161) (xy 109.9 61.760908)
        (xy 109.320582 61.876161) (xy 108.829375 62.204375) (xy 108.65 62.472829) (xy 108.470625 62.204375) (xy 107.979417 61.876161)
        (xy 107.4 61.760908) (xy 106.820582 61.876161) (xy 106.350719 62.190114) (xy 106.348157 62.177235) (xy 106.207809 61.967191)
        (xy 105.997765 61.826843) (xy 105.75 61.77756) (xy 104.05 61.77756) (xy 103.802235 61.826843) (xy 103.592191 61.967191)
        (xy 103.451843 62.177235) (xy 103.40256 62.425) (xy 103.40256 64.375) (xy 103.451843 64.622765) (xy 103.592191 64.832809)
        (xy 103.802235 64.973157) (xy 104.05 65.02244) (xy 105.208202 65.02244) (xy 105.208203 73.120001) (xy 105.05166 73.120001)
        (xy 104.491158 73.352168) (xy 104.062168 73.781158) (xy 103.830001 74.34166) (xy 103.830001 74.948342) (xy 104.062168 75.508844)
        (xy 104.334704 75.78138) (xy 104.307236 75.786844) (xy 104.097192 75.927192) (xy 103.956844 76.137236) (xy 103.907561 76.385001)
        (xy 103.907561 77.985001) (xy 103.956844 78.232766) (xy 104.097192 78.44281) (xy 104.307236 78.583158) (xy 104.441107 78.609786)
        (xy 104.320424 78.690424) (xy 104.003261 79.165092) (xy 103.891888 79.725001) (xy 104.003261 80.28491) (xy 104.320424 80.759578)
        (xy 104.672759 80.995001) (xy 104.320424 81.230424) (xy 104.003261 81.705092) (xy 103.891888 82.265001) (xy 104.003261 82.82491)
        (xy 104.320424 83.299578) (xy 104.704109 83.555948) (xy 104.499867 83.652612) (xy 104.12396 84.067578) (xy 103.963097 84.455962)
        (xy 104.085086 84.678001) (xy 105.228001 84.678001) (xy 105.228001 84.658001) (xy 105.482001 84.658001) (xy 105.482001 84.678001)
        (xy 106.624916 84.678001) (xy 106.746905 84.455962) (xy 106.586042 84.067578) (xy 106.210135 83.652612) (xy 106.005893 83.555948)
        (xy 106.389578 83.299578) (xy 106.706741 82.82491) (xy 106.818114 82.265001) (xy 106.706741 81.705092) (xy 106.389578 81.230424)
        (xy 106.037243 80.995001) (xy 106.389578 80.759578) (xy 106.706741 80.28491) (xy 106.818114 79.725001) (xy 106.706741 79.165092)
        (xy 106.389578 78.690424) (xy 106.268895 78.609786) (xy 106.402766 78.583158) (xy 106.61281 78.44281) (xy 106.753158 78.232766)
        (xy 106.802441 77.985001) (xy 106.802441 76.385001) (xy 106.753158 76.137236) (xy 106.61281 75.927192) (xy 106.402766 75.786844)
        (xy 106.375298 75.78138) (xy 106.647834 75.508844) (xy 106.736473 75.29485) (xy 109.515 78.073377) (xy 109.515001 89.734413)
        (xy 109.402235 89.756843) (xy 109.192191 89.897191) (xy 109.051843 90.107235) (xy 109.00256 90.355) (xy 109.00256 90.955)
        (xy 109.051843 91.202765) (xy 109.110132 91.29) (xy 109.051843 91.377235) (xy 109.00256 91.625) (xy 109.00256 92.225)
        (xy 109.051843 92.472765) (xy 109.110132 92.56) (xy 109.051843 92.647235) (xy 109.00256 92.895) (xy 109.00256 93.495)
        (xy 109.051843 93.742765) (xy 109.110132 93.83) (xy 109.051843 93.917235) (xy 109.00256 94.165) (xy 109.00256 94.765)
        (xy 109.051843 95.012765) (xy 109.110132 95.1) (xy 109.051843 95.187235) (xy 109.00256 95.435) (xy 109.00256 96.035)
        (xy 109.051843 96.282765) (xy 109.110132 96.37) (xy 109.051843 96.457235) (xy 109.00256 96.705) (xy 109.00256 97.305)
        (xy 109.051843 97.552765) (xy 109.110132 97.64) (xy 109.051843 97.727235) (xy 109.00256 97.975) (xy 109.00256 98.575)
        (xy 109.051843 98.822765) (xy 109.110132 98.91) (xy 109.051843 98.997235) (xy 109.00256 99.245) (xy 109.00256 99.845)
        (xy 109.051843 100.092765) (xy 109.192191 100.302809) (xy 109.402235 100.443157) (xy 109.65 100.49244) (xy 111.15 100.49244)
        (xy 111.397765 100.443157) (xy 111.417456 100.43) (xy 111.562839 100.43) (xy 111.65 100.447337) (xy 111.737161 100.43)
        (xy 111.737165 100.43) (xy 111.99531 100.378652) (xy 112.288049 100.183049) (xy 112.337425 100.109153) (xy 112.615828 99.83075)
        (xy 114.415 99.83075) (xy 114.415 99.97131) (xy 114.511673 100.204699) (xy 114.690302 100.383327) (xy 114.923691 100.48)
        (xy 115.51425 100.48) (xy 115.673 100.32125) (xy 115.673 99.672) (xy 114.57375 99.672) (xy 114.415 99.83075)
        (xy 112.615828 99.83075) (xy 114.40256 98.044019) (xy 114.40256 98.575) (xy 114.451843 98.822765) (xy 114.504768 98.901972)
        (xy 114.415 99.11869) (xy 114.415 99.25925) (xy 114.57375 99.418) (xy 115.673 99.418) (xy 115.673 99.398)
        (xy 115.927 99.398) (xy 115.927 99.418) (xy 115.947 99.418) (xy 115.947 99.672) (xy 115.927 99.672)
        (xy 115.927 100.32125) (xy 116.08575 100.48) (xy 116.339979 100.48) (xy 116.339979 101.555126) (xy 116.32509 101.629978)
        (xy 116.384075 101.926515) (xy 116.490322 102.085524) (xy 116.55205 102.177907) (xy 116.615506 102.220307) (xy 119.196313 104.801116)
        (xy 119.131888 105.125001) (xy 119.243261 105.68491) (xy 119.560424 106.159578) (xy 119.912759 106.395001) (xy 119.560424 106.630424)
        (xy 119.243261 107.105092) (xy 119.131888 107.665001) (xy 119.243261 108.22491) (xy 119.560424 108.699578) (xy 119.912759 108.935001)
        (xy 119.560424 109.170424) (xy 119.243261 109.645092) (xy 119.131888 110.205001) (xy 119.243261 110.76491) (xy 119.560424 111.239578)
        (xy 119.912759 111.475001) (xy 119.560424 111.710424) (xy 119.243261 112.185092) (xy 119.131888 112.745001) (xy 119.243261 113.30491)
        (xy 119.560424 113.779578) (xy 119.822169 113.95447) (xy 119.731158 113.992168) (xy 119.302168 114.421158) (xy 119.070001 114.98166)
        (xy 119.070001 115.588342) (xy 119.236373 115.99) (xy 106.713629 115.99) (xy 106.880001 115.588342) (xy 106.880001 114.98166)
        (xy 106.647834 114.421158) (xy 106.218844 113.992168) (xy 106.127833 113.95447) (xy 106.389578 113.779578) (xy 106.706741 113.30491)
        (xy 106.818114 112.745001) (xy 106.706741 112.185092) (xy 106.389578 111.710424) (xy 106.037243 111.475001) (xy 106.389578 111.239578)
        (xy 106.706741 110.76491) (xy 106.818114 110.205001) (xy 106.706741 109.645092) (xy 106.389578 109.170424) (xy 106.037243 108.935001)
        (xy 106.389578 108.699578) (xy 106.706741 108.22491) (xy 106.818114 107.665001) (xy 106.706741 107.105092) (xy 106.389578 106.630424)
        (xy 106.037243 106.395001) (xy 106.389578 106.159578) (xy 106.706741 105.68491) (xy 106.818114 105.125001) (xy 106.706741 104.565092)
        (xy 106.389578 104.090424) (xy 106.037243 103.855001) (xy 106.389578 103.619578) (xy 106.706741 103.14491) (xy 106.818114 102.585001)
        (xy 106.706741 102.025092) (xy 106.389578 101.550424) (xy 106.037243 101.315001) (xy 106.389578 101.079578) (xy 106.706741 100.60491)
        (xy 106.818114 100.045001) (xy 106.706741 99.485092) (xy 106.389578 99.010424) (xy 106.037243 98.775001) (xy 106.389578 98.539578)
        (xy 106.706741 98.06491) (xy 106.818114 97.505001) (xy 106.706741 96.945092) (xy 106.389578 96.470424) (xy 106.037243 96.235001)
        (xy 106.389578 95.999578) (xy 106.706741 95.52491) (xy 106.818114 94.965001) (xy 106.706741 94.405092) (xy 106.389578 93.930424)
        (xy 106.037243 93.695001) (xy 106.389578 93.459578) (xy 106.706741 92.98491) (xy 106.818114 92.425001) (xy 106.706741 91.865092)
        (xy 106.389578 91.390424) (xy 106.037243 91.155001) (xy 106.389578 90.919578) (xy 106.706741 90.44491) (xy 106.818114 89.885001)
        (xy 106.706741 89.325092) (xy 106.389578 88.850424) (xy 106.037243 88.615001) (xy 106.389578 88.379578) (xy 106.706741 87.90491)
        (xy 106.818114 87.345001) (xy 106.706741 86.785092) (xy 106.389578 86.310424) (xy 106.005893 86.054054) (xy 106.210135 85.95739)
        (xy 106.586042 85.542424) (xy 106.746905 85.15404) (xy 106.624916 84.932001) (xy 105.482001 84.932001) (xy 105.482001 84.952001)
        (xy 105.228001 84.952001) (xy 105.228001 84.932001) (xy 104.085086 84.932001) (xy 103.963097 85.15404) (xy 104.12396 85.542424)
        (xy 104.499867 85.95739) (xy 104.704109 86.054054) (xy 104.320424 86.310424) (xy 104.003261 86.785092) (xy 103.891888 87.345001)
        (xy 104.003261 87.90491) (xy 104.320424 88.379578) (xy 104.672759 88.615001) (xy 104.320424 88.850424) (xy 104.003261 89.325092)
        (xy 103.891888 89.885001) (xy 104.003261 90.44491) (xy 104.320424 90.919578) (xy 104.672759 91.155001) (xy 104.320424 91.390424)
        (xy 104.003261 91.865092) (xy 103.891888 92.425001) (xy 104.003261 92.98491) (xy 104.320424 93.459578) (xy 104.672759 93.695001)
        (xy 104.320424 93.930424) (xy 104.003261 94.405092) (xy 103.891888 94.965001) (xy 104.003261 95.52491) (xy 104.320424 95.999578)
        (xy 104.672759 96.235001) (xy 104.320424 96.470424) (xy 104.003261 96.945092) (xy 103.891888 97.505001) (xy 104.003261 98.06491)
        (xy 104.320424 98.539578) (xy 104.672759 98.775001) (xy 104.320424 99.010424) (xy 104.003261 99.485092) (xy 103.891888 100.045001)
        (xy 104.003261 100.60491) (xy 104.320424 101.079578) (xy 104.672759 101.315001) (xy 104.320424 101.550424) (xy 104.003261 102.025092)
        (xy 103.891888 102.585001) (xy 104.003261 103.14491) (xy 104.320424 103.619578) (xy 104.672759 103.855001) (xy 104.320424 104.090424)
        (xy 104.003261 104.565092) (xy 103.891888 105.125001) (xy 104.003261 105.68491) (xy 104.320424 106.159578) (xy 104.672759 106.395001)
        (xy 104.320424 106.630424) (xy 104.003261 107.105092) (xy 103.891888 107.665001) (xy 104.003261 108.22491) (xy 104.320424 108.699578)
        (xy 104.672759 108.935001) (xy 104.320424 109.170424) (xy 104.003261 109.645092) (xy 103.891888 110.205001) (xy 104.003261 110.76491)
        (xy 104.320424 111.239578) (xy 104.672759 111.475001) (xy 104.320424 111.710424) (xy 104.003261 112.185092) (xy 103.891888 112.745001)
        (xy 104.003261 113.30491) (xy 104.320424 113.779578) (xy 104.582169 113.95447) (xy 104.491158 113.992168) (xy 104.062168 114.421158)
        (xy 103.830001 114.98166) (xy 103.830001 115.588342) (xy 103.996373 115.99) (xy 95.21 115.99) (xy 95.21 109.86206)
        (xy 95.417545 109.86206) (xy 95.500884 110.115953) (xy 96.065306 110.32159) (xy 96.665458 110.295579) (xy 97.099116 110.115953)
        (xy 97.105 110.098027) (xy 97.105 110.385167) (xy 97.361526 111.004476) (xy 97.835524 111.478474) (xy 98.454833 111.735)
        (xy 99.125167 111.735) (xy 99.744476 111.478474) (xy 100.218474 111.004476) (xy 100.475 110.385167) (xy 100.475 109.714833)
        (xy 100.218474 109.095524) (xy 99.744476 108.621526) (xy 99.125167 108.365) (xy 98.454833 108.365) (xy 97.835524 108.621526)
        (xy 97.805006 108.652044) (xy 97.795579 108.434542) (xy 97.615953 108.000884) (xy 97.36206 107.917545) (xy 96.479605 108.8)
        (xy 96.493748 108.814143) (xy 96.314143 108.993748) (xy 96.3 108.979605) (xy 95.417545 109.86206) (xy 95.21 109.86206)
        (xy 95.21 109.673284) (xy 95.23794 109.682455) (xy 96.120395 108.8) (xy 95.23794 107.917545) (xy 95.21 107.926716)
        (xy 95.21 107.73794) (xy 95.417545 107.73794) (xy 96.3 108.620395) (xy 97.182455 107.73794) (xy 97.099116 107.484047)
        (xy 96.534694 107.27841) (xy 95.934542 107.304421) (xy 95.500884 107.484047) (xy 95.417545 107.73794) (xy 95.21 107.73794)
        (xy 95.21 105.345462) (xy 95.444654 105.580116) (xy 95.999642 105.81) (xy 96.600358 105.81) (xy 97.155346 105.580116)
        (xy 97.580116 105.155346) (xy 97.81 104.600358) (xy 97.81 104.44295) (xy 97.835524 104.468474) (xy 98.454833 104.725)
        (xy 99.125167 104.725) (xy 99.744476 104.468474) (xy 100.218474 103.994476) (xy 100.475 103.375167) (xy 100.475 102.704833)
        (xy 100.218474 102.085524) (xy 99.744476 101.611526) (xy 99.583868 101.545) (xy 99.744476 101.478474) (xy 100.218474 101.004476)
        (xy 100.475 100.385167) (xy 100.475 99.714833) (xy 100.218474 99.095524) (xy 99.744476 98.621526) (xy 99.125167 98.365)
        (xy 98.454833 98.365) (xy 97.835524 98.621526) (xy 97.805006 98.652044) (xy 97.795579 98.434542) (xy 97.615953 98.000884)
        (xy 97.36206 97.917545) (xy 96.479605 98.8) (xy 96.493748 98.814143) (xy 96.314143 98.993748) (xy 96.3 98.979605)
        (xy 95.417545 99.86206) (xy 95.500884 100.115953) (xy 96.065306 100.32159) (xy 96.665458 100.295579) (xy 97.099116 100.115953)
        (xy 97.105 100.098027) (xy 97.105 100.385167) (xy 97.361526 101.004476) (xy 97.835524 101.478474) (xy 97.996132 101.545)
        (xy 97.835524 101.611526) (xy 97.361526 102.085524) (xy 97.105 102.704833) (xy 97.105 102.99903) (xy 96.600358 102.79)
        (xy 95.999642 102.79) (xy 95.444654 103.019884) (xy 95.21 103.254538) (xy 95.21 99.673284) (xy 95.23794 99.682455)
        (xy 96.120395 98.8) (xy 95.23794 97.917545) (xy 95.21 97.926716) (xy 95.21 97.73794) (xy 95.417545 97.73794)
        (xy 96.3 98.620395) (xy 97.182455 97.73794) (xy 97.099116 97.484047) (xy 96.534694 97.27841) (xy 95.934542 97.304421)
        (xy 95.500884 97.484047) (xy 95.417545 97.73794) (xy 95.21 97.73794) (xy 95.21 95.345462) (xy 95.444654 95.580116)
        (xy 95.999642 95.81) (xy 96.600358 95.81) (xy 97.155346 95.580116) (xy 97.580116 95.155346) (xy 97.81 94.600358)
        (xy 97.81 94.44295) (xy 97.835524 94.468474) (xy 98.454833 94.725) (xy 99.125167 94.725) (xy 99.744476 94.468474)
        (xy 100.218474 93.994476) (xy 100.475 93.375167) (xy 100.475 92.704833) (xy 100.218474 92.085524) (xy 99.744476 91.611526)
        (xy 99.588868 91.547071) (xy 99.754476 91.478474) (xy 100.228474 91.004476) (xy 100.485 90.385167) (xy 100.485 89.714833)
        (xy 100.228474 89.095524) (xy 99.754476 88.621526) (xy 99.135167 88.365) (xy 98.464833 88.365) (xy 97.845524 88.621526)
        (xy 97.815006 88.652044) (xy 97.805579 88.434542) (xy 97.625953 88.000884) (xy 97.37206 87.917545) (xy 96.489605 88.8)
        (xy 96.503748 88.814143) (xy 96.324143 88.993748) (xy 96.31 88.979605) (xy 95.427545 89.86206) (xy 95.510884 90.115953)
        (xy 96.075306 90.32159) (xy 96.675458 90.295579) (xy 97.109116 90.115953) (xy 97.115 90.098027) (xy 97.115 90.385167)
        (xy 97.371526 91.004476) (xy 97.845524 91.478474) (xy 98.001132 91.542929) (xy 97.835524 91.611526) (xy 97.361526 92.085524)
        (xy 97.105 92.704833) (xy 97.105 92.99903) (xy 96.600358 92.79) (xy 95.999642 92.79) (xy 95.444654 93.019884)
        (xy 95.21 93.254538) (xy 95.21 89.670001) (xy 95.24794 89.682455) (xy 96.130395 88.8) (xy 95.24794 87.917545)
        (xy 95.21 87.929999) (xy 95.21 87.73794) (xy 95.427545 87.73794) (xy 96.31 88.620395) (xy 97.192455 87.73794)
        (xy 97.109116 87.484047) (xy 96.544694 87.27841) (xy 95.944542 87.304421) (xy 95.510884 87.484047) (xy 95.427545 87.73794)
        (xy 95.21 87.73794) (xy 95.21 85.335462) (xy 95.454654 85.580116) (xy 96.009642 85.81) (xy 96.610358 85.81)
        (xy 97.165346 85.580116) (xy 97.590116 85.155346) (xy 97.82 84.600358) (xy 97.82 84.44295) (xy 97.845524 84.468474)
        (xy 98.464833 84.725) (xy 99.135167 84.725) (xy 99.754476 84.468474) (xy 100.228474 83.994476) (xy 100.485 83.375167)
        (xy 100.485 82.704833) (xy 100.228474 82.085524) (xy 99.754476 81.611526) (xy 99.588868 81.542929) (xy 99.744476 81.478474)
        (xy 100.218474 81.004476) (xy 100.475 80.385167) (xy 100.475 79.714833) (xy 100.218474 79.095524) (xy 99.744476 78.621526)
        (xy 99.125167 78.365) (xy 98.454833 78.365) (xy 97.835524 78.621526) (xy 97.805006 78.652044) (xy 97.795579 78.434542)
        (xy 97.615953 78.000884) (xy 97.36206 77.917545) (xy 96.479605 78.8) (xy 96.493748 78.814143) (xy 96.314143 78.993748)
        (xy 96.3 78.979605) (xy 95.417545 79.86206) (xy 95.500884 80.115953) (xy 96.065306 80.32159) (xy 96.665458 80.295579)
        (xy 97.099116 80.115953) (xy 97.105 80.098027) (xy 97.105 80.385167) (xy 97.361526 81.004476) (xy 97.835524 81.478474)
        (xy 98.001132 81.547071) (xy 97.845524 81.611526) (xy 97.371526 82.085524) (xy 97.115 82.704833) (xy 97.115 82.99903)
        (xy 96.610358 82.79) (xy 96.009642 82.79) (xy 95.454654 83.019884) (xy 95.21 83.264538) (xy 95.21 79.673284)
        (xy 95.23794 79.682455) (xy 96.120395 78.8) (xy 95.23794 77.917545) (xy 95.21 77.926716) (xy 95.21 77.73794)
        (xy 95.417545 77.73794) (xy 96.3 78.620395) (xy 97.182455 77.73794) (xy 97.099116 77.484047) (xy 96.534694 77.27841)
        (xy 95.934542 77.304421) (xy 95.500884 77.484047) (xy 95.417545 77.73794) (xy 95.21 77.73794) (xy 95.21 75.345462)
        (xy 95.444654 75.580116) (xy 95.999642 75.81) (xy 96.600358 75.81) (xy 97.155346 75.580116) (xy 97.580116 75.155346)
        (xy 97.81 74.600358) (xy 97.81 74.44295) (xy 97.835524 74.468474) (xy 98.454833 74.725) (xy 99.125167 74.725)
        (xy 99.744476 74.468474) (xy 100.218474 73.994476) (xy 100.475 73.375167) (xy 100.475 72.704833) (xy 100.218474 72.085524)
        (xy 99.744476 71.611526) (xy 99.125167 71.355) (xy 98.454833 71.355) (xy 97.835524 71.611526) (xy 97.361526 72.085524)
        (xy 97.105 72.704833) (xy 97.105 72.99903) (xy 96.600358 72.79) (xy 95.999642 72.79) (xy 95.444654 73.019884)
        (xy 95.21 73.254538) (xy 95.21 61.71) (xy 123.290001 61.71)
      )
    )
    (filled_polygon
      (pts
        (xy 111.329375 64.595625) (xy 111.820583 64.923839) (xy 112.4 65.039092) (xy 112.61896 64.995538) (xy 113.510373 65.886951)
        (xy 115.212577 67.589156) (xy 115.261951 67.663049) (xy 115.335844 67.712423) (xy 115.335845 67.712424) (xy 115.44688 67.786615)
        (xy 115.55469 67.858652) (xy 115.812835 67.91) (xy 115.812839 67.91) (xy 115.899999 67.927337) (xy 115.987159 67.91)
        (xy 116.658422 67.91) (xy 117.112378 68.363957) (xy 116.866256 68.315) (xy 116.573744 68.315) (xy 116.140582 68.401161)
        (xy 115.649375 68.729375) (xy 115.45 69.027761) (xy 115.250625 68.729375) (xy 114.759418 68.401161) (xy 114.326256 68.315)
        (xy 114.033744 68.315) (xy 113.600582 68.401161) (xy 113.109375 68.729375) (xy 112.91 69.027761) (xy 112.710625 68.729375)
        (xy 112.219418 68.401161) (xy 111.786256 68.315) (xy 111.493744 68.315) (xy 111.060582 68.401161) (xy 110.569375 68.729375)
        (xy 110.554904 68.751033) (xy 110.488327 68.590302) (xy 110.309699 68.411673) (xy 110.07631 68.315) (xy 109.38575 68.315)
        (xy 109.227 68.47375) (xy 109.227 69.673) (xy 109.247 69.673) (xy 109.247 69.927) (xy 109.227 69.927)
        (xy 109.227 71.12625) (xy 109.38575 71.285) (xy 110.07631 71.285) (xy 110.309699 71.188327) (xy 110.488327 71.009698)
        (xy 110.554904 70.848967) (xy 110.569375 70.870625) (xy 111.060582 71.198839) (xy 111.493744 71.285) (xy 111.786256 71.285)
        (xy 112.219418 71.198839) (xy 112.710625 70.870625) (xy 112.91 70.572239) (xy 113.109375 70.870625) (xy 113.600582 71.198839)
        (xy 114.033744 71.285) (xy 114.326256 71.285) (xy 114.759418 71.198839) (xy 115.250625 70.870625) (xy 115.45 70.572239)
        (xy 115.649375 70.870625) (xy 116.140582 71.198839) (xy 116.573744 71.285) (xy 116.866256 71.285) (xy 117.112378 71.236044)
        (xy 112.135858 76.212564) (xy 112.061962 76.26194) (xy 111.866359 76.55468) (xy 111.815011 76.812825) (xy 111.815011 76.812828)
        (xy 111.806615 76.855037) (xy 107.785 72.833422) (xy 107.785 71.083025) (xy 107.890301 71.188327) (xy 108.12369 71.285)
        (xy 108.81425 71.285) (xy 108.973 71.12625) (xy 108.973 69.927) (xy 108.953 69.927) (xy 108.953 69.673)
        (xy 108.973 69.673) (xy 108.973 68.47375) (xy 108.81425 68.315) (xy 108.12369 68.315) (xy 107.890301 68.411673)
        (xy 107.785 68.516975) (xy 107.785 66.891578) (xy 109.68104 64.995538) (xy 109.9 65.039092) (xy 110.479418 64.923839)
        (xy 110.970625 64.595625) (xy 111.15 64.327171)
      )
    )
  )
  (zone (net 7) (net_name GND) (layer F.Cu) (tstamp 5BAC0868) (hatch edge 0.508)
    (connect_pads (clearance 0.508))
    (min_thickness 0.254)
    (fill yes (arc_segments 16) (thermal_gap 0.508) (thermal_bridge_width 0.508))
    (polygon
      (pts
        (xy 124.8 117.5) (xy 124.9 59.8) (xy 92.6 59.8) (xy 92.6 117.5)
      )
    )
    (filled_polygon
      (pts
        (xy 123.290001 70.638422) (xy 119.087425 66.435847) (xy 119.038049 66.361951) (xy 118.74531 66.166348) (xy 118.487165 66.115)
        (xy 118.487161 66.115) (xy 118.4 66.097663) (xy 118.312839 66.115) (xy 113.287159 66.115) (xy 113.199999 66.097663)
        (xy 113.112839 66.115) (xy 108.741579 66.115) (xy 107.621593 64.995015) (xy 107.979418 64.923839) (xy 108.470625 64.595625)
        (xy 108.65 64.327171) (xy 108.829375 64.595625) (xy 109.320583 64.923839) (xy 109.9 65.039092) (xy 110.479418 64.923839)
        (xy 110.970625 64.595625) (xy 111.15 64.327171) (xy 111.329375 64.595625) (xy 111.820583 64.923839) (xy 112.4 65.039092)
        (xy 112.979418 64.923839) (xy 113.470625 64.595625) (xy 113.65 64.327171) (xy 113.829375 64.595625) (xy 114.320583 64.923839)
        (xy 114.9 65.039092) (xy 115.479418 64.923839) (xy 115.970625 64.595625) (xy 116.298839 64.104417) (xy 116.385 63.671255)
        (xy 116.385 63.128744) (xy 116.298839 62.695582) (xy 115.970625 62.204375) (xy 115.479417 61.876161) (xy 114.9 61.760908)
        (xy 114.320582 61.876161) (xy 113.829375 62.204375) (xy 113.65 62.472829) (xy 113.470625 62.204375) (xy 112.979417 61.876161)
        (xy 112.4 61.760908) (xy 111.820582 61.876161) (xy 111.329375 62.204375) (xy 111.15 62.472829) (xy 110.970625 62.204375)
        (xy 110.479417 61.876161) (xy 109.9 61.760908) (xy 109.320582 61.876161) (xy 108.829375 62.204375) (xy 108.65 62.472829)
        (xy 108.470625 62.204375) (xy 107.979417 61.876161) (xy 107.4 61.760908) (xy 106.820582 61.876161) (xy 106.350719 62.190114)
        (xy 106.348157 62.177235) (xy 106.207809 61.967191) (xy 105.997765 61.826843) (xy 105.75 61.77756) (xy 104.05 61.77756)
        (xy 103.802235 61.826843) (xy 103.592191 61.967191) (xy 103.451843 62.177235) (xy 103.40256 62.425) (xy 103.40256 64.375)
        (xy 103.451843 64.622765) (xy 103.592191 64.832809) (xy 103.802235 64.973157) (xy 104.05 65.02244) (xy 105.145862 65.02244)
        (xy 107.687576 67.564155) (xy 107.736951 67.638049) (xy 107.810844 67.687423) (xy 107.810845 67.687424) (xy 107.869099 67.726348)
        (xy 108.02969 67.833652) (xy 108.287835 67.885) (xy 108.287839 67.885) (xy 108.374999 67.902337) (xy 108.462159 67.885)
        (xy 111.057253 67.885) (xy 111.001952 67.921951) (xy 110.952578 67.995844) (xy 110.952576 67.995846) (xy 110.806348 68.214691)
        (xy 110.737663 68.56) (xy 110.747658 68.61025) (xy 110.569375 68.729375) (xy 110.554904 68.751033) (xy 110.488327 68.590302)
        (xy 110.309699 68.411673) (xy 110.07631 68.315) (xy 109.38575 68.315) (xy 109.227 68.47375) (xy 109.227 69.673)
        (xy 109.247 69.673) (xy 109.247 69.927) (xy 109.227 69.927) (xy 109.227 71.12625) (xy 109.38575 71.285)
        (xy 110.07631 71.285) (xy 110.309699 71.188327) (xy 110.488327 71.009698) (xy 110.554904 70.848967) (xy 110.569375 70.870625)
        (xy 111.060582 71.198839) (xy 111.493744 71.285) (xy 111.786256 71.285) (xy 112.219418 71.198839) (xy 112.710625 70.870625)
        (xy 112.91 70.572239) (xy 113.109375 70.870625) (xy 113.600582 71.198839) (xy 114.033744 71.285) (xy 114.326256 71.285)
        (xy 114.759418 71.198839) (xy 115.250625 70.870625) (xy 115.45 70.572239) (xy 115.649375 70.870625) (xy 115.960001 71.078179)
        (xy 115.96 91.045153) (xy 115.945112 91.12) (xy 115.96 91.194847) (xy 115.96 91.194851) (xy 116.004096 91.416536)
        (xy 116.172071 91.667929) (xy 116.23553 91.710331) (xy 119.191336 94.666138) (xy 119.131888 94.965001) (xy 119.243261 95.52491)
        (xy 119.560424 95.999578) (xy 119.912759 96.235001) (xy 119.560424 96.470424) (xy 119.243261 96.945092) (xy 119.131888 97.505001)
        (xy 119.243261 98.06491) (xy 119.560424 98.539578) (xy 119.912759 98.775001) (xy 119.560424 99.010424) (xy 119.243261 99.485092)
        (xy 119.131888 100.045001) (xy 119.243261 100.60491) (xy 119.560424 101.079578) (xy 119.912759 101.315001) (xy 119.560424 101.550424)
        (xy 119.243261 102.025092) (xy 119.131888 102.585001) (xy 119.243261 103.14491) (xy 119.560424 103.619578) (xy 119.912759 103.855001)
        (xy 119.560424 104.090424) (xy 119.243261 104.565092) (xy 119.131888 105.125001) (xy 119.243261 105.68491) (xy 119.560424 106.159578)
        (xy 119.912759 106.395001) (xy 119.560424 106.630424) (xy 119.243261 107.105092) (xy 119.131888 107.665001) (xy 119.243261 108.22491)
        (xy 119.560424 108.699578) (xy 119.912759 108.935001) (xy 119.560424 109.170424) (xy 119.243261 109.645092) (xy 119.131888 110.205001)
        (xy 119.243261 110.76491) (xy 119.560424 111.239578) (xy 119.912759 111.475001) (xy 119.560424 111.710424) (xy 119.243261 112.185092)
        (xy 119.131888 112.745001) (xy 119.243261 113.30491) (xy 119.560424 113.779578) (xy 119.822169 113.95447) (xy 119.731158 113.992168)
        (xy 119.302168 114.421158) (xy 119.070001 114.98166) (xy 119.070001 115.588342) (xy 119.236373 115.99) (xy 106.713629 115.99)
        (xy 106.880001 115.588342) (xy 106.880001 114.98166) (xy 106.647834 114.421158) (xy 106.218844 113.992168) (xy 106.127833 113.95447)
        (xy 106.389578 113.779578) (xy 106.706741 113.30491) (xy 106.818114 112.745001) (xy 106.706741 112.185092) (xy 106.389578 111.710424)
        (xy 106.037243 111.475001) (xy 106.389578 111.239578) (xy 106.706741 110.76491) (xy 106.818114 110.205001) (xy 106.706741 109.645092)
        (xy 106.389578 109.170424) (xy 106.037243 108.935001) (xy 106.389578 108.699578) (xy 106.706741 108.22491) (xy 106.818114 107.665001)
        (xy 106.706741 107.105092) (xy 106.389578 106.630424) (xy 106.037243 106.395001) (xy 106.389578 106.159578) (xy 106.706741 105.68491)
        (xy 106.818114 105.125001) (xy 106.706741 104.565092) (xy 106.389578 104.090424) (xy 106.037243 103.855001) (xy 106.389578 103.619578)
        (xy 106.706741 103.14491) (xy 106.818114 102.585001) (xy 106.706741 102.025092) (xy 106.389578 101.550424) (xy 106.037243 101.315001)
        (xy 106.389578 101.079578) (xy 106.706741 100.60491) (xy 106.818114 100.045001) (xy 106.706741 99.485092) (xy 106.389578 99.010424)
        (xy 106.037243 98.775001) (xy 106.389578 98.539578) (xy 106.706741 98.06491) (xy 106.818114 97.505001) (xy 106.706741 96.945092)
        (xy 106.389578 96.470424) (xy 106.037243 96.235001) (xy 106.389578 95.999578) (xy 106.706741 95.52491) (xy 106.818114 94.965001)
        (xy 106.706741 94.405092) (xy 106.389578 93.930424) (xy 106.037243 93.695001) (xy 106.389578 93.459578) (xy 106.706741 92.98491)
        (xy 106.818114 92.425001) (xy 106.706741 91.865092) (xy 106.389578 91.390424) (xy 106.037243 91.155001) (xy 106.389578 90.919578)
        (xy 106.706741 90.44491) (xy 106.818114 89.885001) (xy 106.706741 89.325092) (xy 106.389578 88.850424) (xy 106.037243 88.615001)
        (xy 106.389578 88.379578) (xy 106.706741 87.90491) (xy 106.818114 87.345001) (xy 106.706741 86.785092) (xy 106.389578 86.310424)
        (xy 106.005893 86.054054) (xy 106.210135 85.95739) (xy 106.586042 85.542424) (xy 106.746905 85.15404) (xy 106.624916 84.932001)
        (xy 105.482001 84.932001) (xy 105.482001 84.952001) (xy 105.228001 84.952001) (xy 105.228001 84.932001) (xy 104.085086 84.932001)
        (xy 103.963097 85.15404) (xy 104.12396 85.542424) (xy 104.499867 85.95739) (xy 104.704109 86.054054) (xy 104.320424 86.310424)
        (xy 104.003261 86.785092) (xy 103.891888 87.345001) (xy 103.892406 87.347604) (xy 102.96 86.415199) (xy 102.96 79.474848)
        (xy 102.974888 79.4) (xy 102.96 79.325152) (xy 102.96 79.325148) (xy 102.915904 79.103463) (xy 102.915904 79.103462)
        (xy 102.790329 78.915527) (xy 102.747929 78.852071) (xy 102.684473 78.809671) (xy 98.599801 74.725) (xy 99.125167 74.725)
        (xy 99.744476 74.468474) (xy 99.87129 74.34166) (xy 103.830001 74.34166) (xy 103.830001 74.948342) (xy 104.062168 75.508844)
        (xy 104.334704 75.78138) (xy 104.307236 75.786844) (xy 104.097192 75.927192) (xy 103.956844 76.137236) (xy 103.907561 76.385001)
        (xy 103.907561 77.985001) (xy 103.956844 78.232766) (xy 104.097192 78.44281) (xy 104.307236 78.583158) (xy 104.441107 78.609786)
        (xy 104.320424 78.690424) (xy 104.003261 79.165092) (xy 103.891888 79.725001) (xy 104.003261 80.28491) (xy 104.320424 80.759578)
        (xy 104.672759 80.995001) (xy 104.320424 81.230424) (xy 104.003261 81.705092) (xy 103.891888 82.265001) (xy 104.003261 82.82491)
        (xy 104.320424 83.299578) (xy 104.704109 83.555948) (xy 104.499867 83.652612) (xy 104.12396 84.067578) (xy 103.963097 84.455962)
        (xy 104.085086 84.678001) (xy 105.228001 84.678001) (xy 105.228001 84.658001) (xy 105.482001 84.658001) (xy 105.482001 84.678001)
        (xy 106.624916 84.678001) (xy 106.746905 84.455962) (xy 106.586042 84.067578) (xy 106.210135 83.652612) (xy 106.005893 83.555948)
        (xy 106.389578 83.299578) (xy 106.706741 82.82491) (xy 106.818114 82.265001) (xy 106.706741 81.705092) (xy 106.389578 81.230424)
        (xy 106.037243 80.995001) (xy 106.389578 80.759578) (xy 106.706741 80.28491) (xy 106.818114 79.725001) (xy 106.706741 79.165092)
        (xy 106.389578 78.690424) (xy 106.268895 78.609786) (xy 106.402766 78.583158) (xy 106.61281 78.44281) (xy 106.753158 78.232766)
        (xy 106.802441 77.985001) (xy 106.802441 76.385001) (xy 106.753158 76.137236) (xy 106.61281 75.927192) (xy 106.402766 75.786844)
        (xy 106.375298 75.78138) (xy 106.647834 75.508844) (xy 106.880001 74.948342) (xy 106.880001 74.34166) (xy 106.647834 73.781158)
        (xy 106.218844 73.352168) (xy 105.658342 73.120001) (xy 105.05166 73.120001) (xy 104.491158 73.352168) (xy 104.062168 73.781158)
        (xy 103.830001 74.34166) (xy 99.87129 74.34166) (xy 100.218474 73.994476) (xy 100.475 73.375167) (xy 100.475 72.704833)
        (xy 100.218474 72.085524) (xy 99.744476 71.611526) (xy 99.125167 71.355) (xy 98.454833 71.355) (xy 97.835524 71.611526)
        (xy 97.361526 72.085524) (xy 97.105 72.704833) (xy 97.105 72.99903) (xy 96.600358 72.79) (xy 95.999642 72.79)
        (xy 95.444654 73.019884) (xy 95.21 73.254538) (xy 95.21 70.08575) (xy 107.615 70.08575) (xy 107.615 70.776309)
        (xy 107.711673 71.009698) (xy 107.890301 71.188327) (xy 108.12369 71.285) (xy 108.81425 71.285) (xy 108.973 71.12625)
        (xy 108.973 69.927) (xy 107.77375 69.927) (xy 107.615 70.08575) (xy 95.21 70.08575) (xy 95.21 68.823691)
        (xy 107.615 68.823691) (xy 107.615 69.51425) (xy 107.77375 69.673) (xy 108.973 69.673) (xy 108.973 68.47375)
        (xy 108.81425 68.315) (xy 108.12369 68.315) (xy 107.890301 68.411673) (xy 107.711673 68.590302) (xy 107.615 68.823691)
        (xy 95.21 68.823691) (xy 95.21 61.71) (xy 123.290001 61.71)
      )
    )
    (filled_polygon
      (pts
        (xy 103.891888 100.045001) (xy 104.003261 100.60491) (xy 104.320424 101.079578) (xy 104.672759 101.315001) (xy 104.320424 101.550424)
        (xy 104.003261 102.025092) (xy 103.891888 102.585001) (xy 104.003261 103.14491) (xy 104.320424 103.619578) (xy 104.672759 103.855001)
        (xy 104.320424 104.090424) (xy 104.003261 104.565092) (xy 103.891888 105.125001) (xy 104.003261 105.68491) (xy 104.320424 106.159578)
        (xy 104.672759 106.395001) (xy 104.320424 106.630424) (xy 104.003261 107.105092) (xy 103.891888 107.665001) (xy 104.003261 108.22491)
        (xy 104.320424 108.699578) (xy 104.672759 108.935001) (xy 104.320424 109.170424) (xy 104.003261 109.645092) (xy 103.891888 110.205001)
        (xy 104.003261 110.76491) (xy 104.320424 111.239578) (xy 104.672759 111.475001) (xy 104.320424 111.710424) (xy 104.003261 112.185092)
        (xy 103.891888 112.745001) (xy 104.003261 113.30491) (xy 104.320424 113.779578) (xy 104.582169 113.95447) (xy 104.491158 113.992168)
        (xy 104.062168 114.421158) (xy 103.830001 114.98166) (xy 103.830001 115.588342) (xy 103.996373 115.99) (xy 95.21 115.99)
        (xy 95.21 109.86206) (xy 95.417545 109.86206) (xy 95.500884 110.115953) (xy 96.065306 110.32159) (xy 96.665458 110.295579)
        (xy 97.099116 110.115953) (xy 97.105 110.098027) (xy 97.105 110.385167) (xy 97.361526 111.004476) (xy 97.835524 111.478474)
        (xy 98.454833 111.735) (xy 99.125167 111.735) (xy 99.744476 111.478474) (xy 100.218474 111.004476) (xy 100.475 110.385167)
        (xy 100.475 109.714833) (xy 100.218474 109.095524) (xy 99.744476 108.621526) (xy 99.125167 108.365) (xy 98.454833 108.365)
        (xy 97.835524 108.621526) (xy 97.805006 108.652044) (xy 97.795579 108.434542) (xy 97.615953 108.000884) (xy 97.36206 107.917545)
        (xy 96.479605 108.8) (xy 96.493748 108.814143) (xy 96.314143 108.993748) (xy 96.3 108.979605) (xy 95.417545 109.86206)
        (xy 95.21 109.86206) (xy 95.21 109.673284) (xy 95.23794 109.682455) (xy 96.120395 108.8) (xy 95.23794 107.917545)
        (xy 95.21 107.926716) (xy 95.21 107.73794) (xy 95.417545 107.73794) (xy 96.3 108.620395) (xy 97.182455 107.73794)
        (xy 97.099116 107.484047) (xy 96.534694 107.27841) (xy 95.934542 107.304421) (xy 95.500884 107.484047) (xy 95.417545 107.73794)
        (xy 95.21 107.73794) (xy 95.21 105.345462) (xy 95.444654 105.580116) (xy 95.999642 105.81) (xy 96.600358 105.81)
        (xy 97.155346 105.580116) (xy 97.449048 105.286414) (xy 97.547107 105.384473) (xy 97.589507 105.447929) (xy 97.840899 105.615904)
        (xy 98.062584 105.66) (xy 98.062588 105.66) (xy 98.137435 105.674888) (xy 98.212282 105.66) (xy 100.125153 105.66)
        (xy 100.2 105.674888) (xy 100.274847 105.66) (xy 100.274852 105.66) (xy 100.496537 105.615904) (xy 100.747929 105.447929)
        (xy 100.790331 105.38447) (xy 103.284473 102.890329) (xy 103.347929 102.847929) (xy 103.515904 102.596537) (xy 103.56 102.374852)
        (xy 103.56 102.374848) (xy 103.574888 102.300001) (xy 103.56 102.225154) (xy 103.56 100.374803) (xy 103.892406 100.042397)
      )
    )
    (filled_polygon
      (pts
        (xy 95.444654 95.580116) (xy 95.999642 95.81) (xy 96.600358 95.81) (xy 96.695704 95.770506) (xy 97.109671 96.184473)
        (xy 97.152071 96.247929) (xy 97.403463 96.415904) (xy 97.625148 96.46) (xy 97.625153 96.46) (xy 97.7 96.474888)
        (xy 97.774847 96.46) (xy 101.225153 96.46) (xy 101.3 96.474888) (xy 101.374847 96.46) (xy 101.374852 96.46)
        (xy 101.596537 96.415904) (xy 101.847929 96.247929) (xy 101.890331 96.18447) (xy 102.349801 95.725001) (xy 104.136958 95.725001)
        (xy 104.320424 95.999578) (xy 104.672759 96.235001) (xy 104.320424 96.470424) (xy 104.003261 96.945092) (xy 103.891888 97.505001)
        (xy 103.956313 97.828887) (xy 102.315528 99.469673) (xy 102.252072 99.512073) (xy 102.209672 99.575529) (xy 102.209671 99.57553)
        (xy 102.084097 99.763465) (xy 102.025112 100.060002) (xy 102.040001 100.134854) (xy 102.04 101.985198) (xy 100.351234 103.673965)
        (xy 100.475 103.375167) (xy 100.475 102.704833) (xy 100.218474 102.085524) (xy 99.744476 101.611526) (xy 99.583868 101.545)
        (xy 99.744476 101.478474) (xy 100.218474 101.004476) (xy 100.475 100.385167) (xy 100.475 99.714833) (xy 100.218474 99.095524)
        (xy 99.744476 98.621526) (xy 99.125167 98.365) (xy 98.454833 98.365) (xy 97.835524 98.621526) (xy 97.805006 98.652044)
        (xy 97.795579 98.434542) (xy 97.615953 98.000884) (xy 97.36206 97.917545) (xy 96.479605 98.8) (xy 96.493748 98.814143)
        (xy 96.314143 98.993748) (xy 96.3 98.979605) (xy 95.417545 99.86206) (xy 95.500884 100.115953) (xy 96.065306 100.32159)
        (xy 96.665458 100.295579) (xy 97.099116 100.115953) (xy 97.105 100.098027) (xy 97.105 100.385167) (xy 97.361526 101.004476)
        (xy 97.835524 101.478474) (xy 97.996132 101.545) (xy 97.835524 101.611526) (xy 97.361526 102.085524) (xy 97.105 102.704833)
        (xy 97.105 102.99903) (xy 96.600358 102.79) (xy 95.999642 102.79) (xy 95.444654 103.019884) (xy 95.21 103.254538)
        (xy 95.21 99.673284) (xy 95.23794 99.682455) (xy 96.120395 98.8) (xy 95.23794 97.917545) (xy 95.21 97.926716)
        (xy 95.21 97.73794) (xy 95.417545 97.73794) (xy 96.3 98.620395) (xy 97.182455 97.73794) (xy 97.099116 97.484047)
        (xy 96.534694 97.27841) (xy 95.934542 97.304421) (xy 95.500884 97.484047) (xy 95.417545 97.73794) (xy 95.21 97.73794)
        (xy 95.21 95.345462)
      )
    )
    (filled_polygon
      (pts
        (xy 95.454654 85.580116) (xy 96.009642 85.81) (xy 96.610358 85.81) (xy 96.705705 85.770506) (xy 99.416893 88.481695)
        (xy 99.135167 88.365) (xy 98.464833 88.365) (xy 97.845524 88.621526) (xy 97.815006 88.652044) (xy 97.805579 88.434542)
        (xy 97.625953 88.000884) (xy 97.37206 87.917545) (xy 96.489605 88.8) (xy 96.503748 88.814143) (xy 96.324143 88.993748)
        (xy 96.31 88.979605) (xy 95.427545 89.86206) (xy 95.510884 90.115953) (xy 96.075306 90.32159) (xy 96.675458 90.295579)
        (xy 97.109116 90.115953) (xy 97.115 90.098027) (xy 97.115 90.385167) (xy 97.371526 91.004476) (xy 97.845524 91.478474)
        (xy 98.001132 91.542929) (xy 97.835524 91.611526) (xy 97.361526 92.085524) (xy 97.105 92.704833) (xy 97.105 92.99903)
        (xy 96.600358 92.79) (xy 95.999642 92.79) (xy 95.444654 93.019884) (xy 95.21 93.254538) (xy 95.21 89.670001)
        (xy 95.24794 89.682455) (xy 96.130395 88.8) (xy 95.24794 87.917545) (xy 95.21 87.929999) (xy 95.21 87.73794)
        (xy 95.427545 87.73794) (xy 96.31 88.620395) (xy 97.192455 87.73794) (xy 97.109116 87.484047) (xy 96.544694 87.27841)
        (xy 95.944542 87.304421) (xy 95.510884 87.484047) (xy 95.427545 87.73794) (xy 95.21 87.73794) (xy 95.21 85.335462)
      )
    )
    (filled_polygon
      (pts
        (xy 95.444654 75.580116) (xy 95.999642 75.81) (xy 96.600358 75.81) (xy 96.697291 75.769849) (xy 96.757382 75.81)
        (xy 96.878462 75.890903) (xy 97.100147 75.934999) (xy 97.100151 75.934999) (xy 97.174998 75.949887) (xy 97.249845 75.934999)
        (xy 97.660198 75.934999) (xy 101.44 79.714802) (xy 101.440001 86.655148) (xy 101.425112 86.73) (xy 101.440001 86.804852)
        (xy 101.484097 87.026537) (xy 101.652072 87.277929) (xy 101.715528 87.320329) (xy 103.956313 89.561115) (xy 103.891888 89.885001)
        (xy 104.003261 90.44491) (xy 104.320424 90.919578) (xy 104.672759 91.155001) (xy 104.413221 91.328419) (xy 97.780506 84.695705)
        (xy 97.82 84.600358) (xy 97.82 84.44295) (xy 97.845524 84.468474) (xy 98.464833 84.725) (xy 99.135167 84.725)
        (xy 99.754476 84.468474) (xy 100.228474 83.994476) (xy 100.485 83.375167) (xy 100.485 82.704833) (xy 100.228474 82.085524)
        (xy 99.754476 81.611526) (xy 99.588868 81.542929) (xy 99.744476 81.478474) (xy 100.218474 81.004476) (xy 100.475 80.385167)
        (xy 100.475 79.714833) (xy 100.218474 79.095524) (xy 99.744476 78.621526) (xy 99.125167 78.365) (xy 98.454833 78.365)
        (xy 97.835524 78.621526) (xy 97.805006 78.652044) (xy 97.795579 78.434542) (xy 97.615953 78.000884) (xy 97.36206 77.917545)
        (xy 96.479605 78.8) (xy 96.493748 78.814143) (xy 96.314143 78.993748) (xy 96.3 78.979605) (xy 95.417545 79.86206)
        (xy 95.500884 80.115953) (xy 96.065306 80.32159) (xy 96.665458 80.295579) (xy 97.099116 80.115953) (xy 97.105 80.098027)
        (xy 97.105 80.385167) (xy 97.361526 81.004476) (xy 97.835524 81.478474) (xy 98.001132 81.547071) (xy 97.845524 81.611526)
        (xy 97.371526 82.085524) (xy 97.115 82.704833) (xy 97.115 82.99903) (xy 96.610358 82.79) (xy 96.009642 82.79)
        (xy 95.454654 83.019884) (xy 95.21 83.264538) (xy 95.21 79.673284) (xy 95.23794 79.682455) (xy 96.120395 78.8)
        (xy 95.23794 77.917545) (xy 95.21 77.926716) (xy 95.21 77.73794) (xy 95.417545 77.73794) (xy 96.3 78.620395)
        (xy 97.182455 77.73794) (xy 97.099116 77.484047) (xy 96.534694 77.27841) (xy 95.934542 77.304421) (xy 95.500884 77.484047)
        (xy 95.417545 77.73794) (xy 95.21 77.73794) (xy 95.21 75.345462)
      )
    )
    (filled_polygon
      (pts
        (xy 119.243261 77.74491) (xy 119.560424 78.219578) (xy 119.944109 78.475948) (xy 119.739867 78.572612) (xy 119.36396 78.987578)
        (xy 119.203097 79.375962) (xy 119.325086 79.598001) (xy 120.468001 79.598001) (xy 120.468001 79.578001) (xy 120.722001 79.578001)
        (xy 120.722001 79.598001) (xy 120.742001 79.598001) (xy 120.742001 79.852001) (xy 120.722001 79.852001) (xy 120.722001 79.872001)
        (xy 120.468001 79.872001) (xy 120.468001 79.852001) (xy 119.325086 79.852001) (xy 119.203097 80.07404) (xy 119.36396 80.462424)
        (xy 119.739867 80.87739) (xy 119.944109 80.974054) (xy 119.560424 81.230424) (xy 119.243261 81.705092) (xy 119.16 82.123673)
        (xy 119.16 77.326329)
      )
    )
  )
)
