EESchema Schematic File Version 4
EELAYER 26 0
EELAYER END
$Descr A4 11693 8268
encoding utf-8
Sheet 1 1
Title ""
Date ""
Rev ""
Comp ""
Comment1 ""
Comment2 ""
Comment3 ""
Comment4 ""
$EndDescr
$Comp
L MCU_Module:Arduino_Nano_v3.x A1
U 1 1 5B85175B
P 4150 3700
F 0 "A1" H 4150 2614 50  0000 C CNN
F 1 "Arduino_Nano_v3.x" H 4150 2523 50  0000 C CNN
F 2 "Module:Arduino_Nano_WithMountingHoles" H 4300 2750 50  0001 L CNN
F 3 "http://www.mouser.com/pdfdocs/Gravitech_Arduino_Nano3_0.pdf" H 4150 2700 50  0001 C CNN
	1    4150 3700
	1    0    0    -1  
$EndComp
$Comp
L Switch:SW_Push SW1
U 1 1 5B8519D5
P 2550 3200
F 0 "SW1" H 2550 3485 50  0000 C CNN
F 1 "SW_Push" H 2550 3394 50  0000 C CNN
F 2 "Button_Switch_THT:SW_Tactile_SPST_Angled_PTS645Vx31-2LFS" H 2550 3400 50  0001 C CNN
F 3 "" H 2550 3400 50  0001 C CNN
	1    2550 3200
	1    0    0    -1  
$EndComp
$Comp
L Switch:SW_Push SW2
U 1 1 5B851ABB
P 2550 3550
F 0 "SW2" H 2550 3835 50  0000 C CNN
F 1 "SW_Push" H 2550 3744 50  0000 C CNN
F 2 "Button_Switch_THT:SW_Tactile_SPST_Angled_PTS645Vx31-2LFS" H 2550 3750 50  0001 C CNN
F 3 "" H 2550 3750 50  0001 C CNN
	1    2550 3550
	1    0    0    -1  
$EndComp
$Comp
L Switch:SW_Push SW3
U 1 1 5B851B10
P 2550 3900
F 0 "SW3" H 2550 4185 50  0000 C CNN
F 1 "SW_Push" H 2550 4094 50  0000 C CNN
F 2 "Button_Switch_THT:SW_Tactile_SPST_Angled_PTS645Vx31-2LFS" H 2550 4100 50  0001 C CNN
F 3 "" H 2550 4100 50  0001 C CNN
	1    2550 3900
	1    0    0    -1  
$EndComp
$Comp
L Switch:SW_Push SW4
U 1 1 5B851B6C
P 2550 4250
F 0 "SW4" H 2550 4535 50  0000 C CNN
F 1 "SW_Push" H 2550 4444 50  0000 C CNN
F 2 "Button_Switch_THT:SW_Tactile_SPST_Angled_PTS645Vx31-2LFS" H 2550 4450 50  0001 C CNN
F 3 "" H 2550 4450 50  0001 C CNN
	1    2550 4250
	1    0    0    -1  
$EndComp
$Comp
L Transistor_Array:ULN2003A U2
U 1 1 5B851C53
P 6200 3550
F 0 "U2" H 6200 4217 50  0000 C CNN
F 1 "ULN2003A" H 6200 4126 50  0000 C CNN
F 2 "Package_SO:SOIC-16_3.9x9.9mm_P1.27mm" H 6250 3000 50  0001 L CNN
F 3 "http://www.ti.com/lit/ds/symlink/uln2003a.pdf" H 6300 3350 50  0001 C CNN
	1    6200 3550
	1    0    0    -1  
$EndComp
Wire Wire Line
	4350 2700 4350 2400
Wire Wire Line
	4350 2400 4400 2400
Wire Wire Line
	6600 2400 6600 3150
$Comp
L power:GND #PWR0101
U 1 1 5B851E88
P 4150 5300
F 0 "#PWR0101" H 4150 5050 50  0001 C CNN
F 1 "GND" H 4155 5127 50  0000 C CNN
F 2 "" H 4150 5300 50  0001 C CNN
F 3 "" H 4150 5300 50  0001 C CNN
	1    4150 5300
	1    0    0    -1  
$EndComp
$Comp
L power:+5V #PWR0102
U 1 1 5B851ED5
P 4400 2200
F 0 "#PWR0102" H 4400 2050 50  0001 C CNN
F 1 "+5V" H 4415 2373 50  0000 C CNN
F 2 "" H 4400 2200 50  0001 C CNN
F 3 "" H 4400 2200 50  0001 C CNN
	1    4400 2200
	1    0    0    -1  
$EndComp
Wire Wire Line
	4400 2200 4400 2400
Connection ~ 4400 2400
Wire Wire Line
	4400 2400 6600 2400
Wire Wire Line
	4150 4700 4150 5250
Wire Wire Line
	4250 4700 4250 5250
Wire Wire Line
	4250 5250 4150 5250
Connection ~ 4150 5250
Wire Wire Line
	4150 5250 4150 5300
$Comp
L power:GND #PWR0103
U 1 1 5B8520B6
P 6200 4150
F 0 "#PWR0103" H 6200 3900 50  0001 C CNN
F 1 "GND" H 6205 3977 50  0000 C CNN
F 2 "" H 6200 4150 50  0001 C CNN
F 3 "" H 6200 4150 50  0001 C CNN
	1    6200 4150
	1    0    0    -1  
$EndComp
NoConn ~ 2850 1750
NoConn ~ 3050 1750
NoConn ~ 3250 1750
NoConn ~ 3450 1750
NoConn ~ 3650 1750
NoConn ~ 3850 1750
NoConn ~ 4250 1750
NoConn ~ 4450 1750
NoConn ~ 5050 1750
NoConn ~ 5250 1750
$Comp
L SSD1306_OLED-0.91-128x32:SSD1306 U1
U 1 1 5B852210
P 4150 1750
F 0 "U1" H 4150 2587 60  0000 C CNN
F 1 "SSD1306" H 4150 2481 60  0000 C CNN
F 2 "Connector_PinHeader_2.54mm:PinHeader_1x04_P2.54mm_Vertical" H 4150 1750 60  0001 C CNN
F 3 "" H 4150 1750 60  0001 C CNN
	1    4150 1750
	1    0    0    -1  
$EndComp
$Comp
L power:GND #PWR0104
U 1 1 5B8528EC
P 4050 1750
F 0 "#PWR0104" H 4050 1500 50  0001 C CNN
F 1 "GND" H 4055 1577 50  0000 C CNN
F 2 "" H 4050 1750 50  0001 C CNN
F 3 "" H 4050 1750 50  0001 C CNN
	1    4050 1750
	1    0    0    -1  
$EndComp
$Comp
L power:+5V #PWR0105
U 1 1 5B85292A
P 5650 1750
F 0 "#PWR0105" H 5650 1600 50  0001 C CNN
F 1 "+5V" H 5665 1923 50  0000 C CNN
F 2 "" H 5650 1750 50  0001 C CNN
F 3 "" H 5650 1750 50  0001 C CNN
	1    5650 1750
	1    0    0    -1  
$EndComp
Wire Wire Line
	5450 1750 5450 1850
Wire Wire Line
	5450 1850 5650 1850
Wire Wire Line
	5650 1850 5650 1750
Wire Wire Line
	4650 4100 4850 4100
Wire Wire Line
	4850 4100 4850 1750
Wire Wire Line
	4650 1750 4650 2200
Wire Wire Line
	4650 2200 4900 2200
Wire Wire Line
	4900 2200 4900 4200
Wire Wire Line
	4900 4200 4650 4200
Wire Wire Line
	2750 3900 2750 3600
Wire Wire Line
	2750 3600 3650 3600
Wire Wire Line
	2750 4250 2850 4250
Wire Wire Line
	2850 4250 2850 3700
Wire Wire Line
	2850 3700 3650 3700
Wire Wire Line
	2750 3500 2750 3550
Wire Wire Line
	2750 3500 3650 3500
Wire Wire Line
	2750 3200 2750 3400
Wire Wire Line
	2750 3400 3650 3400
$Comp
L power:GND #PWR0106
U 1 1 5B8545C7
P 2350 4500
F 0 "#PWR0106" H 2350 4250 50  0001 C CNN
F 1 "GND" H 2355 4327 50  0000 C CNN
F 2 "" H 2350 4500 50  0001 C CNN
F 3 "" H 2350 4500 50  0001 C CNN
	1    2350 4500
	1    0    0    -1  
$EndComp
Wire Wire Line
	2350 3200 2350 3550
Connection ~ 2350 3550
Wire Wire Line
	2350 3550 2350 3900
Connection ~ 2350 3900
Wire Wire Line
	2350 3900 2350 4250
Connection ~ 2350 4250
Wire Wire Line
	2350 4250 2350 4500
NoConn ~ 5800 3750
NoConn ~ 5800 3850
NoConn ~ 5800 3950
NoConn ~ 6600 3950
NoConn ~ 6600 3850
NoConn ~ 6600 3750
$Comp
L Connector_Generic:Conn_01x05 J1
U 1 1 5B859348
P 7100 3450
F 0 "J1" H 7180 3492 50  0000 L CNN
F 1 "Conn_01x05" H 7180 3401 50  0000 L CNN
F 2 "Connector_JST:JST_EH_B05B-EH-A_1x05_P2.50mm_Vertical" H 7100 3450 50  0001 C CNN
F 3 "~" H 7100 3450 50  0001 C CNN
	1    7100 3450
	1    0    0    -1  
$EndComp
Wire Wire Line
	6600 3150 6600 3250
Wire Wire Line
	6600 3250 6900 3250
Connection ~ 6600 3150
Wire Wire Line
	6600 3350 6900 3350
Wire Wire Line
	6600 3450 6900 3450
Wire Wire Line
	6600 3550 6900 3550
Wire Wire Line
	6600 3650 6900 3650
NoConn ~ 3650 3100
NoConn ~ 3650 3200
NoConn ~ 3650 3300
NoConn ~ 3650 3800
NoConn ~ 3650 3900
NoConn ~ 3650 4000
NoConn ~ 3650 4100
NoConn ~ 3650 4200
NoConn ~ 3650 4300
NoConn ~ 3650 4400
NoConn ~ 4650 4400
NoConn ~ 4650 4300
NoConn ~ 4650 3500
NoConn ~ 4650 3200
NoConn ~ 4650 3100
NoConn ~ 4050 2700
NoConn ~ 4250 2700
NoConn ~ 7050 2550
Wire Wire Line
	4650 3700 5500 3700
Wire Wire Line
	4650 3800 5450 3800
Wire Wire Line
	5450 3800 5450 3550
Wire Wire Line
	5450 3550 5800 3550
Wire Wire Line
	4650 3900 5400 3900
Wire Wire Line
	5400 3900 5400 3450
Wire Wire Line
	5400 3450 5800 3450
Wire Wire Line
	4650 4000 5350 4000
Wire Wire Line
	5350 4000 5350 3350
Wire Wire Line
	5350 3350 5800 3350
Wire Wire Line
	5500 3700 5500 3650
Wire Wire Line
	5500 3650 5800 3650
$EndSCHEMATC
