G04 #@! TF.GenerationSoftware,KiCad,Pcbnew,5.0.1-33cea8e~68~ubuntu16.04.1*
G04 #@! TF.CreationDate,2018-11-08T14:47:06+01:00*
G04 #@! TF.ProjectId,passband,7061737362616E642E6B696361645F70,rev?*
G04 #@! TF.SameCoordinates,Original*
G04 #@! TF.FileFunction,Copper,L1,Top,Signal*
G04 #@! TF.FilePolarity,Positive*
%FSLAX46Y46*%
G04 Gerber Fmt 4.6, Leading zero omitted, Abs format (unit mm)*
G04 Created by KiCad (PCBNEW 5.0.1-33cea8e~68~ubuntu16.04.1) date jeu. 08 nov. 2018 14:47:06 CET*
%MOMM*%
%LPD*%
G01*
G04 APERTURE LIST*
G04 #@! TA.AperFunction,ComponentPad*
%ADD10R,1.700000X1.700000*%
G04 #@! TD*
G04 #@! TA.AperFunction,ComponentPad*
%ADD11O,1.700000X1.700000*%
G04 #@! TD*
G04 #@! TA.AperFunction,ComponentPad*
%ADD12R,1.600000X1.600000*%
G04 #@! TD*
G04 #@! TA.AperFunction,ComponentPad*
%ADD13O,1.600000X1.600000*%
G04 #@! TD*
G04 #@! TA.AperFunction,Conductor*
%ADD14C,0.100000*%
G04 #@! TD*
G04 #@! TA.AperFunction,SMDPad,CuDef*
%ADD15C,0.950000*%
G04 #@! TD*
G04 #@! TA.AperFunction,ViaPad*
%ADD16C,0.800000*%
G04 #@! TD*
G04 #@! TA.AperFunction,Conductor*
%ADD17C,0.250000*%
G04 #@! TD*
G04 #@! TA.AperFunction,Conductor*
%ADD18C,0.254000*%
G04 #@! TD*
G04 APERTURE END LIST*
D10*
G04 #@! TO.P,J4,1*
G04 #@! TO.N,+BATT*
X111400000Y-73800000D03*
D11*
G04 #@! TO.P,J4,2*
G04 #@! TO.N,GND*
X108860000Y-73800000D03*
G04 #@! TD*
G04 #@! TO.P,J5,2*
G04 #@! TO.N,-BATT*
X115060000Y-73800000D03*
D10*
G04 #@! TO.P,J5,1*
G04 #@! TO.N,GND*
X117600000Y-73800000D03*
G04 #@! TD*
D12*
G04 #@! TO.P,U1,1*
G04 #@! TO.N,filter1_out*
X110600000Y-91300000D03*
D13*
G04 #@! TO.P,U1,5*
G04 #@! TO.N,Net-(R12-Pad1)*
X118220000Y-83680000D03*
G04 #@! TO.P,U1,2*
G04 #@! TO.N,Net-(C4-Pad2)*
X113140000Y-91300000D03*
G04 #@! TO.P,U1,6*
G04 #@! TO.N,Net-(C5-Pad2)*
X115680000Y-83680000D03*
G04 #@! TO.P,U1,3*
G04 #@! TO.N,Net-(R11-Pad1)*
X115680000Y-91300000D03*
G04 #@! TO.P,U1,7*
G04 #@! TO.N,Net-(J2-Pad1)*
X113140000Y-83680000D03*
G04 #@! TO.P,U1,4*
G04 #@! TO.N,-BATT*
X118220000Y-91300000D03*
G04 #@! TO.P,U1,8*
G04 #@! TO.N,+BATT*
X110600000Y-83680000D03*
G04 #@! TD*
D10*
G04 #@! TO.P,J1,1*
G04 #@! TO.N,GND*
X107100000Y-86100000D03*
D11*
G04 #@! TO.P,J1,2*
G04 #@! TO.N,Net-(J1-Pad2)*
X107100000Y-88640000D03*
G04 #@! TD*
D14*
G04 #@! TO.N,Net-(C1-Pad2)*
G04 #@! TO.C,C1*
G36*
X111360779Y-95951144D02*
X111383834Y-95954563D01*
X111406443Y-95960227D01*
X111428387Y-95968079D01*
X111449457Y-95978044D01*
X111469448Y-95990026D01*
X111488168Y-96003910D01*
X111505438Y-96019562D01*
X111521090Y-96036832D01*
X111534974Y-96055552D01*
X111546956Y-96075543D01*
X111556921Y-96096613D01*
X111564773Y-96118557D01*
X111570437Y-96141166D01*
X111573856Y-96164221D01*
X111575000Y-96187500D01*
X111575000Y-96762500D01*
X111573856Y-96785779D01*
X111570437Y-96808834D01*
X111564773Y-96831443D01*
X111556921Y-96853387D01*
X111546956Y-96874457D01*
X111534974Y-96894448D01*
X111521090Y-96913168D01*
X111505438Y-96930438D01*
X111488168Y-96946090D01*
X111469448Y-96959974D01*
X111449457Y-96971956D01*
X111428387Y-96981921D01*
X111406443Y-96989773D01*
X111383834Y-96995437D01*
X111360779Y-96998856D01*
X111337500Y-97000000D01*
X110862500Y-97000000D01*
X110839221Y-96998856D01*
X110816166Y-96995437D01*
X110793557Y-96989773D01*
X110771613Y-96981921D01*
X110750543Y-96971956D01*
X110730552Y-96959974D01*
X110711832Y-96946090D01*
X110694562Y-96930438D01*
X110678910Y-96913168D01*
X110665026Y-96894448D01*
X110653044Y-96874457D01*
X110643079Y-96853387D01*
X110635227Y-96831443D01*
X110629563Y-96808834D01*
X110626144Y-96785779D01*
X110625000Y-96762500D01*
X110625000Y-96187500D01*
X110626144Y-96164221D01*
X110629563Y-96141166D01*
X110635227Y-96118557D01*
X110643079Y-96096613D01*
X110653044Y-96075543D01*
X110665026Y-96055552D01*
X110678910Y-96036832D01*
X110694562Y-96019562D01*
X110711832Y-96003910D01*
X110730552Y-95990026D01*
X110750543Y-95978044D01*
X110771613Y-95968079D01*
X110793557Y-95960227D01*
X110816166Y-95954563D01*
X110839221Y-95951144D01*
X110862500Y-95950000D01*
X111337500Y-95950000D01*
X111360779Y-95951144D01*
X111360779Y-95951144D01*
G37*
D15*
G04 #@! TD*
G04 #@! TO.P,C1,2*
G04 #@! TO.N,Net-(C1-Pad2)*
X111100000Y-96475000D03*
D14*
G04 #@! TO.N,Net-(C1-Pad1)*
G04 #@! TO.C,C1*
G36*
X111360779Y-94201144D02*
X111383834Y-94204563D01*
X111406443Y-94210227D01*
X111428387Y-94218079D01*
X111449457Y-94228044D01*
X111469448Y-94240026D01*
X111488168Y-94253910D01*
X111505438Y-94269562D01*
X111521090Y-94286832D01*
X111534974Y-94305552D01*
X111546956Y-94325543D01*
X111556921Y-94346613D01*
X111564773Y-94368557D01*
X111570437Y-94391166D01*
X111573856Y-94414221D01*
X111575000Y-94437500D01*
X111575000Y-95012500D01*
X111573856Y-95035779D01*
X111570437Y-95058834D01*
X111564773Y-95081443D01*
X111556921Y-95103387D01*
X111546956Y-95124457D01*
X111534974Y-95144448D01*
X111521090Y-95163168D01*
X111505438Y-95180438D01*
X111488168Y-95196090D01*
X111469448Y-95209974D01*
X111449457Y-95221956D01*
X111428387Y-95231921D01*
X111406443Y-95239773D01*
X111383834Y-95245437D01*
X111360779Y-95248856D01*
X111337500Y-95250000D01*
X110862500Y-95250000D01*
X110839221Y-95248856D01*
X110816166Y-95245437D01*
X110793557Y-95239773D01*
X110771613Y-95231921D01*
X110750543Y-95221956D01*
X110730552Y-95209974D01*
X110711832Y-95196090D01*
X110694562Y-95180438D01*
X110678910Y-95163168D01*
X110665026Y-95144448D01*
X110653044Y-95124457D01*
X110643079Y-95103387D01*
X110635227Y-95081443D01*
X110629563Y-95058834D01*
X110626144Y-95035779D01*
X110625000Y-95012500D01*
X110625000Y-94437500D01*
X110626144Y-94414221D01*
X110629563Y-94391166D01*
X110635227Y-94368557D01*
X110643079Y-94346613D01*
X110653044Y-94325543D01*
X110665026Y-94305552D01*
X110678910Y-94286832D01*
X110694562Y-94269562D01*
X110711832Y-94253910D01*
X110730552Y-94240026D01*
X110750543Y-94228044D01*
X110771613Y-94218079D01*
X110793557Y-94210227D01*
X110816166Y-94204563D01*
X110839221Y-94201144D01*
X110862500Y-94200000D01*
X111337500Y-94200000D01*
X111360779Y-94201144D01*
X111360779Y-94201144D01*
G37*
D15*
G04 #@! TD*
G04 #@! TO.P,C1,1*
G04 #@! TO.N,Net-(C1-Pad1)*
X111100000Y-94725000D03*
D14*
G04 #@! TO.N,Net-(C2-Pad1)*
G04 #@! TO.C,C2*
G36*
X119085779Y-75826144D02*
X119108834Y-75829563D01*
X119131443Y-75835227D01*
X119153387Y-75843079D01*
X119174457Y-75853044D01*
X119194448Y-75865026D01*
X119213168Y-75878910D01*
X119230438Y-75894562D01*
X119246090Y-75911832D01*
X119259974Y-75930552D01*
X119271956Y-75950543D01*
X119281921Y-75971613D01*
X119289773Y-75993557D01*
X119295437Y-76016166D01*
X119298856Y-76039221D01*
X119300000Y-76062500D01*
X119300000Y-76537500D01*
X119298856Y-76560779D01*
X119295437Y-76583834D01*
X119289773Y-76606443D01*
X119281921Y-76628387D01*
X119271956Y-76649457D01*
X119259974Y-76669448D01*
X119246090Y-76688168D01*
X119230438Y-76705438D01*
X119213168Y-76721090D01*
X119194448Y-76734974D01*
X119174457Y-76746956D01*
X119153387Y-76756921D01*
X119131443Y-76764773D01*
X119108834Y-76770437D01*
X119085779Y-76773856D01*
X119062500Y-76775000D01*
X118487500Y-76775000D01*
X118464221Y-76773856D01*
X118441166Y-76770437D01*
X118418557Y-76764773D01*
X118396613Y-76756921D01*
X118375543Y-76746956D01*
X118355552Y-76734974D01*
X118336832Y-76721090D01*
X118319562Y-76705438D01*
X118303910Y-76688168D01*
X118290026Y-76669448D01*
X118278044Y-76649457D01*
X118268079Y-76628387D01*
X118260227Y-76606443D01*
X118254563Y-76583834D01*
X118251144Y-76560779D01*
X118250000Y-76537500D01*
X118250000Y-76062500D01*
X118251144Y-76039221D01*
X118254563Y-76016166D01*
X118260227Y-75993557D01*
X118268079Y-75971613D01*
X118278044Y-75950543D01*
X118290026Y-75930552D01*
X118303910Y-75911832D01*
X118319562Y-75894562D01*
X118336832Y-75878910D01*
X118355552Y-75865026D01*
X118375543Y-75853044D01*
X118396613Y-75843079D01*
X118418557Y-75835227D01*
X118441166Y-75829563D01*
X118464221Y-75826144D01*
X118487500Y-75825000D01*
X119062500Y-75825000D01*
X119085779Y-75826144D01*
X119085779Y-75826144D01*
G37*
D15*
G04 #@! TD*
G04 #@! TO.P,C2,1*
G04 #@! TO.N,Net-(C2-Pad1)*
X118775000Y-76300000D03*
D14*
G04 #@! TO.N,Net-(C2-Pad2)*
G04 #@! TO.C,C2*
G36*
X117335779Y-75826144D02*
X117358834Y-75829563D01*
X117381443Y-75835227D01*
X117403387Y-75843079D01*
X117424457Y-75853044D01*
X117444448Y-75865026D01*
X117463168Y-75878910D01*
X117480438Y-75894562D01*
X117496090Y-75911832D01*
X117509974Y-75930552D01*
X117521956Y-75950543D01*
X117531921Y-75971613D01*
X117539773Y-75993557D01*
X117545437Y-76016166D01*
X117548856Y-76039221D01*
X117550000Y-76062500D01*
X117550000Y-76537500D01*
X117548856Y-76560779D01*
X117545437Y-76583834D01*
X117539773Y-76606443D01*
X117531921Y-76628387D01*
X117521956Y-76649457D01*
X117509974Y-76669448D01*
X117496090Y-76688168D01*
X117480438Y-76705438D01*
X117463168Y-76721090D01*
X117444448Y-76734974D01*
X117424457Y-76746956D01*
X117403387Y-76756921D01*
X117381443Y-76764773D01*
X117358834Y-76770437D01*
X117335779Y-76773856D01*
X117312500Y-76775000D01*
X116737500Y-76775000D01*
X116714221Y-76773856D01*
X116691166Y-76770437D01*
X116668557Y-76764773D01*
X116646613Y-76756921D01*
X116625543Y-76746956D01*
X116605552Y-76734974D01*
X116586832Y-76721090D01*
X116569562Y-76705438D01*
X116553910Y-76688168D01*
X116540026Y-76669448D01*
X116528044Y-76649457D01*
X116518079Y-76628387D01*
X116510227Y-76606443D01*
X116504563Y-76583834D01*
X116501144Y-76560779D01*
X116500000Y-76537500D01*
X116500000Y-76062500D01*
X116501144Y-76039221D01*
X116504563Y-76016166D01*
X116510227Y-75993557D01*
X116518079Y-75971613D01*
X116528044Y-75950543D01*
X116540026Y-75930552D01*
X116553910Y-75911832D01*
X116569562Y-75894562D01*
X116586832Y-75878910D01*
X116605552Y-75865026D01*
X116625543Y-75853044D01*
X116646613Y-75843079D01*
X116668557Y-75835227D01*
X116691166Y-75829563D01*
X116714221Y-75826144D01*
X116737500Y-75825000D01*
X117312500Y-75825000D01*
X117335779Y-75826144D01*
X117335779Y-75826144D01*
G37*
D15*
G04 #@! TD*
G04 #@! TO.P,C2,2*
G04 #@! TO.N,Net-(C2-Pad2)*
X117025000Y-76300000D03*
D14*
G04 #@! TO.N,+BATT*
G04 #@! TO.C,C3*
G36*
X110535779Y-80626144D02*
X110558834Y-80629563D01*
X110581443Y-80635227D01*
X110603387Y-80643079D01*
X110624457Y-80653044D01*
X110644448Y-80665026D01*
X110663168Y-80678910D01*
X110680438Y-80694562D01*
X110696090Y-80711832D01*
X110709974Y-80730552D01*
X110721956Y-80750543D01*
X110731921Y-80771613D01*
X110739773Y-80793557D01*
X110745437Y-80816166D01*
X110748856Y-80839221D01*
X110750000Y-80862500D01*
X110750000Y-81337500D01*
X110748856Y-81360779D01*
X110745437Y-81383834D01*
X110739773Y-81406443D01*
X110731921Y-81428387D01*
X110721956Y-81449457D01*
X110709974Y-81469448D01*
X110696090Y-81488168D01*
X110680438Y-81505438D01*
X110663168Y-81521090D01*
X110644448Y-81534974D01*
X110624457Y-81546956D01*
X110603387Y-81556921D01*
X110581443Y-81564773D01*
X110558834Y-81570437D01*
X110535779Y-81573856D01*
X110512500Y-81575000D01*
X109937500Y-81575000D01*
X109914221Y-81573856D01*
X109891166Y-81570437D01*
X109868557Y-81564773D01*
X109846613Y-81556921D01*
X109825543Y-81546956D01*
X109805552Y-81534974D01*
X109786832Y-81521090D01*
X109769562Y-81505438D01*
X109753910Y-81488168D01*
X109740026Y-81469448D01*
X109728044Y-81449457D01*
X109718079Y-81428387D01*
X109710227Y-81406443D01*
X109704563Y-81383834D01*
X109701144Y-81360779D01*
X109700000Y-81337500D01*
X109700000Y-80862500D01*
X109701144Y-80839221D01*
X109704563Y-80816166D01*
X109710227Y-80793557D01*
X109718079Y-80771613D01*
X109728044Y-80750543D01*
X109740026Y-80730552D01*
X109753910Y-80711832D01*
X109769562Y-80694562D01*
X109786832Y-80678910D01*
X109805552Y-80665026D01*
X109825543Y-80653044D01*
X109846613Y-80643079D01*
X109868557Y-80635227D01*
X109891166Y-80629563D01*
X109914221Y-80626144D01*
X109937500Y-80625000D01*
X110512500Y-80625000D01*
X110535779Y-80626144D01*
X110535779Y-80626144D01*
G37*
D15*
G04 #@! TD*
G04 #@! TO.P,C3,1*
G04 #@! TO.N,+BATT*
X110225000Y-81100000D03*
D14*
G04 #@! TO.N,-BATT*
G04 #@! TO.C,C3*
G36*
X112285779Y-80626144D02*
X112308834Y-80629563D01*
X112331443Y-80635227D01*
X112353387Y-80643079D01*
X112374457Y-80653044D01*
X112394448Y-80665026D01*
X112413168Y-80678910D01*
X112430438Y-80694562D01*
X112446090Y-80711832D01*
X112459974Y-80730552D01*
X112471956Y-80750543D01*
X112481921Y-80771613D01*
X112489773Y-80793557D01*
X112495437Y-80816166D01*
X112498856Y-80839221D01*
X112500000Y-80862500D01*
X112500000Y-81337500D01*
X112498856Y-81360779D01*
X112495437Y-81383834D01*
X112489773Y-81406443D01*
X112481921Y-81428387D01*
X112471956Y-81449457D01*
X112459974Y-81469448D01*
X112446090Y-81488168D01*
X112430438Y-81505438D01*
X112413168Y-81521090D01*
X112394448Y-81534974D01*
X112374457Y-81546956D01*
X112353387Y-81556921D01*
X112331443Y-81564773D01*
X112308834Y-81570437D01*
X112285779Y-81573856D01*
X112262500Y-81575000D01*
X111687500Y-81575000D01*
X111664221Y-81573856D01*
X111641166Y-81570437D01*
X111618557Y-81564773D01*
X111596613Y-81556921D01*
X111575543Y-81546956D01*
X111555552Y-81534974D01*
X111536832Y-81521090D01*
X111519562Y-81505438D01*
X111503910Y-81488168D01*
X111490026Y-81469448D01*
X111478044Y-81449457D01*
X111468079Y-81428387D01*
X111460227Y-81406443D01*
X111454563Y-81383834D01*
X111451144Y-81360779D01*
X111450000Y-81337500D01*
X111450000Y-80862500D01*
X111451144Y-80839221D01*
X111454563Y-80816166D01*
X111460227Y-80793557D01*
X111468079Y-80771613D01*
X111478044Y-80750543D01*
X111490026Y-80730552D01*
X111503910Y-80711832D01*
X111519562Y-80694562D01*
X111536832Y-80678910D01*
X111555552Y-80665026D01*
X111575543Y-80653044D01*
X111596613Y-80643079D01*
X111618557Y-80635227D01*
X111641166Y-80629563D01*
X111664221Y-80626144D01*
X111687500Y-80625000D01*
X112262500Y-80625000D01*
X112285779Y-80626144D01*
X112285779Y-80626144D01*
G37*
D15*
G04 #@! TD*
G04 #@! TO.P,C3,2*
G04 #@! TO.N,-BATT*
X111975000Y-81100000D03*
D14*
G04 #@! TO.N,Net-(C1-Pad2)*
G04 #@! TO.C,C4*
G36*
X113160779Y-95951144D02*
X113183834Y-95954563D01*
X113206443Y-95960227D01*
X113228387Y-95968079D01*
X113249457Y-95978044D01*
X113269448Y-95990026D01*
X113288168Y-96003910D01*
X113305438Y-96019562D01*
X113321090Y-96036832D01*
X113334974Y-96055552D01*
X113346956Y-96075543D01*
X113356921Y-96096613D01*
X113364773Y-96118557D01*
X113370437Y-96141166D01*
X113373856Y-96164221D01*
X113375000Y-96187500D01*
X113375000Y-96762500D01*
X113373856Y-96785779D01*
X113370437Y-96808834D01*
X113364773Y-96831443D01*
X113356921Y-96853387D01*
X113346956Y-96874457D01*
X113334974Y-96894448D01*
X113321090Y-96913168D01*
X113305438Y-96930438D01*
X113288168Y-96946090D01*
X113269448Y-96959974D01*
X113249457Y-96971956D01*
X113228387Y-96981921D01*
X113206443Y-96989773D01*
X113183834Y-96995437D01*
X113160779Y-96998856D01*
X113137500Y-97000000D01*
X112662500Y-97000000D01*
X112639221Y-96998856D01*
X112616166Y-96995437D01*
X112593557Y-96989773D01*
X112571613Y-96981921D01*
X112550543Y-96971956D01*
X112530552Y-96959974D01*
X112511832Y-96946090D01*
X112494562Y-96930438D01*
X112478910Y-96913168D01*
X112465026Y-96894448D01*
X112453044Y-96874457D01*
X112443079Y-96853387D01*
X112435227Y-96831443D01*
X112429563Y-96808834D01*
X112426144Y-96785779D01*
X112425000Y-96762500D01*
X112425000Y-96187500D01*
X112426144Y-96164221D01*
X112429563Y-96141166D01*
X112435227Y-96118557D01*
X112443079Y-96096613D01*
X112453044Y-96075543D01*
X112465026Y-96055552D01*
X112478910Y-96036832D01*
X112494562Y-96019562D01*
X112511832Y-96003910D01*
X112530552Y-95990026D01*
X112550543Y-95978044D01*
X112571613Y-95968079D01*
X112593557Y-95960227D01*
X112616166Y-95954563D01*
X112639221Y-95951144D01*
X112662500Y-95950000D01*
X113137500Y-95950000D01*
X113160779Y-95951144D01*
X113160779Y-95951144D01*
G37*
D15*
G04 #@! TD*
G04 #@! TO.P,C4,1*
G04 #@! TO.N,Net-(C1-Pad2)*
X112900000Y-96475000D03*
D14*
G04 #@! TO.N,Net-(C4-Pad2)*
G04 #@! TO.C,C4*
G36*
X113160779Y-94201144D02*
X113183834Y-94204563D01*
X113206443Y-94210227D01*
X113228387Y-94218079D01*
X113249457Y-94228044D01*
X113269448Y-94240026D01*
X113288168Y-94253910D01*
X113305438Y-94269562D01*
X113321090Y-94286832D01*
X113334974Y-94305552D01*
X113346956Y-94325543D01*
X113356921Y-94346613D01*
X113364773Y-94368557D01*
X113370437Y-94391166D01*
X113373856Y-94414221D01*
X113375000Y-94437500D01*
X113375000Y-95012500D01*
X113373856Y-95035779D01*
X113370437Y-95058834D01*
X113364773Y-95081443D01*
X113356921Y-95103387D01*
X113346956Y-95124457D01*
X113334974Y-95144448D01*
X113321090Y-95163168D01*
X113305438Y-95180438D01*
X113288168Y-95196090D01*
X113269448Y-95209974D01*
X113249457Y-95221956D01*
X113228387Y-95231921D01*
X113206443Y-95239773D01*
X113183834Y-95245437D01*
X113160779Y-95248856D01*
X113137500Y-95250000D01*
X112662500Y-95250000D01*
X112639221Y-95248856D01*
X112616166Y-95245437D01*
X112593557Y-95239773D01*
X112571613Y-95231921D01*
X112550543Y-95221956D01*
X112530552Y-95209974D01*
X112511832Y-95196090D01*
X112494562Y-95180438D01*
X112478910Y-95163168D01*
X112465026Y-95144448D01*
X112453044Y-95124457D01*
X112443079Y-95103387D01*
X112435227Y-95081443D01*
X112429563Y-95058834D01*
X112426144Y-95035779D01*
X112425000Y-95012500D01*
X112425000Y-94437500D01*
X112426144Y-94414221D01*
X112429563Y-94391166D01*
X112435227Y-94368557D01*
X112443079Y-94346613D01*
X112453044Y-94325543D01*
X112465026Y-94305552D01*
X112478910Y-94286832D01*
X112494562Y-94269562D01*
X112511832Y-94253910D01*
X112530552Y-94240026D01*
X112550543Y-94228044D01*
X112571613Y-94218079D01*
X112593557Y-94210227D01*
X112616166Y-94204563D01*
X112639221Y-94201144D01*
X112662500Y-94200000D01*
X113137500Y-94200000D01*
X113160779Y-94201144D01*
X113160779Y-94201144D01*
G37*
D15*
G04 #@! TD*
G04 #@! TO.P,C4,2*
G04 #@! TO.N,Net-(C4-Pad2)*
X112900000Y-94725000D03*
D14*
G04 #@! TO.N,Net-(C5-Pad2)*
G04 #@! TO.C,C5*
G36*
X117260779Y-79251144D02*
X117283834Y-79254563D01*
X117306443Y-79260227D01*
X117328387Y-79268079D01*
X117349457Y-79278044D01*
X117369448Y-79290026D01*
X117388168Y-79303910D01*
X117405438Y-79319562D01*
X117421090Y-79336832D01*
X117434974Y-79355552D01*
X117446956Y-79375543D01*
X117456921Y-79396613D01*
X117464773Y-79418557D01*
X117470437Y-79441166D01*
X117473856Y-79464221D01*
X117475000Y-79487500D01*
X117475000Y-80062500D01*
X117473856Y-80085779D01*
X117470437Y-80108834D01*
X117464773Y-80131443D01*
X117456921Y-80153387D01*
X117446956Y-80174457D01*
X117434974Y-80194448D01*
X117421090Y-80213168D01*
X117405438Y-80230438D01*
X117388168Y-80246090D01*
X117369448Y-80259974D01*
X117349457Y-80271956D01*
X117328387Y-80281921D01*
X117306443Y-80289773D01*
X117283834Y-80295437D01*
X117260779Y-80298856D01*
X117237500Y-80300000D01*
X116762500Y-80300000D01*
X116739221Y-80298856D01*
X116716166Y-80295437D01*
X116693557Y-80289773D01*
X116671613Y-80281921D01*
X116650543Y-80271956D01*
X116630552Y-80259974D01*
X116611832Y-80246090D01*
X116594562Y-80230438D01*
X116578910Y-80213168D01*
X116565026Y-80194448D01*
X116553044Y-80174457D01*
X116543079Y-80153387D01*
X116535227Y-80131443D01*
X116529563Y-80108834D01*
X116526144Y-80085779D01*
X116525000Y-80062500D01*
X116525000Y-79487500D01*
X116526144Y-79464221D01*
X116529563Y-79441166D01*
X116535227Y-79418557D01*
X116543079Y-79396613D01*
X116553044Y-79375543D01*
X116565026Y-79355552D01*
X116578910Y-79336832D01*
X116594562Y-79319562D01*
X116611832Y-79303910D01*
X116630552Y-79290026D01*
X116650543Y-79278044D01*
X116671613Y-79268079D01*
X116693557Y-79260227D01*
X116716166Y-79254563D01*
X116739221Y-79251144D01*
X116762500Y-79250000D01*
X117237500Y-79250000D01*
X117260779Y-79251144D01*
X117260779Y-79251144D01*
G37*
D15*
G04 #@! TD*
G04 #@! TO.P,C5,2*
G04 #@! TO.N,Net-(C5-Pad2)*
X117000000Y-79775000D03*
D14*
G04 #@! TO.N,Net-(C2-Pad2)*
G04 #@! TO.C,C5*
G36*
X117260779Y-77501144D02*
X117283834Y-77504563D01*
X117306443Y-77510227D01*
X117328387Y-77518079D01*
X117349457Y-77528044D01*
X117369448Y-77540026D01*
X117388168Y-77553910D01*
X117405438Y-77569562D01*
X117421090Y-77586832D01*
X117434974Y-77605552D01*
X117446956Y-77625543D01*
X117456921Y-77646613D01*
X117464773Y-77668557D01*
X117470437Y-77691166D01*
X117473856Y-77714221D01*
X117475000Y-77737500D01*
X117475000Y-78312500D01*
X117473856Y-78335779D01*
X117470437Y-78358834D01*
X117464773Y-78381443D01*
X117456921Y-78403387D01*
X117446956Y-78424457D01*
X117434974Y-78444448D01*
X117421090Y-78463168D01*
X117405438Y-78480438D01*
X117388168Y-78496090D01*
X117369448Y-78509974D01*
X117349457Y-78521956D01*
X117328387Y-78531921D01*
X117306443Y-78539773D01*
X117283834Y-78545437D01*
X117260779Y-78548856D01*
X117237500Y-78550000D01*
X116762500Y-78550000D01*
X116739221Y-78548856D01*
X116716166Y-78545437D01*
X116693557Y-78539773D01*
X116671613Y-78531921D01*
X116650543Y-78521956D01*
X116630552Y-78509974D01*
X116611832Y-78496090D01*
X116594562Y-78480438D01*
X116578910Y-78463168D01*
X116565026Y-78444448D01*
X116553044Y-78424457D01*
X116543079Y-78403387D01*
X116535227Y-78381443D01*
X116529563Y-78358834D01*
X116526144Y-78335779D01*
X116525000Y-78312500D01*
X116525000Y-77737500D01*
X116526144Y-77714221D01*
X116529563Y-77691166D01*
X116535227Y-77668557D01*
X116543079Y-77646613D01*
X116553044Y-77625543D01*
X116565026Y-77605552D01*
X116578910Y-77586832D01*
X116594562Y-77569562D01*
X116611832Y-77553910D01*
X116630552Y-77540026D01*
X116650543Y-77528044D01*
X116671613Y-77518079D01*
X116693557Y-77510227D01*
X116716166Y-77504563D01*
X116739221Y-77501144D01*
X116762500Y-77500000D01*
X117237500Y-77500000D01*
X117260779Y-77501144D01*
X117260779Y-77501144D01*
G37*
D15*
G04 #@! TD*
G04 #@! TO.P,C5,1*
G04 #@! TO.N,Net-(C2-Pad2)*
X117000000Y-78025000D03*
D14*
G04 #@! TO.N,Net-(J1-Pad2)*
G04 #@! TO.C,R1*
G36*
X109760779Y-93201144D02*
X109783834Y-93204563D01*
X109806443Y-93210227D01*
X109828387Y-93218079D01*
X109849457Y-93228044D01*
X109869448Y-93240026D01*
X109888168Y-93253910D01*
X109905438Y-93269562D01*
X109921090Y-93286832D01*
X109934974Y-93305552D01*
X109946956Y-93325543D01*
X109956921Y-93346613D01*
X109964773Y-93368557D01*
X109970437Y-93391166D01*
X109973856Y-93414221D01*
X109975000Y-93437500D01*
X109975000Y-94012500D01*
X109973856Y-94035779D01*
X109970437Y-94058834D01*
X109964773Y-94081443D01*
X109956921Y-94103387D01*
X109946956Y-94124457D01*
X109934974Y-94144448D01*
X109921090Y-94163168D01*
X109905438Y-94180438D01*
X109888168Y-94196090D01*
X109869448Y-94209974D01*
X109849457Y-94221956D01*
X109828387Y-94231921D01*
X109806443Y-94239773D01*
X109783834Y-94245437D01*
X109760779Y-94248856D01*
X109737500Y-94250000D01*
X109262500Y-94250000D01*
X109239221Y-94248856D01*
X109216166Y-94245437D01*
X109193557Y-94239773D01*
X109171613Y-94231921D01*
X109150543Y-94221956D01*
X109130552Y-94209974D01*
X109111832Y-94196090D01*
X109094562Y-94180438D01*
X109078910Y-94163168D01*
X109065026Y-94144448D01*
X109053044Y-94124457D01*
X109043079Y-94103387D01*
X109035227Y-94081443D01*
X109029563Y-94058834D01*
X109026144Y-94035779D01*
X109025000Y-94012500D01*
X109025000Y-93437500D01*
X109026144Y-93414221D01*
X109029563Y-93391166D01*
X109035227Y-93368557D01*
X109043079Y-93346613D01*
X109053044Y-93325543D01*
X109065026Y-93305552D01*
X109078910Y-93286832D01*
X109094562Y-93269562D01*
X109111832Y-93253910D01*
X109130552Y-93240026D01*
X109150543Y-93228044D01*
X109171613Y-93218079D01*
X109193557Y-93210227D01*
X109216166Y-93204563D01*
X109239221Y-93201144D01*
X109262500Y-93200000D01*
X109737500Y-93200000D01*
X109760779Y-93201144D01*
X109760779Y-93201144D01*
G37*
D15*
G04 #@! TD*
G04 #@! TO.P,R1,2*
G04 #@! TO.N,Net-(J1-Pad2)*
X109500000Y-93725000D03*
D14*
G04 #@! TO.N,Net-(C1-Pad2)*
G04 #@! TO.C,R1*
G36*
X109760779Y-94951144D02*
X109783834Y-94954563D01*
X109806443Y-94960227D01*
X109828387Y-94968079D01*
X109849457Y-94978044D01*
X109869448Y-94990026D01*
X109888168Y-95003910D01*
X109905438Y-95019562D01*
X109921090Y-95036832D01*
X109934974Y-95055552D01*
X109946956Y-95075543D01*
X109956921Y-95096613D01*
X109964773Y-95118557D01*
X109970437Y-95141166D01*
X109973856Y-95164221D01*
X109975000Y-95187500D01*
X109975000Y-95762500D01*
X109973856Y-95785779D01*
X109970437Y-95808834D01*
X109964773Y-95831443D01*
X109956921Y-95853387D01*
X109946956Y-95874457D01*
X109934974Y-95894448D01*
X109921090Y-95913168D01*
X109905438Y-95930438D01*
X109888168Y-95946090D01*
X109869448Y-95959974D01*
X109849457Y-95971956D01*
X109828387Y-95981921D01*
X109806443Y-95989773D01*
X109783834Y-95995437D01*
X109760779Y-95998856D01*
X109737500Y-96000000D01*
X109262500Y-96000000D01*
X109239221Y-95998856D01*
X109216166Y-95995437D01*
X109193557Y-95989773D01*
X109171613Y-95981921D01*
X109150543Y-95971956D01*
X109130552Y-95959974D01*
X109111832Y-95946090D01*
X109094562Y-95930438D01*
X109078910Y-95913168D01*
X109065026Y-95894448D01*
X109053044Y-95874457D01*
X109043079Y-95853387D01*
X109035227Y-95831443D01*
X109029563Y-95808834D01*
X109026144Y-95785779D01*
X109025000Y-95762500D01*
X109025000Y-95187500D01*
X109026144Y-95164221D01*
X109029563Y-95141166D01*
X109035227Y-95118557D01*
X109043079Y-95096613D01*
X109053044Y-95075543D01*
X109065026Y-95055552D01*
X109078910Y-95036832D01*
X109094562Y-95019562D01*
X109111832Y-95003910D01*
X109130552Y-94990026D01*
X109150543Y-94978044D01*
X109171613Y-94968079D01*
X109193557Y-94960227D01*
X109216166Y-94954563D01*
X109239221Y-94951144D01*
X109262500Y-94950000D01*
X109737500Y-94950000D01*
X109760779Y-94951144D01*
X109760779Y-94951144D01*
G37*
D15*
G04 #@! TD*
G04 #@! TO.P,R1,1*
G04 #@! TO.N,Net-(C1-Pad2)*
X109500000Y-95475000D03*
D14*
G04 #@! TO.N,filter1_out*
G04 #@! TO.C,R2*
G36*
X115560779Y-80951144D02*
X115583834Y-80954563D01*
X115606443Y-80960227D01*
X115628387Y-80968079D01*
X115649457Y-80978044D01*
X115669448Y-80990026D01*
X115688168Y-81003910D01*
X115705438Y-81019562D01*
X115721090Y-81036832D01*
X115734974Y-81055552D01*
X115746956Y-81075543D01*
X115756921Y-81096613D01*
X115764773Y-81118557D01*
X115770437Y-81141166D01*
X115773856Y-81164221D01*
X115775000Y-81187500D01*
X115775000Y-81762500D01*
X115773856Y-81785779D01*
X115770437Y-81808834D01*
X115764773Y-81831443D01*
X115756921Y-81853387D01*
X115746956Y-81874457D01*
X115734974Y-81894448D01*
X115721090Y-81913168D01*
X115705438Y-81930438D01*
X115688168Y-81946090D01*
X115669448Y-81959974D01*
X115649457Y-81971956D01*
X115628387Y-81981921D01*
X115606443Y-81989773D01*
X115583834Y-81995437D01*
X115560779Y-81998856D01*
X115537500Y-82000000D01*
X115062500Y-82000000D01*
X115039221Y-81998856D01*
X115016166Y-81995437D01*
X114993557Y-81989773D01*
X114971613Y-81981921D01*
X114950543Y-81971956D01*
X114930552Y-81959974D01*
X114911832Y-81946090D01*
X114894562Y-81930438D01*
X114878910Y-81913168D01*
X114865026Y-81894448D01*
X114853044Y-81874457D01*
X114843079Y-81853387D01*
X114835227Y-81831443D01*
X114829563Y-81808834D01*
X114826144Y-81785779D01*
X114825000Y-81762500D01*
X114825000Y-81187500D01*
X114826144Y-81164221D01*
X114829563Y-81141166D01*
X114835227Y-81118557D01*
X114843079Y-81096613D01*
X114853044Y-81075543D01*
X114865026Y-81055552D01*
X114878910Y-81036832D01*
X114894562Y-81019562D01*
X114911832Y-81003910D01*
X114930552Y-80990026D01*
X114950543Y-80978044D01*
X114971613Y-80968079D01*
X114993557Y-80960227D01*
X115016166Y-80954563D01*
X115039221Y-80951144D01*
X115062500Y-80950000D01*
X115537500Y-80950000D01*
X115560779Y-80951144D01*
X115560779Y-80951144D01*
G37*
D15*
G04 #@! TD*
G04 #@! TO.P,R2,2*
G04 #@! TO.N,filter1_out*
X115300000Y-81475000D03*
D14*
G04 #@! TO.N,Net-(C2-Pad2)*
G04 #@! TO.C,R2*
G36*
X115560779Y-79201144D02*
X115583834Y-79204563D01*
X115606443Y-79210227D01*
X115628387Y-79218079D01*
X115649457Y-79228044D01*
X115669448Y-79240026D01*
X115688168Y-79253910D01*
X115705438Y-79269562D01*
X115721090Y-79286832D01*
X115734974Y-79305552D01*
X115746956Y-79325543D01*
X115756921Y-79346613D01*
X115764773Y-79368557D01*
X115770437Y-79391166D01*
X115773856Y-79414221D01*
X115775000Y-79437500D01*
X115775000Y-80012500D01*
X115773856Y-80035779D01*
X115770437Y-80058834D01*
X115764773Y-80081443D01*
X115756921Y-80103387D01*
X115746956Y-80124457D01*
X115734974Y-80144448D01*
X115721090Y-80163168D01*
X115705438Y-80180438D01*
X115688168Y-80196090D01*
X115669448Y-80209974D01*
X115649457Y-80221956D01*
X115628387Y-80231921D01*
X115606443Y-80239773D01*
X115583834Y-80245437D01*
X115560779Y-80248856D01*
X115537500Y-80250000D01*
X115062500Y-80250000D01*
X115039221Y-80248856D01*
X115016166Y-80245437D01*
X114993557Y-80239773D01*
X114971613Y-80231921D01*
X114950543Y-80221956D01*
X114930552Y-80209974D01*
X114911832Y-80196090D01*
X114894562Y-80180438D01*
X114878910Y-80163168D01*
X114865026Y-80144448D01*
X114853044Y-80124457D01*
X114843079Y-80103387D01*
X114835227Y-80081443D01*
X114829563Y-80058834D01*
X114826144Y-80035779D01*
X114825000Y-80012500D01*
X114825000Y-79437500D01*
X114826144Y-79414221D01*
X114829563Y-79391166D01*
X114835227Y-79368557D01*
X114843079Y-79346613D01*
X114853044Y-79325543D01*
X114865026Y-79305552D01*
X114878910Y-79286832D01*
X114894562Y-79269562D01*
X114911832Y-79253910D01*
X114930552Y-79240026D01*
X114950543Y-79228044D01*
X114971613Y-79218079D01*
X114993557Y-79210227D01*
X115016166Y-79204563D01*
X115039221Y-79201144D01*
X115062500Y-79200000D01*
X115537500Y-79200000D01*
X115560779Y-79201144D01*
X115560779Y-79201144D01*
G37*
D15*
G04 #@! TD*
G04 #@! TO.P,R2,1*
G04 #@! TO.N,Net-(C2-Pad2)*
X115300000Y-79725000D03*
D14*
G04 #@! TO.N,Net-(C1-Pad2)*
G04 #@! TO.C,R3*
G36*
X114760779Y-95951144D02*
X114783834Y-95954563D01*
X114806443Y-95960227D01*
X114828387Y-95968079D01*
X114849457Y-95978044D01*
X114869448Y-95990026D01*
X114888168Y-96003910D01*
X114905438Y-96019562D01*
X114921090Y-96036832D01*
X114934974Y-96055552D01*
X114946956Y-96075543D01*
X114956921Y-96096613D01*
X114964773Y-96118557D01*
X114970437Y-96141166D01*
X114973856Y-96164221D01*
X114975000Y-96187500D01*
X114975000Y-96762500D01*
X114973856Y-96785779D01*
X114970437Y-96808834D01*
X114964773Y-96831443D01*
X114956921Y-96853387D01*
X114946956Y-96874457D01*
X114934974Y-96894448D01*
X114921090Y-96913168D01*
X114905438Y-96930438D01*
X114888168Y-96946090D01*
X114869448Y-96959974D01*
X114849457Y-96971956D01*
X114828387Y-96981921D01*
X114806443Y-96989773D01*
X114783834Y-96995437D01*
X114760779Y-96998856D01*
X114737500Y-97000000D01*
X114262500Y-97000000D01*
X114239221Y-96998856D01*
X114216166Y-96995437D01*
X114193557Y-96989773D01*
X114171613Y-96981921D01*
X114150543Y-96971956D01*
X114130552Y-96959974D01*
X114111832Y-96946090D01*
X114094562Y-96930438D01*
X114078910Y-96913168D01*
X114065026Y-96894448D01*
X114053044Y-96874457D01*
X114043079Y-96853387D01*
X114035227Y-96831443D01*
X114029563Y-96808834D01*
X114026144Y-96785779D01*
X114025000Y-96762500D01*
X114025000Y-96187500D01*
X114026144Y-96164221D01*
X114029563Y-96141166D01*
X114035227Y-96118557D01*
X114043079Y-96096613D01*
X114053044Y-96075543D01*
X114065026Y-96055552D01*
X114078910Y-96036832D01*
X114094562Y-96019562D01*
X114111832Y-96003910D01*
X114130552Y-95990026D01*
X114150543Y-95978044D01*
X114171613Y-95968079D01*
X114193557Y-95960227D01*
X114216166Y-95954563D01*
X114239221Y-95951144D01*
X114262500Y-95950000D01*
X114737500Y-95950000D01*
X114760779Y-95951144D01*
X114760779Y-95951144D01*
G37*
D15*
G04 #@! TD*
G04 #@! TO.P,R3,1*
G04 #@! TO.N,Net-(C1-Pad2)*
X114500000Y-96475000D03*
D14*
G04 #@! TO.N,GND*
G04 #@! TO.C,R3*
G36*
X114760779Y-94201144D02*
X114783834Y-94204563D01*
X114806443Y-94210227D01*
X114828387Y-94218079D01*
X114849457Y-94228044D01*
X114869448Y-94240026D01*
X114888168Y-94253910D01*
X114905438Y-94269562D01*
X114921090Y-94286832D01*
X114934974Y-94305552D01*
X114946956Y-94325543D01*
X114956921Y-94346613D01*
X114964773Y-94368557D01*
X114970437Y-94391166D01*
X114973856Y-94414221D01*
X114975000Y-94437500D01*
X114975000Y-95012500D01*
X114973856Y-95035779D01*
X114970437Y-95058834D01*
X114964773Y-95081443D01*
X114956921Y-95103387D01*
X114946956Y-95124457D01*
X114934974Y-95144448D01*
X114921090Y-95163168D01*
X114905438Y-95180438D01*
X114888168Y-95196090D01*
X114869448Y-95209974D01*
X114849457Y-95221956D01*
X114828387Y-95231921D01*
X114806443Y-95239773D01*
X114783834Y-95245437D01*
X114760779Y-95248856D01*
X114737500Y-95250000D01*
X114262500Y-95250000D01*
X114239221Y-95248856D01*
X114216166Y-95245437D01*
X114193557Y-95239773D01*
X114171613Y-95231921D01*
X114150543Y-95221956D01*
X114130552Y-95209974D01*
X114111832Y-95196090D01*
X114094562Y-95180438D01*
X114078910Y-95163168D01*
X114065026Y-95144448D01*
X114053044Y-95124457D01*
X114043079Y-95103387D01*
X114035227Y-95081443D01*
X114029563Y-95058834D01*
X114026144Y-95035779D01*
X114025000Y-95012500D01*
X114025000Y-94437500D01*
X114026144Y-94414221D01*
X114029563Y-94391166D01*
X114035227Y-94368557D01*
X114043079Y-94346613D01*
X114053044Y-94325543D01*
X114065026Y-94305552D01*
X114078910Y-94286832D01*
X114094562Y-94269562D01*
X114111832Y-94253910D01*
X114130552Y-94240026D01*
X114150543Y-94228044D01*
X114171613Y-94218079D01*
X114193557Y-94210227D01*
X114216166Y-94204563D01*
X114239221Y-94201144D01*
X114262500Y-94200000D01*
X114737500Y-94200000D01*
X114760779Y-94201144D01*
X114760779Y-94201144D01*
G37*
D15*
G04 #@! TD*
G04 #@! TO.P,R3,2*
G04 #@! TO.N,GND*
X114500000Y-94725000D03*
D14*
G04 #@! TO.N,Net-(C2-Pad2)*
G04 #@! TO.C,R4*
G36*
X115560779Y-77551144D02*
X115583834Y-77554563D01*
X115606443Y-77560227D01*
X115628387Y-77568079D01*
X115649457Y-77578044D01*
X115669448Y-77590026D01*
X115688168Y-77603910D01*
X115705438Y-77619562D01*
X115721090Y-77636832D01*
X115734974Y-77655552D01*
X115746956Y-77675543D01*
X115756921Y-77696613D01*
X115764773Y-77718557D01*
X115770437Y-77741166D01*
X115773856Y-77764221D01*
X115775000Y-77787500D01*
X115775000Y-78362500D01*
X115773856Y-78385779D01*
X115770437Y-78408834D01*
X115764773Y-78431443D01*
X115756921Y-78453387D01*
X115746956Y-78474457D01*
X115734974Y-78494448D01*
X115721090Y-78513168D01*
X115705438Y-78530438D01*
X115688168Y-78546090D01*
X115669448Y-78559974D01*
X115649457Y-78571956D01*
X115628387Y-78581921D01*
X115606443Y-78589773D01*
X115583834Y-78595437D01*
X115560779Y-78598856D01*
X115537500Y-78600000D01*
X115062500Y-78600000D01*
X115039221Y-78598856D01*
X115016166Y-78595437D01*
X114993557Y-78589773D01*
X114971613Y-78581921D01*
X114950543Y-78571956D01*
X114930552Y-78559974D01*
X114911832Y-78546090D01*
X114894562Y-78530438D01*
X114878910Y-78513168D01*
X114865026Y-78494448D01*
X114853044Y-78474457D01*
X114843079Y-78453387D01*
X114835227Y-78431443D01*
X114829563Y-78408834D01*
X114826144Y-78385779D01*
X114825000Y-78362500D01*
X114825000Y-77787500D01*
X114826144Y-77764221D01*
X114829563Y-77741166D01*
X114835227Y-77718557D01*
X114843079Y-77696613D01*
X114853044Y-77675543D01*
X114865026Y-77655552D01*
X114878910Y-77636832D01*
X114894562Y-77619562D01*
X114911832Y-77603910D01*
X114930552Y-77590026D01*
X114950543Y-77578044D01*
X114971613Y-77568079D01*
X114993557Y-77560227D01*
X115016166Y-77554563D01*
X115039221Y-77551144D01*
X115062500Y-77550000D01*
X115537500Y-77550000D01*
X115560779Y-77551144D01*
X115560779Y-77551144D01*
G37*
D15*
G04 #@! TD*
G04 #@! TO.P,R4,1*
G04 #@! TO.N,Net-(C2-Pad2)*
X115300000Y-78075000D03*
D14*
G04 #@! TO.N,GND*
G04 #@! TO.C,R4*
G36*
X115560779Y-75801144D02*
X115583834Y-75804563D01*
X115606443Y-75810227D01*
X115628387Y-75818079D01*
X115649457Y-75828044D01*
X115669448Y-75840026D01*
X115688168Y-75853910D01*
X115705438Y-75869562D01*
X115721090Y-75886832D01*
X115734974Y-75905552D01*
X115746956Y-75925543D01*
X115756921Y-75946613D01*
X115764773Y-75968557D01*
X115770437Y-75991166D01*
X115773856Y-76014221D01*
X115775000Y-76037500D01*
X115775000Y-76612500D01*
X115773856Y-76635779D01*
X115770437Y-76658834D01*
X115764773Y-76681443D01*
X115756921Y-76703387D01*
X115746956Y-76724457D01*
X115734974Y-76744448D01*
X115721090Y-76763168D01*
X115705438Y-76780438D01*
X115688168Y-76796090D01*
X115669448Y-76809974D01*
X115649457Y-76821956D01*
X115628387Y-76831921D01*
X115606443Y-76839773D01*
X115583834Y-76845437D01*
X115560779Y-76848856D01*
X115537500Y-76850000D01*
X115062500Y-76850000D01*
X115039221Y-76848856D01*
X115016166Y-76845437D01*
X114993557Y-76839773D01*
X114971613Y-76831921D01*
X114950543Y-76821956D01*
X114930552Y-76809974D01*
X114911832Y-76796090D01*
X114894562Y-76780438D01*
X114878910Y-76763168D01*
X114865026Y-76744448D01*
X114853044Y-76724457D01*
X114843079Y-76703387D01*
X114835227Y-76681443D01*
X114829563Y-76658834D01*
X114826144Y-76635779D01*
X114825000Y-76612500D01*
X114825000Y-76037500D01*
X114826144Y-76014221D01*
X114829563Y-75991166D01*
X114835227Y-75968557D01*
X114843079Y-75946613D01*
X114853044Y-75925543D01*
X114865026Y-75905552D01*
X114878910Y-75886832D01*
X114894562Y-75869562D01*
X114911832Y-75853910D01*
X114930552Y-75840026D01*
X114950543Y-75828044D01*
X114971613Y-75818079D01*
X114993557Y-75810227D01*
X115016166Y-75804563D01*
X115039221Y-75801144D01*
X115062500Y-75800000D01*
X115537500Y-75800000D01*
X115560779Y-75801144D01*
X115560779Y-75801144D01*
G37*
D15*
G04 #@! TD*
G04 #@! TO.P,R4,2*
G04 #@! TO.N,GND*
X115300000Y-76325000D03*
D14*
G04 #@! TO.N,GND*
G04 #@! TO.C,R5*
G36*
X114060779Y-79201144D02*
X114083834Y-79204563D01*
X114106443Y-79210227D01*
X114128387Y-79218079D01*
X114149457Y-79228044D01*
X114169448Y-79240026D01*
X114188168Y-79253910D01*
X114205438Y-79269562D01*
X114221090Y-79286832D01*
X114234974Y-79305552D01*
X114246956Y-79325543D01*
X114256921Y-79346613D01*
X114264773Y-79368557D01*
X114270437Y-79391166D01*
X114273856Y-79414221D01*
X114275000Y-79437500D01*
X114275000Y-80012500D01*
X114273856Y-80035779D01*
X114270437Y-80058834D01*
X114264773Y-80081443D01*
X114256921Y-80103387D01*
X114246956Y-80124457D01*
X114234974Y-80144448D01*
X114221090Y-80163168D01*
X114205438Y-80180438D01*
X114188168Y-80196090D01*
X114169448Y-80209974D01*
X114149457Y-80221956D01*
X114128387Y-80231921D01*
X114106443Y-80239773D01*
X114083834Y-80245437D01*
X114060779Y-80248856D01*
X114037500Y-80250000D01*
X113562500Y-80250000D01*
X113539221Y-80248856D01*
X113516166Y-80245437D01*
X113493557Y-80239773D01*
X113471613Y-80231921D01*
X113450543Y-80221956D01*
X113430552Y-80209974D01*
X113411832Y-80196090D01*
X113394562Y-80180438D01*
X113378910Y-80163168D01*
X113365026Y-80144448D01*
X113353044Y-80124457D01*
X113343079Y-80103387D01*
X113335227Y-80081443D01*
X113329563Y-80058834D01*
X113326144Y-80035779D01*
X113325000Y-80012500D01*
X113325000Y-79437500D01*
X113326144Y-79414221D01*
X113329563Y-79391166D01*
X113335227Y-79368557D01*
X113343079Y-79346613D01*
X113353044Y-79325543D01*
X113365026Y-79305552D01*
X113378910Y-79286832D01*
X113394562Y-79269562D01*
X113411832Y-79253910D01*
X113430552Y-79240026D01*
X113450543Y-79228044D01*
X113471613Y-79218079D01*
X113493557Y-79210227D01*
X113516166Y-79204563D01*
X113539221Y-79201144D01*
X113562500Y-79200000D01*
X114037500Y-79200000D01*
X114060779Y-79201144D01*
X114060779Y-79201144D01*
G37*
D15*
G04 #@! TD*
G04 #@! TO.P,R5,2*
G04 #@! TO.N,GND*
X113800000Y-79725000D03*
D14*
G04 #@! TO.N,filter1_out*
G04 #@! TO.C,R5*
G36*
X114060779Y-80951144D02*
X114083834Y-80954563D01*
X114106443Y-80960227D01*
X114128387Y-80968079D01*
X114149457Y-80978044D01*
X114169448Y-80990026D01*
X114188168Y-81003910D01*
X114205438Y-81019562D01*
X114221090Y-81036832D01*
X114234974Y-81055552D01*
X114246956Y-81075543D01*
X114256921Y-81096613D01*
X114264773Y-81118557D01*
X114270437Y-81141166D01*
X114273856Y-81164221D01*
X114275000Y-81187500D01*
X114275000Y-81762500D01*
X114273856Y-81785779D01*
X114270437Y-81808834D01*
X114264773Y-81831443D01*
X114256921Y-81853387D01*
X114246956Y-81874457D01*
X114234974Y-81894448D01*
X114221090Y-81913168D01*
X114205438Y-81930438D01*
X114188168Y-81946090D01*
X114169448Y-81959974D01*
X114149457Y-81971956D01*
X114128387Y-81981921D01*
X114106443Y-81989773D01*
X114083834Y-81995437D01*
X114060779Y-81998856D01*
X114037500Y-82000000D01*
X113562500Y-82000000D01*
X113539221Y-81998856D01*
X113516166Y-81995437D01*
X113493557Y-81989773D01*
X113471613Y-81981921D01*
X113450543Y-81971956D01*
X113430552Y-81959974D01*
X113411832Y-81946090D01*
X113394562Y-81930438D01*
X113378910Y-81913168D01*
X113365026Y-81894448D01*
X113353044Y-81874457D01*
X113343079Y-81853387D01*
X113335227Y-81831443D01*
X113329563Y-81808834D01*
X113326144Y-81785779D01*
X113325000Y-81762500D01*
X113325000Y-81187500D01*
X113326144Y-81164221D01*
X113329563Y-81141166D01*
X113335227Y-81118557D01*
X113343079Y-81096613D01*
X113353044Y-81075543D01*
X113365026Y-81055552D01*
X113378910Y-81036832D01*
X113394562Y-81019562D01*
X113411832Y-81003910D01*
X113430552Y-80990026D01*
X113450543Y-80978044D01*
X113471613Y-80968079D01*
X113493557Y-80960227D01*
X113516166Y-80954563D01*
X113539221Y-80951144D01*
X113562500Y-80950000D01*
X114037500Y-80950000D01*
X114060779Y-80951144D01*
X114060779Y-80951144D01*
G37*
D15*
G04 #@! TD*
G04 #@! TO.P,R5,1*
G04 #@! TO.N,filter1_out*
X113800000Y-81475000D03*
D14*
G04 #@! TO.N,GND*
G04 #@! TO.C,R6*
G36*
X110460779Y-77201144D02*
X110483834Y-77204563D01*
X110506443Y-77210227D01*
X110528387Y-77218079D01*
X110549457Y-77228044D01*
X110569448Y-77240026D01*
X110588168Y-77253910D01*
X110605438Y-77269562D01*
X110621090Y-77286832D01*
X110634974Y-77305552D01*
X110646956Y-77325543D01*
X110656921Y-77346613D01*
X110664773Y-77368557D01*
X110670437Y-77391166D01*
X110673856Y-77414221D01*
X110675000Y-77437500D01*
X110675000Y-78012500D01*
X110673856Y-78035779D01*
X110670437Y-78058834D01*
X110664773Y-78081443D01*
X110656921Y-78103387D01*
X110646956Y-78124457D01*
X110634974Y-78144448D01*
X110621090Y-78163168D01*
X110605438Y-78180438D01*
X110588168Y-78196090D01*
X110569448Y-78209974D01*
X110549457Y-78221956D01*
X110528387Y-78231921D01*
X110506443Y-78239773D01*
X110483834Y-78245437D01*
X110460779Y-78248856D01*
X110437500Y-78250000D01*
X109962500Y-78250000D01*
X109939221Y-78248856D01*
X109916166Y-78245437D01*
X109893557Y-78239773D01*
X109871613Y-78231921D01*
X109850543Y-78221956D01*
X109830552Y-78209974D01*
X109811832Y-78196090D01*
X109794562Y-78180438D01*
X109778910Y-78163168D01*
X109765026Y-78144448D01*
X109753044Y-78124457D01*
X109743079Y-78103387D01*
X109735227Y-78081443D01*
X109729563Y-78058834D01*
X109726144Y-78035779D01*
X109725000Y-78012500D01*
X109725000Y-77437500D01*
X109726144Y-77414221D01*
X109729563Y-77391166D01*
X109735227Y-77368557D01*
X109743079Y-77346613D01*
X109753044Y-77325543D01*
X109765026Y-77305552D01*
X109778910Y-77286832D01*
X109794562Y-77269562D01*
X109811832Y-77253910D01*
X109830552Y-77240026D01*
X109850543Y-77228044D01*
X109871613Y-77218079D01*
X109893557Y-77210227D01*
X109916166Y-77204563D01*
X109939221Y-77201144D01*
X109962500Y-77200000D01*
X110437500Y-77200000D01*
X110460779Y-77201144D01*
X110460779Y-77201144D01*
G37*
D15*
G04 #@! TD*
G04 #@! TO.P,R6,2*
G04 #@! TO.N,GND*
X110200000Y-77725000D03*
D14*
G04 #@! TO.N,+BATT*
G04 #@! TO.C,R6*
G36*
X110460779Y-78951144D02*
X110483834Y-78954563D01*
X110506443Y-78960227D01*
X110528387Y-78968079D01*
X110549457Y-78978044D01*
X110569448Y-78990026D01*
X110588168Y-79003910D01*
X110605438Y-79019562D01*
X110621090Y-79036832D01*
X110634974Y-79055552D01*
X110646956Y-79075543D01*
X110656921Y-79096613D01*
X110664773Y-79118557D01*
X110670437Y-79141166D01*
X110673856Y-79164221D01*
X110675000Y-79187500D01*
X110675000Y-79762500D01*
X110673856Y-79785779D01*
X110670437Y-79808834D01*
X110664773Y-79831443D01*
X110656921Y-79853387D01*
X110646956Y-79874457D01*
X110634974Y-79894448D01*
X110621090Y-79913168D01*
X110605438Y-79930438D01*
X110588168Y-79946090D01*
X110569448Y-79959974D01*
X110549457Y-79971956D01*
X110528387Y-79981921D01*
X110506443Y-79989773D01*
X110483834Y-79995437D01*
X110460779Y-79998856D01*
X110437500Y-80000000D01*
X109962500Y-80000000D01*
X109939221Y-79998856D01*
X109916166Y-79995437D01*
X109893557Y-79989773D01*
X109871613Y-79981921D01*
X109850543Y-79971956D01*
X109830552Y-79959974D01*
X109811832Y-79946090D01*
X109794562Y-79930438D01*
X109778910Y-79913168D01*
X109765026Y-79894448D01*
X109753044Y-79874457D01*
X109743079Y-79853387D01*
X109735227Y-79831443D01*
X109729563Y-79808834D01*
X109726144Y-79785779D01*
X109725000Y-79762500D01*
X109725000Y-79187500D01*
X109726144Y-79164221D01*
X109729563Y-79141166D01*
X109735227Y-79118557D01*
X109743079Y-79096613D01*
X109753044Y-79075543D01*
X109765026Y-79055552D01*
X109778910Y-79036832D01*
X109794562Y-79019562D01*
X109811832Y-79003910D01*
X109830552Y-78990026D01*
X109850543Y-78978044D01*
X109871613Y-78968079D01*
X109893557Y-78960227D01*
X109916166Y-78954563D01*
X109939221Y-78951144D01*
X109962500Y-78950000D01*
X110437500Y-78950000D01*
X110460779Y-78951144D01*
X110460779Y-78951144D01*
G37*
D15*
G04 #@! TD*
G04 #@! TO.P,R6,1*
G04 #@! TO.N,+BATT*
X110200000Y-79475000D03*
D14*
G04 #@! TO.N,GND*
G04 #@! TO.C,R7*
G36*
X112260779Y-77201144D02*
X112283834Y-77204563D01*
X112306443Y-77210227D01*
X112328387Y-77218079D01*
X112349457Y-77228044D01*
X112369448Y-77240026D01*
X112388168Y-77253910D01*
X112405438Y-77269562D01*
X112421090Y-77286832D01*
X112434974Y-77305552D01*
X112446956Y-77325543D01*
X112456921Y-77346613D01*
X112464773Y-77368557D01*
X112470437Y-77391166D01*
X112473856Y-77414221D01*
X112475000Y-77437500D01*
X112475000Y-78012500D01*
X112473856Y-78035779D01*
X112470437Y-78058834D01*
X112464773Y-78081443D01*
X112456921Y-78103387D01*
X112446956Y-78124457D01*
X112434974Y-78144448D01*
X112421090Y-78163168D01*
X112405438Y-78180438D01*
X112388168Y-78196090D01*
X112369448Y-78209974D01*
X112349457Y-78221956D01*
X112328387Y-78231921D01*
X112306443Y-78239773D01*
X112283834Y-78245437D01*
X112260779Y-78248856D01*
X112237500Y-78250000D01*
X111762500Y-78250000D01*
X111739221Y-78248856D01*
X111716166Y-78245437D01*
X111693557Y-78239773D01*
X111671613Y-78231921D01*
X111650543Y-78221956D01*
X111630552Y-78209974D01*
X111611832Y-78196090D01*
X111594562Y-78180438D01*
X111578910Y-78163168D01*
X111565026Y-78144448D01*
X111553044Y-78124457D01*
X111543079Y-78103387D01*
X111535227Y-78081443D01*
X111529563Y-78058834D01*
X111526144Y-78035779D01*
X111525000Y-78012500D01*
X111525000Y-77437500D01*
X111526144Y-77414221D01*
X111529563Y-77391166D01*
X111535227Y-77368557D01*
X111543079Y-77346613D01*
X111553044Y-77325543D01*
X111565026Y-77305552D01*
X111578910Y-77286832D01*
X111594562Y-77269562D01*
X111611832Y-77253910D01*
X111630552Y-77240026D01*
X111650543Y-77228044D01*
X111671613Y-77218079D01*
X111693557Y-77210227D01*
X111716166Y-77204563D01*
X111739221Y-77201144D01*
X111762500Y-77200000D01*
X112237500Y-77200000D01*
X112260779Y-77201144D01*
X112260779Y-77201144D01*
G37*
D15*
G04 #@! TD*
G04 #@! TO.P,R7,1*
G04 #@! TO.N,GND*
X112000000Y-77725000D03*
D14*
G04 #@! TO.N,-BATT*
G04 #@! TO.C,R7*
G36*
X112260779Y-78951144D02*
X112283834Y-78954563D01*
X112306443Y-78960227D01*
X112328387Y-78968079D01*
X112349457Y-78978044D01*
X112369448Y-78990026D01*
X112388168Y-79003910D01*
X112405438Y-79019562D01*
X112421090Y-79036832D01*
X112434974Y-79055552D01*
X112446956Y-79075543D01*
X112456921Y-79096613D01*
X112464773Y-79118557D01*
X112470437Y-79141166D01*
X112473856Y-79164221D01*
X112475000Y-79187500D01*
X112475000Y-79762500D01*
X112473856Y-79785779D01*
X112470437Y-79808834D01*
X112464773Y-79831443D01*
X112456921Y-79853387D01*
X112446956Y-79874457D01*
X112434974Y-79894448D01*
X112421090Y-79913168D01*
X112405438Y-79930438D01*
X112388168Y-79946090D01*
X112369448Y-79959974D01*
X112349457Y-79971956D01*
X112328387Y-79981921D01*
X112306443Y-79989773D01*
X112283834Y-79995437D01*
X112260779Y-79998856D01*
X112237500Y-80000000D01*
X111762500Y-80000000D01*
X111739221Y-79998856D01*
X111716166Y-79995437D01*
X111693557Y-79989773D01*
X111671613Y-79981921D01*
X111650543Y-79971956D01*
X111630552Y-79959974D01*
X111611832Y-79946090D01*
X111594562Y-79930438D01*
X111578910Y-79913168D01*
X111565026Y-79894448D01*
X111553044Y-79874457D01*
X111543079Y-79853387D01*
X111535227Y-79831443D01*
X111529563Y-79808834D01*
X111526144Y-79785779D01*
X111525000Y-79762500D01*
X111525000Y-79187500D01*
X111526144Y-79164221D01*
X111529563Y-79141166D01*
X111535227Y-79118557D01*
X111543079Y-79096613D01*
X111553044Y-79075543D01*
X111565026Y-79055552D01*
X111578910Y-79036832D01*
X111594562Y-79019562D01*
X111611832Y-79003910D01*
X111630552Y-78990026D01*
X111650543Y-78978044D01*
X111671613Y-78968079D01*
X111693557Y-78960227D01*
X111716166Y-78954563D01*
X111739221Y-78951144D01*
X111762500Y-78950000D01*
X112237500Y-78950000D01*
X112260779Y-78951144D01*
X112260779Y-78951144D01*
G37*
D15*
G04 #@! TD*
G04 #@! TO.P,R7,2*
G04 #@! TO.N,-BATT*
X112000000Y-79475000D03*
D14*
G04 #@! TO.N,Net-(C4-Pad2)*
G04 #@! TO.C,R8*
G36*
X113185779Y-92726144D02*
X113208834Y-92729563D01*
X113231443Y-92735227D01*
X113253387Y-92743079D01*
X113274457Y-92753044D01*
X113294448Y-92765026D01*
X113313168Y-92778910D01*
X113330438Y-92794562D01*
X113346090Y-92811832D01*
X113359974Y-92830552D01*
X113371956Y-92850543D01*
X113381921Y-92871613D01*
X113389773Y-92893557D01*
X113395437Y-92916166D01*
X113398856Y-92939221D01*
X113400000Y-92962500D01*
X113400000Y-93437500D01*
X113398856Y-93460779D01*
X113395437Y-93483834D01*
X113389773Y-93506443D01*
X113381921Y-93528387D01*
X113371956Y-93549457D01*
X113359974Y-93569448D01*
X113346090Y-93588168D01*
X113330438Y-93605438D01*
X113313168Y-93621090D01*
X113294448Y-93634974D01*
X113274457Y-93646956D01*
X113253387Y-93656921D01*
X113231443Y-93664773D01*
X113208834Y-93670437D01*
X113185779Y-93673856D01*
X113162500Y-93675000D01*
X112587500Y-93675000D01*
X112564221Y-93673856D01*
X112541166Y-93670437D01*
X112518557Y-93664773D01*
X112496613Y-93656921D01*
X112475543Y-93646956D01*
X112455552Y-93634974D01*
X112436832Y-93621090D01*
X112419562Y-93605438D01*
X112403910Y-93588168D01*
X112390026Y-93569448D01*
X112378044Y-93549457D01*
X112368079Y-93528387D01*
X112360227Y-93506443D01*
X112354563Y-93483834D01*
X112351144Y-93460779D01*
X112350000Y-93437500D01*
X112350000Y-92962500D01*
X112351144Y-92939221D01*
X112354563Y-92916166D01*
X112360227Y-92893557D01*
X112368079Y-92871613D01*
X112378044Y-92850543D01*
X112390026Y-92830552D01*
X112403910Y-92811832D01*
X112419562Y-92794562D01*
X112436832Y-92778910D01*
X112455552Y-92765026D01*
X112475543Y-92753044D01*
X112496613Y-92743079D01*
X112518557Y-92735227D01*
X112541166Y-92729563D01*
X112564221Y-92726144D01*
X112587500Y-92725000D01*
X113162500Y-92725000D01*
X113185779Y-92726144D01*
X113185779Y-92726144D01*
G37*
D15*
G04 #@! TD*
G04 #@! TO.P,R8,2*
G04 #@! TO.N,Net-(C4-Pad2)*
X112875000Y-93200000D03*
D14*
G04 #@! TO.N,Net-(C1-Pad1)*
G04 #@! TO.C,R8*
G36*
X111435779Y-92726144D02*
X111458834Y-92729563D01*
X111481443Y-92735227D01*
X111503387Y-92743079D01*
X111524457Y-92753044D01*
X111544448Y-92765026D01*
X111563168Y-92778910D01*
X111580438Y-92794562D01*
X111596090Y-92811832D01*
X111609974Y-92830552D01*
X111621956Y-92850543D01*
X111631921Y-92871613D01*
X111639773Y-92893557D01*
X111645437Y-92916166D01*
X111648856Y-92939221D01*
X111650000Y-92962500D01*
X111650000Y-93437500D01*
X111648856Y-93460779D01*
X111645437Y-93483834D01*
X111639773Y-93506443D01*
X111631921Y-93528387D01*
X111621956Y-93549457D01*
X111609974Y-93569448D01*
X111596090Y-93588168D01*
X111580438Y-93605438D01*
X111563168Y-93621090D01*
X111544448Y-93634974D01*
X111524457Y-93646956D01*
X111503387Y-93656921D01*
X111481443Y-93664773D01*
X111458834Y-93670437D01*
X111435779Y-93673856D01*
X111412500Y-93675000D01*
X110837500Y-93675000D01*
X110814221Y-93673856D01*
X110791166Y-93670437D01*
X110768557Y-93664773D01*
X110746613Y-93656921D01*
X110725543Y-93646956D01*
X110705552Y-93634974D01*
X110686832Y-93621090D01*
X110669562Y-93605438D01*
X110653910Y-93588168D01*
X110640026Y-93569448D01*
X110628044Y-93549457D01*
X110618079Y-93528387D01*
X110610227Y-93506443D01*
X110604563Y-93483834D01*
X110601144Y-93460779D01*
X110600000Y-93437500D01*
X110600000Y-92962500D01*
X110601144Y-92939221D01*
X110604563Y-92916166D01*
X110610227Y-92893557D01*
X110618079Y-92871613D01*
X110628044Y-92850543D01*
X110640026Y-92830552D01*
X110653910Y-92811832D01*
X110669562Y-92794562D01*
X110686832Y-92778910D01*
X110705552Y-92765026D01*
X110725543Y-92753044D01*
X110746613Y-92743079D01*
X110768557Y-92735227D01*
X110791166Y-92729563D01*
X110814221Y-92726144D01*
X110837500Y-92725000D01*
X111412500Y-92725000D01*
X111435779Y-92726144D01*
X111435779Y-92726144D01*
G37*
D15*
G04 #@! TD*
G04 #@! TO.P,R8,1*
G04 #@! TO.N,Net-(C1-Pad1)*
X111125000Y-93200000D03*
D14*
G04 #@! TO.N,Net-(C2-Pad1)*
G04 #@! TO.C,R10*
G36*
X119060779Y-77501144D02*
X119083834Y-77504563D01*
X119106443Y-77510227D01*
X119128387Y-77518079D01*
X119149457Y-77528044D01*
X119169448Y-77540026D01*
X119188168Y-77553910D01*
X119205438Y-77569562D01*
X119221090Y-77586832D01*
X119234974Y-77605552D01*
X119246956Y-77625543D01*
X119256921Y-77646613D01*
X119264773Y-77668557D01*
X119270437Y-77691166D01*
X119273856Y-77714221D01*
X119275000Y-77737500D01*
X119275000Y-78312500D01*
X119273856Y-78335779D01*
X119270437Y-78358834D01*
X119264773Y-78381443D01*
X119256921Y-78403387D01*
X119246956Y-78424457D01*
X119234974Y-78444448D01*
X119221090Y-78463168D01*
X119205438Y-78480438D01*
X119188168Y-78496090D01*
X119169448Y-78509974D01*
X119149457Y-78521956D01*
X119128387Y-78531921D01*
X119106443Y-78539773D01*
X119083834Y-78545437D01*
X119060779Y-78548856D01*
X119037500Y-78550000D01*
X118562500Y-78550000D01*
X118539221Y-78548856D01*
X118516166Y-78545437D01*
X118493557Y-78539773D01*
X118471613Y-78531921D01*
X118450543Y-78521956D01*
X118430552Y-78509974D01*
X118411832Y-78496090D01*
X118394562Y-78480438D01*
X118378910Y-78463168D01*
X118365026Y-78444448D01*
X118353044Y-78424457D01*
X118343079Y-78403387D01*
X118335227Y-78381443D01*
X118329563Y-78358834D01*
X118326144Y-78335779D01*
X118325000Y-78312500D01*
X118325000Y-77737500D01*
X118326144Y-77714221D01*
X118329563Y-77691166D01*
X118335227Y-77668557D01*
X118343079Y-77646613D01*
X118353044Y-77625543D01*
X118365026Y-77605552D01*
X118378910Y-77586832D01*
X118394562Y-77569562D01*
X118411832Y-77553910D01*
X118430552Y-77540026D01*
X118450543Y-77528044D01*
X118471613Y-77518079D01*
X118493557Y-77510227D01*
X118516166Y-77504563D01*
X118539221Y-77501144D01*
X118562500Y-77500000D01*
X119037500Y-77500000D01*
X119060779Y-77501144D01*
X119060779Y-77501144D01*
G37*
D15*
G04 #@! TD*
G04 #@! TO.P,R10,1*
G04 #@! TO.N,Net-(C2-Pad1)*
X118800000Y-78025000D03*
D14*
G04 #@! TO.N,Net-(C5-Pad2)*
G04 #@! TO.C,R10*
G36*
X119060779Y-79251144D02*
X119083834Y-79254563D01*
X119106443Y-79260227D01*
X119128387Y-79268079D01*
X119149457Y-79278044D01*
X119169448Y-79290026D01*
X119188168Y-79303910D01*
X119205438Y-79319562D01*
X119221090Y-79336832D01*
X119234974Y-79355552D01*
X119246956Y-79375543D01*
X119256921Y-79396613D01*
X119264773Y-79418557D01*
X119270437Y-79441166D01*
X119273856Y-79464221D01*
X119275000Y-79487500D01*
X119275000Y-80062500D01*
X119273856Y-80085779D01*
X119270437Y-80108834D01*
X119264773Y-80131443D01*
X119256921Y-80153387D01*
X119246956Y-80174457D01*
X119234974Y-80194448D01*
X119221090Y-80213168D01*
X119205438Y-80230438D01*
X119188168Y-80246090D01*
X119169448Y-80259974D01*
X119149457Y-80271956D01*
X119128387Y-80281921D01*
X119106443Y-80289773D01*
X119083834Y-80295437D01*
X119060779Y-80298856D01*
X119037500Y-80300000D01*
X118562500Y-80300000D01*
X118539221Y-80298856D01*
X118516166Y-80295437D01*
X118493557Y-80289773D01*
X118471613Y-80281921D01*
X118450543Y-80271956D01*
X118430552Y-80259974D01*
X118411832Y-80246090D01*
X118394562Y-80230438D01*
X118378910Y-80213168D01*
X118365026Y-80194448D01*
X118353044Y-80174457D01*
X118343079Y-80153387D01*
X118335227Y-80131443D01*
X118329563Y-80108834D01*
X118326144Y-80085779D01*
X118325000Y-80062500D01*
X118325000Y-79487500D01*
X118326144Y-79464221D01*
X118329563Y-79441166D01*
X118335227Y-79418557D01*
X118343079Y-79396613D01*
X118353044Y-79375543D01*
X118365026Y-79355552D01*
X118378910Y-79336832D01*
X118394562Y-79319562D01*
X118411832Y-79303910D01*
X118430552Y-79290026D01*
X118450543Y-79278044D01*
X118471613Y-79268079D01*
X118493557Y-79260227D01*
X118516166Y-79254563D01*
X118539221Y-79251144D01*
X118562500Y-79250000D01*
X119037500Y-79250000D01*
X119060779Y-79251144D01*
X119060779Y-79251144D01*
G37*
D15*
G04 #@! TD*
G04 #@! TO.P,R10,2*
G04 #@! TO.N,Net-(C5-Pad2)*
X118800000Y-79775000D03*
D10*
G04 #@! TO.P,J2,1*
G04 #@! TO.N,Net-(J2-Pad1)*
X121700000Y-88500000D03*
D11*
G04 #@! TO.P,J2,2*
G04 #@! TO.N,GND*
X121700000Y-85960000D03*
G04 #@! TD*
D16*
G04 #@! TO.N,GND*
X112000000Y-76300000D03*
X113800000Y-76600000D03*
G04 #@! TO.N,filter1_out*
X113934872Y-87109553D03*
G04 #@! TD*
D17*
G04 #@! TO.N,Net-(C1-Pad2)*
X111100000Y-96475000D02*
X114500000Y-96475000D01*
X110100000Y-95475000D02*
X111100000Y-96475000D01*
X109500000Y-95475000D02*
X110100000Y-95475000D01*
G04 #@! TO.N,Net-(C1-Pad1)*
X111100000Y-93225000D02*
X111125000Y-93200000D01*
X111100000Y-94725000D02*
X111100000Y-93225000D01*
G04 #@! TO.N,Net-(C2-Pad1)*
X118800000Y-76325000D02*
X118775000Y-76300000D01*
X118800000Y-78025000D02*
X118800000Y-76325000D01*
G04 #@! TO.N,GND*
X110200000Y-77725000D02*
X112000000Y-77725000D01*
X112000000Y-77725000D02*
X112000000Y-76300000D01*
X113800000Y-79725000D02*
X113800000Y-76600000D01*
X114075000Y-76325000D02*
X113800000Y-76600000D01*
X115300000Y-76325000D02*
X114075000Y-76325000D01*
G04 #@! TO.N,Net-(J1-Pad2)*
X107100000Y-91325000D02*
X109500000Y-93725000D01*
X107100000Y-88640000D02*
X107100000Y-91325000D01*
G04 #@! TO.N,+BATT*
X110000000Y-80875000D02*
X110225000Y-81100000D01*
X110225000Y-83305000D02*
X110600000Y-83680000D01*
X110225000Y-81100000D02*
X110225000Y-83305000D01*
X110200000Y-81075000D02*
X110225000Y-81100000D01*
X110200000Y-79475000D02*
X110200000Y-81075000D01*
X111400000Y-74900000D02*
X111400000Y-73800000D01*
X109400000Y-76900000D02*
X111400000Y-74900000D01*
X109400000Y-78675000D02*
X109400000Y-76900000D01*
X110200000Y-79475000D02*
X109400000Y-78675000D01*
G04 #@! TO.N,-BATT*
X117420001Y-90500001D02*
X118220000Y-91300000D01*
X117094999Y-90174999D02*
X117420001Y-90500001D01*
X115974999Y-90174999D02*
X117094999Y-90174999D01*
X111975000Y-86175000D02*
X115974999Y-90174999D01*
X111975000Y-81100000D02*
X111975000Y-86175000D01*
X112000000Y-81075000D02*
X111975000Y-81100000D01*
X112000000Y-79475000D02*
X112000000Y-81075000D01*
X112800010Y-76059990D02*
X114210001Y-74649999D01*
X112800010Y-78674990D02*
X112800010Y-76059990D01*
X114210001Y-74649999D02*
X115060000Y-73800000D01*
X112000000Y-79475000D02*
X112800010Y-78674990D01*
G04 #@! TO.N,Net-(C2-Pad2)*
X116875000Y-76450000D02*
X117025000Y-76300000D01*
X115300000Y-79725000D02*
X115300000Y-78075000D01*
X116950000Y-78075000D02*
X117000000Y-78025000D01*
X115300000Y-78075000D02*
X116950000Y-78075000D01*
X117000000Y-76325000D02*
X117025000Y-76300000D01*
X117000000Y-78025000D02*
X117000000Y-76325000D01*
G04 #@! TO.N,Net-(C4-Pad2)*
X113075000Y-91365000D02*
X113140000Y-91300000D01*
X112875000Y-94700000D02*
X112900000Y-94725000D01*
X112875000Y-93200000D02*
X112875000Y-94700000D01*
X113140000Y-92935000D02*
X112875000Y-93200000D01*
X113140000Y-91300000D02*
X113140000Y-92935000D01*
G04 #@! TO.N,Net-(C5-Pad2)*
X117000000Y-82360000D02*
X117000000Y-79775000D01*
X115680000Y-83680000D02*
X117000000Y-82360000D01*
X117000000Y-79775000D02*
X118800000Y-79775000D01*
G04 #@! TO.N,filter1_out*
X115300000Y-81475000D02*
X113800000Y-81475000D01*
X114299072Y-81974072D02*
X114299072Y-86745353D01*
X113800000Y-81475000D02*
X114299072Y-81974072D01*
X114299072Y-86745353D02*
X113934872Y-87109553D01*
G04 #@! TD*
D18*
G04 #@! TO.N,GND*
G36*
X123990000Y-97790000D02*
X104910000Y-97790000D01*
X104910000Y-88640000D01*
X105585908Y-88640000D01*
X105701161Y-89219418D01*
X106029375Y-89710625D01*
X106340000Y-89918178D01*
X106340001Y-91250148D01*
X106325112Y-91325000D01*
X106340001Y-91399852D01*
X106384097Y-91621537D01*
X106552072Y-91872929D01*
X106615528Y-91915329D01*
X108377560Y-93677362D01*
X108377560Y-94012500D01*
X108444922Y-94351152D01*
X108611197Y-94600000D01*
X108444922Y-94848848D01*
X108377560Y-95187500D01*
X108377560Y-95762500D01*
X108444922Y-96101152D01*
X108636753Y-96388247D01*
X108923848Y-96580078D01*
X109262500Y-96647440D01*
X109737500Y-96647440D01*
X109977560Y-96599689D01*
X109977560Y-96762500D01*
X110044922Y-97101152D01*
X110236753Y-97388247D01*
X110523848Y-97580078D01*
X110862500Y-97647440D01*
X111337500Y-97647440D01*
X111676152Y-97580078D01*
X111963247Y-97388247D01*
X112000000Y-97333242D01*
X112036753Y-97388247D01*
X112323848Y-97580078D01*
X112662500Y-97647440D01*
X113137500Y-97647440D01*
X113476152Y-97580078D01*
X113700000Y-97430507D01*
X113923848Y-97580078D01*
X114262500Y-97647440D01*
X114737500Y-97647440D01*
X115076152Y-97580078D01*
X115363247Y-97388247D01*
X115555078Y-97101152D01*
X115622440Y-96762500D01*
X115622440Y-96187500D01*
X115555078Y-95848848D01*
X115442565Y-95680460D01*
X115513327Y-95609698D01*
X115610000Y-95376309D01*
X115610000Y-95010750D01*
X115451250Y-94852000D01*
X114627000Y-94852000D01*
X114627000Y-94872000D01*
X114373000Y-94872000D01*
X114373000Y-94852000D01*
X114353000Y-94852000D01*
X114353000Y-94598000D01*
X114373000Y-94598000D01*
X114373000Y-93723750D01*
X114627000Y-93723750D01*
X114627000Y-94598000D01*
X115451250Y-94598000D01*
X115610000Y-94439250D01*
X115610000Y-94073691D01*
X115513327Y-93840302D01*
X115334699Y-93661673D01*
X115101310Y-93565000D01*
X114785750Y-93565000D01*
X114627000Y-93723750D01*
X114373000Y-93723750D01*
X114214250Y-93565000D01*
X114022079Y-93565000D01*
X114047440Y-93437500D01*
X114047440Y-92962500D01*
X113980078Y-92623848D01*
X113906486Y-92513710D01*
X114174577Y-92334577D01*
X114410000Y-91982242D01*
X114645423Y-92334577D01*
X115120091Y-92651740D01*
X115538667Y-92735000D01*
X115821333Y-92735000D01*
X116239909Y-92651740D01*
X116714577Y-92334577D01*
X116950000Y-91982242D01*
X117185423Y-92334577D01*
X117660091Y-92651740D01*
X118078667Y-92735000D01*
X118361333Y-92735000D01*
X118779909Y-92651740D01*
X119254577Y-92334577D01*
X119571740Y-91859909D01*
X119683113Y-91300000D01*
X119571740Y-90740091D01*
X119254577Y-90265423D01*
X118779909Y-89948260D01*
X118361333Y-89865000D01*
X118078667Y-89865000D01*
X117896113Y-89901312D01*
X117685330Y-89690529D01*
X117642928Y-89627070D01*
X117391536Y-89459095D01*
X117169851Y-89414999D01*
X117169846Y-89414999D01*
X117094999Y-89400111D01*
X117020152Y-89414999D01*
X116289801Y-89414999D01*
X114691469Y-87816667D01*
X114812303Y-87695833D01*
X114831287Y-87650000D01*
X120202560Y-87650000D01*
X120202560Y-89350000D01*
X120251843Y-89597765D01*
X120392191Y-89807809D01*
X120602235Y-89948157D01*
X120850000Y-89997440D01*
X122550000Y-89997440D01*
X122797765Y-89948157D01*
X123007809Y-89807809D01*
X123148157Y-89597765D01*
X123197440Y-89350000D01*
X123197440Y-87650000D01*
X123148157Y-87402235D01*
X123007809Y-87192191D01*
X122797765Y-87051843D01*
X122694292Y-87031261D01*
X122971645Y-86726924D01*
X123141476Y-86316890D01*
X123020155Y-86087000D01*
X121827000Y-86087000D01*
X121827000Y-86107000D01*
X121573000Y-86107000D01*
X121573000Y-86087000D01*
X120379845Y-86087000D01*
X120258524Y-86316890D01*
X120428355Y-86726924D01*
X120705708Y-87031261D01*
X120602235Y-87051843D01*
X120392191Y-87192191D01*
X120251843Y-87402235D01*
X120202560Y-87650000D01*
X114831287Y-87650000D01*
X114969872Y-87315427D01*
X114969872Y-87109393D01*
X115014976Y-87041890D01*
X115059072Y-86820205D01*
X115059072Y-86820201D01*
X115073960Y-86745353D01*
X115059072Y-86670505D01*
X115059072Y-85603110D01*
X120258524Y-85603110D01*
X120379845Y-85833000D01*
X121573000Y-85833000D01*
X121573000Y-84639181D01*
X121827000Y-84639181D01*
X121827000Y-85833000D01*
X123020155Y-85833000D01*
X123141476Y-85603110D01*
X122971645Y-85193076D01*
X122581358Y-84764817D01*
X122056892Y-84518514D01*
X121827000Y-84639181D01*
X121573000Y-84639181D01*
X121343108Y-84518514D01*
X120818642Y-84764817D01*
X120428355Y-85193076D01*
X120258524Y-85603110D01*
X115059072Y-85603110D01*
X115059072Y-84990968D01*
X115120091Y-85031740D01*
X115538667Y-85115000D01*
X115821333Y-85115000D01*
X116239909Y-85031740D01*
X116714577Y-84714577D01*
X116950000Y-84362242D01*
X117185423Y-84714577D01*
X117660091Y-85031740D01*
X118078667Y-85115000D01*
X118361333Y-85115000D01*
X118779909Y-85031740D01*
X119254577Y-84714577D01*
X119571740Y-84239909D01*
X119683113Y-83680000D01*
X119571740Y-83120091D01*
X119254577Y-82645423D01*
X118779909Y-82328260D01*
X118361333Y-82245000D01*
X118078667Y-82245000D01*
X117764446Y-82307503D01*
X117760000Y-82285153D01*
X117760000Y-80757235D01*
X117863247Y-80688247D01*
X117900000Y-80633242D01*
X117936753Y-80688247D01*
X118223848Y-80880078D01*
X118562500Y-80947440D01*
X119037500Y-80947440D01*
X119376152Y-80880078D01*
X119663247Y-80688247D01*
X119855078Y-80401152D01*
X119922440Y-80062500D01*
X119922440Y-79487500D01*
X119855078Y-79148848D01*
X119688803Y-78900000D01*
X119855078Y-78651152D01*
X119922440Y-78312500D01*
X119922440Y-77737500D01*
X119855078Y-77398848D01*
X119692951Y-77156208D01*
X119880078Y-76876152D01*
X119947440Y-76537500D01*
X119947440Y-76062500D01*
X119880078Y-75723848D01*
X119688247Y-75436753D01*
X119401152Y-75244922D01*
X119062500Y-75177560D01*
X118820466Y-75177560D01*
X118988327Y-75009698D01*
X119085000Y-74776309D01*
X119085000Y-74085750D01*
X118926250Y-73927000D01*
X117727000Y-73927000D01*
X117727000Y-73947000D01*
X117473000Y-73947000D01*
X117473000Y-73927000D01*
X117453000Y-73927000D01*
X117453000Y-73673000D01*
X117473000Y-73673000D01*
X117473000Y-72473750D01*
X117727000Y-72473750D01*
X117727000Y-73673000D01*
X118926250Y-73673000D01*
X119085000Y-73514250D01*
X119085000Y-72823691D01*
X118988327Y-72590302D01*
X118809699Y-72411673D01*
X118576310Y-72315000D01*
X117885750Y-72315000D01*
X117727000Y-72473750D01*
X117473000Y-72473750D01*
X117314250Y-72315000D01*
X116623690Y-72315000D01*
X116390301Y-72411673D01*
X116211673Y-72590302D01*
X116145096Y-72751033D01*
X116130625Y-72729375D01*
X115639418Y-72401161D01*
X115206256Y-72315000D01*
X114913744Y-72315000D01*
X114480582Y-72401161D01*
X113989375Y-72729375D01*
X113661161Y-73220582D01*
X113545908Y-73800000D01*
X113618791Y-74166407D01*
X112769066Y-75016133D01*
X112848157Y-74897765D01*
X112897440Y-74650000D01*
X112897440Y-72950000D01*
X112848157Y-72702235D01*
X112707809Y-72492191D01*
X112497765Y-72351843D01*
X112250000Y-72302560D01*
X110550000Y-72302560D01*
X110302235Y-72351843D01*
X110092191Y-72492191D01*
X109951843Y-72702235D01*
X109931261Y-72805708D01*
X109626924Y-72528355D01*
X109216890Y-72358524D01*
X108987000Y-72479845D01*
X108987000Y-73673000D01*
X109007000Y-73673000D01*
X109007000Y-73927000D01*
X108987000Y-73927000D01*
X108987000Y-75120155D01*
X109216890Y-75241476D01*
X109626924Y-75071645D01*
X109931261Y-74794292D01*
X109951843Y-74897765D01*
X110092191Y-75107809D01*
X110107296Y-75117902D01*
X108915528Y-76309671D01*
X108852072Y-76352071D01*
X108809672Y-76415527D01*
X108809671Y-76415528D01*
X108684097Y-76603463D01*
X108625112Y-76900000D01*
X108640001Y-76974852D01*
X108640000Y-78600153D01*
X108625112Y-78675000D01*
X108640000Y-78749847D01*
X108640000Y-78749851D01*
X108684096Y-78971536D01*
X108852071Y-79222929D01*
X108915530Y-79265331D01*
X109077560Y-79427361D01*
X109077560Y-79762500D01*
X109144922Y-80101152D01*
X109273640Y-80293792D01*
X109119922Y-80523848D01*
X109052560Y-80862500D01*
X109052560Y-81337500D01*
X109119922Y-81676152D01*
X109311753Y-81963247D01*
X109465000Y-82065644D01*
X109465001Y-82795716D01*
X109248260Y-83120091D01*
X109136887Y-83680000D01*
X109248260Y-84239909D01*
X109565423Y-84714577D01*
X110040091Y-85031740D01*
X110458667Y-85115000D01*
X110741333Y-85115000D01*
X111159909Y-85031740D01*
X111215001Y-84994929D01*
X111215001Y-86100148D01*
X111200112Y-86175000D01*
X111215001Y-86249852D01*
X111259097Y-86471537D01*
X111427072Y-86722929D01*
X111490528Y-86765329D01*
X114852354Y-90127156D01*
X114645423Y-90265423D01*
X114410000Y-90617758D01*
X114174577Y-90265423D01*
X113699909Y-89948260D01*
X113281333Y-89865000D01*
X112998667Y-89865000D01*
X112580091Y-89948260D01*
X112105423Y-90265423D01*
X112024785Y-90386106D01*
X111998157Y-90252235D01*
X111857809Y-90042191D01*
X111647765Y-89901843D01*
X111400000Y-89852560D01*
X109800000Y-89852560D01*
X109552235Y-89901843D01*
X109342191Y-90042191D01*
X109201843Y-90252235D01*
X109152560Y-90500000D01*
X109152560Y-92100000D01*
X109201843Y-92347765D01*
X109210454Y-92360653D01*
X107860000Y-91010199D01*
X107860000Y-89918178D01*
X108170625Y-89710625D01*
X108498839Y-89219418D01*
X108614092Y-88640000D01*
X108498839Y-88060582D01*
X108170625Y-87569375D01*
X108148967Y-87554904D01*
X108309698Y-87488327D01*
X108488327Y-87309699D01*
X108585000Y-87076310D01*
X108585000Y-86385750D01*
X108426250Y-86227000D01*
X107227000Y-86227000D01*
X107227000Y-86247000D01*
X106973000Y-86247000D01*
X106973000Y-86227000D01*
X105773750Y-86227000D01*
X105615000Y-86385750D01*
X105615000Y-87076310D01*
X105711673Y-87309699D01*
X105890302Y-87488327D01*
X106051033Y-87554904D01*
X106029375Y-87569375D01*
X105701161Y-88060582D01*
X105585908Y-88640000D01*
X104910000Y-88640000D01*
X104910000Y-85123690D01*
X105615000Y-85123690D01*
X105615000Y-85814250D01*
X105773750Y-85973000D01*
X106973000Y-85973000D01*
X106973000Y-84773750D01*
X107227000Y-84773750D01*
X107227000Y-85973000D01*
X108426250Y-85973000D01*
X108585000Y-85814250D01*
X108585000Y-85123690D01*
X108488327Y-84890301D01*
X108309698Y-84711673D01*
X108076309Y-84615000D01*
X107385750Y-84615000D01*
X107227000Y-84773750D01*
X106973000Y-84773750D01*
X106814250Y-84615000D01*
X106123691Y-84615000D01*
X105890302Y-84711673D01*
X105711673Y-84890301D01*
X105615000Y-85123690D01*
X104910000Y-85123690D01*
X104910000Y-74156892D01*
X107418514Y-74156892D01*
X107664817Y-74681358D01*
X108093076Y-75071645D01*
X108503110Y-75241476D01*
X108733000Y-75120155D01*
X108733000Y-73927000D01*
X107539181Y-73927000D01*
X107418514Y-74156892D01*
X104910000Y-74156892D01*
X104910000Y-73443108D01*
X107418514Y-73443108D01*
X107539181Y-73673000D01*
X108733000Y-73673000D01*
X108733000Y-72479845D01*
X108503110Y-72358524D01*
X108093076Y-72528355D01*
X107664817Y-72918642D01*
X107418514Y-73443108D01*
X104910000Y-73443108D01*
X104910000Y-72210000D01*
X123990001Y-72210000D01*
X123990000Y-97790000D01*
X123990000Y-97790000D01*
G37*
X123990000Y-97790000D02*
X104910000Y-97790000D01*
X104910000Y-88640000D01*
X105585908Y-88640000D01*
X105701161Y-89219418D01*
X106029375Y-89710625D01*
X106340000Y-89918178D01*
X106340001Y-91250148D01*
X106325112Y-91325000D01*
X106340001Y-91399852D01*
X106384097Y-91621537D01*
X106552072Y-91872929D01*
X106615528Y-91915329D01*
X108377560Y-93677362D01*
X108377560Y-94012500D01*
X108444922Y-94351152D01*
X108611197Y-94600000D01*
X108444922Y-94848848D01*
X108377560Y-95187500D01*
X108377560Y-95762500D01*
X108444922Y-96101152D01*
X108636753Y-96388247D01*
X108923848Y-96580078D01*
X109262500Y-96647440D01*
X109737500Y-96647440D01*
X109977560Y-96599689D01*
X109977560Y-96762500D01*
X110044922Y-97101152D01*
X110236753Y-97388247D01*
X110523848Y-97580078D01*
X110862500Y-97647440D01*
X111337500Y-97647440D01*
X111676152Y-97580078D01*
X111963247Y-97388247D01*
X112000000Y-97333242D01*
X112036753Y-97388247D01*
X112323848Y-97580078D01*
X112662500Y-97647440D01*
X113137500Y-97647440D01*
X113476152Y-97580078D01*
X113700000Y-97430507D01*
X113923848Y-97580078D01*
X114262500Y-97647440D01*
X114737500Y-97647440D01*
X115076152Y-97580078D01*
X115363247Y-97388247D01*
X115555078Y-97101152D01*
X115622440Y-96762500D01*
X115622440Y-96187500D01*
X115555078Y-95848848D01*
X115442565Y-95680460D01*
X115513327Y-95609698D01*
X115610000Y-95376309D01*
X115610000Y-95010750D01*
X115451250Y-94852000D01*
X114627000Y-94852000D01*
X114627000Y-94872000D01*
X114373000Y-94872000D01*
X114373000Y-94852000D01*
X114353000Y-94852000D01*
X114353000Y-94598000D01*
X114373000Y-94598000D01*
X114373000Y-93723750D01*
X114627000Y-93723750D01*
X114627000Y-94598000D01*
X115451250Y-94598000D01*
X115610000Y-94439250D01*
X115610000Y-94073691D01*
X115513327Y-93840302D01*
X115334699Y-93661673D01*
X115101310Y-93565000D01*
X114785750Y-93565000D01*
X114627000Y-93723750D01*
X114373000Y-93723750D01*
X114214250Y-93565000D01*
X114022079Y-93565000D01*
X114047440Y-93437500D01*
X114047440Y-92962500D01*
X113980078Y-92623848D01*
X113906486Y-92513710D01*
X114174577Y-92334577D01*
X114410000Y-91982242D01*
X114645423Y-92334577D01*
X115120091Y-92651740D01*
X115538667Y-92735000D01*
X115821333Y-92735000D01*
X116239909Y-92651740D01*
X116714577Y-92334577D01*
X116950000Y-91982242D01*
X117185423Y-92334577D01*
X117660091Y-92651740D01*
X118078667Y-92735000D01*
X118361333Y-92735000D01*
X118779909Y-92651740D01*
X119254577Y-92334577D01*
X119571740Y-91859909D01*
X119683113Y-91300000D01*
X119571740Y-90740091D01*
X119254577Y-90265423D01*
X118779909Y-89948260D01*
X118361333Y-89865000D01*
X118078667Y-89865000D01*
X117896113Y-89901312D01*
X117685330Y-89690529D01*
X117642928Y-89627070D01*
X117391536Y-89459095D01*
X117169851Y-89414999D01*
X117169846Y-89414999D01*
X117094999Y-89400111D01*
X117020152Y-89414999D01*
X116289801Y-89414999D01*
X114691469Y-87816667D01*
X114812303Y-87695833D01*
X114831287Y-87650000D01*
X120202560Y-87650000D01*
X120202560Y-89350000D01*
X120251843Y-89597765D01*
X120392191Y-89807809D01*
X120602235Y-89948157D01*
X120850000Y-89997440D01*
X122550000Y-89997440D01*
X122797765Y-89948157D01*
X123007809Y-89807809D01*
X123148157Y-89597765D01*
X123197440Y-89350000D01*
X123197440Y-87650000D01*
X123148157Y-87402235D01*
X123007809Y-87192191D01*
X122797765Y-87051843D01*
X122694292Y-87031261D01*
X122971645Y-86726924D01*
X123141476Y-86316890D01*
X123020155Y-86087000D01*
X121827000Y-86087000D01*
X121827000Y-86107000D01*
X121573000Y-86107000D01*
X121573000Y-86087000D01*
X120379845Y-86087000D01*
X120258524Y-86316890D01*
X120428355Y-86726924D01*
X120705708Y-87031261D01*
X120602235Y-87051843D01*
X120392191Y-87192191D01*
X120251843Y-87402235D01*
X120202560Y-87650000D01*
X114831287Y-87650000D01*
X114969872Y-87315427D01*
X114969872Y-87109393D01*
X115014976Y-87041890D01*
X115059072Y-86820205D01*
X115059072Y-86820201D01*
X115073960Y-86745353D01*
X115059072Y-86670505D01*
X115059072Y-85603110D01*
X120258524Y-85603110D01*
X120379845Y-85833000D01*
X121573000Y-85833000D01*
X121573000Y-84639181D01*
X121827000Y-84639181D01*
X121827000Y-85833000D01*
X123020155Y-85833000D01*
X123141476Y-85603110D01*
X122971645Y-85193076D01*
X122581358Y-84764817D01*
X122056892Y-84518514D01*
X121827000Y-84639181D01*
X121573000Y-84639181D01*
X121343108Y-84518514D01*
X120818642Y-84764817D01*
X120428355Y-85193076D01*
X120258524Y-85603110D01*
X115059072Y-85603110D01*
X115059072Y-84990968D01*
X115120091Y-85031740D01*
X115538667Y-85115000D01*
X115821333Y-85115000D01*
X116239909Y-85031740D01*
X116714577Y-84714577D01*
X116950000Y-84362242D01*
X117185423Y-84714577D01*
X117660091Y-85031740D01*
X118078667Y-85115000D01*
X118361333Y-85115000D01*
X118779909Y-85031740D01*
X119254577Y-84714577D01*
X119571740Y-84239909D01*
X119683113Y-83680000D01*
X119571740Y-83120091D01*
X119254577Y-82645423D01*
X118779909Y-82328260D01*
X118361333Y-82245000D01*
X118078667Y-82245000D01*
X117764446Y-82307503D01*
X117760000Y-82285153D01*
X117760000Y-80757235D01*
X117863247Y-80688247D01*
X117900000Y-80633242D01*
X117936753Y-80688247D01*
X118223848Y-80880078D01*
X118562500Y-80947440D01*
X119037500Y-80947440D01*
X119376152Y-80880078D01*
X119663247Y-80688247D01*
X119855078Y-80401152D01*
X119922440Y-80062500D01*
X119922440Y-79487500D01*
X119855078Y-79148848D01*
X119688803Y-78900000D01*
X119855078Y-78651152D01*
X119922440Y-78312500D01*
X119922440Y-77737500D01*
X119855078Y-77398848D01*
X119692951Y-77156208D01*
X119880078Y-76876152D01*
X119947440Y-76537500D01*
X119947440Y-76062500D01*
X119880078Y-75723848D01*
X119688247Y-75436753D01*
X119401152Y-75244922D01*
X119062500Y-75177560D01*
X118820466Y-75177560D01*
X118988327Y-75009698D01*
X119085000Y-74776309D01*
X119085000Y-74085750D01*
X118926250Y-73927000D01*
X117727000Y-73927000D01*
X117727000Y-73947000D01*
X117473000Y-73947000D01*
X117473000Y-73927000D01*
X117453000Y-73927000D01*
X117453000Y-73673000D01*
X117473000Y-73673000D01*
X117473000Y-72473750D01*
X117727000Y-72473750D01*
X117727000Y-73673000D01*
X118926250Y-73673000D01*
X119085000Y-73514250D01*
X119085000Y-72823691D01*
X118988327Y-72590302D01*
X118809699Y-72411673D01*
X118576310Y-72315000D01*
X117885750Y-72315000D01*
X117727000Y-72473750D01*
X117473000Y-72473750D01*
X117314250Y-72315000D01*
X116623690Y-72315000D01*
X116390301Y-72411673D01*
X116211673Y-72590302D01*
X116145096Y-72751033D01*
X116130625Y-72729375D01*
X115639418Y-72401161D01*
X115206256Y-72315000D01*
X114913744Y-72315000D01*
X114480582Y-72401161D01*
X113989375Y-72729375D01*
X113661161Y-73220582D01*
X113545908Y-73800000D01*
X113618791Y-74166407D01*
X112769066Y-75016133D01*
X112848157Y-74897765D01*
X112897440Y-74650000D01*
X112897440Y-72950000D01*
X112848157Y-72702235D01*
X112707809Y-72492191D01*
X112497765Y-72351843D01*
X112250000Y-72302560D01*
X110550000Y-72302560D01*
X110302235Y-72351843D01*
X110092191Y-72492191D01*
X109951843Y-72702235D01*
X109931261Y-72805708D01*
X109626924Y-72528355D01*
X109216890Y-72358524D01*
X108987000Y-72479845D01*
X108987000Y-73673000D01*
X109007000Y-73673000D01*
X109007000Y-73927000D01*
X108987000Y-73927000D01*
X108987000Y-75120155D01*
X109216890Y-75241476D01*
X109626924Y-75071645D01*
X109931261Y-74794292D01*
X109951843Y-74897765D01*
X110092191Y-75107809D01*
X110107296Y-75117902D01*
X108915528Y-76309671D01*
X108852072Y-76352071D01*
X108809672Y-76415527D01*
X108809671Y-76415528D01*
X108684097Y-76603463D01*
X108625112Y-76900000D01*
X108640001Y-76974852D01*
X108640000Y-78600153D01*
X108625112Y-78675000D01*
X108640000Y-78749847D01*
X108640000Y-78749851D01*
X108684096Y-78971536D01*
X108852071Y-79222929D01*
X108915530Y-79265331D01*
X109077560Y-79427361D01*
X109077560Y-79762500D01*
X109144922Y-80101152D01*
X109273640Y-80293792D01*
X109119922Y-80523848D01*
X109052560Y-80862500D01*
X109052560Y-81337500D01*
X109119922Y-81676152D01*
X109311753Y-81963247D01*
X109465000Y-82065644D01*
X109465001Y-82795716D01*
X109248260Y-83120091D01*
X109136887Y-83680000D01*
X109248260Y-84239909D01*
X109565423Y-84714577D01*
X110040091Y-85031740D01*
X110458667Y-85115000D01*
X110741333Y-85115000D01*
X111159909Y-85031740D01*
X111215001Y-84994929D01*
X111215001Y-86100148D01*
X111200112Y-86175000D01*
X111215001Y-86249852D01*
X111259097Y-86471537D01*
X111427072Y-86722929D01*
X111490528Y-86765329D01*
X114852354Y-90127156D01*
X114645423Y-90265423D01*
X114410000Y-90617758D01*
X114174577Y-90265423D01*
X113699909Y-89948260D01*
X113281333Y-89865000D01*
X112998667Y-89865000D01*
X112580091Y-89948260D01*
X112105423Y-90265423D01*
X112024785Y-90386106D01*
X111998157Y-90252235D01*
X111857809Y-90042191D01*
X111647765Y-89901843D01*
X111400000Y-89852560D01*
X109800000Y-89852560D01*
X109552235Y-89901843D01*
X109342191Y-90042191D01*
X109201843Y-90252235D01*
X109152560Y-90500000D01*
X109152560Y-92100000D01*
X109201843Y-92347765D01*
X109210454Y-92360653D01*
X107860000Y-91010199D01*
X107860000Y-89918178D01*
X108170625Y-89710625D01*
X108498839Y-89219418D01*
X108614092Y-88640000D01*
X108498839Y-88060582D01*
X108170625Y-87569375D01*
X108148967Y-87554904D01*
X108309698Y-87488327D01*
X108488327Y-87309699D01*
X108585000Y-87076310D01*
X108585000Y-86385750D01*
X108426250Y-86227000D01*
X107227000Y-86227000D01*
X107227000Y-86247000D01*
X106973000Y-86247000D01*
X106973000Y-86227000D01*
X105773750Y-86227000D01*
X105615000Y-86385750D01*
X105615000Y-87076310D01*
X105711673Y-87309699D01*
X105890302Y-87488327D01*
X106051033Y-87554904D01*
X106029375Y-87569375D01*
X105701161Y-88060582D01*
X105585908Y-88640000D01*
X104910000Y-88640000D01*
X104910000Y-85123690D01*
X105615000Y-85123690D01*
X105615000Y-85814250D01*
X105773750Y-85973000D01*
X106973000Y-85973000D01*
X106973000Y-84773750D01*
X107227000Y-84773750D01*
X107227000Y-85973000D01*
X108426250Y-85973000D01*
X108585000Y-85814250D01*
X108585000Y-85123690D01*
X108488327Y-84890301D01*
X108309698Y-84711673D01*
X108076309Y-84615000D01*
X107385750Y-84615000D01*
X107227000Y-84773750D01*
X106973000Y-84773750D01*
X106814250Y-84615000D01*
X106123691Y-84615000D01*
X105890302Y-84711673D01*
X105711673Y-84890301D01*
X105615000Y-85123690D01*
X104910000Y-85123690D01*
X104910000Y-74156892D01*
X107418514Y-74156892D01*
X107664817Y-74681358D01*
X108093076Y-75071645D01*
X108503110Y-75241476D01*
X108733000Y-75120155D01*
X108733000Y-73927000D01*
X107539181Y-73927000D01*
X107418514Y-74156892D01*
X104910000Y-74156892D01*
X104910000Y-73443108D01*
X107418514Y-73443108D01*
X107539181Y-73673000D01*
X108733000Y-73673000D01*
X108733000Y-72479845D01*
X108503110Y-72358524D01*
X108093076Y-72528355D01*
X107664817Y-72918642D01*
X107418514Y-73443108D01*
X104910000Y-73443108D01*
X104910000Y-72210000D01*
X123990001Y-72210000D01*
X123990000Y-97790000D01*
G36*
X114190000Y-76039250D02*
X114348750Y-76198000D01*
X115173000Y-76198000D01*
X115173000Y-76178000D01*
X115427000Y-76178000D01*
X115427000Y-76198000D01*
X115447000Y-76198000D01*
X115447000Y-76452000D01*
X115427000Y-76452000D01*
X115427000Y-76472000D01*
X115173000Y-76472000D01*
X115173000Y-76452000D01*
X114348750Y-76452000D01*
X114190000Y-76610750D01*
X114190000Y-76976309D01*
X114286673Y-77209698D01*
X114357435Y-77280460D01*
X114244922Y-77448848D01*
X114177560Y-77787500D01*
X114177560Y-78362500D01*
X114217840Y-78565000D01*
X114085750Y-78565000D01*
X113927000Y-78723750D01*
X113927000Y-79598000D01*
X113947000Y-79598000D01*
X113947000Y-79852000D01*
X113927000Y-79852000D01*
X113927000Y-79872000D01*
X113673000Y-79872000D01*
X113673000Y-79852000D01*
X113653000Y-79852000D01*
X113653000Y-79598000D01*
X113673000Y-79598000D01*
X113673000Y-78723750D01*
X113562646Y-78613396D01*
X113560010Y-78600143D01*
X113560010Y-76374791D01*
X114190000Y-75744802D01*
X114190000Y-76039250D01*
X114190000Y-76039250D01*
G37*
X114190000Y-76039250D02*
X114348750Y-76198000D01*
X115173000Y-76198000D01*
X115173000Y-76178000D01*
X115427000Y-76178000D01*
X115427000Y-76198000D01*
X115447000Y-76198000D01*
X115447000Y-76452000D01*
X115427000Y-76452000D01*
X115427000Y-76472000D01*
X115173000Y-76472000D01*
X115173000Y-76452000D01*
X114348750Y-76452000D01*
X114190000Y-76610750D01*
X114190000Y-76976309D01*
X114286673Y-77209698D01*
X114357435Y-77280460D01*
X114244922Y-77448848D01*
X114177560Y-77787500D01*
X114177560Y-78362500D01*
X114217840Y-78565000D01*
X114085750Y-78565000D01*
X113927000Y-78723750D01*
X113927000Y-79598000D01*
X113947000Y-79598000D01*
X113947000Y-79852000D01*
X113927000Y-79852000D01*
X113927000Y-79872000D01*
X113673000Y-79872000D01*
X113673000Y-79852000D01*
X113653000Y-79852000D01*
X113653000Y-79598000D01*
X113673000Y-79598000D01*
X113673000Y-78723750D01*
X113562646Y-78613396D01*
X113560010Y-78600143D01*
X113560010Y-76374791D01*
X114190000Y-75744802D01*
X114190000Y-76039250D01*
G36*
X112315538Y-75469661D02*
X112252082Y-75512061D01*
X112209682Y-75575517D01*
X112209681Y-75575518D01*
X112084107Y-75763453D01*
X112025122Y-76059990D01*
X112040011Y-76134842D01*
X112040010Y-77872000D01*
X111873000Y-77872000D01*
X111873000Y-77852000D01*
X110327000Y-77852000D01*
X110327000Y-77872000D01*
X110160000Y-77872000D01*
X110160000Y-77578000D01*
X110327000Y-77578000D01*
X110327000Y-77598000D01*
X111873000Y-77598000D01*
X111873000Y-76723750D01*
X111714250Y-76565000D01*
X111398690Y-76565000D01*
X111165301Y-76661673D01*
X111100000Y-76726974D01*
X111034699Y-76661673D01*
X110807314Y-76567487D01*
X111884473Y-75490329D01*
X111947929Y-75447929D01*
X112048483Y-75297440D01*
X112250000Y-75297440D01*
X112497765Y-75248157D01*
X112616133Y-75169065D01*
X112315538Y-75469661D01*
X112315538Y-75469661D01*
G37*
X112315538Y-75469661D02*
X112252082Y-75512061D01*
X112209682Y-75575517D01*
X112209681Y-75575518D01*
X112084107Y-75763453D01*
X112025122Y-76059990D01*
X112040011Y-76134842D01*
X112040010Y-77872000D01*
X111873000Y-77872000D01*
X111873000Y-77852000D01*
X110327000Y-77852000D01*
X110327000Y-77872000D01*
X110160000Y-77872000D01*
X110160000Y-77578000D01*
X110327000Y-77578000D01*
X110327000Y-77598000D01*
X111873000Y-77598000D01*
X111873000Y-76723750D01*
X111714250Y-76565000D01*
X111398690Y-76565000D01*
X111165301Y-76661673D01*
X111100000Y-76726974D01*
X111034699Y-76661673D01*
X110807314Y-76567487D01*
X111884473Y-75490329D01*
X111947929Y-75447929D01*
X112048483Y-75297440D01*
X112250000Y-75297440D01*
X112497765Y-75248157D01*
X112616133Y-75169065D01*
X112315538Y-75469661D01*
G04 #@! TD*
M02*
