G04 #@! TF.GenerationSoftware,KiCad,Pcbnew,5.0.1-33cea8e~68~ubuntu16.04.1*
G04 #@! TF.CreationDate,2018-11-08T14:30:39+01:00*
G04 #@! TF.ProjectId,shutter,736875747465722E6B696361645F7063,rev?*
G04 #@! TF.SameCoordinates,Original*
G04 #@! TF.FileFunction,Profile,NP*
%FSLAX46Y46*%
G04 Gerber Fmt 4.6, Leading zero omitted, Abs format (unit mm)*
G04 Created by KiCad (PCBNEW 5.0.1-33cea8e~68~ubuntu16.04.1) date jeu. 08 nov. 2018 14:30:39 CET*
%MOMM*%
%LPD*%
G01*
G04 APERTURE LIST*
%ADD10C,0.150000*%
G04 APERTURE END LIST*
D10*
X124000000Y-61000000D02*
X94498475Y-61000000D01*
X124000000Y-116700000D02*
X124000000Y-60999911D01*
X94500000Y-116700000D02*
X124000000Y-116700000D01*
X94500000Y-61000000D02*
X94500000Y-116700000D01*
M02*
