G04 #@! TF.GenerationSoftware,KiCad,Pcbnew,5.0.1-33cea8e~68~ubuntu16.04.1*
G04 #@! TF.CreationDate,2018-11-08T14:30:39+01:00*
G04 #@! TF.ProjectId,shutter,736875747465722E6B696361645F7063,rev?*
G04 #@! TF.SameCoordinates,Original*
G04 #@! TF.FileFunction,Soldermask,Top*
G04 #@! TF.FilePolarity,Negative*
%FSLAX46Y46*%
G04 Gerber Fmt 4.6, Leading zero omitted, Abs format (unit mm)*
G04 Created by KiCad (PCBNEW 5.0.1-33cea8e~68~ubuntu16.04.1) date jeu. 08 nov. 2018 14:30:39 CET*
%MOMM*%
%LPD*%
G01*
G04 APERTURE LIST*
%ADD10C,0.100000*%
G04 APERTURE END LIST*
D10*
G36*
X120912942Y-114236889D02*
X121111310Y-114319056D01*
X121169448Y-114357903D01*
X121289838Y-114438345D01*
X121441657Y-114590164D01*
X121560947Y-114768694D01*
X121643113Y-114967061D01*
X121685001Y-115177644D01*
X121685001Y-115392358D01*
X121643113Y-115602941D01*
X121560947Y-115801308D01*
X121441657Y-115979838D01*
X121289838Y-116131657D01*
X121289835Y-116131659D01*
X121111310Y-116250946D01*
X120912942Y-116333113D01*
X120702358Y-116375001D01*
X120487644Y-116375001D01*
X120277060Y-116333113D01*
X120078692Y-116250946D01*
X119900167Y-116131659D01*
X119900164Y-116131657D01*
X119748345Y-115979838D01*
X119629055Y-115801308D01*
X119546889Y-115602941D01*
X119505001Y-115392358D01*
X119505001Y-115177644D01*
X119546889Y-114967061D01*
X119629055Y-114768694D01*
X119748345Y-114590164D01*
X119900164Y-114438345D01*
X120020554Y-114357903D01*
X120078692Y-114319056D01*
X120277060Y-114236889D01*
X120487644Y-114195001D01*
X120702358Y-114195001D01*
X120912942Y-114236889D01*
X120912942Y-114236889D01*
G37*
G36*
X105672942Y-114236889D02*
X105871310Y-114319056D01*
X105929448Y-114357903D01*
X106049838Y-114438345D01*
X106201657Y-114590164D01*
X106320947Y-114768694D01*
X106403113Y-114967061D01*
X106445001Y-115177644D01*
X106445001Y-115392358D01*
X106403113Y-115602941D01*
X106320947Y-115801308D01*
X106201657Y-115979838D01*
X106049838Y-116131657D01*
X106049835Y-116131659D01*
X105871310Y-116250946D01*
X105672942Y-116333113D01*
X105462358Y-116375001D01*
X105247644Y-116375001D01*
X105037060Y-116333113D01*
X104838692Y-116250946D01*
X104660167Y-116131659D01*
X104660164Y-116131657D01*
X104508345Y-115979838D01*
X104389055Y-115801308D01*
X104306889Y-115602941D01*
X104265001Y-115392358D01*
X104265001Y-115177644D01*
X104306889Y-114967061D01*
X104389055Y-114768694D01*
X104508345Y-114590164D01*
X104660164Y-114438345D01*
X104780554Y-114357903D01*
X104838692Y-114319056D01*
X105037060Y-114236889D01*
X105247644Y-114195001D01*
X105462358Y-114195001D01*
X105672942Y-114236889D01*
X105672942Y-114236889D01*
G37*
G36*
X99354612Y-113748037D02*
X99582096Y-113842264D01*
X99786831Y-113979064D01*
X99960936Y-114153169D01*
X100097736Y-114357904D01*
X100191963Y-114585388D01*
X100240000Y-114826885D01*
X100240000Y-115073115D01*
X100191963Y-115314612D01*
X100097736Y-115542096D01*
X99960936Y-115746831D01*
X99786831Y-115920936D01*
X99582096Y-116057736D01*
X99354612Y-116151963D01*
X99113115Y-116200000D01*
X98866885Y-116200000D01*
X98625388Y-116151963D01*
X98397904Y-116057736D01*
X98193169Y-115920936D01*
X98019064Y-115746831D01*
X97882264Y-115542096D01*
X97788037Y-115314612D01*
X97740000Y-115073115D01*
X97740000Y-114826885D01*
X97788037Y-114585388D01*
X97882264Y-114357904D01*
X98019064Y-114153169D01*
X98193169Y-113979064D01*
X98397904Y-113842264D01*
X98625388Y-113748037D01*
X98866885Y-113700000D01*
X99113115Y-113700000D01*
X99354612Y-113748037D01*
X99354612Y-113748037D01*
G37*
G36*
X96813566Y-112666312D02*
X97009203Y-112747347D01*
X97185275Y-112864995D01*
X97335005Y-113014725D01*
X97452653Y-113190797D01*
X97533688Y-113386434D01*
X97575000Y-113594122D01*
X97575000Y-113805878D01*
X97533688Y-114013566D01*
X97452653Y-114209203D01*
X97335005Y-114385275D01*
X97185275Y-114535005D01*
X97009203Y-114652653D01*
X96813566Y-114733688D01*
X96605878Y-114775000D01*
X96394122Y-114775000D01*
X96186434Y-114733688D01*
X95990797Y-114652653D01*
X95814725Y-114535005D01*
X95664995Y-114385275D01*
X95547347Y-114209203D01*
X95466312Y-114013566D01*
X95425000Y-113805878D01*
X95425000Y-113594122D01*
X95466312Y-113386434D01*
X95547347Y-113190797D01*
X95664995Y-113014725D01*
X95814725Y-112864995D01*
X95990797Y-112747347D01*
X96186434Y-112666312D01*
X96394122Y-112625000D01*
X96605878Y-112625000D01*
X96813566Y-112666312D01*
X96813566Y-112666312D01*
G37*
G36*
X105551031Y-111759470D02*
X105551034Y-111759471D01*
X105551035Y-111759471D01*
X105739536Y-111816652D01*
X105739538Y-111816653D01*
X105913261Y-111909510D01*
X106065529Y-112034473D01*
X106190492Y-112186741D01*
X106283349Y-112360464D01*
X106340532Y-112548971D01*
X106359839Y-112745001D01*
X106340532Y-112941031D01*
X106340531Y-112941034D01*
X106340531Y-112941035D01*
X106318177Y-113014728D01*
X106283349Y-113129538D01*
X106190492Y-113303261D01*
X106065529Y-113455529D01*
X105913261Y-113580492D01*
X105913259Y-113580493D01*
X105739536Y-113673350D01*
X105551035Y-113730531D01*
X105551034Y-113730531D01*
X105551031Y-113730532D01*
X105404125Y-113745001D01*
X105305877Y-113745001D01*
X105158971Y-113730532D01*
X105158968Y-113730531D01*
X105158967Y-113730531D01*
X104970466Y-113673350D01*
X104796743Y-113580493D01*
X104796741Y-113580492D01*
X104644473Y-113455529D01*
X104519510Y-113303261D01*
X104426653Y-113129538D01*
X104391826Y-113014728D01*
X104369471Y-112941035D01*
X104369471Y-112941034D01*
X104369470Y-112941031D01*
X104350163Y-112745001D01*
X104369470Y-112548971D01*
X104426653Y-112360464D01*
X104519510Y-112186741D01*
X104644473Y-112034473D01*
X104796741Y-111909510D01*
X104970464Y-111816653D01*
X104970466Y-111816652D01*
X105158967Y-111759471D01*
X105158968Y-111759471D01*
X105158971Y-111759470D01*
X105305877Y-111745001D01*
X105404125Y-111745001D01*
X105551031Y-111759470D01*
X105551031Y-111759470D01*
G37*
G36*
X120791031Y-111759470D02*
X120791034Y-111759471D01*
X120791035Y-111759471D01*
X120979536Y-111816652D01*
X120979538Y-111816653D01*
X121153261Y-111909510D01*
X121305529Y-112034473D01*
X121430492Y-112186741D01*
X121523349Y-112360464D01*
X121580532Y-112548971D01*
X121599839Y-112745001D01*
X121580532Y-112941031D01*
X121580531Y-112941034D01*
X121580531Y-112941035D01*
X121558177Y-113014728D01*
X121523349Y-113129538D01*
X121430492Y-113303261D01*
X121305529Y-113455529D01*
X121153261Y-113580492D01*
X121153259Y-113580493D01*
X120979536Y-113673350D01*
X120791035Y-113730531D01*
X120791034Y-113730531D01*
X120791031Y-113730532D01*
X120644125Y-113745001D01*
X120545877Y-113745001D01*
X120398971Y-113730532D01*
X120398968Y-113730531D01*
X120398967Y-113730531D01*
X120210466Y-113673350D01*
X120036743Y-113580493D01*
X120036741Y-113580492D01*
X119884473Y-113455529D01*
X119759510Y-113303261D01*
X119666653Y-113129538D01*
X119631826Y-113014728D01*
X119609471Y-112941035D01*
X119609471Y-112941034D01*
X119609470Y-112941031D01*
X119590163Y-112745001D01*
X119609470Y-112548971D01*
X119666653Y-112360464D01*
X119759510Y-112186741D01*
X119884473Y-112034473D01*
X120036741Y-111909510D01*
X120210464Y-111816653D01*
X120210466Y-111816652D01*
X120398967Y-111759471D01*
X120398968Y-111759471D01*
X120398971Y-111759470D01*
X120545877Y-111745001D01*
X120644125Y-111745001D01*
X120791031Y-111759470D01*
X120791031Y-111759470D01*
G37*
G36*
X105551031Y-109219470D02*
X105551034Y-109219471D01*
X105551035Y-109219471D01*
X105739536Y-109276652D01*
X105739538Y-109276653D01*
X105913261Y-109369510D01*
X106065529Y-109494473D01*
X106190492Y-109646741D01*
X106190493Y-109646743D01*
X106283350Y-109820466D01*
X106340531Y-110008967D01*
X106340532Y-110008971D01*
X106359839Y-110205001D01*
X106340532Y-110401031D01*
X106283349Y-110589538D01*
X106190492Y-110763261D01*
X106065529Y-110915529D01*
X105913261Y-111040492D01*
X105913259Y-111040493D01*
X105739536Y-111133350D01*
X105551035Y-111190531D01*
X105551034Y-111190531D01*
X105551031Y-111190532D01*
X105404125Y-111205001D01*
X105305877Y-111205001D01*
X105158971Y-111190532D01*
X105158968Y-111190531D01*
X105158967Y-111190531D01*
X104970466Y-111133350D01*
X104796743Y-111040493D01*
X104796741Y-111040492D01*
X104644473Y-110915529D01*
X104519510Y-110763261D01*
X104426653Y-110589538D01*
X104369470Y-110401031D01*
X104350163Y-110205001D01*
X104369470Y-110008971D01*
X104369471Y-110008967D01*
X104426652Y-109820466D01*
X104519509Y-109646743D01*
X104519510Y-109646741D01*
X104644473Y-109494473D01*
X104796741Y-109369510D01*
X104970464Y-109276653D01*
X104970466Y-109276652D01*
X105158967Y-109219471D01*
X105158968Y-109219471D01*
X105158971Y-109219470D01*
X105305877Y-109205001D01*
X105404125Y-109205001D01*
X105551031Y-109219470D01*
X105551031Y-109219470D01*
G37*
G36*
X120791031Y-109219470D02*
X120791034Y-109219471D01*
X120791035Y-109219471D01*
X120979536Y-109276652D01*
X120979538Y-109276653D01*
X121153261Y-109369510D01*
X121305529Y-109494473D01*
X121430492Y-109646741D01*
X121430493Y-109646743D01*
X121523350Y-109820466D01*
X121580531Y-110008967D01*
X121580532Y-110008971D01*
X121599839Y-110205001D01*
X121580532Y-110401031D01*
X121523349Y-110589538D01*
X121430492Y-110763261D01*
X121305529Y-110915529D01*
X121153261Y-111040492D01*
X121153259Y-111040493D01*
X120979536Y-111133350D01*
X120791035Y-111190531D01*
X120791034Y-111190531D01*
X120791031Y-111190532D01*
X120644125Y-111205001D01*
X120545877Y-111205001D01*
X120398971Y-111190532D01*
X120398968Y-111190531D01*
X120398967Y-111190531D01*
X120210466Y-111133350D01*
X120036743Y-111040493D01*
X120036741Y-111040492D01*
X119884473Y-110915529D01*
X119759510Y-110763261D01*
X119666653Y-110589538D01*
X119609470Y-110401031D01*
X119590163Y-110205001D01*
X119609470Y-110008971D01*
X119609471Y-110008967D01*
X119666652Y-109820466D01*
X119759509Y-109646743D01*
X119759510Y-109646741D01*
X119884473Y-109494473D01*
X120036741Y-109369510D01*
X120210464Y-109276653D01*
X120210466Y-109276652D01*
X120398967Y-109219471D01*
X120398968Y-109219471D01*
X120398971Y-109219470D01*
X120545877Y-109205001D01*
X120644125Y-109205001D01*
X120791031Y-109219470D01*
X120791031Y-109219470D01*
G37*
G36*
X96813566Y-108166312D02*
X97009203Y-108247347D01*
X97185275Y-108364995D01*
X97335005Y-108514725D01*
X97452653Y-108690797D01*
X97533688Y-108886434D01*
X97575000Y-109094122D01*
X97575000Y-109305878D01*
X97533688Y-109513566D01*
X97452653Y-109709203D01*
X97335005Y-109885275D01*
X97185275Y-110035005D01*
X97009203Y-110152653D01*
X96813566Y-110233688D01*
X96605878Y-110275000D01*
X96394122Y-110275000D01*
X96186434Y-110233688D01*
X95990797Y-110152653D01*
X95814725Y-110035005D01*
X95664995Y-109885275D01*
X95547347Y-109709203D01*
X95466312Y-109513566D01*
X95425000Y-109305878D01*
X95425000Y-109094122D01*
X95466312Y-108886434D01*
X95547347Y-108690797D01*
X95664995Y-108514725D01*
X95814725Y-108364995D01*
X95990797Y-108247347D01*
X96186434Y-108166312D01*
X96394122Y-108125000D01*
X96605878Y-108125000D01*
X96813566Y-108166312D01*
X96813566Y-108166312D01*
G37*
G36*
X99354612Y-106738037D02*
X99582096Y-106832264D01*
X99786831Y-106969064D01*
X99960936Y-107143169D01*
X100097736Y-107347904D01*
X100191963Y-107575388D01*
X100240000Y-107816885D01*
X100240000Y-108063115D01*
X100191963Y-108304612D01*
X100097736Y-108532096D01*
X99960936Y-108736831D01*
X99786831Y-108910936D01*
X99582096Y-109047736D01*
X99354612Y-109141963D01*
X99113115Y-109190000D01*
X98866885Y-109190000D01*
X98625388Y-109141963D01*
X98397904Y-109047736D01*
X98193169Y-108910936D01*
X98019064Y-108736831D01*
X97882264Y-108532096D01*
X97788037Y-108304612D01*
X97740000Y-108063115D01*
X97740000Y-107816885D01*
X97788037Y-107575388D01*
X97882264Y-107347904D01*
X98019064Y-107143169D01*
X98193169Y-106969064D01*
X98397904Y-106832264D01*
X98625388Y-106738037D01*
X98866885Y-106690000D01*
X99113115Y-106690000D01*
X99354612Y-106738037D01*
X99354612Y-106738037D01*
G37*
G36*
X120791031Y-106679470D02*
X120791034Y-106679471D01*
X120791035Y-106679471D01*
X120979536Y-106736652D01*
X120979538Y-106736653D01*
X121153261Y-106829510D01*
X121305529Y-106954473D01*
X121430492Y-107106741D01*
X121430493Y-107106743D01*
X121523350Y-107280466D01*
X121543807Y-107347904D01*
X121580532Y-107468971D01*
X121599839Y-107665001D01*
X121580532Y-107861031D01*
X121523349Y-108049538D01*
X121430492Y-108223261D01*
X121305529Y-108375529D01*
X121153261Y-108500492D01*
X121153259Y-108500493D01*
X120979536Y-108593350D01*
X120791035Y-108650531D01*
X120791034Y-108650531D01*
X120791031Y-108650532D01*
X120644125Y-108665001D01*
X120545877Y-108665001D01*
X120398971Y-108650532D01*
X120398968Y-108650531D01*
X120398967Y-108650531D01*
X120210466Y-108593350D01*
X120036743Y-108500493D01*
X120036741Y-108500492D01*
X119884473Y-108375529D01*
X119759510Y-108223261D01*
X119666653Y-108049538D01*
X119609470Y-107861031D01*
X119590163Y-107665001D01*
X119609470Y-107468971D01*
X119646195Y-107347904D01*
X119666652Y-107280466D01*
X119759509Y-107106743D01*
X119759510Y-107106741D01*
X119884473Y-106954473D01*
X120036741Y-106829510D01*
X120210464Y-106736653D01*
X120210466Y-106736652D01*
X120398967Y-106679471D01*
X120398968Y-106679471D01*
X120398971Y-106679470D01*
X120545877Y-106665001D01*
X120644125Y-106665001D01*
X120791031Y-106679470D01*
X120791031Y-106679470D01*
G37*
G36*
X105551031Y-106679470D02*
X105551034Y-106679471D01*
X105551035Y-106679471D01*
X105739536Y-106736652D01*
X105739538Y-106736653D01*
X105913261Y-106829510D01*
X106065529Y-106954473D01*
X106190492Y-107106741D01*
X106190493Y-107106743D01*
X106283350Y-107280466D01*
X106303807Y-107347904D01*
X106340532Y-107468971D01*
X106359839Y-107665001D01*
X106340532Y-107861031D01*
X106283349Y-108049538D01*
X106190492Y-108223261D01*
X106065529Y-108375529D01*
X105913261Y-108500492D01*
X105913259Y-108500493D01*
X105739536Y-108593350D01*
X105551035Y-108650531D01*
X105551034Y-108650531D01*
X105551031Y-108650532D01*
X105404125Y-108665001D01*
X105305877Y-108665001D01*
X105158971Y-108650532D01*
X105158968Y-108650531D01*
X105158967Y-108650531D01*
X104970466Y-108593350D01*
X104796743Y-108500493D01*
X104796741Y-108500492D01*
X104644473Y-108375529D01*
X104519510Y-108223261D01*
X104426653Y-108049538D01*
X104369470Y-107861031D01*
X104350163Y-107665001D01*
X104369470Y-107468971D01*
X104406195Y-107347904D01*
X104426652Y-107280466D01*
X104519509Y-107106743D01*
X104519510Y-107106741D01*
X104644473Y-106954473D01*
X104796741Y-106829510D01*
X104970464Y-106736653D01*
X104970466Y-106736652D01*
X105158967Y-106679471D01*
X105158968Y-106679471D01*
X105158971Y-106679470D01*
X105305877Y-106665001D01*
X105404125Y-106665001D01*
X105551031Y-106679470D01*
X105551031Y-106679470D01*
G37*
G36*
X99354612Y-103748037D02*
X99582096Y-103842264D01*
X99786831Y-103979064D01*
X99960936Y-104153169D01*
X100097736Y-104357904D01*
X100191963Y-104585388D01*
X100240000Y-104826885D01*
X100240000Y-105073115D01*
X100191963Y-105314612D01*
X100097736Y-105542096D01*
X99960936Y-105746831D01*
X99786831Y-105920936D01*
X99582096Y-106057736D01*
X99354612Y-106151963D01*
X99113115Y-106200000D01*
X98866885Y-106200000D01*
X98625388Y-106151963D01*
X98397904Y-106057736D01*
X98193169Y-105920936D01*
X98019064Y-105746831D01*
X97882264Y-105542096D01*
X97788037Y-105314612D01*
X97740000Y-105073115D01*
X97740000Y-104826885D01*
X97788037Y-104585388D01*
X97882264Y-104357904D01*
X98019064Y-104153169D01*
X98193169Y-103979064D01*
X98397904Y-103842264D01*
X98625388Y-103748037D01*
X98866885Y-103700000D01*
X99113115Y-103700000D01*
X99354612Y-103748037D01*
X99354612Y-103748037D01*
G37*
G36*
X120791031Y-104139470D02*
X120791034Y-104139471D01*
X120791035Y-104139471D01*
X120979536Y-104196652D01*
X120979538Y-104196653D01*
X121153261Y-104289510D01*
X121305529Y-104414473D01*
X121430492Y-104566741D01*
X121430493Y-104566743D01*
X121523350Y-104740466D01*
X121549565Y-104826885D01*
X121580532Y-104928971D01*
X121599839Y-105125001D01*
X121580532Y-105321031D01*
X121523349Y-105509538D01*
X121430492Y-105683261D01*
X121305529Y-105835529D01*
X121153261Y-105960492D01*
X121153259Y-105960493D01*
X120979536Y-106053350D01*
X120791035Y-106110531D01*
X120791034Y-106110531D01*
X120791031Y-106110532D01*
X120644125Y-106125001D01*
X120545877Y-106125001D01*
X120398971Y-106110532D01*
X120398968Y-106110531D01*
X120398967Y-106110531D01*
X120210466Y-106053350D01*
X120036743Y-105960493D01*
X120036741Y-105960492D01*
X119884473Y-105835529D01*
X119759510Y-105683261D01*
X119666653Y-105509538D01*
X119609470Y-105321031D01*
X119590163Y-105125001D01*
X119609470Y-104928971D01*
X119640437Y-104826885D01*
X119666652Y-104740466D01*
X119759509Y-104566743D01*
X119759510Y-104566741D01*
X119884473Y-104414473D01*
X120036741Y-104289510D01*
X120210464Y-104196653D01*
X120210466Y-104196652D01*
X120398967Y-104139471D01*
X120398968Y-104139471D01*
X120398971Y-104139470D01*
X120545877Y-104125001D01*
X120644125Y-104125001D01*
X120791031Y-104139470D01*
X120791031Y-104139470D01*
G37*
G36*
X105551031Y-104139470D02*
X105551034Y-104139471D01*
X105551035Y-104139471D01*
X105739536Y-104196652D01*
X105739538Y-104196653D01*
X105913261Y-104289510D01*
X106065529Y-104414473D01*
X106190492Y-104566741D01*
X106190493Y-104566743D01*
X106283350Y-104740466D01*
X106309565Y-104826885D01*
X106340532Y-104928971D01*
X106359839Y-105125001D01*
X106340532Y-105321031D01*
X106283349Y-105509538D01*
X106190492Y-105683261D01*
X106065529Y-105835529D01*
X105913261Y-105960492D01*
X105913259Y-105960493D01*
X105739536Y-106053350D01*
X105551035Y-106110531D01*
X105551034Y-106110531D01*
X105551031Y-106110532D01*
X105404125Y-106125001D01*
X105305877Y-106125001D01*
X105158971Y-106110532D01*
X105158968Y-106110531D01*
X105158967Y-106110531D01*
X104970466Y-106053350D01*
X104796743Y-105960493D01*
X104796741Y-105960492D01*
X104644473Y-105835529D01*
X104519510Y-105683261D01*
X104426653Y-105509538D01*
X104369470Y-105321031D01*
X104350163Y-105125001D01*
X104369470Y-104928971D01*
X104400437Y-104826885D01*
X104426652Y-104740466D01*
X104519509Y-104566743D01*
X104519510Y-104566741D01*
X104644473Y-104414473D01*
X104796741Y-104289510D01*
X104970464Y-104196653D01*
X104970466Y-104196652D01*
X105158967Y-104139471D01*
X105158968Y-104139471D01*
X105158971Y-104139470D01*
X105305877Y-104125001D01*
X105404125Y-104125001D01*
X105551031Y-104139470D01*
X105551031Y-104139470D01*
G37*
G36*
X96813566Y-102666312D02*
X97009203Y-102747347D01*
X97185275Y-102864995D01*
X97335005Y-103014725D01*
X97452653Y-103190797D01*
X97533688Y-103386434D01*
X97575000Y-103594122D01*
X97575000Y-103805878D01*
X97533688Y-104013566D01*
X97452653Y-104209203D01*
X97335005Y-104385275D01*
X97185275Y-104535005D01*
X97009203Y-104652653D01*
X96813566Y-104733688D01*
X96605878Y-104775000D01*
X96394122Y-104775000D01*
X96186434Y-104733688D01*
X95990797Y-104652653D01*
X95814725Y-104535005D01*
X95664995Y-104385275D01*
X95547347Y-104209203D01*
X95466312Y-104013566D01*
X95425000Y-103805878D01*
X95425000Y-103594122D01*
X95466312Y-103386434D01*
X95547347Y-103190797D01*
X95664995Y-103014725D01*
X95814725Y-102864995D01*
X95990797Y-102747347D01*
X96186434Y-102666312D01*
X96394122Y-102625000D01*
X96605878Y-102625000D01*
X96813566Y-102666312D01*
X96813566Y-102666312D01*
G37*
G36*
X105551031Y-101599470D02*
X105551034Y-101599471D01*
X105551035Y-101599471D01*
X105739536Y-101656652D01*
X105739538Y-101656653D01*
X105913261Y-101749510D01*
X106065529Y-101874473D01*
X106190492Y-102026741D01*
X106283349Y-102200464D01*
X106340532Y-102388971D01*
X106359839Y-102585001D01*
X106340532Y-102781031D01*
X106340531Y-102781034D01*
X106340531Y-102781035D01*
X106315063Y-102864993D01*
X106283349Y-102969538D01*
X106190492Y-103143261D01*
X106065529Y-103295529D01*
X105913261Y-103420492D01*
X105913259Y-103420493D01*
X105739536Y-103513350D01*
X105551035Y-103570531D01*
X105551034Y-103570531D01*
X105551031Y-103570532D01*
X105404125Y-103585001D01*
X105305877Y-103585001D01*
X105158971Y-103570532D01*
X105158968Y-103570531D01*
X105158967Y-103570531D01*
X104970466Y-103513350D01*
X104796743Y-103420493D01*
X104796741Y-103420492D01*
X104644473Y-103295529D01*
X104519510Y-103143261D01*
X104426653Y-102969538D01*
X104394940Y-102864993D01*
X104369471Y-102781035D01*
X104369471Y-102781034D01*
X104369470Y-102781031D01*
X104350163Y-102585001D01*
X104369470Y-102388971D01*
X104426653Y-102200464D01*
X104519510Y-102026741D01*
X104644473Y-101874473D01*
X104796741Y-101749510D01*
X104970464Y-101656653D01*
X104970466Y-101656652D01*
X105158967Y-101599471D01*
X105158968Y-101599471D01*
X105158971Y-101599470D01*
X105305877Y-101585001D01*
X105404125Y-101585001D01*
X105551031Y-101599470D01*
X105551031Y-101599470D01*
G37*
G36*
X120791031Y-101599470D02*
X120791034Y-101599471D01*
X120791035Y-101599471D01*
X120979536Y-101656652D01*
X120979538Y-101656653D01*
X121153261Y-101749510D01*
X121305529Y-101874473D01*
X121430492Y-102026741D01*
X121523349Y-102200464D01*
X121580532Y-102388971D01*
X121599839Y-102585001D01*
X121580532Y-102781031D01*
X121580531Y-102781034D01*
X121580531Y-102781035D01*
X121555063Y-102864993D01*
X121523349Y-102969538D01*
X121430492Y-103143261D01*
X121305529Y-103295529D01*
X121153261Y-103420492D01*
X121153259Y-103420493D01*
X120979536Y-103513350D01*
X120791035Y-103570531D01*
X120791034Y-103570531D01*
X120791031Y-103570532D01*
X120644125Y-103585001D01*
X120545877Y-103585001D01*
X120398971Y-103570532D01*
X120398968Y-103570531D01*
X120398967Y-103570531D01*
X120210466Y-103513350D01*
X120036743Y-103420493D01*
X120036741Y-103420492D01*
X119884473Y-103295529D01*
X119759510Y-103143261D01*
X119666653Y-102969538D01*
X119634940Y-102864993D01*
X119609471Y-102781035D01*
X119609471Y-102781034D01*
X119609470Y-102781031D01*
X119590163Y-102585001D01*
X119609470Y-102388971D01*
X119666653Y-102200464D01*
X119759510Y-102026741D01*
X119884473Y-101874473D01*
X120036741Y-101749510D01*
X120210464Y-101656653D01*
X120210466Y-101656652D01*
X120398967Y-101599471D01*
X120398968Y-101599471D01*
X120398971Y-101599470D01*
X120545877Y-101585001D01*
X120644125Y-101585001D01*
X120791031Y-101599470D01*
X120791031Y-101599470D01*
G37*
G36*
X120791031Y-99059470D02*
X120791034Y-99059471D01*
X120791035Y-99059471D01*
X120979536Y-99116652D01*
X120979538Y-99116653D01*
X121153261Y-99209510D01*
X121305529Y-99334473D01*
X121430492Y-99486741D01*
X121523349Y-99660464D01*
X121580532Y-99848971D01*
X121599839Y-100045001D01*
X121580532Y-100241031D01*
X121523349Y-100429538D01*
X121430492Y-100603261D01*
X121305529Y-100755529D01*
X121153261Y-100880492D01*
X121153259Y-100880493D01*
X120979536Y-100973350D01*
X120791035Y-101030531D01*
X120791034Y-101030531D01*
X120791031Y-101030532D01*
X120644125Y-101045001D01*
X120545877Y-101045001D01*
X120398971Y-101030532D01*
X120398968Y-101030531D01*
X120398967Y-101030531D01*
X120210466Y-100973350D01*
X120036743Y-100880493D01*
X120036741Y-100880492D01*
X119884473Y-100755529D01*
X119759510Y-100603261D01*
X119666653Y-100429538D01*
X119609470Y-100241031D01*
X119590163Y-100045001D01*
X119609470Y-99848971D01*
X119666653Y-99660464D01*
X119759510Y-99486741D01*
X119884473Y-99334473D01*
X120036741Y-99209510D01*
X120210464Y-99116653D01*
X120210466Y-99116652D01*
X120398967Y-99059471D01*
X120398968Y-99059471D01*
X120398971Y-99059470D01*
X120545877Y-99045001D01*
X120644125Y-99045001D01*
X120791031Y-99059470D01*
X120791031Y-99059470D01*
G37*
G36*
X105551031Y-99059470D02*
X105551034Y-99059471D01*
X105551035Y-99059471D01*
X105739536Y-99116652D01*
X105739538Y-99116653D01*
X105913261Y-99209510D01*
X106065529Y-99334473D01*
X106190492Y-99486741D01*
X106283349Y-99660464D01*
X106340532Y-99848971D01*
X106359839Y-100045001D01*
X106340532Y-100241031D01*
X106283349Y-100429538D01*
X106190492Y-100603261D01*
X106065529Y-100755529D01*
X105913261Y-100880492D01*
X105913259Y-100880493D01*
X105739536Y-100973350D01*
X105551035Y-101030531D01*
X105551034Y-101030531D01*
X105551031Y-101030532D01*
X105404125Y-101045001D01*
X105305877Y-101045001D01*
X105158971Y-101030532D01*
X105158968Y-101030531D01*
X105158967Y-101030531D01*
X104970466Y-100973350D01*
X104796743Y-100880493D01*
X104796741Y-100880492D01*
X104644473Y-100755529D01*
X104519510Y-100603261D01*
X104426653Y-100429538D01*
X104369470Y-100241031D01*
X104350163Y-100045001D01*
X104369470Y-99848971D01*
X104426653Y-99660464D01*
X104519510Y-99486741D01*
X104644473Y-99334473D01*
X104796741Y-99209510D01*
X104970464Y-99116653D01*
X104970466Y-99116652D01*
X105158967Y-99059471D01*
X105158968Y-99059471D01*
X105158971Y-99059470D01*
X105305877Y-99045001D01*
X105404125Y-99045001D01*
X105551031Y-99059470D01*
X105551031Y-99059470D01*
G37*
G36*
X96813566Y-98166312D02*
X97009203Y-98247347D01*
X97185275Y-98364995D01*
X97335005Y-98514725D01*
X97452653Y-98690797D01*
X97533688Y-98886434D01*
X97575000Y-99094122D01*
X97575000Y-99305878D01*
X97533688Y-99513566D01*
X97452653Y-99709203D01*
X97335005Y-99885275D01*
X97185275Y-100035005D01*
X97009203Y-100152653D01*
X96813566Y-100233688D01*
X96605878Y-100275000D01*
X96394122Y-100275000D01*
X96186434Y-100233688D01*
X95990797Y-100152653D01*
X95814725Y-100035005D01*
X95664995Y-99885275D01*
X95547347Y-99709203D01*
X95466312Y-99513566D01*
X95425000Y-99305878D01*
X95425000Y-99094122D01*
X95466312Y-98886434D01*
X95547347Y-98690797D01*
X95664995Y-98514725D01*
X95814725Y-98364995D01*
X95990797Y-98247347D01*
X96186434Y-98166312D01*
X96394122Y-98125000D01*
X96605878Y-98125000D01*
X96813566Y-98166312D01*
X96813566Y-98166312D01*
G37*
G36*
X99354612Y-96738037D02*
X99582096Y-96832264D01*
X99786831Y-96969064D01*
X99960936Y-97143169D01*
X100097736Y-97347904D01*
X100191963Y-97575388D01*
X100240000Y-97816885D01*
X100240000Y-98063115D01*
X100191963Y-98304612D01*
X100097736Y-98532096D01*
X99960936Y-98736831D01*
X99786831Y-98910936D01*
X99582096Y-99047736D01*
X99354612Y-99141963D01*
X99113115Y-99190000D01*
X98866885Y-99190000D01*
X98625388Y-99141963D01*
X98397904Y-99047736D01*
X98193169Y-98910936D01*
X98019064Y-98736831D01*
X97882264Y-98532096D01*
X97788037Y-98304612D01*
X97740000Y-98063115D01*
X97740000Y-97816885D01*
X97788037Y-97575388D01*
X97882264Y-97347904D01*
X98019064Y-97143169D01*
X98193169Y-96969064D01*
X98397904Y-96832264D01*
X98625388Y-96738037D01*
X98866885Y-96690000D01*
X99113115Y-96690000D01*
X99354612Y-96738037D01*
X99354612Y-96738037D01*
G37*
G36*
X120791031Y-96519470D02*
X120791034Y-96519471D01*
X120791035Y-96519471D01*
X120979536Y-96576652D01*
X120979538Y-96576653D01*
X121153261Y-96669510D01*
X121305529Y-96794473D01*
X121430492Y-96946741D01*
X121430493Y-96946743D01*
X121523350Y-97120466D01*
X121580531Y-97308967D01*
X121580532Y-97308971D01*
X121599839Y-97505001D01*
X121580532Y-97701031D01*
X121523349Y-97889538D01*
X121430492Y-98063261D01*
X121305529Y-98215529D01*
X121153261Y-98340492D01*
X121153259Y-98340493D01*
X120979536Y-98433350D01*
X120791035Y-98490531D01*
X120791034Y-98490531D01*
X120791031Y-98490532D01*
X120644125Y-98505001D01*
X120545877Y-98505001D01*
X120398971Y-98490532D01*
X120398968Y-98490531D01*
X120398967Y-98490531D01*
X120210466Y-98433350D01*
X120036743Y-98340493D01*
X120036741Y-98340492D01*
X119884473Y-98215529D01*
X119759510Y-98063261D01*
X119666653Y-97889538D01*
X119609470Y-97701031D01*
X119590163Y-97505001D01*
X119609470Y-97308971D01*
X119609471Y-97308967D01*
X119666652Y-97120466D01*
X119759509Y-96946743D01*
X119759510Y-96946741D01*
X119884473Y-96794473D01*
X120036741Y-96669510D01*
X120210464Y-96576653D01*
X120210466Y-96576652D01*
X120398967Y-96519471D01*
X120398968Y-96519471D01*
X120398971Y-96519470D01*
X120545877Y-96505001D01*
X120644125Y-96505001D01*
X120791031Y-96519470D01*
X120791031Y-96519470D01*
G37*
G36*
X105551031Y-96519470D02*
X105551034Y-96519471D01*
X105551035Y-96519471D01*
X105739536Y-96576652D01*
X105739538Y-96576653D01*
X105913261Y-96669510D01*
X106065529Y-96794473D01*
X106190492Y-96946741D01*
X106190493Y-96946743D01*
X106283350Y-97120466D01*
X106340531Y-97308967D01*
X106340532Y-97308971D01*
X106359839Y-97505001D01*
X106340532Y-97701031D01*
X106283349Y-97889538D01*
X106190492Y-98063261D01*
X106065529Y-98215529D01*
X105913261Y-98340492D01*
X105913259Y-98340493D01*
X105739536Y-98433350D01*
X105551035Y-98490531D01*
X105551034Y-98490531D01*
X105551031Y-98490532D01*
X105404125Y-98505001D01*
X105305877Y-98505001D01*
X105158971Y-98490532D01*
X105158968Y-98490531D01*
X105158967Y-98490531D01*
X104970466Y-98433350D01*
X104796743Y-98340493D01*
X104796741Y-98340492D01*
X104644473Y-98215529D01*
X104519510Y-98063261D01*
X104426653Y-97889538D01*
X104369470Y-97701031D01*
X104350163Y-97505001D01*
X104369470Y-97308971D01*
X104369471Y-97308967D01*
X104426652Y-97120466D01*
X104519509Y-96946743D01*
X104519510Y-96946741D01*
X104644473Y-96794473D01*
X104796741Y-96669510D01*
X104970464Y-96576653D01*
X104970466Y-96576652D01*
X105158967Y-96519471D01*
X105158968Y-96519471D01*
X105158971Y-96519470D01*
X105305877Y-96505001D01*
X105404125Y-96505001D01*
X105551031Y-96519470D01*
X105551031Y-96519470D01*
G37*
G36*
X99364612Y-93748037D02*
X99592096Y-93842264D01*
X99796831Y-93979064D01*
X99970936Y-94153169D01*
X100107736Y-94357904D01*
X100201963Y-94585388D01*
X100250000Y-94826885D01*
X100250000Y-95073115D01*
X100201963Y-95314612D01*
X100107736Y-95542096D01*
X99970936Y-95746831D01*
X99796831Y-95920936D01*
X99592096Y-96057736D01*
X99364612Y-96151963D01*
X99123115Y-96200000D01*
X98876885Y-96200000D01*
X98635388Y-96151963D01*
X98407904Y-96057736D01*
X98203169Y-95920936D01*
X98029064Y-95746831D01*
X97892264Y-95542096D01*
X97798037Y-95314612D01*
X97750000Y-95073115D01*
X97750000Y-94826885D01*
X97798037Y-94585388D01*
X97892264Y-94357904D01*
X98029064Y-94153169D01*
X98203169Y-93979064D01*
X98407904Y-93842264D01*
X98635388Y-93748037D01*
X98876885Y-93700000D01*
X99123115Y-93700000D01*
X99364612Y-93748037D01*
X99364612Y-93748037D01*
G37*
G36*
X120791031Y-93979470D02*
X120791034Y-93979471D01*
X120791035Y-93979471D01*
X120979536Y-94036652D01*
X120979538Y-94036653D01*
X121153261Y-94129510D01*
X121305529Y-94254473D01*
X121430492Y-94406741D01*
X121430493Y-94406743D01*
X121523350Y-94580466D01*
X121569829Y-94733688D01*
X121580532Y-94768971D01*
X121599839Y-94965001D01*
X121580532Y-95161031D01*
X121523349Y-95349538D01*
X121430492Y-95523261D01*
X121305529Y-95675529D01*
X121153261Y-95800492D01*
X121153259Y-95800493D01*
X120979536Y-95893350D01*
X120791035Y-95950531D01*
X120791034Y-95950531D01*
X120791031Y-95950532D01*
X120644125Y-95965001D01*
X120545877Y-95965001D01*
X120398971Y-95950532D01*
X120398968Y-95950531D01*
X120398967Y-95950531D01*
X120210466Y-95893350D01*
X120036743Y-95800493D01*
X120036741Y-95800492D01*
X119884473Y-95675529D01*
X119759510Y-95523261D01*
X119666653Y-95349538D01*
X119609470Y-95161031D01*
X119590163Y-94965001D01*
X119609470Y-94768971D01*
X119620173Y-94733688D01*
X119666652Y-94580466D01*
X119759509Y-94406743D01*
X119759510Y-94406741D01*
X119884473Y-94254473D01*
X120036741Y-94129510D01*
X120210464Y-94036653D01*
X120210466Y-94036652D01*
X120398967Y-93979471D01*
X120398968Y-93979471D01*
X120398971Y-93979470D01*
X120545877Y-93965001D01*
X120644125Y-93965001D01*
X120791031Y-93979470D01*
X120791031Y-93979470D01*
G37*
G36*
X105551031Y-93979470D02*
X105551034Y-93979471D01*
X105551035Y-93979471D01*
X105739536Y-94036652D01*
X105739538Y-94036653D01*
X105913261Y-94129510D01*
X106065529Y-94254473D01*
X106190492Y-94406741D01*
X106190493Y-94406743D01*
X106283350Y-94580466D01*
X106329829Y-94733688D01*
X106340532Y-94768971D01*
X106359839Y-94965001D01*
X106340532Y-95161031D01*
X106283349Y-95349538D01*
X106190492Y-95523261D01*
X106065529Y-95675529D01*
X105913261Y-95800492D01*
X105913259Y-95800493D01*
X105739536Y-95893350D01*
X105551035Y-95950531D01*
X105551034Y-95950531D01*
X105551031Y-95950532D01*
X105404125Y-95965001D01*
X105305877Y-95965001D01*
X105158971Y-95950532D01*
X105158968Y-95950531D01*
X105158967Y-95950531D01*
X104970466Y-95893350D01*
X104796743Y-95800493D01*
X104796741Y-95800492D01*
X104644473Y-95675529D01*
X104519510Y-95523261D01*
X104426653Y-95349538D01*
X104369470Y-95161031D01*
X104350163Y-94965001D01*
X104369470Y-94768971D01*
X104380173Y-94733688D01*
X104426652Y-94580466D01*
X104519509Y-94406743D01*
X104519510Y-94406741D01*
X104644473Y-94254473D01*
X104796741Y-94129510D01*
X104970464Y-94036653D01*
X104970466Y-94036652D01*
X105158967Y-93979471D01*
X105158968Y-93979471D01*
X105158971Y-93979470D01*
X105305877Y-93965001D01*
X105404125Y-93965001D01*
X105551031Y-93979470D01*
X105551031Y-93979470D01*
G37*
G36*
X96823566Y-92666312D02*
X97019203Y-92747347D01*
X97195275Y-92864995D01*
X97345005Y-93014725D01*
X97462653Y-93190797D01*
X97543688Y-93386434D01*
X97585000Y-93594122D01*
X97585000Y-93805878D01*
X97543688Y-94013566D01*
X97462653Y-94209203D01*
X97345005Y-94385275D01*
X97195275Y-94535005D01*
X97019203Y-94652653D01*
X96823566Y-94733688D01*
X96615878Y-94775000D01*
X96404122Y-94775000D01*
X96196434Y-94733688D01*
X96000797Y-94652653D01*
X95824725Y-94535005D01*
X95674995Y-94385275D01*
X95557347Y-94209203D01*
X95476312Y-94013566D01*
X95435000Y-93805878D01*
X95435000Y-93594122D01*
X95476312Y-93386434D01*
X95557347Y-93190797D01*
X95674995Y-93014725D01*
X95824725Y-92864995D01*
X96000797Y-92747347D01*
X96196434Y-92666312D01*
X96404122Y-92625000D01*
X96615878Y-92625000D01*
X96823566Y-92666312D01*
X96823566Y-92666312D01*
G37*
G36*
X120791031Y-91439470D02*
X120791034Y-91439471D01*
X120791035Y-91439471D01*
X120979536Y-91496652D01*
X120979538Y-91496653D01*
X121153261Y-91589510D01*
X121305529Y-91714473D01*
X121430492Y-91866741D01*
X121523349Y-92040464D01*
X121580532Y-92228971D01*
X121599839Y-92425001D01*
X121580532Y-92621031D01*
X121580531Y-92621034D01*
X121580531Y-92621035D01*
X121542215Y-92747347D01*
X121523349Y-92809538D01*
X121430492Y-92983261D01*
X121305529Y-93135529D01*
X121153261Y-93260492D01*
X121153259Y-93260493D01*
X120979536Y-93353350D01*
X120791035Y-93410531D01*
X120791034Y-93410531D01*
X120791031Y-93410532D01*
X120644125Y-93425001D01*
X120545877Y-93425001D01*
X120398971Y-93410532D01*
X120398968Y-93410531D01*
X120398967Y-93410531D01*
X120210466Y-93353350D01*
X120036743Y-93260493D01*
X120036741Y-93260492D01*
X119884473Y-93135529D01*
X119759510Y-92983261D01*
X119666653Y-92809538D01*
X119647788Y-92747347D01*
X119609471Y-92621035D01*
X119609471Y-92621034D01*
X119609470Y-92621031D01*
X119590163Y-92425001D01*
X119609470Y-92228971D01*
X119666653Y-92040464D01*
X119759510Y-91866741D01*
X119884473Y-91714473D01*
X120036741Y-91589510D01*
X120210464Y-91496653D01*
X120210466Y-91496652D01*
X120398967Y-91439471D01*
X120398968Y-91439471D01*
X120398971Y-91439470D01*
X120545877Y-91425001D01*
X120644125Y-91425001D01*
X120791031Y-91439470D01*
X120791031Y-91439470D01*
G37*
G36*
X105551031Y-91439470D02*
X105551034Y-91439471D01*
X105551035Y-91439471D01*
X105739536Y-91496652D01*
X105739538Y-91496653D01*
X105913261Y-91589510D01*
X106065529Y-91714473D01*
X106190492Y-91866741D01*
X106283349Y-92040464D01*
X106340532Y-92228971D01*
X106359839Y-92425001D01*
X106340532Y-92621031D01*
X106340531Y-92621034D01*
X106340531Y-92621035D01*
X106302215Y-92747347D01*
X106283349Y-92809538D01*
X106190492Y-92983261D01*
X106065529Y-93135529D01*
X105913261Y-93260492D01*
X105913259Y-93260493D01*
X105739536Y-93353350D01*
X105551035Y-93410531D01*
X105551034Y-93410531D01*
X105551031Y-93410532D01*
X105404125Y-93425001D01*
X105305877Y-93425001D01*
X105158971Y-93410532D01*
X105158968Y-93410531D01*
X105158967Y-93410531D01*
X104970466Y-93353350D01*
X104796743Y-93260493D01*
X104796741Y-93260492D01*
X104644473Y-93135529D01*
X104519510Y-92983261D01*
X104426653Y-92809538D01*
X104407788Y-92747347D01*
X104369471Y-92621035D01*
X104369471Y-92621034D01*
X104369470Y-92621031D01*
X104350163Y-92425001D01*
X104369470Y-92228971D01*
X104426653Y-92040464D01*
X104519510Y-91866741D01*
X104644473Y-91714473D01*
X104796741Y-91589510D01*
X104970464Y-91496653D01*
X104970466Y-91496652D01*
X105158967Y-91439471D01*
X105158968Y-91439471D01*
X105158971Y-91439470D01*
X105305877Y-91425001D01*
X105404125Y-91425001D01*
X105551031Y-91439470D01*
X105551031Y-91439470D01*
G37*
G36*
X105551031Y-88899470D02*
X105551034Y-88899471D01*
X105551035Y-88899471D01*
X105739536Y-88956652D01*
X105739538Y-88956653D01*
X105913261Y-89049510D01*
X106065529Y-89174473D01*
X106190492Y-89326741D01*
X106190493Y-89326743D01*
X106283350Y-89500466D01*
X106340531Y-89688967D01*
X106340532Y-89688971D01*
X106359839Y-89885001D01*
X106340532Y-90081031D01*
X106283349Y-90269538D01*
X106190492Y-90443261D01*
X106065529Y-90595529D01*
X105913261Y-90720492D01*
X105913259Y-90720493D01*
X105739536Y-90813350D01*
X105551035Y-90870531D01*
X105551034Y-90870531D01*
X105551031Y-90870532D01*
X105404125Y-90885001D01*
X105305877Y-90885001D01*
X105158971Y-90870532D01*
X105158968Y-90870531D01*
X105158967Y-90870531D01*
X104970466Y-90813350D01*
X104796743Y-90720493D01*
X104796741Y-90720492D01*
X104644473Y-90595529D01*
X104519510Y-90443261D01*
X104426653Y-90269538D01*
X104369470Y-90081031D01*
X104350163Y-89885001D01*
X104369470Y-89688971D01*
X104369471Y-89688967D01*
X104426652Y-89500466D01*
X104519509Y-89326743D01*
X104519510Y-89326741D01*
X104644473Y-89174473D01*
X104796741Y-89049510D01*
X104970464Y-88956653D01*
X104970466Y-88956652D01*
X105158967Y-88899471D01*
X105158968Y-88899471D01*
X105158971Y-88899470D01*
X105305877Y-88885001D01*
X105404125Y-88885001D01*
X105551031Y-88899470D01*
X105551031Y-88899470D01*
G37*
G36*
X120791031Y-88899470D02*
X120791034Y-88899471D01*
X120791035Y-88899471D01*
X120979536Y-88956652D01*
X120979538Y-88956653D01*
X121153261Y-89049510D01*
X121305529Y-89174473D01*
X121430492Y-89326741D01*
X121430493Y-89326743D01*
X121523350Y-89500466D01*
X121580531Y-89688967D01*
X121580532Y-89688971D01*
X121599839Y-89885001D01*
X121580532Y-90081031D01*
X121523349Y-90269538D01*
X121430492Y-90443261D01*
X121305529Y-90595529D01*
X121153261Y-90720492D01*
X121153259Y-90720493D01*
X120979536Y-90813350D01*
X120791035Y-90870531D01*
X120791034Y-90870531D01*
X120791031Y-90870532D01*
X120644125Y-90885001D01*
X120545877Y-90885001D01*
X120398971Y-90870532D01*
X120398968Y-90870531D01*
X120398967Y-90870531D01*
X120210466Y-90813350D01*
X120036743Y-90720493D01*
X120036741Y-90720492D01*
X119884473Y-90595529D01*
X119759510Y-90443261D01*
X119666653Y-90269538D01*
X119609470Y-90081031D01*
X119590163Y-89885001D01*
X119609470Y-89688971D01*
X119609471Y-89688967D01*
X119666652Y-89500466D01*
X119759509Y-89326743D01*
X119759510Y-89326741D01*
X119884473Y-89174473D01*
X120036741Y-89049510D01*
X120210464Y-88956653D01*
X120210466Y-88956652D01*
X120398967Y-88899471D01*
X120398968Y-88899471D01*
X120398971Y-88899470D01*
X120545877Y-88885001D01*
X120644125Y-88885001D01*
X120791031Y-88899470D01*
X120791031Y-88899470D01*
G37*
G36*
X96823566Y-88166312D02*
X97019203Y-88247347D01*
X97195275Y-88364995D01*
X97345005Y-88514725D01*
X97462653Y-88690797D01*
X97543688Y-88886434D01*
X97585000Y-89094122D01*
X97585000Y-89305878D01*
X97543688Y-89513566D01*
X97462653Y-89709203D01*
X97345005Y-89885275D01*
X97195275Y-90035005D01*
X97019203Y-90152653D01*
X96823566Y-90233688D01*
X96615878Y-90275000D01*
X96404122Y-90275000D01*
X96196434Y-90233688D01*
X96000797Y-90152653D01*
X95824725Y-90035005D01*
X95674995Y-89885275D01*
X95557347Y-89709203D01*
X95476312Y-89513566D01*
X95435000Y-89305878D01*
X95435000Y-89094122D01*
X95476312Y-88886434D01*
X95557347Y-88690797D01*
X95674995Y-88514725D01*
X95824725Y-88364995D01*
X96000797Y-88247347D01*
X96196434Y-88166312D01*
X96404122Y-88125000D01*
X96615878Y-88125000D01*
X96823566Y-88166312D01*
X96823566Y-88166312D01*
G37*
G36*
X99364612Y-86738037D02*
X99592096Y-86832264D01*
X99796831Y-86969064D01*
X99970936Y-87143169D01*
X100107736Y-87347904D01*
X100201963Y-87575388D01*
X100250000Y-87816885D01*
X100250000Y-88063115D01*
X100201963Y-88304612D01*
X100107736Y-88532096D01*
X99970936Y-88736831D01*
X99796831Y-88910936D01*
X99592096Y-89047736D01*
X99364612Y-89141963D01*
X99123115Y-89190000D01*
X98876885Y-89190000D01*
X98635388Y-89141963D01*
X98407904Y-89047736D01*
X98203169Y-88910936D01*
X98029064Y-88736831D01*
X97892264Y-88532096D01*
X97798037Y-88304612D01*
X97750000Y-88063115D01*
X97750000Y-87816885D01*
X97798037Y-87575388D01*
X97892264Y-87347904D01*
X98029064Y-87143169D01*
X98203169Y-86969064D01*
X98407904Y-86832264D01*
X98635388Y-86738037D01*
X98876885Y-86690000D01*
X99123115Y-86690000D01*
X99364612Y-86738037D01*
X99364612Y-86738037D01*
G37*
G36*
X120791031Y-86359470D02*
X120791034Y-86359471D01*
X120791035Y-86359471D01*
X120979536Y-86416652D01*
X120979538Y-86416653D01*
X121153261Y-86509510D01*
X121305529Y-86634473D01*
X121430492Y-86786741D01*
X121430493Y-86786743D01*
X121523350Y-86960466D01*
X121525958Y-86969064D01*
X121580532Y-87148971D01*
X121599839Y-87345001D01*
X121580532Y-87541031D01*
X121523349Y-87729538D01*
X121430492Y-87903261D01*
X121305529Y-88055529D01*
X121153261Y-88180492D01*
X121153259Y-88180493D01*
X120979536Y-88273350D01*
X120791035Y-88330531D01*
X120791034Y-88330531D01*
X120791031Y-88330532D01*
X120644125Y-88345001D01*
X120545877Y-88345001D01*
X120398971Y-88330532D01*
X120398968Y-88330531D01*
X120398967Y-88330531D01*
X120210466Y-88273350D01*
X120036743Y-88180493D01*
X120036741Y-88180492D01*
X119884473Y-88055529D01*
X119759510Y-87903261D01*
X119666653Y-87729538D01*
X119609470Y-87541031D01*
X119590163Y-87345001D01*
X119609470Y-87148971D01*
X119664044Y-86969064D01*
X119666652Y-86960466D01*
X119759509Y-86786743D01*
X119759510Y-86786741D01*
X119884473Y-86634473D01*
X120036741Y-86509510D01*
X120210464Y-86416653D01*
X120210466Y-86416652D01*
X120398967Y-86359471D01*
X120398968Y-86359471D01*
X120398971Y-86359470D01*
X120545877Y-86345001D01*
X120644125Y-86345001D01*
X120791031Y-86359470D01*
X120791031Y-86359470D01*
G37*
G36*
X105551031Y-86359470D02*
X105551034Y-86359471D01*
X105551035Y-86359471D01*
X105739536Y-86416652D01*
X105739538Y-86416653D01*
X105913261Y-86509510D01*
X106065529Y-86634473D01*
X106190492Y-86786741D01*
X106190493Y-86786743D01*
X106283350Y-86960466D01*
X106285958Y-86969064D01*
X106340532Y-87148971D01*
X106359839Y-87345001D01*
X106340532Y-87541031D01*
X106283349Y-87729538D01*
X106190492Y-87903261D01*
X106065529Y-88055529D01*
X105913261Y-88180492D01*
X105913259Y-88180493D01*
X105739536Y-88273350D01*
X105551035Y-88330531D01*
X105551034Y-88330531D01*
X105551031Y-88330532D01*
X105404125Y-88345001D01*
X105305877Y-88345001D01*
X105158971Y-88330532D01*
X105158968Y-88330531D01*
X105158967Y-88330531D01*
X104970466Y-88273350D01*
X104796743Y-88180493D01*
X104796741Y-88180492D01*
X104644473Y-88055529D01*
X104519510Y-87903261D01*
X104426653Y-87729538D01*
X104369470Y-87541031D01*
X104350163Y-87345001D01*
X104369470Y-87148971D01*
X104424044Y-86969064D01*
X104426652Y-86960466D01*
X104519509Y-86786743D01*
X104519510Y-86786741D01*
X104644473Y-86634473D01*
X104796741Y-86509510D01*
X104970464Y-86416653D01*
X104970466Y-86416652D01*
X105158967Y-86359471D01*
X105158968Y-86359471D01*
X105158971Y-86359470D01*
X105305877Y-86345001D01*
X105404125Y-86345001D01*
X105551031Y-86359470D01*
X105551031Y-86359470D01*
G37*
G36*
X99354612Y-83748037D02*
X99582096Y-83842264D01*
X99786831Y-83979064D01*
X99960936Y-84153169D01*
X100097736Y-84357904D01*
X100191963Y-84585388D01*
X100240000Y-84826885D01*
X100240000Y-85073115D01*
X100191963Y-85314612D01*
X100097736Y-85542096D01*
X99960936Y-85746831D01*
X99786831Y-85920936D01*
X99582096Y-86057736D01*
X99354612Y-86151963D01*
X99113115Y-86200000D01*
X98866885Y-86200000D01*
X98625388Y-86151963D01*
X98397904Y-86057736D01*
X98193169Y-85920936D01*
X98019064Y-85746831D01*
X97882264Y-85542096D01*
X97788037Y-85314612D01*
X97740000Y-85073115D01*
X97740000Y-84826885D01*
X97788037Y-84585388D01*
X97882264Y-84357904D01*
X98019064Y-84153169D01*
X98193169Y-83979064D01*
X98397904Y-83842264D01*
X98625388Y-83748037D01*
X98866885Y-83700000D01*
X99113115Y-83700000D01*
X99354612Y-83748037D01*
X99354612Y-83748037D01*
G37*
G36*
X120791031Y-83819470D02*
X120791034Y-83819471D01*
X120791035Y-83819471D01*
X120979536Y-83876652D01*
X120979538Y-83876653D01*
X121153261Y-83969510D01*
X121305529Y-84094473D01*
X121430492Y-84246741D01*
X121430493Y-84246743D01*
X121523350Y-84420466D01*
X121580531Y-84608967D01*
X121580532Y-84608971D01*
X121599839Y-84805001D01*
X121580532Y-85001031D01*
X121523349Y-85189538D01*
X121430492Y-85363261D01*
X121305529Y-85515529D01*
X121153261Y-85640492D01*
X121153259Y-85640493D01*
X120979536Y-85733350D01*
X120791035Y-85790531D01*
X120791034Y-85790531D01*
X120791031Y-85790532D01*
X120644125Y-85805001D01*
X120545877Y-85805001D01*
X120398971Y-85790532D01*
X120398968Y-85790531D01*
X120398967Y-85790531D01*
X120210466Y-85733350D01*
X120036743Y-85640493D01*
X120036741Y-85640492D01*
X119884473Y-85515529D01*
X119759510Y-85363261D01*
X119666653Y-85189538D01*
X119609470Y-85001031D01*
X119590163Y-84805001D01*
X119609470Y-84608971D01*
X119609471Y-84608967D01*
X119666652Y-84420466D01*
X119759509Y-84246743D01*
X119759510Y-84246741D01*
X119884473Y-84094473D01*
X120036741Y-83969510D01*
X120210464Y-83876653D01*
X120210466Y-83876652D01*
X120398967Y-83819471D01*
X120398968Y-83819471D01*
X120398971Y-83819470D01*
X120545877Y-83805001D01*
X120644125Y-83805001D01*
X120791031Y-83819470D01*
X120791031Y-83819470D01*
G37*
G36*
X105551031Y-83819470D02*
X105551034Y-83819471D01*
X105551035Y-83819471D01*
X105739536Y-83876652D01*
X105739538Y-83876653D01*
X105913261Y-83969510D01*
X106065529Y-84094473D01*
X106190492Y-84246741D01*
X106190493Y-84246743D01*
X106283350Y-84420466D01*
X106340531Y-84608967D01*
X106340532Y-84608971D01*
X106359839Y-84805001D01*
X106340532Y-85001031D01*
X106283349Y-85189538D01*
X106190492Y-85363261D01*
X106065529Y-85515529D01*
X105913261Y-85640492D01*
X105913259Y-85640493D01*
X105739536Y-85733350D01*
X105551035Y-85790531D01*
X105551034Y-85790531D01*
X105551031Y-85790532D01*
X105404125Y-85805001D01*
X105305877Y-85805001D01*
X105158971Y-85790532D01*
X105158968Y-85790531D01*
X105158967Y-85790531D01*
X104970466Y-85733350D01*
X104796743Y-85640493D01*
X104796741Y-85640492D01*
X104644473Y-85515529D01*
X104519510Y-85363261D01*
X104426653Y-85189538D01*
X104369470Y-85001031D01*
X104350163Y-84805001D01*
X104369470Y-84608971D01*
X104369471Y-84608967D01*
X104426652Y-84420466D01*
X104519509Y-84246743D01*
X104519510Y-84246741D01*
X104644473Y-84094473D01*
X104796741Y-83969510D01*
X104970464Y-83876653D01*
X104970466Y-83876652D01*
X105158967Y-83819471D01*
X105158968Y-83819471D01*
X105158971Y-83819470D01*
X105305877Y-83805001D01*
X105404125Y-83805001D01*
X105551031Y-83819470D01*
X105551031Y-83819470D01*
G37*
G36*
X96813566Y-82666312D02*
X97009203Y-82747347D01*
X97185275Y-82864995D01*
X97335005Y-83014725D01*
X97452653Y-83190797D01*
X97533688Y-83386434D01*
X97575000Y-83594122D01*
X97575000Y-83805878D01*
X97533688Y-84013566D01*
X97452653Y-84209203D01*
X97335005Y-84385275D01*
X97185275Y-84535005D01*
X97009203Y-84652653D01*
X96813566Y-84733688D01*
X96605878Y-84775000D01*
X96394122Y-84775000D01*
X96186434Y-84733688D01*
X95990797Y-84652653D01*
X95814725Y-84535005D01*
X95664995Y-84385275D01*
X95547347Y-84209203D01*
X95466312Y-84013566D01*
X95425000Y-83805878D01*
X95425000Y-83594122D01*
X95466312Y-83386434D01*
X95547347Y-83190797D01*
X95664995Y-83014725D01*
X95814725Y-82864995D01*
X95990797Y-82747347D01*
X96186434Y-82666312D01*
X96394122Y-82625000D01*
X96605878Y-82625000D01*
X96813566Y-82666312D01*
X96813566Y-82666312D01*
G37*
G36*
X120791031Y-81279470D02*
X120791034Y-81279471D01*
X120791035Y-81279471D01*
X120979536Y-81336652D01*
X120979538Y-81336653D01*
X121153261Y-81429510D01*
X121305529Y-81554473D01*
X121430492Y-81706741D01*
X121523349Y-81880464D01*
X121580532Y-82068971D01*
X121599839Y-82265001D01*
X121580532Y-82461031D01*
X121523349Y-82649538D01*
X121430492Y-82823261D01*
X121305529Y-82975529D01*
X121153261Y-83100492D01*
X121153259Y-83100493D01*
X120979536Y-83193350D01*
X120791035Y-83250531D01*
X120791034Y-83250531D01*
X120791031Y-83250532D01*
X120644125Y-83265001D01*
X120545877Y-83265001D01*
X120398971Y-83250532D01*
X120398968Y-83250531D01*
X120398967Y-83250531D01*
X120210466Y-83193350D01*
X120036743Y-83100493D01*
X120036741Y-83100492D01*
X119884473Y-82975529D01*
X119759510Y-82823261D01*
X119666653Y-82649538D01*
X119609470Y-82461031D01*
X119590163Y-82265001D01*
X119609470Y-82068971D01*
X119666653Y-81880464D01*
X119759510Y-81706741D01*
X119884473Y-81554473D01*
X120036741Y-81429510D01*
X120210464Y-81336653D01*
X120210466Y-81336652D01*
X120398967Y-81279471D01*
X120398968Y-81279471D01*
X120398971Y-81279470D01*
X120545877Y-81265001D01*
X120644125Y-81265001D01*
X120791031Y-81279470D01*
X120791031Y-81279470D01*
G37*
G36*
X105551031Y-81279470D02*
X105551034Y-81279471D01*
X105551035Y-81279471D01*
X105739536Y-81336652D01*
X105739538Y-81336653D01*
X105913261Y-81429510D01*
X106065529Y-81554473D01*
X106190492Y-81706741D01*
X106283349Y-81880464D01*
X106340532Y-82068971D01*
X106359839Y-82265001D01*
X106340532Y-82461031D01*
X106283349Y-82649538D01*
X106190492Y-82823261D01*
X106065529Y-82975529D01*
X105913261Y-83100492D01*
X105913259Y-83100493D01*
X105739536Y-83193350D01*
X105551035Y-83250531D01*
X105551034Y-83250531D01*
X105551031Y-83250532D01*
X105404125Y-83265001D01*
X105305877Y-83265001D01*
X105158971Y-83250532D01*
X105158968Y-83250531D01*
X105158967Y-83250531D01*
X104970466Y-83193350D01*
X104796743Y-83100493D01*
X104796741Y-83100492D01*
X104644473Y-82975529D01*
X104519510Y-82823261D01*
X104426653Y-82649538D01*
X104369470Y-82461031D01*
X104350163Y-82265001D01*
X104369470Y-82068971D01*
X104426653Y-81880464D01*
X104519510Y-81706741D01*
X104644473Y-81554473D01*
X104796741Y-81429510D01*
X104970464Y-81336653D01*
X104970466Y-81336652D01*
X105158967Y-81279471D01*
X105158968Y-81279471D01*
X105158971Y-81279470D01*
X105305877Y-81265001D01*
X105404125Y-81265001D01*
X105551031Y-81279470D01*
X105551031Y-81279470D01*
G37*
G36*
X120791031Y-78739470D02*
X120791034Y-78739471D01*
X120791035Y-78739471D01*
X120979536Y-78796652D01*
X120979538Y-78796653D01*
X121153261Y-78889510D01*
X121305529Y-79014473D01*
X121430492Y-79166741D01*
X121523349Y-79340464D01*
X121580532Y-79528971D01*
X121599839Y-79725001D01*
X121580532Y-79921031D01*
X121580531Y-79921034D01*
X121580531Y-79921035D01*
X121545959Y-80035005D01*
X121523349Y-80109538D01*
X121430492Y-80283261D01*
X121305529Y-80435529D01*
X121153261Y-80560492D01*
X121153259Y-80560493D01*
X120979536Y-80653350D01*
X120791035Y-80710531D01*
X120791034Y-80710531D01*
X120791031Y-80710532D01*
X120644125Y-80725001D01*
X120545877Y-80725001D01*
X120398971Y-80710532D01*
X120398968Y-80710531D01*
X120398967Y-80710531D01*
X120210466Y-80653350D01*
X120036743Y-80560493D01*
X120036741Y-80560492D01*
X119884473Y-80435529D01*
X119759510Y-80283261D01*
X119666653Y-80109538D01*
X119644044Y-80035005D01*
X119609471Y-79921035D01*
X119609471Y-79921034D01*
X119609470Y-79921031D01*
X119590163Y-79725001D01*
X119609470Y-79528971D01*
X119666653Y-79340464D01*
X119759510Y-79166741D01*
X119884473Y-79014473D01*
X120036741Y-78889510D01*
X120210464Y-78796653D01*
X120210466Y-78796652D01*
X120398967Y-78739471D01*
X120398968Y-78739471D01*
X120398971Y-78739470D01*
X120545877Y-78725001D01*
X120644125Y-78725001D01*
X120791031Y-78739470D01*
X120791031Y-78739470D01*
G37*
G36*
X105551031Y-78739470D02*
X105551034Y-78739471D01*
X105551035Y-78739471D01*
X105739536Y-78796652D01*
X105739538Y-78796653D01*
X105913261Y-78889510D01*
X106065529Y-79014473D01*
X106190492Y-79166741D01*
X106283349Y-79340464D01*
X106340532Y-79528971D01*
X106359839Y-79725001D01*
X106340532Y-79921031D01*
X106340531Y-79921034D01*
X106340531Y-79921035D01*
X106305959Y-80035005D01*
X106283349Y-80109538D01*
X106190492Y-80283261D01*
X106065529Y-80435529D01*
X105913261Y-80560492D01*
X105913259Y-80560493D01*
X105739536Y-80653350D01*
X105551035Y-80710531D01*
X105551034Y-80710531D01*
X105551031Y-80710532D01*
X105404125Y-80725001D01*
X105305877Y-80725001D01*
X105158971Y-80710532D01*
X105158968Y-80710531D01*
X105158967Y-80710531D01*
X104970466Y-80653350D01*
X104796743Y-80560493D01*
X104796741Y-80560492D01*
X104644473Y-80435529D01*
X104519510Y-80283261D01*
X104426653Y-80109538D01*
X104404044Y-80035005D01*
X104369471Y-79921035D01*
X104369471Y-79921034D01*
X104369470Y-79921031D01*
X104350163Y-79725001D01*
X104369470Y-79528971D01*
X104426653Y-79340464D01*
X104519510Y-79166741D01*
X104644473Y-79014473D01*
X104796741Y-78889510D01*
X104970464Y-78796653D01*
X104970466Y-78796652D01*
X105158967Y-78739471D01*
X105158968Y-78739471D01*
X105158971Y-78739470D01*
X105305877Y-78725001D01*
X105404125Y-78725001D01*
X105551031Y-78739470D01*
X105551031Y-78739470D01*
G37*
G36*
X96813566Y-78166312D02*
X97009203Y-78247347D01*
X97185275Y-78364995D01*
X97335005Y-78514725D01*
X97452653Y-78690797D01*
X97533688Y-78886434D01*
X97575000Y-79094122D01*
X97575000Y-79305878D01*
X97533688Y-79513566D01*
X97452653Y-79709203D01*
X97335005Y-79885275D01*
X97185275Y-80035005D01*
X97009203Y-80152653D01*
X96813566Y-80233688D01*
X96605878Y-80275000D01*
X96394122Y-80275000D01*
X96186434Y-80233688D01*
X95990797Y-80152653D01*
X95814725Y-80035005D01*
X95664995Y-79885275D01*
X95547347Y-79709203D01*
X95466312Y-79513566D01*
X95425000Y-79305878D01*
X95425000Y-79094122D01*
X95466312Y-78886434D01*
X95547347Y-78690797D01*
X95664995Y-78514725D01*
X95814725Y-78364995D01*
X95990797Y-78247347D01*
X96186434Y-78166312D01*
X96394122Y-78125000D01*
X96605878Y-78125000D01*
X96813566Y-78166312D01*
X96813566Y-78166312D01*
G37*
G36*
X99354612Y-76738037D02*
X99582096Y-76832264D01*
X99786831Y-76969064D01*
X99960936Y-77143169D01*
X100097736Y-77347904D01*
X100191963Y-77575388D01*
X100240000Y-77816885D01*
X100240000Y-78063115D01*
X100191963Y-78304612D01*
X100097736Y-78532096D01*
X99960936Y-78736831D01*
X99786831Y-78910936D01*
X99582096Y-79047736D01*
X99354612Y-79141963D01*
X99113115Y-79190000D01*
X98866885Y-79190000D01*
X98625388Y-79141963D01*
X98397904Y-79047736D01*
X98193169Y-78910936D01*
X98019064Y-78736831D01*
X97882264Y-78532096D01*
X97788037Y-78304612D01*
X97740000Y-78063115D01*
X97740000Y-77816885D01*
X97788037Y-77575388D01*
X97882264Y-77347904D01*
X98019064Y-77143169D01*
X98193169Y-76969064D01*
X98397904Y-76832264D01*
X98625388Y-76738037D01*
X98866885Y-76690000D01*
X99113115Y-76690000D01*
X99354612Y-76738037D01*
X99354612Y-76738037D01*
G37*
G36*
X106355001Y-78185001D02*
X104355001Y-78185001D01*
X104355001Y-76185001D01*
X106355001Y-76185001D01*
X106355001Y-78185001D01*
X106355001Y-78185001D01*
G37*
G36*
X120791031Y-76199470D02*
X120791034Y-76199471D01*
X120791035Y-76199471D01*
X120979536Y-76256652D01*
X120979538Y-76256653D01*
X121153261Y-76349510D01*
X121305529Y-76474473D01*
X121430492Y-76626741D01*
X121430493Y-76626743D01*
X121523350Y-76800466D01*
X121580531Y-76988967D01*
X121580532Y-76988971D01*
X121599839Y-77185001D01*
X121580532Y-77381031D01*
X121523349Y-77569538D01*
X121430492Y-77743261D01*
X121305529Y-77895529D01*
X121153261Y-78020492D01*
X121153259Y-78020493D01*
X120979536Y-78113350D01*
X120791035Y-78170531D01*
X120791034Y-78170531D01*
X120791031Y-78170532D01*
X120644125Y-78185001D01*
X120545877Y-78185001D01*
X120398971Y-78170532D01*
X120398968Y-78170531D01*
X120398967Y-78170531D01*
X120210466Y-78113350D01*
X120036743Y-78020493D01*
X120036741Y-78020492D01*
X119884473Y-77895529D01*
X119759510Y-77743261D01*
X119666653Y-77569538D01*
X119609470Y-77381031D01*
X119590163Y-77185001D01*
X119609470Y-76988971D01*
X119609471Y-76988967D01*
X119666652Y-76800466D01*
X119759509Y-76626743D01*
X119759510Y-76626741D01*
X119884473Y-76474473D01*
X120036741Y-76349510D01*
X120210464Y-76256653D01*
X120210466Y-76256652D01*
X120398967Y-76199471D01*
X120398968Y-76199471D01*
X120398971Y-76199470D01*
X120545877Y-76185001D01*
X120644125Y-76185001D01*
X120791031Y-76199470D01*
X120791031Y-76199470D01*
G37*
G36*
X105672942Y-73596889D02*
X105871310Y-73679056D01*
X106047459Y-73796755D01*
X106049838Y-73798345D01*
X106201657Y-73950164D01*
X106320947Y-74128694D01*
X106403113Y-74327061D01*
X106445001Y-74537644D01*
X106445001Y-74752358D01*
X106403113Y-74962941D01*
X106320947Y-75161308D01*
X106201657Y-75339838D01*
X106049838Y-75491657D01*
X106049835Y-75491659D01*
X105871310Y-75610946D01*
X105672942Y-75693113D01*
X105462358Y-75735001D01*
X105247644Y-75735001D01*
X105037060Y-75693113D01*
X104838692Y-75610946D01*
X104660167Y-75491659D01*
X104660164Y-75491657D01*
X104508345Y-75339838D01*
X104389055Y-75161308D01*
X104306889Y-74962941D01*
X104265001Y-74752358D01*
X104265001Y-74537644D01*
X104306889Y-74327061D01*
X104389055Y-74128694D01*
X104508345Y-73950164D01*
X104660164Y-73798345D01*
X104662543Y-73796755D01*
X104838692Y-73679056D01*
X105037060Y-73596889D01*
X105247644Y-73555001D01*
X105462358Y-73555001D01*
X105672942Y-73596889D01*
X105672942Y-73596889D01*
G37*
G36*
X120912942Y-73596889D02*
X121111310Y-73679056D01*
X121287459Y-73796755D01*
X121289838Y-73798345D01*
X121441657Y-73950164D01*
X121560947Y-74128694D01*
X121643113Y-74327061D01*
X121685001Y-74537644D01*
X121685001Y-74752358D01*
X121643113Y-74962941D01*
X121560947Y-75161308D01*
X121441657Y-75339838D01*
X121289838Y-75491657D01*
X121289835Y-75491659D01*
X121111310Y-75610946D01*
X120912942Y-75693113D01*
X120702358Y-75735001D01*
X120487644Y-75735001D01*
X120277060Y-75693113D01*
X120078692Y-75610946D01*
X119900167Y-75491659D01*
X119900164Y-75491657D01*
X119748345Y-75339838D01*
X119629055Y-75161308D01*
X119546889Y-74962941D01*
X119505001Y-74752358D01*
X119505001Y-74537644D01*
X119546889Y-74327061D01*
X119629055Y-74128694D01*
X119748345Y-73950164D01*
X119900164Y-73798345D01*
X119902543Y-73796755D01*
X120078692Y-73679056D01*
X120277060Y-73596889D01*
X120487644Y-73555001D01*
X120702358Y-73555001D01*
X120912942Y-73596889D01*
X120912942Y-73596889D01*
G37*
G36*
X110150000Y-70850000D02*
X108050000Y-70850000D01*
X108050000Y-68750000D01*
X110150000Y-68750000D01*
X110150000Y-70850000D01*
X110150000Y-70850000D01*
G37*
G36*
X116848707Y-68757596D02*
X116925836Y-68765193D01*
X117057787Y-68805220D01*
X117123763Y-68825233D01*
X117306172Y-68922733D01*
X117466054Y-69053946D01*
X117597267Y-69213828D01*
X117694767Y-69396237D01*
X117694767Y-69396238D01*
X117754807Y-69594164D01*
X117775080Y-69800000D01*
X117754807Y-70005836D01*
X117714780Y-70137787D01*
X117694767Y-70203763D01*
X117597267Y-70386172D01*
X117466054Y-70546054D01*
X117306172Y-70677267D01*
X117123763Y-70774767D01*
X117057787Y-70794780D01*
X116925836Y-70834807D01*
X116848707Y-70842403D01*
X116771580Y-70850000D01*
X116668420Y-70850000D01*
X116591293Y-70842403D01*
X116514164Y-70834807D01*
X116382213Y-70794780D01*
X116316237Y-70774767D01*
X116133828Y-70677267D01*
X115973946Y-70546054D01*
X115842733Y-70386172D01*
X115745233Y-70203763D01*
X115725220Y-70137787D01*
X115685193Y-70005836D01*
X115664920Y-69800000D01*
X115685193Y-69594164D01*
X115745233Y-69396238D01*
X115745233Y-69396237D01*
X115842733Y-69213828D01*
X115973946Y-69053946D01*
X116133828Y-68922733D01*
X116316237Y-68825233D01*
X116382213Y-68805220D01*
X116514164Y-68765193D01*
X116591293Y-68757596D01*
X116668420Y-68750000D01*
X116771580Y-68750000D01*
X116848707Y-68757596D01*
X116848707Y-68757596D01*
G37*
G36*
X114308707Y-68757596D02*
X114385836Y-68765193D01*
X114517787Y-68805220D01*
X114583763Y-68825233D01*
X114766172Y-68922733D01*
X114926054Y-69053946D01*
X115057267Y-69213828D01*
X115154767Y-69396237D01*
X115154767Y-69396238D01*
X115214807Y-69594164D01*
X115235080Y-69800000D01*
X115214807Y-70005836D01*
X115174780Y-70137787D01*
X115154767Y-70203763D01*
X115057267Y-70386172D01*
X114926054Y-70546054D01*
X114766172Y-70677267D01*
X114583763Y-70774767D01*
X114517787Y-70794780D01*
X114385836Y-70834807D01*
X114308707Y-70842403D01*
X114231580Y-70850000D01*
X114128420Y-70850000D01*
X114051293Y-70842403D01*
X113974164Y-70834807D01*
X113842213Y-70794780D01*
X113776237Y-70774767D01*
X113593828Y-70677267D01*
X113433946Y-70546054D01*
X113302733Y-70386172D01*
X113205233Y-70203763D01*
X113185220Y-70137787D01*
X113145193Y-70005836D01*
X113124920Y-69800000D01*
X113145193Y-69594164D01*
X113205233Y-69396238D01*
X113205233Y-69396237D01*
X113302733Y-69213828D01*
X113433946Y-69053946D01*
X113593828Y-68922733D01*
X113776237Y-68825233D01*
X113842213Y-68805220D01*
X113974164Y-68765193D01*
X114051293Y-68757596D01*
X114128420Y-68750000D01*
X114231580Y-68750000D01*
X114308707Y-68757596D01*
X114308707Y-68757596D01*
G37*
G36*
X111768707Y-68757596D02*
X111845836Y-68765193D01*
X111977787Y-68805220D01*
X112043763Y-68825233D01*
X112226172Y-68922733D01*
X112386054Y-69053946D01*
X112517267Y-69213828D01*
X112614767Y-69396237D01*
X112614767Y-69396238D01*
X112674807Y-69594164D01*
X112695080Y-69800000D01*
X112674807Y-70005836D01*
X112634780Y-70137787D01*
X112614767Y-70203763D01*
X112517267Y-70386172D01*
X112386054Y-70546054D01*
X112226172Y-70677267D01*
X112043763Y-70774767D01*
X111977787Y-70794780D01*
X111845836Y-70834807D01*
X111768707Y-70842403D01*
X111691580Y-70850000D01*
X111588420Y-70850000D01*
X111511293Y-70842403D01*
X111434164Y-70834807D01*
X111302213Y-70794780D01*
X111236237Y-70774767D01*
X111053828Y-70677267D01*
X110893946Y-70546054D01*
X110762733Y-70386172D01*
X110665233Y-70203763D01*
X110645220Y-70137787D01*
X110605193Y-70005836D01*
X110584920Y-69800000D01*
X110605193Y-69594164D01*
X110665233Y-69396238D01*
X110665233Y-69396237D01*
X110762733Y-69213828D01*
X110893946Y-69053946D01*
X111053828Y-68922733D01*
X111236237Y-68825233D01*
X111302213Y-68805220D01*
X111434164Y-68765193D01*
X111511293Y-68757596D01*
X111588420Y-68750000D01*
X111691580Y-68750000D01*
X111768707Y-68757596D01*
X111768707Y-68757596D01*
G37*
G36*
X121682482Y-68080186D02*
X121727204Y-68093753D01*
X121768433Y-68115790D01*
X121804561Y-68145439D01*
X121834210Y-68181567D01*
X121856247Y-68222796D01*
X121869814Y-68267518D01*
X121875000Y-68320175D01*
X121875000Y-69654825D01*
X121869814Y-69707482D01*
X121856247Y-69752204D01*
X121834210Y-69793433D01*
X121804561Y-69829561D01*
X121768433Y-69859210D01*
X121727204Y-69881247D01*
X121682482Y-69894814D01*
X121629825Y-69900000D01*
X119970175Y-69900000D01*
X119917518Y-69894814D01*
X119872796Y-69881247D01*
X119831567Y-69859210D01*
X119795439Y-69829561D01*
X119765790Y-69793433D01*
X119743753Y-69752204D01*
X119730186Y-69707482D01*
X119725000Y-69654825D01*
X119725000Y-68320175D01*
X119730186Y-68267518D01*
X119743753Y-68222796D01*
X119765790Y-68181567D01*
X119795439Y-68145439D01*
X119831567Y-68115790D01*
X119872796Y-68093753D01*
X119917518Y-68080186D01*
X119970175Y-68075000D01*
X121629825Y-68075000D01*
X121682482Y-68080186D01*
X121682482Y-68080186D01*
G37*
G36*
X97628707Y-66997597D02*
X97705836Y-67005193D01*
X97837787Y-67045220D01*
X97903763Y-67065233D01*
X98086172Y-67162733D01*
X98246054Y-67293946D01*
X98377267Y-67453828D01*
X98474767Y-67636237D01*
X98474767Y-67636238D01*
X98534807Y-67834164D01*
X98555080Y-68040000D01*
X98534807Y-68245836D01*
X98508453Y-68332713D01*
X98474767Y-68443763D01*
X98377267Y-68626172D01*
X98246054Y-68786054D01*
X98086172Y-68917267D01*
X97903763Y-69014767D01*
X97837787Y-69034780D01*
X97705836Y-69074807D01*
X97628707Y-69082403D01*
X97551580Y-69090000D01*
X97448420Y-69090000D01*
X97371293Y-69082403D01*
X97294164Y-69074807D01*
X97162213Y-69034780D01*
X97096237Y-69014767D01*
X96913828Y-68917267D01*
X96753946Y-68786054D01*
X96622733Y-68626172D01*
X96525233Y-68443763D01*
X96491547Y-68332713D01*
X96465193Y-68245836D01*
X96444920Y-68040000D01*
X96465193Y-67834164D01*
X96525233Y-67636238D01*
X96525233Y-67636237D01*
X96622733Y-67453828D01*
X96753946Y-67293946D01*
X96913828Y-67162733D01*
X97096237Y-67065233D01*
X97162213Y-67045220D01*
X97294164Y-67005193D01*
X97371293Y-66997597D01*
X97448420Y-66990000D01*
X97551580Y-66990000D01*
X97628707Y-66997597D01*
X97628707Y-66997597D01*
G37*
G36*
X102128707Y-66997597D02*
X102205836Y-67005193D01*
X102337787Y-67045220D01*
X102403763Y-67065233D01*
X102586172Y-67162733D01*
X102746054Y-67293946D01*
X102877267Y-67453828D01*
X102974767Y-67636237D01*
X102974767Y-67636238D01*
X103034807Y-67834164D01*
X103055080Y-68040000D01*
X103034807Y-68245836D01*
X103008453Y-68332713D01*
X102974767Y-68443763D01*
X102877267Y-68626172D01*
X102746054Y-68786054D01*
X102586172Y-68917267D01*
X102403763Y-69014767D01*
X102337787Y-69034780D01*
X102205836Y-69074807D01*
X102128707Y-69082403D01*
X102051580Y-69090000D01*
X101948420Y-69090000D01*
X101871293Y-69082403D01*
X101794164Y-69074807D01*
X101662213Y-69034780D01*
X101596237Y-69014767D01*
X101413828Y-68917267D01*
X101253946Y-68786054D01*
X101122733Y-68626172D01*
X101025233Y-68443763D01*
X100991547Y-68332713D01*
X100965193Y-68245836D01*
X100944920Y-68040000D01*
X100965193Y-67834164D01*
X101025233Y-67636238D01*
X101025233Y-67636237D01*
X101122733Y-67453828D01*
X101253946Y-67293946D01*
X101413828Y-67162733D01*
X101596237Y-67065233D01*
X101662213Y-67045220D01*
X101794164Y-67005193D01*
X101871293Y-66997597D01*
X101948420Y-66990000D01*
X102051580Y-66990000D01*
X102128707Y-66997597D01*
X102128707Y-66997597D01*
G37*
G36*
X121682482Y-65105186D02*
X121727204Y-65118753D01*
X121768433Y-65140790D01*
X121804561Y-65170439D01*
X121834210Y-65206567D01*
X121856247Y-65247796D01*
X121869814Y-65292518D01*
X121875000Y-65345175D01*
X121875000Y-66679825D01*
X121869814Y-66732482D01*
X121856247Y-66777204D01*
X121834210Y-66818433D01*
X121804561Y-66854561D01*
X121768433Y-66884210D01*
X121727204Y-66906247D01*
X121682482Y-66919814D01*
X121629825Y-66925000D01*
X119970175Y-66925000D01*
X119917518Y-66919814D01*
X119872796Y-66906247D01*
X119831567Y-66884210D01*
X119795439Y-66854561D01*
X119765790Y-66818433D01*
X119743753Y-66777204D01*
X119730186Y-66732482D01*
X119725000Y-66679825D01*
X119725000Y-65345175D01*
X119730186Y-65292518D01*
X119743753Y-65247796D01*
X119765790Y-65206567D01*
X119795439Y-65170439D01*
X119831567Y-65140790D01*
X119872796Y-65118753D01*
X119917518Y-65105186D01*
X119970175Y-65100000D01*
X121629825Y-65100000D01*
X121682482Y-65105186D01*
X121682482Y-65105186D01*
G37*
G36*
X103050000Y-66550000D02*
X100950000Y-66550000D01*
X100950000Y-64450000D01*
X103050000Y-64450000D01*
X103050000Y-66550000D01*
X103050000Y-66550000D01*
G37*
G36*
X98550000Y-66550000D02*
X96450000Y-66550000D01*
X96450000Y-64450000D01*
X98550000Y-64450000D01*
X98550000Y-66550000D01*
X98550000Y-66550000D01*
G37*
G36*
X113788707Y-62257597D02*
X113865836Y-62265193D01*
X113997787Y-62305220D01*
X114063763Y-62325233D01*
X114246172Y-62422733D01*
X114406054Y-62553946D01*
X114537267Y-62713828D01*
X114634767Y-62896237D01*
X114634767Y-62896238D01*
X114694807Y-63094164D01*
X114715080Y-63300000D01*
X114694807Y-63505836D01*
X114654780Y-63637787D01*
X114634767Y-63703763D01*
X114537267Y-63886172D01*
X114406054Y-64046054D01*
X114246172Y-64177267D01*
X114063763Y-64274767D01*
X113997787Y-64294780D01*
X113865836Y-64334807D01*
X113788707Y-64342404D01*
X113711580Y-64350000D01*
X113608420Y-64350000D01*
X113531293Y-64342404D01*
X113454164Y-64334807D01*
X113322213Y-64294780D01*
X113256237Y-64274767D01*
X113073828Y-64177267D01*
X112913946Y-64046054D01*
X112782733Y-63886172D01*
X112685233Y-63703763D01*
X112665220Y-63637787D01*
X112625193Y-63505836D01*
X112604920Y-63300000D01*
X112625193Y-63094164D01*
X112685233Y-62896238D01*
X112685233Y-62896237D01*
X112782733Y-62713828D01*
X112913946Y-62553946D01*
X113073828Y-62422733D01*
X113256237Y-62325233D01*
X113322213Y-62305220D01*
X113454164Y-62265193D01*
X113531293Y-62257597D01*
X113608420Y-62250000D01*
X113711580Y-62250000D01*
X113788707Y-62257597D01*
X113788707Y-62257597D01*
G37*
G36*
X111248707Y-62257597D02*
X111325836Y-62265193D01*
X111457787Y-62305220D01*
X111523763Y-62325233D01*
X111706172Y-62422733D01*
X111866054Y-62553946D01*
X111997267Y-62713828D01*
X112094767Y-62896237D01*
X112094767Y-62896238D01*
X112154807Y-63094164D01*
X112175080Y-63300000D01*
X112154807Y-63505836D01*
X112114780Y-63637787D01*
X112094767Y-63703763D01*
X111997267Y-63886172D01*
X111866054Y-64046054D01*
X111706172Y-64177267D01*
X111523763Y-64274767D01*
X111457787Y-64294780D01*
X111325836Y-64334807D01*
X111248707Y-64342404D01*
X111171580Y-64350000D01*
X111068420Y-64350000D01*
X110991293Y-64342404D01*
X110914164Y-64334807D01*
X110782213Y-64294780D01*
X110716237Y-64274767D01*
X110533828Y-64177267D01*
X110373946Y-64046054D01*
X110242733Y-63886172D01*
X110145233Y-63703763D01*
X110125220Y-63637787D01*
X110085193Y-63505836D01*
X110064920Y-63300000D01*
X110085193Y-63094164D01*
X110145233Y-62896238D01*
X110145233Y-62896237D01*
X110242733Y-62713828D01*
X110373946Y-62553946D01*
X110533828Y-62422733D01*
X110716237Y-62325233D01*
X110782213Y-62305220D01*
X110914164Y-62265193D01*
X110991293Y-62257597D01*
X111068420Y-62250000D01*
X111171580Y-62250000D01*
X111248707Y-62257597D01*
X111248707Y-62257597D01*
G37*
G36*
X108708707Y-62257597D02*
X108785836Y-62265193D01*
X108917787Y-62305220D01*
X108983763Y-62325233D01*
X109166172Y-62422733D01*
X109326054Y-62553946D01*
X109457267Y-62713828D01*
X109554767Y-62896237D01*
X109554767Y-62896238D01*
X109614807Y-63094164D01*
X109635080Y-63300000D01*
X109614807Y-63505836D01*
X109574780Y-63637787D01*
X109554767Y-63703763D01*
X109457267Y-63886172D01*
X109326054Y-64046054D01*
X109166172Y-64177267D01*
X108983763Y-64274767D01*
X108917787Y-64294780D01*
X108785836Y-64334807D01*
X108708707Y-64342404D01*
X108631580Y-64350000D01*
X108528420Y-64350000D01*
X108451293Y-64342404D01*
X108374164Y-64334807D01*
X108242213Y-64294780D01*
X108176237Y-64274767D01*
X107993828Y-64177267D01*
X107833946Y-64046054D01*
X107702733Y-63886172D01*
X107605233Y-63703763D01*
X107585220Y-63637787D01*
X107545193Y-63505836D01*
X107524920Y-63300000D01*
X107545193Y-63094164D01*
X107605233Y-62896238D01*
X107605233Y-62896237D01*
X107702733Y-62713828D01*
X107833946Y-62553946D01*
X107993828Y-62422733D01*
X108176237Y-62325233D01*
X108242213Y-62305220D01*
X108374164Y-62265193D01*
X108451293Y-62257597D01*
X108528420Y-62250000D01*
X108631580Y-62250000D01*
X108708707Y-62257597D01*
X108708707Y-62257597D01*
G37*
G36*
X117250000Y-64350000D02*
X115150000Y-64350000D01*
X115150000Y-62250000D01*
X117250000Y-62250000D01*
X117250000Y-64350000D01*
X117250000Y-64350000D01*
G37*
M02*
