G04 #@! TF.GenerationSoftware,KiCad,Pcbnew,5.0.1-33cea8e~68~ubuntu16.04.1*
G04 #@! TF.CreationDate,2018-11-08T14:30:39+01:00*
G04 #@! TF.ProjectId,shutter,736875747465722E6B696361645F7063,rev?*
G04 #@! TF.SameCoordinates,Original*
G04 #@! TF.FileFunction,Copper,L2,Bot,Signal*
G04 #@! TF.FilePolarity,Positive*
%FSLAX46Y46*%
G04 Gerber Fmt 4.6, Leading zero omitted, Abs format (unit mm)*
G04 Created by KiCad (PCBNEW 5.0.1-33cea8e~68~ubuntu16.04.1) date jeu. 08 nov. 2018 14:30:39 CET*
%MOMM*%
%LPD*%
G01*
G04 APERTURE LIST*
G04 #@! TA.AperFunction,NonConductor*
%ADD10C,0.300000*%
G04 #@! TD*
G04 #@! TA.AperFunction,ComponentPad*
%ADD11R,1.600000X1.600000*%
G04 #@! TD*
G04 #@! TA.AperFunction,ComponentPad*
%ADD12O,1.600000X1.600000*%
G04 #@! TD*
G04 #@! TA.AperFunction,ComponentPad*
%ADD13C,1.780000*%
G04 #@! TD*
G04 #@! TA.AperFunction,ComponentPad*
%ADD14O,1.700000X1.700000*%
G04 #@! TD*
G04 #@! TA.AperFunction,ComponentPad*
%ADD15R,1.700000X1.700000*%
G04 #@! TD*
G04 #@! TA.AperFunction,SMDPad,CuDef*
%ADD16R,1.500000X0.600000*%
G04 #@! TD*
G04 #@! TA.AperFunction,ComponentPad*
%ADD17C,2.100000*%
G04 #@! TD*
G04 #@! TA.AperFunction,ComponentPad*
%ADD18C,1.750000*%
G04 #@! TD*
G04 #@! TA.AperFunction,Conductor*
%ADD19C,0.100000*%
G04 #@! TD*
G04 #@! TA.AperFunction,SMDPad,CuDef*
%ADD20C,1.425000*%
G04 #@! TD*
G04 #@! TA.AperFunction,SMDPad,CuDef*
%ADD21C,1.525000*%
G04 #@! TD*
G04 #@! TA.AperFunction,ViaPad*
%ADD22C,0.800000*%
G04 #@! TD*
G04 #@! TA.AperFunction,Conductor*
%ADD23C,0.500000*%
G04 #@! TD*
G04 #@! TA.AperFunction,Conductor*
%ADD24C,0.250000*%
G04 #@! TD*
G04 #@! TA.AperFunction,Conductor*
%ADD25C,0.254000*%
G04 #@! TD*
G04 APERTURE END LIST*
D10*
X113621428Y-111728571D02*
X115121428Y-111728571D01*
X114407142Y-111728571D02*
X114407142Y-110871428D01*
X113621428Y-110871428D02*
X115121428Y-110871428D01*
X113621428Y-109514285D02*
X114407142Y-109514285D01*
X114550000Y-109585714D01*
X114621428Y-109728571D01*
X114621428Y-110014285D01*
X114550000Y-110157142D01*
X113692857Y-109514285D02*
X113621428Y-109657142D01*
X113621428Y-110014285D01*
X113692857Y-110157142D01*
X113835714Y-110228571D01*
X113978571Y-110228571D01*
X114121428Y-110157142D01*
X114192857Y-110014285D01*
X114192857Y-109657142D01*
X114264285Y-109514285D01*
X113621428Y-108157142D02*
X115121428Y-108157142D01*
X113692857Y-108157142D02*
X113621428Y-108300000D01*
X113621428Y-108585714D01*
X113692857Y-108728571D01*
X113764285Y-108800000D01*
X113907142Y-108871428D01*
X114335714Y-108871428D01*
X114478571Y-108800000D01*
X114550000Y-108728571D01*
X114621428Y-108585714D01*
X114621428Y-108300000D01*
X114550000Y-108157142D01*
X113621428Y-107442857D02*
X114621428Y-107442857D01*
X114335714Y-107442857D02*
X114478571Y-107371428D01*
X114550000Y-107300000D01*
X114621428Y-107157142D01*
X114621428Y-107014285D01*
X113621428Y-106514285D02*
X114621428Y-106514285D01*
X115121428Y-106514285D02*
X115050000Y-106585714D01*
X114978571Y-106514285D01*
X115050000Y-106442857D01*
X115121428Y-106514285D01*
X114978571Y-106514285D01*
X113692857Y-105228571D02*
X113621428Y-105371428D01*
X113621428Y-105657142D01*
X113692857Y-105800000D01*
X113835714Y-105871428D01*
X114407142Y-105871428D01*
X114550000Y-105800000D01*
X114621428Y-105657142D01*
X114621428Y-105371428D01*
X114550000Y-105228571D01*
X114407142Y-105157142D01*
X114264285Y-105157142D01*
X114121428Y-105871428D01*
X114621428Y-104514285D02*
X113621428Y-104514285D01*
X114478571Y-104514285D02*
X114550000Y-104442857D01*
X114621428Y-104300000D01*
X114621428Y-104085714D01*
X114550000Y-103942857D01*
X114407142Y-103871428D01*
X113621428Y-103871428D01*
X112021428Y-114342857D02*
X112021428Y-114200000D01*
X111950000Y-114057142D01*
X111878571Y-113985714D01*
X111735714Y-113914285D01*
X111450000Y-113842857D01*
X111092857Y-113842857D01*
X110807142Y-113914285D01*
X110664285Y-113985714D01*
X110592857Y-114057142D01*
X110521428Y-114200000D01*
X110521428Y-114342857D01*
X110592857Y-114485714D01*
X110664285Y-114557142D01*
X110807142Y-114628571D01*
X111092857Y-114700000D01*
X111450000Y-114700000D01*
X111735714Y-114628571D01*
X111878571Y-114557142D01*
X111950000Y-114485714D01*
X112021428Y-114342857D01*
X111378571Y-112985714D02*
X111450000Y-113128571D01*
X111521428Y-113200000D01*
X111664285Y-113271428D01*
X111735714Y-113271428D01*
X111878571Y-113200000D01*
X111950000Y-113128571D01*
X112021428Y-112985714D01*
X112021428Y-112700000D01*
X111950000Y-112557142D01*
X111878571Y-112485714D01*
X111735714Y-112414285D01*
X111664285Y-112414285D01*
X111521428Y-112485714D01*
X111450000Y-112557142D01*
X111378571Y-112700000D01*
X111378571Y-112985714D01*
X111307142Y-113128571D01*
X111235714Y-113200000D01*
X111092857Y-113271428D01*
X110807142Y-113271428D01*
X110664285Y-113200000D01*
X110592857Y-113128571D01*
X110521428Y-112985714D01*
X110521428Y-112700000D01*
X110592857Y-112557142D01*
X110664285Y-112485714D01*
X110807142Y-112414285D01*
X111092857Y-112414285D01*
X111235714Y-112485714D01*
X111307142Y-112557142D01*
X111378571Y-112700000D01*
X112092857Y-110700000D02*
X110164285Y-111985714D01*
X110521428Y-109414285D02*
X110521428Y-110271428D01*
X110521428Y-109842857D02*
X112021428Y-109842857D01*
X111807142Y-109985714D01*
X111664285Y-110128571D01*
X111592857Y-110271428D01*
X110521428Y-107985714D02*
X110521428Y-108842857D01*
X110521428Y-108414285D02*
X112021428Y-108414285D01*
X111807142Y-108557142D01*
X111664285Y-108700000D01*
X111592857Y-108842857D01*
X112092857Y-106271428D02*
X110164285Y-107557142D01*
X111878571Y-105842857D02*
X111950000Y-105771428D01*
X112021428Y-105628571D01*
X112021428Y-105271428D01*
X111950000Y-105128571D01*
X111878571Y-105057142D01*
X111735714Y-104985714D01*
X111592857Y-104985714D01*
X111378571Y-105057142D01*
X110521428Y-105914285D01*
X110521428Y-104985714D01*
X112021428Y-104057142D02*
X112021428Y-103914285D01*
X111950000Y-103771428D01*
X111878571Y-103700000D01*
X111735714Y-103628571D01*
X111450000Y-103557142D01*
X111092857Y-103557142D01*
X110807142Y-103628571D01*
X110664285Y-103700000D01*
X110592857Y-103771428D01*
X110521428Y-103914285D01*
X110521428Y-104057142D01*
X110592857Y-104200000D01*
X110664285Y-104271428D01*
X110807142Y-104342857D01*
X111092857Y-104414285D01*
X111450000Y-104414285D01*
X111735714Y-104342857D01*
X111878571Y-104271428D01*
X111950000Y-104200000D01*
X112021428Y-104057142D01*
X110521428Y-102128571D02*
X110521428Y-102985714D01*
X110521428Y-102557142D02*
X112021428Y-102557142D01*
X111807142Y-102700000D01*
X111664285Y-102842857D01*
X111592857Y-102985714D01*
X111378571Y-101271428D02*
X111450000Y-101414285D01*
X111521428Y-101485714D01*
X111664285Y-101557142D01*
X111735714Y-101557142D01*
X111878571Y-101485714D01*
X111950000Y-101414285D01*
X112021428Y-101271428D01*
X112021428Y-100985714D01*
X111950000Y-100842857D01*
X111878571Y-100771428D01*
X111735714Y-100700000D01*
X111664285Y-100700000D01*
X111521428Y-100771428D01*
X111450000Y-100842857D01*
X111378571Y-100985714D01*
X111378571Y-101271428D01*
X111307142Y-101414285D01*
X111235714Y-101485714D01*
X111092857Y-101557142D01*
X110807142Y-101557142D01*
X110664285Y-101485714D01*
X110592857Y-101414285D01*
X110521428Y-101271428D01*
X110521428Y-100985714D01*
X110592857Y-100842857D01*
X110664285Y-100771428D01*
X110807142Y-100700000D01*
X111092857Y-100700000D01*
X111235714Y-100771428D01*
X111307142Y-100842857D01*
X111378571Y-100985714D01*
D11*
G04 #@! TO.P,A1,1*
G04 #@! TO.N,Net-(A1-Pad1)*
X105355001Y-77185001D03*
D12*
G04 #@! TO.P,A1,17*
G04 #@! TO.N,Net-(A1-Pad17)*
X120595001Y-110205001D03*
G04 #@! TO.P,A1,2*
G04 #@! TO.N,Net-(A1-Pad2)*
X105355001Y-79725001D03*
G04 #@! TO.P,A1,18*
G04 #@! TO.N,Net-(A1-Pad18)*
X120595001Y-107665001D03*
G04 #@! TO.P,A1,3*
G04 #@! TO.N,Net-(A1-Pad3)*
X105355001Y-82265001D03*
G04 #@! TO.P,A1,19*
G04 #@! TO.N,19*
X120595001Y-105125001D03*
G04 #@! TO.P,A1,4*
G04 #@! TO.N,GND*
X105355001Y-84805001D03*
G04 #@! TO.P,A1,20*
G04 #@! TO.N,20*
X120595001Y-102585001D03*
G04 #@! TO.P,A1,5*
G04 #@! TO.N,Net-(A1-Pad5)*
X105355001Y-87345001D03*
G04 #@! TO.P,A1,21*
G04 #@! TO.N,21*
X120595001Y-100045001D03*
G04 #@! TO.P,A1,6*
G04 #@! TO.N,Net-(A1-Pad6)*
X105355001Y-89885001D03*
G04 #@! TO.P,A1,22*
G04 #@! TO.N,22*
X120595001Y-97505001D03*
G04 #@! TO.P,A1,7*
G04 #@! TO.N,Net-(A1-Pad7)*
X105355001Y-92425001D03*
G04 #@! TO.P,A1,23*
G04 #@! TO.N,Net-(A1-Pad23)*
X120595001Y-94965001D03*
G04 #@! TO.P,A1,8*
G04 #@! TO.N,Net-(A1-Pad8)*
X105355001Y-94965001D03*
G04 #@! TO.P,A1,24*
G04 #@! TO.N,Net-(A1-Pad24)*
X120595001Y-92425001D03*
G04 #@! TO.P,A1,9*
G04 #@! TO.N,Net-(A1-Pad9)*
X105355001Y-97505001D03*
G04 #@! TO.P,A1,25*
G04 #@! TO.N,Net-(A1-Pad25)*
X120595001Y-89885001D03*
G04 #@! TO.P,A1,10*
G04 #@! TO.N,Net-(A1-Pad10)*
X105355001Y-100045001D03*
G04 #@! TO.P,A1,26*
G04 #@! TO.N,Net-(A1-Pad26)*
X120595001Y-87345001D03*
G04 #@! TO.P,A1,11*
G04 #@! TO.N,Net-(A1-Pad11)*
X105355001Y-102585001D03*
G04 #@! TO.P,A1,27*
G04 #@! TO.N,+5V*
X120595001Y-84805001D03*
G04 #@! TO.P,A1,12*
G04 #@! TO.N,Net-(A1-Pad12)*
X105355001Y-105125001D03*
G04 #@! TO.P,A1,28*
G04 #@! TO.N,Net-(A1-Pad28)*
X120595001Y-82265001D03*
G04 #@! TO.P,A1,13*
G04 #@! TO.N,Net-(A1-Pad13)*
X105355001Y-107665001D03*
G04 #@! TO.P,A1,29*
G04 #@! TO.N,GND*
X120595001Y-79725001D03*
G04 #@! TO.P,A1,14*
G04 #@! TO.N,Net-(A1-Pad14)*
X105355001Y-110205001D03*
G04 #@! TO.P,A1,30*
G04 #@! TO.N,Net-(A1-Pad30)*
X120595001Y-77185001D03*
G04 #@! TO.P,A1,15*
G04 #@! TO.N,Net-(A1-Pad15)*
X105355001Y-112745001D03*
G04 #@! TO.P,A1,16*
G04 #@! TO.N,Net-(A1-Pad16)*
X120595001Y-112745001D03*
D13*
G04 #@! TO.P,A1,*
G04 #@! TO.N,*
X105355001Y-74645001D03*
X120595001Y-74645001D03*
X120595001Y-115285001D03*
X105355001Y-115285001D03*
G04 #@! TD*
D14*
G04 #@! TO.P,U1,11*
G04 #@! TO.N,Net-(A1-Pad23)*
X116720000Y-69800000D03*
G04 #@! TO.P,U1,10*
G04 #@! TO.N,Net-(A1-Pad24)*
X114180000Y-69800000D03*
G04 #@! TO.P,U1,14*
G04 #@! TO.N,+5V*
X111640000Y-69800000D03*
D15*
G04 #@! TO.P,U1,7*
G04 #@! TO.N,GND*
X109100000Y-69800000D03*
G04 #@! TD*
D16*
G04 #@! TO.P,U2,1*
G04 #@! TO.N,Net-(U2-Pad1)*
X116300000Y-87355000D03*
G04 #@! TO.P,U2,2*
G04 #@! TO.N,22*
X116300000Y-88625000D03*
G04 #@! TO.P,U2,3*
G04 #@! TO.N,21*
X116300000Y-89895000D03*
G04 #@! TO.P,U2,4*
G04 #@! TO.N,Net-(C1-Pad2)*
X116300000Y-91165000D03*
G04 #@! TO.P,U2,5*
G04 #@! TO.N,Net-(U2-Pad5)*
X116300000Y-92435000D03*
G04 #@! TO.P,U2,6*
G04 #@! TO.N,20*
X116300000Y-93705000D03*
G04 #@! TO.P,U2,7*
G04 #@! TO.N,19*
X116300000Y-94975000D03*
G04 #@! TO.P,U2,8*
G04 #@! TO.N,Net-(C1-Pad2)*
X116300000Y-96245000D03*
G04 #@! TO.P,U2,9*
G04 #@! TO.N,Net-(J1-Pad1)*
X110900000Y-96245000D03*
G04 #@! TO.P,U2,10*
G04 #@! TO.N,GND*
X110900000Y-94975000D03*
G04 #@! TO.P,U2,11*
X110900000Y-93705000D03*
G04 #@! TO.P,U2,12*
G04 #@! TO.N,Net-(J1-Pad2)*
X110900000Y-92435000D03*
G04 #@! TO.P,U2,13*
G04 #@! TO.N,Net-(J1-Pad3)*
X110900000Y-91165000D03*
G04 #@! TO.P,U2,14*
G04 #@! TO.N,GND*
X110900000Y-89895000D03*
G04 #@! TO.P,U2,15*
X110900000Y-88625000D03*
G04 #@! TO.P,U2,16*
G04 #@! TO.N,Net-(J1-Pad4)*
X110900000Y-87355000D03*
G04 #@! TD*
D17*
G04 #@! TO.P,SW1,4*
G04 #@! TO.N,N/C*
X98990000Y-77940000D03*
D18*
G04 #@! TO.P,SW1,2*
G04 #@! TO.N,Net-(A1-Pad6)*
X96500000Y-79200000D03*
G04 #@! TO.P,SW1,1*
G04 #@! TO.N,GND*
X96500000Y-83700000D03*
D17*
G04 #@! TO.P,SW1,3*
G04 #@! TO.N,N/C*
X98990000Y-84950000D03*
G04 #@! TD*
G04 #@! TO.P,SW2,3*
G04 #@! TO.N,N/C*
X99000000Y-94950000D03*
D18*
G04 #@! TO.P,SW2,1*
G04 #@! TO.N,GND*
X96510000Y-93700000D03*
G04 #@! TO.P,SW2,2*
G04 #@! TO.N,Net-(A1-Pad7)*
X96510000Y-89200000D03*
D17*
G04 #@! TO.P,SW2,3*
G04 #@! TO.N,N/C*
X99000000Y-87940000D03*
G04 #@! TD*
G04 #@! TO.P,SW3,3*
G04 #@! TO.N,N/C*
X98990000Y-97940000D03*
D18*
G04 #@! TO.P,SW3,2*
G04 #@! TO.N,Net-(A1-Pad8)*
X96500000Y-99200000D03*
G04 #@! TO.P,SW3,1*
G04 #@! TO.N,GND*
X96500000Y-103700000D03*
D17*
G04 #@! TO.P,SW3,3*
G04 #@! TO.N,N/C*
X98990000Y-104950000D03*
G04 #@! TD*
G04 #@! TO.P,SW4,3*
G04 #@! TO.N,N/C*
X98990000Y-114950000D03*
D18*
G04 #@! TO.P,SW4,1*
G04 #@! TO.N,GND*
X96500000Y-113700000D03*
G04 #@! TO.P,SW4,2*
G04 #@! TO.N,Net-(A1-Pad9)*
X96500000Y-109200000D03*
D17*
G04 #@! TO.P,SW4,3*
G04 #@! TO.N,N/C*
X98990000Y-107940000D03*
G04 #@! TD*
D19*
G04 #@! TO.N,GND*
G04 #@! TO.C,C1*
G36*
X113499504Y-98226204D02*
X113523773Y-98229804D01*
X113547571Y-98235765D01*
X113570671Y-98244030D01*
X113592849Y-98254520D01*
X113613893Y-98267133D01*
X113633598Y-98281747D01*
X113651777Y-98298223D01*
X113668253Y-98316402D01*
X113682867Y-98336107D01*
X113695480Y-98357151D01*
X113705970Y-98379329D01*
X113714235Y-98402429D01*
X113720196Y-98426227D01*
X113723796Y-98450496D01*
X113725000Y-98475000D01*
X113725000Y-99725000D01*
X113723796Y-99749504D01*
X113720196Y-99773773D01*
X113714235Y-99797571D01*
X113705970Y-99820671D01*
X113695480Y-99842849D01*
X113682867Y-99863893D01*
X113668253Y-99883598D01*
X113651777Y-99901777D01*
X113633598Y-99918253D01*
X113613893Y-99932867D01*
X113592849Y-99945480D01*
X113570671Y-99955970D01*
X113547571Y-99964235D01*
X113523773Y-99970196D01*
X113499504Y-99973796D01*
X113475000Y-99975000D01*
X112550000Y-99975000D01*
X112525496Y-99973796D01*
X112501227Y-99970196D01*
X112477429Y-99964235D01*
X112454329Y-99955970D01*
X112432151Y-99945480D01*
X112411107Y-99932867D01*
X112391402Y-99918253D01*
X112373223Y-99901777D01*
X112356747Y-99883598D01*
X112342133Y-99863893D01*
X112329520Y-99842849D01*
X112319030Y-99820671D01*
X112310765Y-99797571D01*
X112304804Y-99773773D01*
X112301204Y-99749504D01*
X112300000Y-99725000D01*
X112300000Y-98475000D01*
X112301204Y-98450496D01*
X112304804Y-98426227D01*
X112310765Y-98402429D01*
X112319030Y-98379329D01*
X112329520Y-98357151D01*
X112342133Y-98336107D01*
X112356747Y-98316402D01*
X112373223Y-98298223D01*
X112391402Y-98281747D01*
X112411107Y-98267133D01*
X112432151Y-98254520D01*
X112454329Y-98244030D01*
X112477429Y-98235765D01*
X112501227Y-98229804D01*
X112525496Y-98226204D01*
X112550000Y-98225000D01*
X113475000Y-98225000D01*
X113499504Y-98226204D01*
X113499504Y-98226204D01*
G37*
D20*
G04 #@! TD*
G04 #@! TO.P,C1,1*
G04 #@! TO.N,GND*
X113012500Y-99100000D03*
D19*
G04 #@! TO.N,Net-(C1-Pad2)*
G04 #@! TO.C,C1*
G36*
X116474504Y-98226204D02*
X116498773Y-98229804D01*
X116522571Y-98235765D01*
X116545671Y-98244030D01*
X116567849Y-98254520D01*
X116588893Y-98267133D01*
X116608598Y-98281747D01*
X116626777Y-98298223D01*
X116643253Y-98316402D01*
X116657867Y-98336107D01*
X116670480Y-98357151D01*
X116680970Y-98379329D01*
X116689235Y-98402429D01*
X116695196Y-98426227D01*
X116698796Y-98450496D01*
X116700000Y-98475000D01*
X116700000Y-99725000D01*
X116698796Y-99749504D01*
X116695196Y-99773773D01*
X116689235Y-99797571D01*
X116680970Y-99820671D01*
X116670480Y-99842849D01*
X116657867Y-99863893D01*
X116643253Y-99883598D01*
X116626777Y-99901777D01*
X116608598Y-99918253D01*
X116588893Y-99932867D01*
X116567849Y-99945480D01*
X116545671Y-99955970D01*
X116522571Y-99964235D01*
X116498773Y-99970196D01*
X116474504Y-99973796D01*
X116450000Y-99975000D01*
X115525000Y-99975000D01*
X115500496Y-99973796D01*
X115476227Y-99970196D01*
X115452429Y-99964235D01*
X115429329Y-99955970D01*
X115407151Y-99945480D01*
X115386107Y-99932867D01*
X115366402Y-99918253D01*
X115348223Y-99901777D01*
X115331747Y-99883598D01*
X115317133Y-99863893D01*
X115304520Y-99842849D01*
X115294030Y-99820671D01*
X115285765Y-99797571D01*
X115279804Y-99773773D01*
X115276204Y-99749504D01*
X115275000Y-99725000D01*
X115275000Y-98475000D01*
X115276204Y-98450496D01*
X115279804Y-98426227D01*
X115285765Y-98402429D01*
X115294030Y-98379329D01*
X115304520Y-98357151D01*
X115317133Y-98336107D01*
X115331747Y-98316402D01*
X115348223Y-98298223D01*
X115366402Y-98281747D01*
X115386107Y-98267133D01*
X115407151Y-98254520D01*
X115429329Y-98244030D01*
X115452429Y-98235765D01*
X115476227Y-98229804D01*
X115500496Y-98226204D01*
X115525000Y-98225000D01*
X116450000Y-98225000D01*
X116474504Y-98226204D01*
X116474504Y-98226204D01*
G37*
D20*
G04 #@! TD*
G04 #@! TO.P,C1,2*
G04 #@! TO.N,Net-(C1-Pad2)*
X115987500Y-99100000D03*
D15*
G04 #@! TO.P,J1,1*
G04 #@! TO.N,Net-(J1-Pad1)*
X116200000Y-63300000D03*
D14*
G04 #@! TO.P,J1,2*
G04 #@! TO.N,Net-(J1-Pad2)*
X113660000Y-63300000D03*
G04 #@! TO.P,J1,3*
G04 #@! TO.N,Net-(J1-Pad3)*
X111120000Y-63300000D03*
G04 #@! TO.P,J1,4*
G04 #@! TO.N,Net-(J1-Pad4)*
X108580000Y-63300000D03*
G04 #@! TD*
D19*
G04 #@! TO.N,+5V*
G04 #@! TO.C,R1*
G36*
X117699505Y-78801204D02*
X117723773Y-78804804D01*
X117747572Y-78810765D01*
X117770671Y-78819030D01*
X117792850Y-78829520D01*
X117813893Y-78842132D01*
X117833599Y-78856747D01*
X117851777Y-78873223D01*
X117868253Y-78891401D01*
X117882868Y-78911107D01*
X117895480Y-78932150D01*
X117905970Y-78954329D01*
X117914235Y-78977428D01*
X117920196Y-79001227D01*
X117923796Y-79025495D01*
X117925000Y-79049999D01*
X117925000Y-80075001D01*
X117923796Y-80099505D01*
X117920196Y-80123773D01*
X117914235Y-80147572D01*
X117905970Y-80170671D01*
X117895480Y-80192850D01*
X117882868Y-80213893D01*
X117868253Y-80233599D01*
X117851777Y-80251777D01*
X117833599Y-80268253D01*
X117813893Y-80282868D01*
X117792850Y-80295480D01*
X117770671Y-80305970D01*
X117747572Y-80314235D01*
X117723773Y-80320196D01*
X117699505Y-80323796D01*
X117675001Y-80325000D01*
X115524999Y-80325000D01*
X115500495Y-80323796D01*
X115476227Y-80320196D01*
X115452428Y-80314235D01*
X115429329Y-80305970D01*
X115407150Y-80295480D01*
X115386107Y-80282868D01*
X115366401Y-80268253D01*
X115348223Y-80251777D01*
X115331747Y-80233599D01*
X115317132Y-80213893D01*
X115304520Y-80192850D01*
X115294030Y-80170671D01*
X115285765Y-80147572D01*
X115279804Y-80123773D01*
X115276204Y-80099505D01*
X115275000Y-80075001D01*
X115275000Y-79049999D01*
X115276204Y-79025495D01*
X115279804Y-79001227D01*
X115285765Y-78977428D01*
X115294030Y-78954329D01*
X115304520Y-78932150D01*
X115317132Y-78911107D01*
X115331747Y-78891401D01*
X115348223Y-78873223D01*
X115366401Y-78856747D01*
X115386107Y-78842132D01*
X115407150Y-78829520D01*
X115429329Y-78819030D01*
X115452428Y-78810765D01*
X115476227Y-78804804D01*
X115500495Y-78801204D01*
X115524999Y-78800000D01*
X117675001Y-78800000D01*
X117699505Y-78801204D01*
X117699505Y-78801204D01*
G37*
D21*
G04 #@! TD*
G04 #@! TO.P,R1,1*
G04 #@! TO.N,+5V*
X116600000Y-79562500D03*
D19*
G04 #@! TO.N,Net-(C1-Pad2)*
G04 #@! TO.C,R1*
G36*
X117699505Y-83476204D02*
X117723773Y-83479804D01*
X117747572Y-83485765D01*
X117770671Y-83494030D01*
X117792850Y-83504520D01*
X117813893Y-83517132D01*
X117833599Y-83531747D01*
X117851777Y-83548223D01*
X117868253Y-83566401D01*
X117882868Y-83586107D01*
X117895480Y-83607150D01*
X117905970Y-83629329D01*
X117914235Y-83652428D01*
X117920196Y-83676227D01*
X117923796Y-83700495D01*
X117925000Y-83724999D01*
X117925000Y-84750001D01*
X117923796Y-84774505D01*
X117920196Y-84798773D01*
X117914235Y-84822572D01*
X117905970Y-84845671D01*
X117895480Y-84867850D01*
X117882868Y-84888893D01*
X117868253Y-84908599D01*
X117851777Y-84926777D01*
X117833599Y-84943253D01*
X117813893Y-84957868D01*
X117792850Y-84970480D01*
X117770671Y-84980970D01*
X117747572Y-84989235D01*
X117723773Y-84995196D01*
X117699505Y-84998796D01*
X117675001Y-85000000D01*
X115524999Y-85000000D01*
X115500495Y-84998796D01*
X115476227Y-84995196D01*
X115452428Y-84989235D01*
X115429329Y-84980970D01*
X115407150Y-84970480D01*
X115386107Y-84957868D01*
X115366401Y-84943253D01*
X115348223Y-84926777D01*
X115331747Y-84908599D01*
X115317132Y-84888893D01*
X115304520Y-84867850D01*
X115294030Y-84845671D01*
X115285765Y-84822572D01*
X115279804Y-84798773D01*
X115276204Y-84774505D01*
X115275000Y-84750001D01*
X115275000Y-83724999D01*
X115276204Y-83700495D01*
X115279804Y-83676227D01*
X115285765Y-83652428D01*
X115294030Y-83629329D01*
X115304520Y-83607150D01*
X115317132Y-83586107D01*
X115331747Y-83566401D01*
X115348223Y-83548223D01*
X115366401Y-83531747D01*
X115386107Y-83517132D01*
X115407150Y-83504520D01*
X115429329Y-83494030D01*
X115452428Y-83485765D01*
X115476227Y-83479804D01*
X115500495Y-83476204D01*
X115524999Y-83475000D01*
X117675001Y-83475000D01*
X117699505Y-83476204D01*
X117699505Y-83476204D01*
G37*
D21*
G04 #@! TD*
G04 #@! TO.P,R1,2*
G04 #@! TO.N,Net-(C1-Pad2)*
X116600000Y-84237500D03*
D15*
G04 #@! TO.P,J2,1*
G04 #@! TO.N,GND*
X102000000Y-65500000D03*
D14*
G04 #@! TO.P,J2,2*
G04 #@! TO.N,Net-(A1-Pad10)*
X102000000Y-68040000D03*
G04 #@! TD*
G04 #@! TO.P,J3,2*
G04 #@! TO.N,Net-(A1-Pad11)*
X97500000Y-68040000D03*
D15*
G04 #@! TO.P,J3,1*
G04 #@! TO.N,GND*
X97500000Y-65500000D03*
G04 #@! TD*
D22*
G04 #@! TO.N,+5V*
X119255000Y-71500000D03*
G04 #@! TD*
D23*
G04 #@! TO.N,GND*
X109175000Y-88625000D02*
X110900000Y-88625000D01*
X105355001Y-84805001D02*
X109175000Y-88625000D01*
X110900000Y-89895000D02*
X110900000Y-88625000D01*
X110900000Y-94975000D02*
X110900000Y-93705000D01*
X109650000Y-93705000D02*
X109175000Y-93230000D01*
X109175000Y-93230000D02*
X109175000Y-88625000D01*
X110900000Y-93705000D02*
X109650000Y-93705000D01*
X112200000Y-99100000D02*
X113012500Y-99100000D01*
X109175000Y-96380002D02*
X111894998Y-99100000D01*
X111894998Y-99100000D02*
X112200000Y-99100000D01*
X109175000Y-93230000D02*
X109175000Y-96380002D01*
D24*
G04 #@! TO.N,Net-(A1-Pad6)*
X104555002Y-89085002D02*
X105355001Y-89885001D01*
X104555002Y-88492438D02*
X104555002Y-89085002D01*
X96500000Y-80437436D02*
X104555002Y-88492438D01*
X96500000Y-79200000D02*
X96500000Y-80437436D01*
G04 #@! TO.N,Net-(A1-Pad7)*
X99735001Y-92425001D02*
X105355001Y-92425001D01*
X96510000Y-89200000D02*
X99735001Y-92425001D01*
G04 #@! TO.N,Net-(A1-Pad8)*
X104555002Y-95765000D02*
X105355001Y-94965001D01*
X101005001Y-99315001D02*
X104555002Y-95765000D01*
X97852437Y-99315001D02*
X101005001Y-99315001D01*
X97737436Y-99200000D02*
X97852437Y-99315001D01*
X96500000Y-99200000D02*
X97737436Y-99200000D01*
G04 #@! TO.N,Net-(A1-Pad9)*
X104555002Y-98305000D02*
X105355001Y-97505001D01*
X104230000Y-98630002D02*
X104555002Y-98305000D01*
X98890003Y-110074999D02*
X104230000Y-104735002D01*
X97374999Y-110074999D02*
X98890003Y-110074999D01*
X104230000Y-104735002D02*
X104230000Y-98630002D01*
X96500000Y-109200000D02*
X97374999Y-110074999D01*
D23*
G04 #@! TO.N,+5V*
X120595001Y-84805001D02*
X118800000Y-83010000D01*
X118800000Y-81762500D02*
X116600000Y-79562500D01*
X118800000Y-83010000D02*
X118800000Y-81762500D01*
X116600000Y-79562500D02*
X116600000Y-74155000D01*
X116600000Y-74155000D02*
X119255000Y-71500000D01*
D24*
G04 #@! TO.N,19*
X116750000Y-94975000D02*
X117800000Y-96025000D01*
X116300000Y-94975000D02*
X116750000Y-94975000D01*
X117800000Y-102330000D02*
X120595001Y-105125001D01*
X117800000Y-96025000D02*
X117800000Y-102330000D01*
G04 #@! TO.N,20*
X118349989Y-100339989D02*
X119795002Y-101785002D01*
X119795002Y-101785002D02*
X120595001Y-102585001D01*
X116300000Y-93705000D02*
X116750000Y-93705000D01*
X116750000Y-93705000D02*
X118349989Y-95304989D01*
X118349989Y-95304989D02*
X118349989Y-100339989D01*
G04 #@! TO.N,21*
X119795002Y-99245002D02*
X120595001Y-100045001D01*
X116750000Y-89895000D02*
X118800000Y-91945000D01*
X118800000Y-98250000D02*
X119795002Y-99245002D01*
X118800000Y-91945000D02*
X118800000Y-98250000D01*
X116300000Y-89895000D02*
X116750000Y-89895000D01*
G04 #@! TO.N,22*
X119795002Y-96705002D02*
X120595001Y-97505001D01*
X119470000Y-96380000D02*
X119795002Y-96705002D01*
X119470000Y-91345000D02*
X119470000Y-96380000D01*
X116750000Y-88625000D02*
X119470000Y-91345000D01*
X116300000Y-88625000D02*
X116750000Y-88625000D01*
D23*
G04 #@! TO.N,Net-(J1-Pad1)*
X109289964Y-67200000D02*
X113650000Y-67200000D01*
X113800000Y-93795000D02*
X113800000Y-77010003D01*
X116200000Y-64650000D02*
X116200000Y-63300000D01*
X107799999Y-68689966D02*
X109289964Y-67200000D01*
X113650000Y-67200000D02*
X116200000Y-64650000D01*
X111350000Y-96245000D02*
X113800000Y-93795000D01*
X107799999Y-71010001D02*
X107799999Y-68689966D01*
X113800000Y-77010003D02*
X113700021Y-76910023D01*
X110900000Y-96245000D02*
X111350000Y-96245000D01*
X113700021Y-76910023D02*
X107799999Y-71010001D01*
G04 #@! TO.N,Net-(J1-Pad2)*
X113660000Y-65340000D02*
X113660000Y-63300000D01*
X112500010Y-66499990D02*
X113660000Y-65340000D01*
X108900043Y-66499990D02*
X112500010Y-66499990D01*
X107099988Y-71299955D02*
X107099988Y-68300045D01*
X107099988Y-68300045D02*
X108900043Y-66499990D01*
X110900000Y-92435000D02*
X111350000Y-92435000D01*
X111350000Y-92435000D02*
X113000010Y-90784990D01*
X113000010Y-90784990D02*
X113000010Y-77199977D01*
X113000010Y-77199977D02*
X107099988Y-71299955D01*
G04 #@! TO.N,Net-(J1-Pad3)*
X106300000Y-67700000D02*
X108300000Y-65700000D01*
X108300000Y-65700000D02*
X108720000Y-65700000D01*
X106300000Y-71489932D02*
X106300000Y-67700000D01*
X110900000Y-91165000D02*
X111350000Y-91165000D01*
X111350000Y-91165000D02*
X112150000Y-90365000D01*
X108720000Y-65700000D02*
X111120000Y-63300000D01*
X112150000Y-90365000D02*
X112150000Y-77339932D01*
X112150000Y-77339932D02*
X106300000Y-71489932D01*
G04 #@! TO.N,Net-(J1-Pad4)*
X105400000Y-66480000D02*
X108580000Y-63300000D01*
X110900000Y-77079897D02*
X105400000Y-71579897D01*
X105400000Y-71579897D02*
X105400000Y-66480000D01*
X110900000Y-87355000D02*
X110900000Y-77079897D01*
G04 #@! TO.N,Net-(C1-Pad2)*
X115050000Y-91965000D02*
X115850000Y-91165000D01*
X115050000Y-95445000D02*
X115050000Y-91965000D01*
X115850000Y-91165000D02*
X116300000Y-91165000D01*
X115850000Y-96245000D02*
X115050000Y-95445000D01*
X116300000Y-96245000D02*
X115850000Y-96245000D01*
X115050000Y-91965000D02*
X115050000Y-86744998D01*
X115050000Y-86650000D02*
X115050000Y-86744998D01*
X116600000Y-85100000D02*
X115050000Y-86650000D01*
X116600000Y-84237500D02*
X116600000Y-85100000D01*
X116300000Y-98787500D02*
X115987500Y-99100000D01*
X116300000Y-96245000D02*
X116300000Y-98787500D01*
G04 #@! TD*
D25*
G04 #@! TO.N,GND*
G36*
X104320424Y-106159578D02*
X104672759Y-106395001D01*
X104320424Y-106630424D01*
X104003261Y-107105092D01*
X103891888Y-107665001D01*
X104003261Y-108224910D01*
X104320424Y-108699578D01*
X104672759Y-108935001D01*
X104320424Y-109170424D01*
X104003261Y-109645092D01*
X103891888Y-110205001D01*
X104003261Y-110764910D01*
X104320424Y-111239578D01*
X104672759Y-111475001D01*
X104320424Y-111710424D01*
X104003261Y-112185092D01*
X103891888Y-112745001D01*
X104003261Y-113304910D01*
X104320424Y-113779578D01*
X104582169Y-113954470D01*
X104491158Y-113992168D01*
X104062168Y-114421158D01*
X103830001Y-114981660D01*
X103830001Y-115588342D01*
X103996373Y-115990000D01*
X100332950Y-115990000D01*
X100418474Y-115904476D01*
X100675000Y-115285167D01*
X100675000Y-114614833D01*
X100418474Y-113995524D01*
X99944476Y-113521526D01*
X99325167Y-113265000D01*
X98654833Y-113265000D01*
X98035524Y-113521526D01*
X98005006Y-113552044D01*
X97995579Y-113334542D01*
X97815953Y-112900884D01*
X97562060Y-112817545D01*
X96679605Y-113700000D01*
X96693748Y-113714143D01*
X96514143Y-113893748D01*
X96500000Y-113879605D01*
X95617545Y-114762060D01*
X95700884Y-115015953D01*
X96265306Y-115221590D01*
X96865458Y-115195579D01*
X97299116Y-115015953D01*
X97305000Y-114998027D01*
X97305000Y-115285167D01*
X97561526Y-115904476D01*
X97647050Y-115990000D01*
X95210000Y-115990000D01*
X95210000Y-114507635D01*
X95437940Y-114582455D01*
X96320395Y-113700000D01*
X95437940Y-112817545D01*
X95210000Y-112892365D01*
X95210000Y-112637940D01*
X95617545Y-112637940D01*
X96500000Y-113520395D01*
X97382455Y-112637940D01*
X97299116Y-112384047D01*
X96734694Y-112178410D01*
X96134542Y-112204421D01*
X95700884Y-112384047D01*
X95617545Y-112637940D01*
X95210000Y-112637940D01*
X95210000Y-110031484D01*
X95219884Y-110055346D01*
X95644654Y-110480116D01*
X96199642Y-110710000D01*
X96800358Y-110710000D01*
X96897291Y-110669849D01*
X96957382Y-110710000D01*
X97078462Y-110790903D01*
X97300147Y-110834999D01*
X97300151Y-110834999D01*
X97374998Y-110849887D01*
X97449845Y-110834999D01*
X98815156Y-110834999D01*
X98890003Y-110849887D01*
X98964850Y-110834999D01*
X98964855Y-110834999D01*
X99186540Y-110790903D01*
X99437932Y-110622928D01*
X99480334Y-110559469D01*
X104144105Y-105895699D01*
X104320424Y-106159578D01*
X104320424Y-106159578D01*
G37*
X104320424Y-106159578D02*
X104672759Y-106395001D01*
X104320424Y-106630424D01*
X104003261Y-107105092D01*
X103891888Y-107665001D01*
X104003261Y-108224910D01*
X104320424Y-108699578D01*
X104672759Y-108935001D01*
X104320424Y-109170424D01*
X104003261Y-109645092D01*
X103891888Y-110205001D01*
X104003261Y-110764910D01*
X104320424Y-111239578D01*
X104672759Y-111475001D01*
X104320424Y-111710424D01*
X104003261Y-112185092D01*
X103891888Y-112745001D01*
X104003261Y-113304910D01*
X104320424Y-113779578D01*
X104582169Y-113954470D01*
X104491158Y-113992168D01*
X104062168Y-114421158D01*
X103830001Y-114981660D01*
X103830001Y-115588342D01*
X103996373Y-115990000D01*
X100332950Y-115990000D01*
X100418474Y-115904476D01*
X100675000Y-115285167D01*
X100675000Y-114614833D01*
X100418474Y-113995524D01*
X99944476Y-113521526D01*
X99325167Y-113265000D01*
X98654833Y-113265000D01*
X98035524Y-113521526D01*
X98005006Y-113552044D01*
X97995579Y-113334542D01*
X97815953Y-112900884D01*
X97562060Y-112817545D01*
X96679605Y-113700000D01*
X96693748Y-113714143D01*
X96514143Y-113893748D01*
X96500000Y-113879605D01*
X95617545Y-114762060D01*
X95700884Y-115015953D01*
X96265306Y-115221590D01*
X96865458Y-115195579D01*
X97299116Y-115015953D01*
X97305000Y-114998027D01*
X97305000Y-115285167D01*
X97561526Y-115904476D01*
X97647050Y-115990000D01*
X95210000Y-115990000D01*
X95210000Y-114507635D01*
X95437940Y-114582455D01*
X96320395Y-113700000D01*
X95437940Y-112817545D01*
X95210000Y-112892365D01*
X95210000Y-112637940D01*
X95617545Y-112637940D01*
X96500000Y-113520395D01*
X97382455Y-112637940D01*
X97299116Y-112384047D01*
X96734694Y-112178410D01*
X96134542Y-112204421D01*
X95700884Y-112384047D01*
X95617545Y-112637940D01*
X95210000Y-112637940D01*
X95210000Y-110031484D01*
X95219884Y-110055346D01*
X95644654Y-110480116D01*
X96199642Y-110710000D01*
X96800358Y-110710000D01*
X96897291Y-110669849D01*
X96957382Y-110710000D01*
X97078462Y-110790903D01*
X97300147Y-110834999D01*
X97300151Y-110834999D01*
X97374998Y-110849887D01*
X97449845Y-110834999D01*
X98815156Y-110834999D01*
X98890003Y-110849887D01*
X98964850Y-110834999D01*
X98964855Y-110834999D01*
X99186540Y-110790903D01*
X99437932Y-110622928D01*
X99480334Y-110559469D01*
X104144105Y-105895699D01*
X104320424Y-106159578D01*
G36*
X123290000Y-115990000D02*
X121953629Y-115990000D01*
X122120001Y-115588342D01*
X122120001Y-114981660D01*
X121887834Y-114421158D01*
X121458844Y-113992168D01*
X121367833Y-113954470D01*
X121629578Y-113779578D01*
X121946741Y-113304910D01*
X122058114Y-112745001D01*
X121946741Y-112185092D01*
X121629578Y-111710424D01*
X121277243Y-111475001D01*
X121629578Y-111239578D01*
X121946741Y-110764910D01*
X122058114Y-110205001D01*
X121946741Y-109645092D01*
X121629578Y-109170424D01*
X121277243Y-108935001D01*
X121629578Y-108699578D01*
X121946741Y-108224910D01*
X122058114Y-107665001D01*
X121946741Y-107105092D01*
X121629578Y-106630424D01*
X121277243Y-106395001D01*
X121629578Y-106159578D01*
X121946741Y-105684910D01*
X122058114Y-105125001D01*
X121946741Y-104565092D01*
X121629578Y-104090424D01*
X121277243Y-103855001D01*
X121629578Y-103619578D01*
X121946741Y-103144910D01*
X122058114Y-102585001D01*
X121946741Y-102025092D01*
X121629578Y-101550424D01*
X121277243Y-101315001D01*
X121629578Y-101079578D01*
X121946741Y-100604910D01*
X122058114Y-100045001D01*
X121946741Y-99485092D01*
X121629578Y-99010424D01*
X121277243Y-98775001D01*
X121629578Y-98539578D01*
X121946741Y-98064910D01*
X122058114Y-97505001D01*
X121946741Y-96945092D01*
X121629578Y-96470424D01*
X121277243Y-96235001D01*
X121629578Y-95999578D01*
X121946741Y-95524910D01*
X122058114Y-94965001D01*
X121946741Y-94405092D01*
X121629578Y-93930424D01*
X121277243Y-93695001D01*
X121629578Y-93459578D01*
X121946741Y-92984910D01*
X122058114Y-92425001D01*
X121946741Y-91865092D01*
X121629578Y-91390424D01*
X121277243Y-91155001D01*
X121629578Y-90919578D01*
X121946741Y-90444910D01*
X122058114Y-89885001D01*
X121946741Y-89325092D01*
X121629578Y-88850424D01*
X121277243Y-88615001D01*
X121629578Y-88379578D01*
X121946741Y-87904910D01*
X122058114Y-87345001D01*
X121946741Y-86785092D01*
X121629578Y-86310424D01*
X121277243Y-86075001D01*
X121629578Y-85839578D01*
X121946741Y-85364910D01*
X122058114Y-84805001D01*
X121946741Y-84245092D01*
X121629578Y-83770424D01*
X121277243Y-83535001D01*
X121629578Y-83299578D01*
X121946741Y-82824910D01*
X122058114Y-82265001D01*
X121946741Y-81705092D01*
X121629578Y-81230424D01*
X121245893Y-80974054D01*
X121450135Y-80877390D01*
X121826042Y-80462424D01*
X121986905Y-80074040D01*
X121864916Y-79852001D01*
X120722001Y-79852001D01*
X120722001Y-79872001D01*
X120468001Y-79872001D01*
X120468001Y-79852001D01*
X119325086Y-79852001D01*
X119203097Y-80074040D01*
X119363960Y-80462424D01*
X119739867Y-80877390D01*
X119944109Y-80974054D01*
X119560424Y-81230424D01*
X119534641Y-81269011D01*
X119487424Y-81198345D01*
X119487423Y-81198344D01*
X119438049Y-81124451D01*
X119364156Y-81075077D01*
X118537871Y-80248792D01*
X118572440Y-80075001D01*
X118572440Y-79049999D01*
X118504127Y-78706564D01*
X118309586Y-78415414D01*
X118018436Y-78220873D01*
X117675001Y-78152560D01*
X117485000Y-78152560D01*
X117485000Y-74521578D01*
X117664918Y-74341660D01*
X119070001Y-74341660D01*
X119070001Y-74948342D01*
X119302168Y-75508844D01*
X119731158Y-75937834D01*
X119822169Y-75975532D01*
X119560424Y-76150424D01*
X119243261Y-76625092D01*
X119131888Y-77185001D01*
X119243261Y-77744910D01*
X119560424Y-78219578D01*
X119944109Y-78475948D01*
X119739867Y-78572612D01*
X119363960Y-78987578D01*
X119203097Y-79375962D01*
X119325086Y-79598001D01*
X120468001Y-79598001D01*
X120468001Y-79578001D01*
X120722001Y-79578001D01*
X120722001Y-79598001D01*
X121864916Y-79598001D01*
X121986905Y-79375962D01*
X121826042Y-78987578D01*
X121450135Y-78572612D01*
X121245893Y-78475948D01*
X121629578Y-78219578D01*
X121946741Y-77744910D01*
X122058114Y-77185001D01*
X121946741Y-76625092D01*
X121629578Y-76150424D01*
X121367833Y-75975532D01*
X121458844Y-75937834D01*
X121887834Y-75508844D01*
X122120001Y-74948342D01*
X122120001Y-74341660D01*
X121887834Y-73781158D01*
X121458844Y-73352168D01*
X120898342Y-73120001D01*
X120291660Y-73120001D01*
X119731158Y-73352168D01*
X119302168Y-73781158D01*
X119070001Y-74341660D01*
X117664918Y-74341660D01*
X119479148Y-72527431D01*
X119841280Y-72377431D01*
X120132431Y-72086280D01*
X120290000Y-71705874D01*
X120290000Y-71294126D01*
X120132431Y-70913720D01*
X119841280Y-70622569D01*
X119460874Y-70465000D01*
X119049126Y-70465000D01*
X118668720Y-70622569D01*
X118377569Y-70913720D01*
X118227569Y-71275852D01*
X116035845Y-73467577D01*
X115961952Y-73516951D01*
X115912578Y-73590844D01*
X115912576Y-73590846D01*
X115766348Y-73809691D01*
X115697663Y-74155000D01*
X115715001Y-74242165D01*
X115715000Y-78152560D01*
X115524999Y-78152560D01*
X115181564Y-78220873D01*
X114890414Y-78415414D01*
X114695873Y-78706564D01*
X114685000Y-78761227D01*
X114685000Y-77097165D01*
X114702337Y-77010007D01*
X114685000Y-76922845D01*
X114685000Y-76922838D01*
X114633652Y-76664693D01*
X114527803Y-76506280D01*
X114487427Y-76445852D01*
X114487425Y-76445850D01*
X114438049Y-76371954D01*
X114364159Y-76322582D01*
X109227002Y-71185426D01*
X109227002Y-71126252D01*
X109385750Y-71285000D01*
X110076310Y-71285000D01*
X110309699Y-71188327D01*
X110488327Y-71009698D01*
X110554904Y-70848967D01*
X110569375Y-70870625D01*
X111060582Y-71198839D01*
X111493744Y-71285000D01*
X111786256Y-71285000D01*
X112219418Y-71198839D01*
X112710625Y-70870625D01*
X112910000Y-70572239D01*
X113109375Y-70870625D01*
X113600582Y-71198839D01*
X114033744Y-71285000D01*
X114326256Y-71285000D01*
X114759418Y-71198839D01*
X115250625Y-70870625D01*
X115450000Y-70572239D01*
X115649375Y-70870625D01*
X116140582Y-71198839D01*
X116573744Y-71285000D01*
X116866256Y-71285000D01*
X117299418Y-71198839D01*
X117790625Y-70870625D01*
X118118839Y-70379418D01*
X118234092Y-69800000D01*
X118118839Y-69220582D01*
X117790625Y-68729375D01*
X117299418Y-68401161D01*
X116866256Y-68315000D01*
X116573744Y-68315000D01*
X116140582Y-68401161D01*
X115649375Y-68729375D01*
X115450000Y-69027761D01*
X115250625Y-68729375D01*
X114759418Y-68401161D01*
X114326256Y-68315000D01*
X114033744Y-68315000D01*
X113600582Y-68401161D01*
X113109375Y-68729375D01*
X112910000Y-69027761D01*
X112710625Y-68729375D01*
X112219418Y-68401161D01*
X111786256Y-68315000D01*
X111493744Y-68315000D01*
X111060582Y-68401161D01*
X110569375Y-68729375D01*
X110554904Y-68751033D01*
X110488327Y-68590302D01*
X110309699Y-68411673D01*
X110076310Y-68315000D01*
X109426543Y-68315000D01*
X109656543Y-68085000D01*
X113562839Y-68085000D01*
X113650000Y-68102337D01*
X113737161Y-68085000D01*
X113737165Y-68085000D01*
X113995310Y-68033652D01*
X114288049Y-67838049D01*
X114337425Y-67764153D01*
X116764156Y-65337423D01*
X116838049Y-65288049D01*
X116939749Y-65135846D01*
X117033652Y-64995310D01*
X117033775Y-64994690D01*
X117073959Y-64792674D01*
X117297765Y-64748157D01*
X117507809Y-64607809D01*
X117648157Y-64397765D01*
X117697440Y-64150000D01*
X117697440Y-62450000D01*
X117648157Y-62202235D01*
X117507809Y-61992191D01*
X117297765Y-61851843D01*
X117050000Y-61802560D01*
X115350000Y-61802560D01*
X115102235Y-61851843D01*
X114892191Y-61992191D01*
X114751843Y-62202235D01*
X114742816Y-62247619D01*
X114730625Y-62229375D01*
X114239418Y-61901161D01*
X113806256Y-61815000D01*
X113513744Y-61815000D01*
X113080582Y-61901161D01*
X112589375Y-62229375D01*
X112390000Y-62527761D01*
X112190625Y-62229375D01*
X111699418Y-61901161D01*
X111266256Y-61815000D01*
X110973744Y-61815000D01*
X110540582Y-61901161D01*
X110049375Y-62229375D01*
X109850000Y-62527761D01*
X109650625Y-62229375D01*
X109159418Y-61901161D01*
X108726256Y-61815000D01*
X108433744Y-61815000D01*
X108000582Y-61901161D01*
X107509375Y-62229375D01*
X107181161Y-62720582D01*
X107065908Y-63300000D01*
X107109462Y-63518960D01*
X104835845Y-65792577D01*
X104761952Y-65841951D01*
X104712578Y-65915844D01*
X104712576Y-65915846D01*
X104566348Y-66134691D01*
X104497663Y-66480000D01*
X104515001Y-66567165D01*
X104515000Y-71492736D01*
X104497663Y-71579897D01*
X104515000Y-71667058D01*
X104515000Y-71667061D01*
X104566348Y-71925206D01*
X104761951Y-72217946D01*
X104835847Y-72267322D01*
X105709869Y-73141344D01*
X105658342Y-73120001D01*
X105051660Y-73120001D01*
X104491158Y-73352168D01*
X104062168Y-73781158D01*
X103830001Y-74341660D01*
X103830001Y-74948342D01*
X104062168Y-75508844D01*
X104334704Y-75781380D01*
X104307236Y-75786844D01*
X104097192Y-75927192D01*
X103956844Y-76137236D01*
X103907561Y-76385001D01*
X103907561Y-77985001D01*
X103956844Y-78232766D01*
X104097192Y-78442810D01*
X104307236Y-78583158D01*
X104441107Y-78609786D01*
X104320424Y-78690424D01*
X104003261Y-79165092D01*
X103891888Y-79725001D01*
X104003261Y-80284910D01*
X104320424Y-80759578D01*
X104672759Y-80995001D01*
X104320424Y-81230424D01*
X104003261Y-81705092D01*
X103891888Y-82265001D01*
X104003261Y-82824910D01*
X104320424Y-83299578D01*
X104704109Y-83555948D01*
X104499867Y-83652612D01*
X104123960Y-84067578D01*
X103963097Y-84455962D01*
X104085086Y-84678001D01*
X105228001Y-84678001D01*
X105228001Y-84658001D01*
X105482001Y-84658001D01*
X105482001Y-84678001D01*
X106624916Y-84678001D01*
X106746905Y-84455962D01*
X106586042Y-84067578D01*
X106210135Y-83652612D01*
X106005893Y-83555948D01*
X106389578Y-83299578D01*
X106706741Y-82824910D01*
X106818114Y-82265001D01*
X106706741Y-81705092D01*
X106389578Y-81230424D01*
X106037243Y-80995001D01*
X106389578Y-80759578D01*
X106706741Y-80284910D01*
X106818114Y-79725001D01*
X106706741Y-79165092D01*
X106389578Y-78690424D01*
X106268895Y-78609786D01*
X106402766Y-78583158D01*
X106612810Y-78442810D01*
X106753158Y-78232766D01*
X106802441Y-77985001D01*
X106802441Y-76385001D01*
X106753158Y-76137236D01*
X106612810Y-75927192D01*
X106402766Y-75786844D01*
X106375298Y-75781380D01*
X106647834Y-75508844D01*
X106880001Y-74948342D01*
X106880001Y-74341660D01*
X106858658Y-74290133D01*
X110015001Y-77446477D01*
X110015000Y-86434413D01*
X109902235Y-86456843D01*
X109692191Y-86597191D01*
X109551843Y-86807235D01*
X109502560Y-87055000D01*
X109502560Y-87655000D01*
X109551843Y-87902765D01*
X109604768Y-87981972D01*
X109515000Y-88198690D01*
X109515000Y-88339250D01*
X109673750Y-88498000D01*
X110773000Y-88498000D01*
X110773000Y-88478000D01*
X111027000Y-88478000D01*
X111027000Y-88498000D01*
X111047000Y-88498000D01*
X111047000Y-88752000D01*
X111027000Y-88752000D01*
X111027000Y-89768000D01*
X111047000Y-89768000D01*
X111047000Y-90022000D01*
X111027000Y-90022000D01*
X111027000Y-90042000D01*
X110773000Y-90042000D01*
X110773000Y-90022000D01*
X109673750Y-90022000D01*
X109515000Y-90180750D01*
X109515000Y-90321310D01*
X109604768Y-90538028D01*
X109551843Y-90617235D01*
X109502560Y-90865000D01*
X109502560Y-91465000D01*
X109551843Y-91712765D01*
X109610132Y-91800000D01*
X109551843Y-91887235D01*
X109502560Y-92135000D01*
X109502560Y-92735000D01*
X109551843Y-92982765D01*
X109604768Y-93061972D01*
X109515000Y-93278690D01*
X109515000Y-93419250D01*
X109673750Y-93578000D01*
X110773000Y-93578000D01*
X110773000Y-93558000D01*
X111027000Y-93558000D01*
X111027000Y-93578000D01*
X112126250Y-93578000D01*
X112285000Y-93419250D01*
X112285000Y-93278690D01*
X112195232Y-93061972D01*
X112248157Y-92982765D01*
X112296412Y-92740166D01*
X112915000Y-92121578D01*
X112915000Y-93428421D01*
X112285000Y-94058421D01*
X112285000Y-93990750D01*
X112126250Y-93832000D01*
X111027000Y-93832000D01*
X111027000Y-94848000D01*
X111047000Y-94848000D01*
X111047000Y-95102000D01*
X111027000Y-95102000D01*
X111027000Y-95122000D01*
X110773000Y-95122000D01*
X110773000Y-95102000D01*
X109673750Y-95102000D01*
X109515000Y-95260750D01*
X109515000Y-95401310D01*
X109604768Y-95618028D01*
X109551843Y-95697235D01*
X109502560Y-95945000D01*
X109502560Y-96545000D01*
X109551843Y-96792765D01*
X109692191Y-97002809D01*
X109902235Y-97143157D01*
X110150000Y-97192440D01*
X111650000Y-97192440D01*
X111897765Y-97143157D01*
X112107809Y-97002809D01*
X112248157Y-96792765D01*
X112296412Y-96550166D01*
X114165000Y-94681579D01*
X114165000Y-95357839D01*
X114147663Y-95445000D01*
X114165000Y-95532161D01*
X114165000Y-95532164D01*
X114216348Y-95790309D01*
X114411951Y-96083049D01*
X114485847Y-96132425D01*
X114903588Y-96550166D01*
X114951843Y-96792765D01*
X115092191Y-97002809D01*
X115302235Y-97143157D01*
X115415000Y-97165587D01*
X115415001Y-97599440D01*
X115181565Y-97645874D01*
X114890414Y-97840414D01*
X114695874Y-98131565D01*
X114627560Y-98475000D01*
X114627560Y-99725000D01*
X114695874Y-100068435D01*
X114890414Y-100359586D01*
X115181565Y-100554126D01*
X115525000Y-100622440D01*
X116450000Y-100622440D01*
X116793435Y-100554126D01*
X117040001Y-100389377D01*
X117040001Y-102255148D01*
X117025112Y-102330000D01*
X117040001Y-102404852D01*
X117084097Y-102626537D01*
X117252072Y-102877929D01*
X117315528Y-102920329D01*
X119196313Y-104801115D01*
X119131888Y-105125001D01*
X119243261Y-105684910D01*
X119560424Y-106159578D01*
X119912759Y-106395001D01*
X119560424Y-106630424D01*
X119243261Y-107105092D01*
X119131888Y-107665001D01*
X119243261Y-108224910D01*
X119560424Y-108699578D01*
X119912759Y-108935001D01*
X119560424Y-109170424D01*
X119243261Y-109645092D01*
X119131888Y-110205001D01*
X119243261Y-110764910D01*
X119560424Y-111239578D01*
X119912759Y-111475001D01*
X119560424Y-111710424D01*
X119243261Y-112185092D01*
X119131888Y-112745001D01*
X119243261Y-113304910D01*
X119560424Y-113779578D01*
X119822169Y-113954470D01*
X119731158Y-113992168D01*
X119302168Y-114421158D01*
X119070001Y-114981660D01*
X119070001Y-115588342D01*
X119236373Y-115990000D01*
X106713629Y-115990000D01*
X106880001Y-115588342D01*
X106880001Y-114981660D01*
X106647834Y-114421158D01*
X106218844Y-113992168D01*
X106127833Y-113954470D01*
X106389578Y-113779578D01*
X106706741Y-113304910D01*
X106818114Y-112745001D01*
X106706741Y-112185092D01*
X106389578Y-111710424D01*
X106037243Y-111475001D01*
X106389578Y-111239578D01*
X106706741Y-110764910D01*
X106818114Y-110205001D01*
X106706741Y-109645092D01*
X106389578Y-109170424D01*
X106037243Y-108935001D01*
X106389578Y-108699578D01*
X106706741Y-108224910D01*
X106818114Y-107665001D01*
X106706741Y-107105092D01*
X106389578Y-106630424D01*
X106037243Y-106395001D01*
X106389578Y-106159578D01*
X106706741Y-105684910D01*
X106818114Y-105125001D01*
X106706741Y-104565092D01*
X106389578Y-104090424D01*
X106037243Y-103855001D01*
X106389578Y-103619578D01*
X106706741Y-103144910D01*
X106818114Y-102585001D01*
X106706741Y-102025092D01*
X106389578Y-101550424D01*
X106037243Y-101315001D01*
X106389578Y-101079578D01*
X106706741Y-100604910D01*
X106818114Y-100045001D01*
X106735424Y-99629286D01*
X109170000Y-99629286D01*
X109170000Y-115770715D01*
X112990000Y-115770715D01*
X112990000Y-112870715D01*
X116090000Y-112870715D01*
X116090000Y-102729286D01*
X112990000Y-102729286D01*
X112990000Y-99629286D01*
X112885500Y-99629286D01*
X112885500Y-99227000D01*
X113139500Y-99227000D01*
X113139500Y-100451250D01*
X113298250Y-100610000D01*
X113851309Y-100610000D01*
X114084698Y-100513327D01*
X114263327Y-100334699D01*
X114360000Y-100101310D01*
X114360000Y-99385750D01*
X114201250Y-99227000D01*
X113139500Y-99227000D01*
X112885500Y-99227000D01*
X111823750Y-99227000D01*
X111665000Y-99385750D01*
X111665000Y-99629286D01*
X109170000Y-99629286D01*
X106735424Y-99629286D01*
X106706741Y-99485092D01*
X106389578Y-99010424D01*
X106037243Y-98775001D01*
X106389578Y-98539578D01*
X106684169Y-98098690D01*
X111665000Y-98098690D01*
X111665000Y-98814250D01*
X111823750Y-98973000D01*
X112885500Y-98973000D01*
X112885500Y-97748750D01*
X113139500Y-97748750D01*
X113139500Y-98973000D01*
X114201250Y-98973000D01*
X114360000Y-98814250D01*
X114360000Y-98098690D01*
X114263327Y-97865301D01*
X114084698Y-97686673D01*
X113851309Y-97590000D01*
X113298250Y-97590000D01*
X113139500Y-97748750D01*
X112885500Y-97748750D01*
X112726750Y-97590000D01*
X112173691Y-97590000D01*
X111940302Y-97686673D01*
X111761673Y-97865301D01*
X111665000Y-98098690D01*
X106684169Y-98098690D01*
X106706741Y-98064910D01*
X106818114Y-97505001D01*
X106706741Y-96945092D01*
X106389578Y-96470424D01*
X106037243Y-96235001D01*
X106389578Y-95999578D01*
X106706741Y-95524910D01*
X106818114Y-94965001D01*
X106706741Y-94405092D01*
X106429887Y-93990750D01*
X109515000Y-93990750D01*
X109515000Y-94131310D01*
X109601442Y-94340000D01*
X109515000Y-94548690D01*
X109515000Y-94689250D01*
X109673750Y-94848000D01*
X110773000Y-94848000D01*
X110773000Y-93832000D01*
X109673750Y-93832000D01*
X109515000Y-93990750D01*
X106429887Y-93990750D01*
X106389578Y-93930424D01*
X106037243Y-93695001D01*
X106389578Y-93459578D01*
X106706741Y-92984910D01*
X106818114Y-92425001D01*
X106706741Y-91865092D01*
X106389578Y-91390424D01*
X106037243Y-91155001D01*
X106389578Y-90919578D01*
X106706741Y-90444910D01*
X106818114Y-89885001D01*
X106706741Y-89325092D01*
X106429887Y-88910750D01*
X109515000Y-88910750D01*
X109515000Y-89051310D01*
X109601442Y-89260000D01*
X109515000Y-89468690D01*
X109515000Y-89609250D01*
X109673750Y-89768000D01*
X110773000Y-89768000D01*
X110773000Y-88752000D01*
X109673750Y-88752000D01*
X109515000Y-88910750D01*
X106429887Y-88910750D01*
X106389578Y-88850424D01*
X106037243Y-88615001D01*
X106389578Y-88379578D01*
X106706741Y-87904910D01*
X106818114Y-87345001D01*
X106706741Y-86785092D01*
X106389578Y-86310424D01*
X106005893Y-86054054D01*
X106210135Y-85957390D01*
X106586042Y-85542424D01*
X106746905Y-85154040D01*
X106624916Y-84932001D01*
X105482001Y-84932001D01*
X105482001Y-84952001D01*
X105228001Y-84952001D01*
X105228001Y-84932001D01*
X104085086Y-84932001D01*
X103963097Y-85154040D01*
X104123960Y-85542424D01*
X104499867Y-85957390D01*
X104704109Y-86054054D01*
X104320424Y-86310424D01*
X104003261Y-86785092D01*
X103989855Y-86852489D01*
X97486414Y-80349048D01*
X97780116Y-80055346D01*
X98010000Y-79500358D01*
X98010000Y-79342950D01*
X98035524Y-79368474D01*
X98654833Y-79625000D01*
X99325167Y-79625000D01*
X99944476Y-79368474D01*
X100418474Y-78894476D01*
X100675000Y-78275167D01*
X100675000Y-77604833D01*
X100418474Y-76985524D01*
X99944476Y-76511526D01*
X99325167Y-76255000D01*
X98654833Y-76255000D01*
X98035524Y-76511526D01*
X97561526Y-76985524D01*
X97305000Y-77604833D01*
X97305000Y-77899030D01*
X96800358Y-77690000D01*
X96199642Y-77690000D01*
X95644654Y-77919884D01*
X95219884Y-78344654D01*
X95210000Y-78368516D01*
X95210000Y-68040000D01*
X95985908Y-68040000D01*
X96101161Y-68619418D01*
X96429375Y-69110625D01*
X96920582Y-69438839D01*
X97353744Y-69525000D01*
X97646256Y-69525000D01*
X98079418Y-69438839D01*
X98570625Y-69110625D01*
X98898839Y-68619418D01*
X99014092Y-68040000D01*
X100485908Y-68040000D01*
X100601161Y-68619418D01*
X100929375Y-69110625D01*
X101420582Y-69438839D01*
X101853744Y-69525000D01*
X102146256Y-69525000D01*
X102579418Y-69438839D01*
X103070625Y-69110625D01*
X103398839Y-68619418D01*
X103514092Y-68040000D01*
X103398839Y-67460582D01*
X103070625Y-66969375D01*
X103048967Y-66954904D01*
X103209698Y-66888327D01*
X103388327Y-66709699D01*
X103485000Y-66476310D01*
X103485000Y-65785750D01*
X103326250Y-65627000D01*
X102127000Y-65627000D01*
X102127000Y-65647000D01*
X101873000Y-65647000D01*
X101873000Y-65627000D01*
X100673750Y-65627000D01*
X100515000Y-65785750D01*
X100515000Y-66476310D01*
X100611673Y-66709699D01*
X100790302Y-66888327D01*
X100951033Y-66954904D01*
X100929375Y-66969375D01*
X100601161Y-67460582D01*
X100485908Y-68040000D01*
X99014092Y-68040000D01*
X98898839Y-67460582D01*
X98570625Y-66969375D01*
X98548967Y-66954904D01*
X98709698Y-66888327D01*
X98888327Y-66709699D01*
X98985000Y-66476310D01*
X98985000Y-65785750D01*
X98826250Y-65627000D01*
X97627000Y-65627000D01*
X97627000Y-65647000D01*
X97373000Y-65647000D01*
X97373000Y-65627000D01*
X96173750Y-65627000D01*
X96015000Y-65785750D01*
X96015000Y-66476310D01*
X96111673Y-66709699D01*
X96290302Y-66888327D01*
X96451033Y-66954904D01*
X96429375Y-66969375D01*
X96101161Y-67460582D01*
X95985908Y-68040000D01*
X95210000Y-68040000D01*
X95210000Y-64523690D01*
X96015000Y-64523690D01*
X96015000Y-65214250D01*
X96173750Y-65373000D01*
X97373000Y-65373000D01*
X97373000Y-64173750D01*
X97627000Y-64173750D01*
X97627000Y-65373000D01*
X98826250Y-65373000D01*
X98985000Y-65214250D01*
X98985000Y-64523690D01*
X100515000Y-64523690D01*
X100515000Y-65214250D01*
X100673750Y-65373000D01*
X101873000Y-65373000D01*
X101873000Y-64173750D01*
X102127000Y-64173750D01*
X102127000Y-65373000D01*
X103326250Y-65373000D01*
X103485000Y-65214250D01*
X103485000Y-64523690D01*
X103388327Y-64290301D01*
X103209698Y-64111673D01*
X102976309Y-64015000D01*
X102285750Y-64015000D01*
X102127000Y-64173750D01*
X101873000Y-64173750D01*
X101714250Y-64015000D01*
X101023691Y-64015000D01*
X100790302Y-64111673D01*
X100611673Y-64290301D01*
X100515000Y-64523690D01*
X98985000Y-64523690D01*
X98888327Y-64290301D01*
X98709698Y-64111673D01*
X98476309Y-64015000D01*
X97785750Y-64015000D01*
X97627000Y-64173750D01*
X97373000Y-64173750D01*
X97214250Y-64015000D01*
X96523691Y-64015000D01*
X96290302Y-64111673D01*
X96111673Y-64290301D01*
X96015000Y-64523690D01*
X95210000Y-64523690D01*
X95210000Y-61710000D01*
X123290001Y-61710000D01*
X123290000Y-115990000D01*
X123290000Y-115990000D01*
G37*
X123290000Y-115990000D02*
X121953629Y-115990000D01*
X122120001Y-115588342D01*
X122120001Y-114981660D01*
X121887834Y-114421158D01*
X121458844Y-113992168D01*
X121367833Y-113954470D01*
X121629578Y-113779578D01*
X121946741Y-113304910D01*
X122058114Y-112745001D01*
X121946741Y-112185092D01*
X121629578Y-111710424D01*
X121277243Y-111475001D01*
X121629578Y-111239578D01*
X121946741Y-110764910D01*
X122058114Y-110205001D01*
X121946741Y-109645092D01*
X121629578Y-109170424D01*
X121277243Y-108935001D01*
X121629578Y-108699578D01*
X121946741Y-108224910D01*
X122058114Y-107665001D01*
X121946741Y-107105092D01*
X121629578Y-106630424D01*
X121277243Y-106395001D01*
X121629578Y-106159578D01*
X121946741Y-105684910D01*
X122058114Y-105125001D01*
X121946741Y-104565092D01*
X121629578Y-104090424D01*
X121277243Y-103855001D01*
X121629578Y-103619578D01*
X121946741Y-103144910D01*
X122058114Y-102585001D01*
X121946741Y-102025092D01*
X121629578Y-101550424D01*
X121277243Y-101315001D01*
X121629578Y-101079578D01*
X121946741Y-100604910D01*
X122058114Y-100045001D01*
X121946741Y-99485092D01*
X121629578Y-99010424D01*
X121277243Y-98775001D01*
X121629578Y-98539578D01*
X121946741Y-98064910D01*
X122058114Y-97505001D01*
X121946741Y-96945092D01*
X121629578Y-96470424D01*
X121277243Y-96235001D01*
X121629578Y-95999578D01*
X121946741Y-95524910D01*
X122058114Y-94965001D01*
X121946741Y-94405092D01*
X121629578Y-93930424D01*
X121277243Y-93695001D01*
X121629578Y-93459578D01*
X121946741Y-92984910D01*
X122058114Y-92425001D01*
X121946741Y-91865092D01*
X121629578Y-91390424D01*
X121277243Y-91155001D01*
X121629578Y-90919578D01*
X121946741Y-90444910D01*
X122058114Y-89885001D01*
X121946741Y-89325092D01*
X121629578Y-88850424D01*
X121277243Y-88615001D01*
X121629578Y-88379578D01*
X121946741Y-87904910D01*
X122058114Y-87345001D01*
X121946741Y-86785092D01*
X121629578Y-86310424D01*
X121277243Y-86075001D01*
X121629578Y-85839578D01*
X121946741Y-85364910D01*
X122058114Y-84805001D01*
X121946741Y-84245092D01*
X121629578Y-83770424D01*
X121277243Y-83535001D01*
X121629578Y-83299578D01*
X121946741Y-82824910D01*
X122058114Y-82265001D01*
X121946741Y-81705092D01*
X121629578Y-81230424D01*
X121245893Y-80974054D01*
X121450135Y-80877390D01*
X121826042Y-80462424D01*
X121986905Y-80074040D01*
X121864916Y-79852001D01*
X120722001Y-79852001D01*
X120722001Y-79872001D01*
X120468001Y-79872001D01*
X120468001Y-79852001D01*
X119325086Y-79852001D01*
X119203097Y-80074040D01*
X119363960Y-80462424D01*
X119739867Y-80877390D01*
X119944109Y-80974054D01*
X119560424Y-81230424D01*
X119534641Y-81269011D01*
X119487424Y-81198345D01*
X119487423Y-81198344D01*
X119438049Y-81124451D01*
X119364156Y-81075077D01*
X118537871Y-80248792D01*
X118572440Y-80075001D01*
X118572440Y-79049999D01*
X118504127Y-78706564D01*
X118309586Y-78415414D01*
X118018436Y-78220873D01*
X117675001Y-78152560D01*
X117485000Y-78152560D01*
X117485000Y-74521578D01*
X117664918Y-74341660D01*
X119070001Y-74341660D01*
X119070001Y-74948342D01*
X119302168Y-75508844D01*
X119731158Y-75937834D01*
X119822169Y-75975532D01*
X119560424Y-76150424D01*
X119243261Y-76625092D01*
X119131888Y-77185001D01*
X119243261Y-77744910D01*
X119560424Y-78219578D01*
X119944109Y-78475948D01*
X119739867Y-78572612D01*
X119363960Y-78987578D01*
X119203097Y-79375962D01*
X119325086Y-79598001D01*
X120468001Y-79598001D01*
X120468001Y-79578001D01*
X120722001Y-79578001D01*
X120722001Y-79598001D01*
X121864916Y-79598001D01*
X121986905Y-79375962D01*
X121826042Y-78987578D01*
X121450135Y-78572612D01*
X121245893Y-78475948D01*
X121629578Y-78219578D01*
X121946741Y-77744910D01*
X122058114Y-77185001D01*
X121946741Y-76625092D01*
X121629578Y-76150424D01*
X121367833Y-75975532D01*
X121458844Y-75937834D01*
X121887834Y-75508844D01*
X122120001Y-74948342D01*
X122120001Y-74341660D01*
X121887834Y-73781158D01*
X121458844Y-73352168D01*
X120898342Y-73120001D01*
X120291660Y-73120001D01*
X119731158Y-73352168D01*
X119302168Y-73781158D01*
X119070001Y-74341660D01*
X117664918Y-74341660D01*
X119479148Y-72527431D01*
X119841280Y-72377431D01*
X120132431Y-72086280D01*
X120290000Y-71705874D01*
X120290000Y-71294126D01*
X120132431Y-70913720D01*
X119841280Y-70622569D01*
X119460874Y-70465000D01*
X119049126Y-70465000D01*
X118668720Y-70622569D01*
X118377569Y-70913720D01*
X118227569Y-71275852D01*
X116035845Y-73467577D01*
X115961952Y-73516951D01*
X115912578Y-73590844D01*
X115912576Y-73590846D01*
X115766348Y-73809691D01*
X115697663Y-74155000D01*
X115715001Y-74242165D01*
X115715000Y-78152560D01*
X115524999Y-78152560D01*
X115181564Y-78220873D01*
X114890414Y-78415414D01*
X114695873Y-78706564D01*
X114685000Y-78761227D01*
X114685000Y-77097165D01*
X114702337Y-77010007D01*
X114685000Y-76922845D01*
X114685000Y-76922838D01*
X114633652Y-76664693D01*
X114527803Y-76506280D01*
X114487427Y-76445852D01*
X114487425Y-76445850D01*
X114438049Y-76371954D01*
X114364159Y-76322582D01*
X109227002Y-71185426D01*
X109227002Y-71126252D01*
X109385750Y-71285000D01*
X110076310Y-71285000D01*
X110309699Y-71188327D01*
X110488327Y-71009698D01*
X110554904Y-70848967D01*
X110569375Y-70870625D01*
X111060582Y-71198839D01*
X111493744Y-71285000D01*
X111786256Y-71285000D01*
X112219418Y-71198839D01*
X112710625Y-70870625D01*
X112910000Y-70572239D01*
X113109375Y-70870625D01*
X113600582Y-71198839D01*
X114033744Y-71285000D01*
X114326256Y-71285000D01*
X114759418Y-71198839D01*
X115250625Y-70870625D01*
X115450000Y-70572239D01*
X115649375Y-70870625D01*
X116140582Y-71198839D01*
X116573744Y-71285000D01*
X116866256Y-71285000D01*
X117299418Y-71198839D01*
X117790625Y-70870625D01*
X118118839Y-70379418D01*
X118234092Y-69800000D01*
X118118839Y-69220582D01*
X117790625Y-68729375D01*
X117299418Y-68401161D01*
X116866256Y-68315000D01*
X116573744Y-68315000D01*
X116140582Y-68401161D01*
X115649375Y-68729375D01*
X115450000Y-69027761D01*
X115250625Y-68729375D01*
X114759418Y-68401161D01*
X114326256Y-68315000D01*
X114033744Y-68315000D01*
X113600582Y-68401161D01*
X113109375Y-68729375D01*
X112910000Y-69027761D01*
X112710625Y-68729375D01*
X112219418Y-68401161D01*
X111786256Y-68315000D01*
X111493744Y-68315000D01*
X111060582Y-68401161D01*
X110569375Y-68729375D01*
X110554904Y-68751033D01*
X110488327Y-68590302D01*
X110309699Y-68411673D01*
X110076310Y-68315000D01*
X109426543Y-68315000D01*
X109656543Y-68085000D01*
X113562839Y-68085000D01*
X113650000Y-68102337D01*
X113737161Y-68085000D01*
X113737165Y-68085000D01*
X113995310Y-68033652D01*
X114288049Y-67838049D01*
X114337425Y-67764153D01*
X116764156Y-65337423D01*
X116838049Y-65288049D01*
X116939749Y-65135846D01*
X117033652Y-64995310D01*
X117033775Y-64994690D01*
X117073959Y-64792674D01*
X117297765Y-64748157D01*
X117507809Y-64607809D01*
X117648157Y-64397765D01*
X117697440Y-64150000D01*
X117697440Y-62450000D01*
X117648157Y-62202235D01*
X117507809Y-61992191D01*
X117297765Y-61851843D01*
X117050000Y-61802560D01*
X115350000Y-61802560D01*
X115102235Y-61851843D01*
X114892191Y-61992191D01*
X114751843Y-62202235D01*
X114742816Y-62247619D01*
X114730625Y-62229375D01*
X114239418Y-61901161D01*
X113806256Y-61815000D01*
X113513744Y-61815000D01*
X113080582Y-61901161D01*
X112589375Y-62229375D01*
X112390000Y-62527761D01*
X112190625Y-62229375D01*
X111699418Y-61901161D01*
X111266256Y-61815000D01*
X110973744Y-61815000D01*
X110540582Y-61901161D01*
X110049375Y-62229375D01*
X109850000Y-62527761D01*
X109650625Y-62229375D01*
X109159418Y-61901161D01*
X108726256Y-61815000D01*
X108433744Y-61815000D01*
X108000582Y-61901161D01*
X107509375Y-62229375D01*
X107181161Y-62720582D01*
X107065908Y-63300000D01*
X107109462Y-63518960D01*
X104835845Y-65792577D01*
X104761952Y-65841951D01*
X104712578Y-65915844D01*
X104712576Y-65915846D01*
X104566348Y-66134691D01*
X104497663Y-66480000D01*
X104515001Y-66567165D01*
X104515000Y-71492736D01*
X104497663Y-71579897D01*
X104515000Y-71667058D01*
X104515000Y-71667061D01*
X104566348Y-71925206D01*
X104761951Y-72217946D01*
X104835847Y-72267322D01*
X105709869Y-73141344D01*
X105658342Y-73120001D01*
X105051660Y-73120001D01*
X104491158Y-73352168D01*
X104062168Y-73781158D01*
X103830001Y-74341660D01*
X103830001Y-74948342D01*
X104062168Y-75508844D01*
X104334704Y-75781380D01*
X104307236Y-75786844D01*
X104097192Y-75927192D01*
X103956844Y-76137236D01*
X103907561Y-76385001D01*
X103907561Y-77985001D01*
X103956844Y-78232766D01*
X104097192Y-78442810D01*
X104307236Y-78583158D01*
X104441107Y-78609786D01*
X104320424Y-78690424D01*
X104003261Y-79165092D01*
X103891888Y-79725001D01*
X104003261Y-80284910D01*
X104320424Y-80759578D01*
X104672759Y-80995001D01*
X104320424Y-81230424D01*
X104003261Y-81705092D01*
X103891888Y-82265001D01*
X104003261Y-82824910D01*
X104320424Y-83299578D01*
X104704109Y-83555948D01*
X104499867Y-83652612D01*
X104123960Y-84067578D01*
X103963097Y-84455962D01*
X104085086Y-84678001D01*
X105228001Y-84678001D01*
X105228001Y-84658001D01*
X105482001Y-84658001D01*
X105482001Y-84678001D01*
X106624916Y-84678001D01*
X106746905Y-84455962D01*
X106586042Y-84067578D01*
X106210135Y-83652612D01*
X106005893Y-83555948D01*
X106389578Y-83299578D01*
X106706741Y-82824910D01*
X106818114Y-82265001D01*
X106706741Y-81705092D01*
X106389578Y-81230424D01*
X106037243Y-80995001D01*
X106389578Y-80759578D01*
X106706741Y-80284910D01*
X106818114Y-79725001D01*
X106706741Y-79165092D01*
X106389578Y-78690424D01*
X106268895Y-78609786D01*
X106402766Y-78583158D01*
X106612810Y-78442810D01*
X106753158Y-78232766D01*
X106802441Y-77985001D01*
X106802441Y-76385001D01*
X106753158Y-76137236D01*
X106612810Y-75927192D01*
X106402766Y-75786844D01*
X106375298Y-75781380D01*
X106647834Y-75508844D01*
X106880001Y-74948342D01*
X106880001Y-74341660D01*
X106858658Y-74290133D01*
X110015001Y-77446477D01*
X110015000Y-86434413D01*
X109902235Y-86456843D01*
X109692191Y-86597191D01*
X109551843Y-86807235D01*
X109502560Y-87055000D01*
X109502560Y-87655000D01*
X109551843Y-87902765D01*
X109604768Y-87981972D01*
X109515000Y-88198690D01*
X109515000Y-88339250D01*
X109673750Y-88498000D01*
X110773000Y-88498000D01*
X110773000Y-88478000D01*
X111027000Y-88478000D01*
X111027000Y-88498000D01*
X111047000Y-88498000D01*
X111047000Y-88752000D01*
X111027000Y-88752000D01*
X111027000Y-89768000D01*
X111047000Y-89768000D01*
X111047000Y-90022000D01*
X111027000Y-90022000D01*
X111027000Y-90042000D01*
X110773000Y-90042000D01*
X110773000Y-90022000D01*
X109673750Y-90022000D01*
X109515000Y-90180750D01*
X109515000Y-90321310D01*
X109604768Y-90538028D01*
X109551843Y-90617235D01*
X109502560Y-90865000D01*
X109502560Y-91465000D01*
X109551843Y-91712765D01*
X109610132Y-91800000D01*
X109551843Y-91887235D01*
X109502560Y-92135000D01*
X109502560Y-92735000D01*
X109551843Y-92982765D01*
X109604768Y-93061972D01*
X109515000Y-93278690D01*
X109515000Y-93419250D01*
X109673750Y-93578000D01*
X110773000Y-93578000D01*
X110773000Y-93558000D01*
X111027000Y-93558000D01*
X111027000Y-93578000D01*
X112126250Y-93578000D01*
X112285000Y-93419250D01*
X112285000Y-93278690D01*
X112195232Y-93061972D01*
X112248157Y-92982765D01*
X112296412Y-92740166D01*
X112915000Y-92121578D01*
X112915000Y-93428421D01*
X112285000Y-94058421D01*
X112285000Y-93990750D01*
X112126250Y-93832000D01*
X111027000Y-93832000D01*
X111027000Y-94848000D01*
X111047000Y-94848000D01*
X111047000Y-95102000D01*
X111027000Y-95102000D01*
X111027000Y-95122000D01*
X110773000Y-95122000D01*
X110773000Y-95102000D01*
X109673750Y-95102000D01*
X109515000Y-95260750D01*
X109515000Y-95401310D01*
X109604768Y-95618028D01*
X109551843Y-95697235D01*
X109502560Y-95945000D01*
X109502560Y-96545000D01*
X109551843Y-96792765D01*
X109692191Y-97002809D01*
X109902235Y-97143157D01*
X110150000Y-97192440D01*
X111650000Y-97192440D01*
X111897765Y-97143157D01*
X112107809Y-97002809D01*
X112248157Y-96792765D01*
X112296412Y-96550166D01*
X114165000Y-94681579D01*
X114165000Y-95357839D01*
X114147663Y-95445000D01*
X114165000Y-95532161D01*
X114165000Y-95532164D01*
X114216348Y-95790309D01*
X114411951Y-96083049D01*
X114485847Y-96132425D01*
X114903588Y-96550166D01*
X114951843Y-96792765D01*
X115092191Y-97002809D01*
X115302235Y-97143157D01*
X115415000Y-97165587D01*
X115415001Y-97599440D01*
X115181565Y-97645874D01*
X114890414Y-97840414D01*
X114695874Y-98131565D01*
X114627560Y-98475000D01*
X114627560Y-99725000D01*
X114695874Y-100068435D01*
X114890414Y-100359586D01*
X115181565Y-100554126D01*
X115525000Y-100622440D01*
X116450000Y-100622440D01*
X116793435Y-100554126D01*
X117040001Y-100389377D01*
X117040001Y-102255148D01*
X117025112Y-102330000D01*
X117040001Y-102404852D01*
X117084097Y-102626537D01*
X117252072Y-102877929D01*
X117315528Y-102920329D01*
X119196313Y-104801115D01*
X119131888Y-105125001D01*
X119243261Y-105684910D01*
X119560424Y-106159578D01*
X119912759Y-106395001D01*
X119560424Y-106630424D01*
X119243261Y-107105092D01*
X119131888Y-107665001D01*
X119243261Y-108224910D01*
X119560424Y-108699578D01*
X119912759Y-108935001D01*
X119560424Y-109170424D01*
X119243261Y-109645092D01*
X119131888Y-110205001D01*
X119243261Y-110764910D01*
X119560424Y-111239578D01*
X119912759Y-111475001D01*
X119560424Y-111710424D01*
X119243261Y-112185092D01*
X119131888Y-112745001D01*
X119243261Y-113304910D01*
X119560424Y-113779578D01*
X119822169Y-113954470D01*
X119731158Y-113992168D01*
X119302168Y-114421158D01*
X119070001Y-114981660D01*
X119070001Y-115588342D01*
X119236373Y-115990000D01*
X106713629Y-115990000D01*
X106880001Y-115588342D01*
X106880001Y-114981660D01*
X106647834Y-114421158D01*
X106218844Y-113992168D01*
X106127833Y-113954470D01*
X106389578Y-113779578D01*
X106706741Y-113304910D01*
X106818114Y-112745001D01*
X106706741Y-112185092D01*
X106389578Y-111710424D01*
X106037243Y-111475001D01*
X106389578Y-111239578D01*
X106706741Y-110764910D01*
X106818114Y-110205001D01*
X106706741Y-109645092D01*
X106389578Y-109170424D01*
X106037243Y-108935001D01*
X106389578Y-108699578D01*
X106706741Y-108224910D01*
X106818114Y-107665001D01*
X106706741Y-107105092D01*
X106389578Y-106630424D01*
X106037243Y-106395001D01*
X106389578Y-106159578D01*
X106706741Y-105684910D01*
X106818114Y-105125001D01*
X106706741Y-104565092D01*
X106389578Y-104090424D01*
X106037243Y-103855001D01*
X106389578Y-103619578D01*
X106706741Y-103144910D01*
X106818114Y-102585001D01*
X106706741Y-102025092D01*
X106389578Y-101550424D01*
X106037243Y-101315001D01*
X106389578Y-101079578D01*
X106706741Y-100604910D01*
X106818114Y-100045001D01*
X106735424Y-99629286D01*
X109170000Y-99629286D01*
X109170000Y-115770715D01*
X112990000Y-115770715D01*
X112990000Y-112870715D01*
X116090000Y-112870715D01*
X116090000Y-102729286D01*
X112990000Y-102729286D01*
X112990000Y-99629286D01*
X112885500Y-99629286D01*
X112885500Y-99227000D01*
X113139500Y-99227000D01*
X113139500Y-100451250D01*
X113298250Y-100610000D01*
X113851309Y-100610000D01*
X114084698Y-100513327D01*
X114263327Y-100334699D01*
X114360000Y-100101310D01*
X114360000Y-99385750D01*
X114201250Y-99227000D01*
X113139500Y-99227000D01*
X112885500Y-99227000D01*
X111823750Y-99227000D01*
X111665000Y-99385750D01*
X111665000Y-99629286D01*
X109170000Y-99629286D01*
X106735424Y-99629286D01*
X106706741Y-99485092D01*
X106389578Y-99010424D01*
X106037243Y-98775001D01*
X106389578Y-98539578D01*
X106684169Y-98098690D01*
X111665000Y-98098690D01*
X111665000Y-98814250D01*
X111823750Y-98973000D01*
X112885500Y-98973000D01*
X112885500Y-97748750D01*
X113139500Y-97748750D01*
X113139500Y-98973000D01*
X114201250Y-98973000D01*
X114360000Y-98814250D01*
X114360000Y-98098690D01*
X114263327Y-97865301D01*
X114084698Y-97686673D01*
X113851309Y-97590000D01*
X113298250Y-97590000D01*
X113139500Y-97748750D01*
X112885500Y-97748750D01*
X112726750Y-97590000D01*
X112173691Y-97590000D01*
X111940302Y-97686673D01*
X111761673Y-97865301D01*
X111665000Y-98098690D01*
X106684169Y-98098690D01*
X106706741Y-98064910D01*
X106818114Y-97505001D01*
X106706741Y-96945092D01*
X106389578Y-96470424D01*
X106037243Y-96235001D01*
X106389578Y-95999578D01*
X106706741Y-95524910D01*
X106818114Y-94965001D01*
X106706741Y-94405092D01*
X106429887Y-93990750D01*
X109515000Y-93990750D01*
X109515000Y-94131310D01*
X109601442Y-94340000D01*
X109515000Y-94548690D01*
X109515000Y-94689250D01*
X109673750Y-94848000D01*
X110773000Y-94848000D01*
X110773000Y-93832000D01*
X109673750Y-93832000D01*
X109515000Y-93990750D01*
X106429887Y-93990750D01*
X106389578Y-93930424D01*
X106037243Y-93695001D01*
X106389578Y-93459578D01*
X106706741Y-92984910D01*
X106818114Y-92425001D01*
X106706741Y-91865092D01*
X106389578Y-91390424D01*
X106037243Y-91155001D01*
X106389578Y-90919578D01*
X106706741Y-90444910D01*
X106818114Y-89885001D01*
X106706741Y-89325092D01*
X106429887Y-88910750D01*
X109515000Y-88910750D01*
X109515000Y-89051310D01*
X109601442Y-89260000D01*
X109515000Y-89468690D01*
X109515000Y-89609250D01*
X109673750Y-89768000D01*
X110773000Y-89768000D01*
X110773000Y-88752000D01*
X109673750Y-88752000D01*
X109515000Y-88910750D01*
X106429887Y-88910750D01*
X106389578Y-88850424D01*
X106037243Y-88615001D01*
X106389578Y-88379578D01*
X106706741Y-87904910D01*
X106818114Y-87345001D01*
X106706741Y-86785092D01*
X106389578Y-86310424D01*
X106005893Y-86054054D01*
X106210135Y-85957390D01*
X106586042Y-85542424D01*
X106746905Y-85154040D01*
X106624916Y-84932001D01*
X105482001Y-84932001D01*
X105482001Y-84952001D01*
X105228001Y-84952001D01*
X105228001Y-84932001D01*
X104085086Y-84932001D01*
X103963097Y-85154040D01*
X104123960Y-85542424D01*
X104499867Y-85957390D01*
X104704109Y-86054054D01*
X104320424Y-86310424D01*
X104003261Y-86785092D01*
X103989855Y-86852489D01*
X97486414Y-80349048D01*
X97780116Y-80055346D01*
X98010000Y-79500358D01*
X98010000Y-79342950D01*
X98035524Y-79368474D01*
X98654833Y-79625000D01*
X99325167Y-79625000D01*
X99944476Y-79368474D01*
X100418474Y-78894476D01*
X100675000Y-78275167D01*
X100675000Y-77604833D01*
X100418474Y-76985524D01*
X99944476Y-76511526D01*
X99325167Y-76255000D01*
X98654833Y-76255000D01*
X98035524Y-76511526D01*
X97561526Y-76985524D01*
X97305000Y-77604833D01*
X97305000Y-77899030D01*
X96800358Y-77690000D01*
X96199642Y-77690000D01*
X95644654Y-77919884D01*
X95219884Y-78344654D01*
X95210000Y-78368516D01*
X95210000Y-68040000D01*
X95985908Y-68040000D01*
X96101161Y-68619418D01*
X96429375Y-69110625D01*
X96920582Y-69438839D01*
X97353744Y-69525000D01*
X97646256Y-69525000D01*
X98079418Y-69438839D01*
X98570625Y-69110625D01*
X98898839Y-68619418D01*
X99014092Y-68040000D01*
X100485908Y-68040000D01*
X100601161Y-68619418D01*
X100929375Y-69110625D01*
X101420582Y-69438839D01*
X101853744Y-69525000D01*
X102146256Y-69525000D01*
X102579418Y-69438839D01*
X103070625Y-69110625D01*
X103398839Y-68619418D01*
X103514092Y-68040000D01*
X103398839Y-67460582D01*
X103070625Y-66969375D01*
X103048967Y-66954904D01*
X103209698Y-66888327D01*
X103388327Y-66709699D01*
X103485000Y-66476310D01*
X103485000Y-65785750D01*
X103326250Y-65627000D01*
X102127000Y-65627000D01*
X102127000Y-65647000D01*
X101873000Y-65647000D01*
X101873000Y-65627000D01*
X100673750Y-65627000D01*
X100515000Y-65785750D01*
X100515000Y-66476310D01*
X100611673Y-66709699D01*
X100790302Y-66888327D01*
X100951033Y-66954904D01*
X100929375Y-66969375D01*
X100601161Y-67460582D01*
X100485908Y-68040000D01*
X99014092Y-68040000D01*
X98898839Y-67460582D01*
X98570625Y-66969375D01*
X98548967Y-66954904D01*
X98709698Y-66888327D01*
X98888327Y-66709699D01*
X98985000Y-66476310D01*
X98985000Y-65785750D01*
X98826250Y-65627000D01*
X97627000Y-65627000D01*
X97627000Y-65647000D01*
X97373000Y-65647000D01*
X97373000Y-65627000D01*
X96173750Y-65627000D01*
X96015000Y-65785750D01*
X96015000Y-66476310D01*
X96111673Y-66709699D01*
X96290302Y-66888327D01*
X96451033Y-66954904D01*
X96429375Y-66969375D01*
X96101161Y-67460582D01*
X95985908Y-68040000D01*
X95210000Y-68040000D01*
X95210000Y-64523690D01*
X96015000Y-64523690D01*
X96015000Y-65214250D01*
X96173750Y-65373000D01*
X97373000Y-65373000D01*
X97373000Y-64173750D01*
X97627000Y-64173750D01*
X97627000Y-65373000D01*
X98826250Y-65373000D01*
X98985000Y-65214250D01*
X98985000Y-64523690D01*
X100515000Y-64523690D01*
X100515000Y-65214250D01*
X100673750Y-65373000D01*
X101873000Y-65373000D01*
X101873000Y-64173750D01*
X102127000Y-64173750D01*
X102127000Y-65373000D01*
X103326250Y-65373000D01*
X103485000Y-65214250D01*
X103485000Y-64523690D01*
X103388327Y-64290301D01*
X103209698Y-64111673D01*
X102976309Y-64015000D01*
X102285750Y-64015000D01*
X102127000Y-64173750D01*
X101873000Y-64173750D01*
X101714250Y-64015000D01*
X101023691Y-64015000D01*
X100790302Y-64111673D01*
X100611673Y-64290301D01*
X100515000Y-64523690D01*
X98985000Y-64523690D01*
X98888327Y-64290301D01*
X98709698Y-64111673D01*
X98476309Y-64015000D01*
X97785750Y-64015000D01*
X97627000Y-64173750D01*
X97373000Y-64173750D01*
X97214250Y-64015000D01*
X96523691Y-64015000D01*
X96290302Y-64111673D01*
X96111673Y-64290301D01*
X96015000Y-64523690D01*
X95210000Y-64523690D01*
X95210000Y-61710000D01*
X123290001Y-61710000D01*
X123290000Y-115990000D01*
G36*
X103891888Y-97505001D02*
X103956313Y-97828888D01*
X103745528Y-98039673D01*
X103682072Y-98082073D01*
X103639672Y-98145529D01*
X103639671Y-98145530D01*
X103514097Y-98333465D01*
X103455112Y-98630002D01*
X103470001Y-98704854D01*
X103470000Y-104420200D01*
X100560879Y-107329321D01*
X100418474Y-106985524D01*
X99944476Y-106511526D01*
X99783868Y-106445000D01*
X99944476Y-106378474D01*
X100418474Y-105904476D01*
X100675000Y-105285167D01*
X100675000Y-104614833D01*
X100418474Y-103995524D01*
X99944476Y-103521526D01*
X99325167Y-103265000D01*
X98654833Y-103265000D01*
X98035524Y-103521526D01*
X98005006Y-103552044D01*
X97995579Y-103334542D01*
X97815953Y-102900884D01*
X97562060Y-102817545D01*
X96679605Y-103700000D01*
X96693748Y-103714143D01*
X96514143Y-103893748D01*
X96500000Y-103879605D01*
X95617545Y-104762060D01*
X95700884Y-105015953D01*
X96265306Y-105221590D01*
X96865458Y-105195579D01*
X97299116Y-105015953D01*
X97305000Y-104998027D01*
X97305000Y-105285167D01*
X97561526Y-105904476D01*
X98035524Y-106378474D01*
X98196132Y-106445000D01*
X98035524Y-106511526D01*
X97561526Y-106985524D01*
X97305000Y-107604833D01*
X97305000Y-107899030D01*
X96800358Y-107690000D01*
X96199642Y-107690000D01*
X95644654Y-107919884D01*
X95219884Y-108344654D01*
X95210000Y-108368516D01*
X95210000Y-104507635D01*
X95437940Y-104582455D01*
X96320395Y-103700000D01*
X95437940Y-102817545D01*
X95210000Y-102892365D01*
X95210000Y-102637940D01*
X95617545Y-102637940D01*
X96500000Y-103520395D01*
X97382455Y-102637940D01*
X97299116Y-102384047D01*
X96734694Y-102178410D01*
X96134542Y-102204421D01*
X95700884Y-102384047D01*
X95617545Y-102637940D01*
X95210000Y-102637940D01*
X95210000Y-100031484D01*
X95219884Y-100055346D01*
X95644654Y-100480116D01*
X96199642Y-100710000D01*
X96800358Y-100710000D01*
X97355346Y-100480116D01*
X97763302Y-100072160D01*
X97777585Y-100075001D01*
X97777590Y-100075001D01*
X97852437Y-100089889D01*
X97927284Y-100075001D01*
X100930154Y-100075001D01*
X101005001Y-100089889D01*
X101079848Y-100075001D01*
X101079853Y-100075001D01*
X101301538Y-100030905D01*
X101552930Y-99862930D01*
X101595332Y-99799471D01*
X103892406Y-97502398D01*
X103891888Y-97505001D01*
X103891888Y-97505001D01*
G37*
X103891888Y-97505001D02*
X103956313Y-97828888D01*
X103745528Y-98039673D01*
X103682072Y-98082073D01*
X103639672Y-98145529D01*
X103639671Y-98145530D01*
X103514097Y-98333465D01*
X103455112Y-98630002D01*
X103470001Y-98704854D01*
X103470000Y-104420200D01*
X100560879Y-107329321D01*
X100418474Y-106985524D01*
X99944476Y-106511526D01*
X99783868Y-106445000D01*
X99944476Y-106378474D01*
X100418474Y-105904476D01*
X100675000Y-105285167D01*
X100675000Y-104614833D01*
X100418474Y-103995524D01*
X99944476Y-103521526D01*
X99325167Y-103265000D01*
X98654833Y-103265000D01*
X98035524Y-103521526D01*
X98005006Y-103552044D01*
X97995579Y-103334542D01*
X97815953Y-102900884D01*
X97562060Y-102817545D01*
X96679605Y-103700000D01*
X96693748Y-103714143D01*
X96514143Y-103893748D01*
X96500000Y-103879605D01*
X95617545Y-104762060D01*
X95700884Y-105015953D01*
X96265306Y-105221590D01*
X96865458Y-105195579D01*
X97299116Y-105015953D01*
X97305000Y-104998027D01*
X97305000Y-105285167D01*
X97561526Y-105904476D01*
X98035524Y-106378474D01*
X98196132Y-106445000D01*
X98035524Y-106511526D01*
X97561526Y-106985524D01*
X97305000Y-107604833D01*
X97305000Y-107899030D01*
X96800358Y-107690000D01*
X96199642Y-107690000D01*
X95644654Y-107919884D01*
X95219884Y-108344654D01*
X95210000Y-108368516D01*
X95210000Y-104507635D01*
X95437940Y-104582455D01*
X96320395Y-103700000D01*
X95437940Y-102817545D01*
X95210000Y-102892365D01*
X95210000Y-102637940D01*
X95617545Y-102637940D01*
X96500000Y-103520395D01*
X97382455Y-102637940D01*
X97299116Y-102384047D01*
X96734694Y-102178410D01*
X96134542Y-102204421D01*
X95700884Y-102384047D01*
X95617545Y-102637940D01*
X95210000Y-102637940D01*
X95210000Y-100031484D01*
X95219884Y-100055346D01*
X95644654Y-100480116D01*
X96199642Y-100710000D01*
X96800358Y-100710000D01*
X97355346Y-100480116D01*
X97763302Y-100072160D01*
X97777585Y-100075001D01*
X97777590Y-100075001D01*
X97852437Y-100089889D01*
X97927284Y-100075001D01*
X100930154Y-100075001D01*
X101005001Y-100089889D01*
X101079848Y-100075001D01*
X101079853Y-100075001D01*
X101301538Y-100030905D01*
X101552930Y-99862930D01*
X101595332Y-99799471D01*
X103892406Y-97502398D01*
X103891888Y-97505001D01*
G36*
X95229884Y-90055346D02*
X95654654Y-90480116D01*
X96209642Y-90710000D01*
X96810358Y-90710000D01*
X96905705Y-90670506D01*
X99144672Y-92909474D01*
X99187072Y-92972930D01*
X99438464Y-93140905D01*
X99660149Y-93185001D01*
X99660153Y-93185001D01*
X99735000Y-93199889D01*
X99809847Y-93185001D01*
X104136958Y-93185001D01*
X104320424Y-93459578D01*
X104672759Y-93695001D01*
X104320424Y-93930424D01*
X104003261Y-94405092D01*
X103891888Y-94965001D01*
X103956313Y-95288887D01*
X100690200Y-98555001D01*
X100559089Y-98555001D01*
X100675000Y-98275167D01*
X100675000Y-97604833D01*
X100418474Y-96985524D01*
X99944476Y-96511526D01*
X99788868Y-96447071D01*
X99954476Y-96378474D01*
X100428474Y-95904476D01*
X100685000Y-95285167D01*
X100685000Y-94614833D01*
X100428474Y-93995524D01*
X99954476Y-93521526D01*
X99335167Y-93265000D01*
X98664833Y-93265000D01*
X98045524Y-93521526D01*
X98015006Y-93552044D01*
X98005579Y-93334542D01*
X97825953Y-92900884D01*
X97572060Y-92817545D01*
X96689605Y-93700000D01*
X96703748Y-93714143D01*
X96524143Y-93893748D01*
X96510000Y-93879605D01*
X95627545Y-94762060D01*
X95710884Y-95015953D01*
X96275306Y-95221590D01*
X96875458Y-95195579D01*
X97309116Y-95015953D01*
X97315000Y-94998027D01*
X97315000Y-95285167D01*
X97571526Y-95904476D01*
X98045524Y-96378474D01*
X98201132Y-96442929D01*
X98035524Y-96511526D01*
X97561526Y-96985524D01*
X97305000Y-97604833D01*
X97305000Y-97899030D01*
X96800358Y-97690000D01*
X96199642Y-97690000D01*
X95644654Y-97919884D01*
X95219884Y-98344654D01*
X95210000Y-98368516D01*
X95210000Y-94504352D01*
X95447940Y-94582455D01*
X96330395Y-93700000D01*
X95447940Y-92817545D01*
X95210000Y-92895648D01*
X95210000Y-92637940D01*
X95627545Y-92637940D01*
X96510000Y-93520395D01*
X97392455Y-92637940D01*
X97309116Y-92384047D01*
X96744694Y-92178410D01*
X96144542Y-92204421D01*
X95710884Y-92384047D01*
X95627545Y-92637940D01*
X95210000Y-92637940D01*
X95210000Y-90007342D01*
X95229884Y-90055346D01*
X95229884Y-90055346D01*
G37*
X95229884Y-90055346D02*
X95654654Y-90480116D01*
X96209642Y-90710000D01*
X96810358Y-90710000D01*
X96905705Y-90670506D01*
X99144672Y-92909474D01*
X99187072Y-92972930D01*
X99438464Y-93140905D01*
X99660149Y-93185001D01*
X99660153Y-93185001D01*
X99735000Y-93199889D01*
X99809847Y-93185001D01*
X104136958Y-93185001D01*
X104320424Y-93459578D01*
X104672759Y-93695001D01*
X104320424Y-93930424D01*
X104003261Y-94405092D01*
X103891888Y-94965001D01*
X103956313Y-95288887D01*
X100690200Y-98555001D01*
X100559089Y-98555001D01*
X100675000Y-98275167D01*
X100675000Y-97604833D01*
X100418474Y-96985524D01*
X99944476Y-96511526D01*
X99788868Y-96447071D01*
X99954476Y-96378474D01*
X100428474Y-95904476D01*
X100685000Y-95285167D01*
X100685000Y-94614833D01*
X100428474Y-93995524D01*
X99954476Y-93521526D01*
X99335167Y-93265000D01*
X98664833Y-93265000D01*
X98045524Y-93521526D01*
X98015006Y-93552044D01*
X98005579Y-93334542D01*
X97825953Y-92900884D01*
X97572060Y-92817545D01*
X96689605Y-93700000D01*
X96703748Y-93714143D01*
X96524143Y-93893748D01*
X96510000Y-93879605D01*
X95627545Y-94762060D01*
X95710884Y-95015953D01*
X96275306Y-95221590D01*
X96875458Y-95195579D01*
X97309116Y-95015953D01*
X97315000Y-94998027D01*
X97315000Y-95285167D01*
X97571526Y-95904476D01*
X98045524Y-96378474D01*
X98201132Y-96442929D01*
X98035524Y-96511526D01*
X97561526Y-96985524D01*
X97305000Y-97604833D01*
X97305000Y-97899030D01*
X96800358Y-97690000D01*
X96199642Y-97690000D01*
X95644654Y-97919884D01*
X95219884Y-98344654D01*
X95210000Y-98368516D01*
X95210000Y-94504352D01*
X95447940Y-94582455D01*
X96330395Y-93700000D01*
X95447940Y-92817545D01*
X95210000Y-92895648D01*
X95210000Y-92637940D01*
X95627545Y-92637940D01*
X96510000Y-93520395D01*
X97392455Y-92637940D01*
X97309116Y-92384047D01*
X96744694Y-92178410D01*
X96144542Y-92204421D01*
X95710884Y-92384047D01*
X95627545Y-92637940D01*
X95210000Y-92637940D01*
X95210000Y-90007342D01*
X95229884Y-90055346D01*
G36*
X95219884Y-80055346D02*
X95644654Y-80480116D01*
X95741588Y-80520268D01*
X95784097Y-80733973D01*
X95903894Y-80913261D01*
X95952072Y-80985365D01*
X96015528Y-81027765D01*
X98370526Y-83382764D01*
X98035524Y-83521526D01*
X98005006Y-83552044D01*
X97995579Y-83334542D01*
X97815953Y-82900884D01*
X97562060Y-82817545D01*
X96679605Y-83700000D01*
X96693748Y-83714143D01*
X96514143Y-83893748D01*
X96500000Y-83879605D01*
X95617545Y-84762060D01*
X95700884Y-85015953D01*
X96265306Y-85221590D01*
X96865458Y-85195579D01*
X97299116Y-85015953D01*
X97305000Y-84998027D01*
X97305000Y-85285167D01*
X97561526Y-85904476D01*
X98035524Y-86378474D01*
X98201132Y-86447071D01*
X98045524Y-86511526D01*
X97571526Y-86985524D01*
X97315000Y-87604833D01*
X97315000Y-87899030D01*
X96810358Y-87690000D01*
X96209642Y-87690000D01*
X95654654Y-87919884D01*
X95229884Y-88344654D01*
X95210000Y-88392658D01*
X95210000Y-84507635D01*
X95437940Y-84582455D01*
X96320395Y-83700000D01*
X95437940Y-82817545D01*
X95210000Y-82892365D01*
X95210000Y-82637940D01*
X95617545Y-82637940D01*
X96500000Y-83520395D01*
X97382455Y-82637940D01*
X97299116Y-82384047D01*
X96734694Y-82178410D01*
X96134542Y-82204421D01*
X95700884Y-82384047D01*
X95617545Y-82637940D01*
X95210000Y-82637940D01*
X95210000Y-80031484D01*
X95219884Y-80055346D01*
X95219884Y-80055346D01*
G37*
X95219884Y-80055346D02*
X95644654Y-80480116D01*
X95741588Y-80520268D01*
X95784097Y-80733973D01*
X95903894Y-80913261D01*
X95952072Y-80985365D01*
X96015528Y-81027765D01*
X98370526Y-83382764D01*
X98035524Y-83521526D01*
X98005006Y-83552044D01*
X97995579Y-83334542D01*
X97815953Y-82900884D01*
X97562060Y-82817545D01*
X96679605Y-83700000D01*
X96693748Y-83714143D01*
X96514143Y-83893748D01*
X96500000Y-83879605D01*
X95617545Y-84762060D01*
X95700884Y-85015953D01*
X96265306Y-85221590D01*
X96865458Y-85195579D01*
X97299116Y-85015953D01*
X97305000Y-84998027D01*
X97305000Y-85285167D01*
X97561526Y-85904476D01*
X98035524Y-86378474D01*
X98201132Y-86447071D01*
X98045524Y-86511526D01*
X97571526Y-86985524D01*
X97315000Y-87604833D01*
X97315000Y-87899030D01*
X96810358Y-87690000D01*
X96209642Y-87690000D01*
X95654654Y-87919884D01*
X95229884Y-88344654D01*
X95210000Y-88392658D01*
X95210000Y-84507635D01*
X95437940Y-84582455D01*
X96320395Y-83700000D01*
X95437940Y-82817545D01*
X95210000Y-82892365D01*
X95210000Y-82637940D01*
X95617545Y-82637940D01*
X96500000Y-83520395D01*
X97382455Y-82637940D01*
X97299116Y-82384047D01*
X96734694Y-82178410D01*
X96134542Y-82204421D01*
X95700884Y-82384047D01*
X95617545Y-82637940D01*
X95210000Y-82637940D01*
X95210000Y-80031484D01*
X95219884Y-80055346D01*
G36*
X109227000Y-69673000D02*
X109247000Y-69673000D01*
X109247000Y-69927000D01*
X109227000Y-69927000D01*
X109227000Y-69947000D01*
X108973000Y-69947000D01*
X108973000Y-69927000D01*
X108953000Y-69927000D01*
X108953000Y-69673000D01*
X108973000Y-69673000D01*
X108973000Y-69653000D01*
X109227000Y-69653000D01*
X109227000Y-69673000D01*
X109227000Y-69673000D01*
G37*
X109227000Y-69673000D02*
X109247000Y-69673000D01*
X109247000Y-69927000D01*
X109227000Y-69927000D01*
X109227000Y-69947000D01*
X108973000Y-69947000D01*
X108973000Y-69927000D01*
X108953000Y-69927000D01*
X108953000Y-69673000D01*
X108973000Y-69673000D01*
X108973000Y-69653000D01*
X109227000Y-69653000D01*
X109227000Y-69673000D01*
G04 #@! TD*
M02*
