G04 #@! TF.GenerationSoftware,KiCad,Pcbnew,5.0.0-fee4fd1~66~ubuntu16.04.1*
G04 #@! TF.CreationDate,2018-08-28T18:05:40+02:00*
G04 #@! TF.ProjectId,shutter,736875747465722E6B696361645F7063,rev?*
G04 #@! TF.SameCoordinates,Original*
G04 #@! TF.FileFunction,Legend,Top*
G04 #@! TF.FilePolarity,Positive*
%FSLAX46Y46*%
G04 Gerber Fmt 4.6, Leading zero omitted, Abs format (unit mm)*
G04 Created by KiCad (PCBNEW 5.0.0-fee4fd1~66~ubuntu16.04.1) date Tue Aug 28 18:05:40 2018*
%MOMM*%
%LPD*%
G01*
G04 APERTURE LIST*
%ADD10C,0.120000*%
%ADD11C,0.150000*%
G04 APERTURE END LIST*
D10*
G04 #@! TO.C,SW1*
X97270000Y-79890000D02*
X97500000Y-79890000D01*
X93600000Y-80410000D02*
X93600000Y-72690000D01*
X93600000Y-72690000D02*
X97500000Y-72690000D01*
X100610000Y-80410000D02*
X100610000Y-79890000D01*
X93600000Y-80410000D02*
X97500000Y-80410000D01*
X97270000Y-73210000D02*
X97500000Y-73210000D01*
X100100000Y-79890000D02*
X100610000Y-79890000D01*
X100100000Y-80410000D02*
X100610000Y-80410000D01*
X97270000Y-73750000D02*
X97270000Y-73210000D01*
X100100000Y-73210000D02*
X100610000Y-73210000D01*
X100610000Y-73210000D02*
X100610000Y-72690000D01*
X100100000Y-72690000D02*
X100610000Y-72690000D01*
X97270000Y-79890000D02*
X97270000Y-79350000D01*
X97270000Y-78250000D02*
X97270000Y-74850000D01*
G04 #@! TO.C,U1*
X107770000Y-71130000D02*
X107770000Y-69800000D01*
X109100000Y-71130000D02*
X107770000Y-71130000D01*
X110370000Y-71130000D02*
X110370000Y-68470000D01*
X110370000Y-68470000D02*
X118050000Y-68470000D01*
X110370000Y-71130000D02*
X118050000Y-71130000D01*
X118050000Y-71130000D02*
X118050000Y-68470000D01*
G04 #@! TO.C,A1*
X106625001Y-78455001D02*
X106625001Y-75915001D01*
X106625001Y-75915001D02*
X103955001Y-75915001D01*
X103955001Y-78455001D02*
X103955001Y-116685001D01*
X103955001Y-73245001D02*
X103955001Y-75915001D01*
X119325001Y-75915001D02*
X121995001Y-75915001D01*
X119325001Y-75915001D02*
X119325001Y-114015001D01*
X119325001Y-114015001D02*
X121995001Y-114015001D01*
X106625001Y-78455001D02*
X103955001Y-78455001D01*
X106625001Y-78455001D02*
X106625001Y-114015001D01*
X106625001Y-114015001D02*
X103955001Y-114015001D01*
X103955001Y-116685001D02*
X121995001Y-116685001D01*
X121995001Y-116685001D02*
X121995001Y-73245001D01*
X121995001Y-73245001D02*
X103955001Y-73245001D01*
G04 #@! TO.C,J1*
X102290000Y-61690000D02*
X102290000Y-65710000D01*
X102290000Y-65710000D02*
X117510000Y-65710000D01*
X117510000Y-65710000D02*
X117510000Y-61690000D01*
X117510000Y-61690000D02*
X102290000Y-61690000D01*
X102290000Y-63400000D02*
X102790000Y-63400000D01*
X102790000Y-63400000D02*
X102790000Y-62190000D01*
X102790000Y-62190000D02*
X117010000Y-62190000D01*
X117010000Y-62190000D02*
X117010000Y-63400000D01*
X117010000Y-63400000D02*
X117510000Y-63400000D01*
X102290000Y-64210000D02*
X103290000Y-64210000D01*
X103290000Y-64210000D02*
X103290000Y-65710000D01*
X117510000Y-64210000D02*
X116510000Y-64210000D01*
X116510000Y-64210000D02*
X116510000Y-65710000D01*
X101990000Y-63510000D02*
X101990000Y-66010000D01*
X101990000Y-66010000D02*
X104490000Y-66010000D01*
G04 #@! TO.C,SW2*
X97280000Y-88250000D02*
X97280000Y-84850000D01*
X97280000Y-89890000D02*
X97280000Y-89350000D01*
X100110000Y-82690000D02*
X100620000Y-82690000D01*
X100620000Y-83210000D02*
X100620000Y-82690000D01*
X100110000Y-83210000D02*
X100620000Y-83210000D01*
X97280000Y-83750000D02*
X97280000Y-83210000D01*
X100110000Y-90410000D02*
X100620000Y-90410000D01*
X100110000Y-89890000D02*
X100620000Y-89890000D01*
X97280000Y-83210000D02*
X97510000Y-83210000D01*
X93610000Y-90410000D02*
X97510000Y-90410000D01*
X100620000Y-90410000D02*
X100620000Y-89890000D01*
X93610000Y-82690000D02*
X97510000Y-82690000D01*
X93610000Y-90410000D02*
X93610000Y-82690000D01*
X97280000Y-89890000D02*
X97510000Y-89890000D01*
G04 #@! TO.C,SW3*
X97270000Y-99890000D02*
X97500000Y-99890000D01*
X93600000Y-100410000D02*
X93600000Y-92690000D01*
X93600000Y-92690000D02*
X97500000Y-92690000D01*
X100610000Y-100410000D02*
X100610000Y-99890000D01*
X93600000Y-100410000D02*
X97500000Y-100410000D01*
X97270000Y-93210000D02*
X97500000Y-93210000D01*
X100100000Y-99890000D02*
X100610000Y-99890000D01*
X100100000Y-100410000D02*
X100610000Y-100410000D01*
X97270000Y-93750000D02*
X97270000Y-93210000D01*
X100100000Y-93210000D02*
X100610000Y-93210000D01*
X100610000Y-93210000D02*
X100610000Y-92690000D01*
X100100000Y-92690000D02*
X100610000Y-92690000D01*
X97270000Y-99890000D02*
X97270000Y-99350000D01*
X97270000Y-98250000D02*
X97270000Y-94850000D01*
G04 #@! TO.C,SW4*
X97270000Y-108250000D02*
X97270000Y-104850000D01*
X97270000Y-109890000D02*
X97270000Y-109350000D01*
X100100000Y-102690000D02*
X100610000Y-102690000D01*
X100610000Y-103210000D02*
X100610000Y-102690000D01*
X100100000Y-103210000D02*
X100610000Y-103210000D01*
X97270000Y-103750000D02*
X97270000Y-103210000D01*
X100100000Y-110410000D02*
X100610000Y-110410000D01*
X100100000Y-109890000D02*
X100610000Y-109890000D01*
X97270000Y-103210000D02*
X97500000Y-103210000D01*
X93600000Y-110410000D02*
X97500000Y-110410000D01*
X100610000Y-110410000D02*
X100610000Y-109890000D01*
X93600000Y-102690000D02*
X97500000Y-102690000D01*
X93600000Y-110410000D02*
X93600000Y-102690000D01*
X97270000Y-109890000D02*
X97500000Y-109890000D01*
G04 #@! TO.C,SW1*
D11*
X98384761Y-77883333D02*
X98432380Y-77740476D01*
X98432380Y-77502380D01*
X98384761Y-77407142D01*
X98337142Y-77359523D01*
X98241904Y-77311904D01*
X98146666Y-77311904D01*
X98051428Y-77359523D01*
X98003809Y-77407142D01*
X97956190Y-77502380D01*
X97908571Y-77692857D01*
X97860952Y-77788095D01*
X97813333Y-77835714D01*
X97718095Y-77883333D01*
X97622857Y-77883333D01*
X97527619Y-77835714D01*
X97480000Y-77788095D01*
X97432380Y-77692857D01*
X97432380Y-77454761D01*
X97480000Y-77311904D01*
X97432380Y-76978571D02*
X98432380Y-76740476D01*
X97718095Y-76550000D01*
X98432380Y-76359523D01*
X97432380Y-76121428D01*
X98432380Y-75216666D02*
X98432380Y-75788095D01*
X98432380Y-75502380D02*
X97432380Y-75502380D01*
X97575238Y-75597619D01*
X97670476Y-75692857D01*
X97718095Y-75788095D01*
G04 #@! TO.C,U1*
X106222380Y-70561904D02*
X107031904Y-70561904D01*
X107127142Y-70514285D01*
X107174761Y-70466666D01*
X107222380Y-70371428D01*
X107222380Y-70180952D01*
X107174761Y-70085714D01*
X107127142Y-70038095D01*
X107031904Y-69990476D01*
X106222380Y-69990476D01*
X107222380Y-68990476D02*
X107222380Y-69561904D01*
X107222380Y-69276190D02*
X106222380Y-69276190D01*
X106365238Y-69371428D01*
X106460476Y-69466666D01*
X106508095Y-69561904D01*
G04 #@! TO.C,A1*
X112260715Y-72271667D02*
X112736905Y-72271667D01*
X112165477Y-72557381D02*
X112498810Y-71557381D01*
X112832143Y-72557381D01*
X113689286Y-72557381D02*
X113117858Y-72557381D01*
X113403572Y-72557381D02*
X113403572Y-71557381D01*
X113308334Y-71700239D01*
X113213096Y-71795477D01*
X113117858Y-71843096D01*
G04 #@! TO.C,J1*
X109566666Y-60052380D02*
X109566666Y-60766666D01*
X109519047Y-60909523D01*
X109423809Y-61004761D01*
X109280952Y-61052380D01*
X109185714Y-61052380D01*
X110566666Y-61052380D02*
X109995238Y-61052380D01*
X110280952Y-61052380D02*
X110280952Y-60052380D01*
X110185714Y-60195238D01*
X110090476Y-60290476D01*
X109995238Y-60338095D01*
G04 #@! TO.C,SW2*
X98394761Y-87883333D02*
X98442380Y-87740476D01*
X98442380Y-87502380D01*
X98394761Y-87407142D01*
X98347142Y-87359523D01*
X98251904Y-87311904D01*
X98156666Y-87311904D01*
X98061428Y-87359523D01*
X98013809Y-87407142D01*
X97966190Y-87502380D01*
X97918571Y-87692857D01*
X97870952Y-87788095D01*
X97823333Y-87835714D01*
X97728095Y-87883333D01*
X97632857Y-87883333D01*
X97537619Y-87835714D01*
X97490000Y-87788095D01*
X97442380Y-87692857D01*
X97442380Y-87454761D01*
X97490000Y-87311904D01*
X97442380Y-86978571D02*
X98442380Y-86740476D01*
X97728095Y-86550000D01*
X98442380Y-86359523D01*
X97442380Y-86121428D01*
X97537619Y-85788095D02*
X97490000Y-85740476D01*
X97442380Y-85645238D01*
X97442380Y-85407142D01*
X97490000Y-85311904D01*
X97537619Y-85264285D01*
X97632857Y-85216666D01*
X97728095Y-85216666D01*
X97870952Y-85264285D01*
X98442380Y-85835714D01*
X98442380Y-85216666D01*
G04 #@! TO.C,SW3*
X98384761Y-97883333D02*
X98432380Y-97740476D01*
X98432380Y-97502380D01*
X98384761Y-97407142D01*
X98337142Y-97359523D01*
X98241904Y-97311904D01*
X98146666Y-97311904D01*
X98051428Y-97359523D01*
X98003809Y-97407142D01*
X97956190Y-97502380D01*
X97908571Y-97692857D01*
X97860952Y-97788095D01*
X97813333Y-97835714D01*
X97718095Y-97883333D01*
X97622857Y-97883333D01*
X97527619Y-97835714D01*
X97480000Y-97788095D01*
X97432380Y-97692857D01*
X97432380Y-97454761D01*
X97480000Y-97311904D01*
X97432380Y-96978571D02*
X98432380Y-96740476D01*
X97718095Y-96550000D01*
X98432380Y-96359523D01*
X97432380Y-96121428D01*
X97432380Y-95835714D02*
X97432380Y-95216666D01*
X97813333Y-95550000D01*
X97813333Y-95407142D01*
X97860952Y-95311904D01*
X97908571Y-95264285D01*
X98003809Y-95216666D01*
X98241904Y-95216666D01*
X98337142Y-95264285D01*
X98384761Y-95311904D01*
X98432380Y-95407142D01*
X98432380Y-95692857D01*
X98384761Y-95788095D01*
X98337142Y-95835714D01*
G04 #@! TO.C,SW4*
X98384761Y-107883333D02*
X98432380Y-107740476D01*
X98432380Y-107502380D01*
X98384761Y-107407142D01*
X98337142Y-107359523D01*
X98241904Y-107311904D01*
X98146666Y-107311904D01*
X98051428Y-107359523D01*
X98003809Y-107407142D01*
X97956190Y-107502380D01*
X97908571Y-107692857D01*
X97860952Y-107788095D01*
X97813333Y-107835714D01*
X97718095Y-107883333D01*
X97622857Y-107883333D01*
X97527619Y-107835714D01*
X97480000Y-107788095D01*
X97432380Y-107692857D01*
X97432380Y-107454761D01*
X97480000Y-107311904D01*
X97432380Y-106978571D02*
X98432380Y-106740476D01*
X97718095Y-106550000D01*
X98432380Y-106359523D01*
X97432380Y-106121428D01*
X97765714Y-105311904D02*
X98432380Y-105311904D01*
X97384761Y-105550000D02*
X98099047Y-105788095D01*
X98099047Y-105169047D01*
G04 #@! TD*
M02*
