G04 #@! TF.GenerationSoftware,KiCad,Pcbnew,5.0.0-fee4fd1~66~ubuntu18.04.1*
G04 #@! TF.CreationDate,2018-09-26T23:31:27+02:00*
G04 #@! TF.ProjectId,esp8266_i2s,657370383236365F6932732E6B696361,rev?*
G04 #@! TF.SameCoordinates,Original*
G04 #@! TF.FileFunction,Profile,NP*
%FSLAX46Y46*%
G04 Gerber Fmt 4.6, Leading zero omitted, Abs format (unit mm)*
G04 Created by KiCad (PCBNEW 5.0.0-fee4fd1~66~ubuntu18.04.1) date Wed Sep 26 23:31:27 2018*
%MOMM*%
%LPD*%
G01*
G04 APERTURE LIST*
%ADD10C,0.100000*%
G04 APERTURE END LIST*
D10*
X83200000Y-60500000D02*
G75*
G03X83200000Y-60500000I-2000000J0D01*
G01*
X101500000Y-100000000D02*
G75*
G03X101500000Y-100000000I-2000000J0D01*
G01*
X63600000Y-100300000D02*
G75*
G03X63600000Y-100300000I-2000000J0D01*
G01*
X116600000Y-54000000D02*
X57600000Y-54000000D01*
X116800000Y-103800000D02*
X116600000Y-54000000D01*
X57600000Y-103800000D02*
X116800000Y-103800000D01*
X57600000Y-54000000D02*
X57600000Y-103800000D01*
M02*
