G04 #@! TF.GenerationSoftware,KiCad,Pcbnew,5.0.0-fee4fd1~66~ubuntu18.04.1*
G04 #@! TF.CreationDate,2018-09-26T23:31:27+02:00*
G04 #@! TF.ProjectId,esp8266_i2s,657370383236365F6932732E6B696361,rev?*
G04 #@! TF.SameCoordinates,Original*
G04 #@! TF.FileFunction,Soldermask,Bot*
G04 #@! TF.FilePolarity,Negative*
%FSLAX46Y46*%
G04 Gerber Fmt 4.6, Leading zero omitted, Abs format (unit mm)*
G04 Created by KiCad (PCBNEW 5.0.0-fee4fd1~66~ubuntu18.04.1) date Wed Sep 26 23:31:27 2018*
%MOMM*%
%LPD*%
G01*
G04 APERTURE LIST*
%ADD10O,3.500000X1.750000*%
%ADD11R,2.500000X3.500000*%
%ADD12R,1.500000X2.500000*%
%ADD13O,1.500000X2.500000*%
%ADD14O,2.200000X3.500000*%
%ADD15C,0.100000*%
%ADD16C,1.425000*%
%ADD17R,3.500000X1.800000*%
%ADD18C,1.150000*%
%ADD19R,1.700000X1.700000*%
%ADD20O,1.700000X1.700000*%
%ADD21R,2.450000X5.900000*%
%ADD22R,1.560000X0.650000*%
%ADD23R,0.650000X1.560000*%
%ADD24R,1.550000X0.600000*%
%ADD25R,1.200000X1.600000*%
%ADD26R,0.400000X1.350000*%
%ADD27C,0.700000*%
%ADD28C,1.524000*%
G04 APERTURE END LIST*
D10*
G04 #@! TO.C,J8*
X105790000Y-70300000D03*
X105790000Y-75300000D03*
X105790000Y-67800000D03*
X105790000Y-77800000D03*
D11*
X110796000Y-72800000D03*
G04 #@! TD*
G04 #@! TO.C,J9*
X110796000Y-60200000D03*
D10*
X105790000Y-65200000D03*
X105790000Y-55200000D03*
X105790000Y-62700000D03*
X105790000Y-57700000D03*
G04 #@! TD*
D12*
G04 #@! TO.C,SW1*
X90533000Y-101536974D03*
D13*
X88533000Y-101536974D03*
X86533000Y-101536974D03*
D14*
X92633000Y-101536974D03*
X84433000Y-101536974D03*
G04 #@! TD*
D15*
G04 #@! TO.C,C1*
G36*
X90532504Y-96063178D02*
X90556773Y-96066778D01*
X90580571Y-96072739D01*
X90603671Y-96081004D01*
X90625849Y-96091494D01*
X90646893Y-96104107D01*
X90666598Y-96118721D01*
X90684777Y-96135197D01*
X90701253Y-96153376D01*
X90715867Y-96173081D01*
X90728480Y-96194125D01*
X90738970Y-96216303D01*
X90747235Y-96239403D01*
X90753196Y-96263201D01*
X90756796Y-96287470D01*
X90758000Y-96311974D01*
X90758000Y-97561974D01*
X90756796Y-97586478D01*
X90753196Y-97610747D01*
X90747235Y-97634545D01*
X90738970Y-97657645D01*
X90728480Y-97679823D01*
X90715867Y-97700867D01*
X90701253Y-97720572D01*
X90684777Y-97738751D01*
X90666598Y-97755227D01*
X90646893Y-97769841D01*
X90625849Y-97782454D01*
X90603671Y-97792944D01*
X90580571Y-97801209D01*
X90556773Y-97807170D01*
X90532504Y-97810770D01*
X90508000Y-97811974D01*
X89583000Y-97811974D01*
X89558496Y-97810770D01*
X89534227Y-97807170D01*
X89510429Y-97801209D01*
X89487329Y-97792944D01*
X89465151Y-97782454D01*
X89444107Y-97769841D01*
X89424402Y-97755227D01*
X89406223Y-97738751D01*
X89389747Y-97720572D01*
X89375133Y-97700867D01*
X89362520Y-97679823D01*
X89352030Y-97657645D01*
X89343765Y-97634545D01*
X89337804Y-97610747D01*
X89334204Y-97586478D01*
X89333000Y-97561974D01*
X89333000Y-96311974D01*
X89334204Y-96287470D01*
X89337804Y-96263201D01*
X89343765Y-96239403D01*
X89352030Y-96216303D01*
X89362520Y-96194125D01*
X89375133Y-96173081D01*
X89389747Y-96153376D01*
X89406223Y-96135197D01*
X89424402Y-96118721D01*
X89444107Y-96104107D01*
X89465151Y-96091494D01*
X89487329Y-96081004D01*
X89510429Y-96072739D01*
X89534227Y-96066778D01*
X89558496Y-96063178D01*
X89583000Y-96061974D01*
X90508000Y-96061974D01*
X90532504Y-96063178D01*
X90532504Y-96063178D01*
G37*
D16*
X90045500Y-96936974D03*
D15*
G36*
X93507504Y-96063178D02*
X93531773Y-96066778D01*
X93555571Y-96072739D01*
X93578671Y-96081004D01*
X93600849Y-96091494D01*
X93621893Y-96104107D01*
X93641598Y-96118721D01*
X93659777Y-96135197D01*
X93676253Y-96153376D01*
X93690867Y-96173081D01*
X93703480Y-96194125D01*
X93713970Y-96216303D01*
X93722235Y-96239403D01*
X93728196Y-96263201D01*
X93731796Y-96287470D01*
X93733000Y-96311974D01*
X93733000Y-97561974D01*
X93731796Y-97586478D01*
X93728196Y-97610747D01*
X93722235Y-97634545D01*
X93713970Y-97657645D01*
X93703480Y-97679823D01*
X93690867Y-97700867D01*
X93676253Y-97720572D01*
X93659777Y-97738751D01*
X93641598Y-97755227D01*
X93621893Y-97769841D01*
X93600849Y-97782454D01*
X93578671Y-97792944D01*
X93555571Y-97801209D01*
X93531773Y-97807170D01*
X93507504Y-97810770D01*
X93483000Y-97811974D01*
X92558000Y-97811974D01*
X92533496Y-97810770D01*
X92509227Y-97807170D01*
X92485429Y-97801209D01*
X92462329Y-97792944D01*
X92440151Y-97782454D01*
X92419107Y-97769841D01*
X92399402Y-97755227D01*
X92381223Y-97738751D01*
X92364747Y-97720572D01*
X92350133Y-97700867D01*
X92337520Y-97679823D01*
X92327030Y-97657645D01*
X92318765Y-97634545D01*
X92312804Y-97610747D01*
X92309204Y-97586478D01*
X92308000Y-97561974D01*
X92308000Y-96311974D01*
X92309204Y-96287470D01*
X92312804Y-96263201D01*
X92318765Y-96239403D01*
X92327030Y-96216303D01*
X92337520Y-96194125D01*
X92350133Y-96173081D01*
X92364747Y-96153376D01*
X92381223Y-96135197D01*
X92399402Y-96118721D01*
X92419107Y-96104107D01*
X92440151Y-96091494D01*
X92462329Y-96081004D01*
X92485429Y-96072739D01*
X92509227Y-96066778D01*
X92533496Y-96063178D01*
X92558000Y-96061974D01*
X93483000Y-96061974D01*
X93507504Y-96063178D01*
X93507504Y-96063178D01*
G37*
D16*
X93020500Y-96936974D03*
G04 #@! TD*
D15*
G04 #@! TO.C,C2*
G36*
X74182504Y-92938178D02*
X74206773Y-92941778D01*
X74230571Y-92947739D01*
X74253671Y-92956004D01*
X74275849Y-92966494D01*
X74296893Y-92979107D01*
X74316598Y-92993721D01*
X74334777Y-93010197D01*
X74351253Y-93028376D01*
X74365867Y-93048081D01*
X74378480Y-93069125D01*
X74388970Y-93091303D01*
X74397235Y-93114403D01*
X74403196Y-93138201D01*
X74406796Y-93162470D01*
X74408000Y-93186974D01*
X74408000Y-94111974D01*
X74406796Y-94136478D01*
X74403196Y-94160747D01*
X74397235Y-94184545D01*
X74388970Y-94207645D01*
X74378480Y-94229823D01*
X74365867Y-94250867D01*
X74351253Y-94270572D01*
X74334777Y-94288751D01*
X74316598Y-94305227D01*
X74296893Y-94319841D01*
X74275849Y-94332454D01*
X74253671Y-94342944D01*
X74230571Y-94351209D01*
X74206773Y-94357170D01*
X74182504Y-94360770D01*
X74158000Y-94361974D01*
X72908000Y-94361974D01*
X72883496Y-94360770D01*
X72859227Y-94357170D01*
X72835429Y-94351209D01*
X72812329Y-94342944D01*
X72790151Y-94332454D01*
X72769107Y-94319841D01*
X72749402Y-94305227D01*
X72731223Y-94288751D01*
X72714747Y-94270572D01*
X72700133Y-94250867D01*
X72687520Y-94229823D01*
X72677030Y-94207645D01*
X72668765Y-94184545D01*
X72662804Y-94160747D01*
X72659204Y-94136478D01*
X72658000Y-94111974D01*
X72658000Y-93186974D01*
X72659204Y-93162470D01*
X72662804Y-93138201D01*
X72668765Y-93114403D01*
X72677030Y-93091303D01*
X72687520Y-93069125D01*
X72700133Y-93048081D01*
X72714747Y-93028376D01*
X72731223Y-93010197D01*
X72749402Y-92993721D01*
X72769107Y-92979107D01*
X72790151Y-92966494D01*
X72812329Y-92956004D01*
X72835429Y-92947739D01*
X72859227Y-92941778D01*
X72883496Y-92938178D01*
X72908000Y-92936974D01*
X74158000Y-92936974D01*
X74182504Y-92938178D01*
X74182504Y-92938178D01*
G37*
D16*
X73533000Y-93649474D03*
D15*
G36*
X74182504Y-95913178D02*
X74206773Y-95916778D01*
X74230571Y-95922739D01*
X74253671Y-95931004D01*
X74275849Y-95941494D01*
X74296893Y-95954107D01*
X74316598Y-95968721D01*
X74334777Y-95985197D01*
X74351253Y-96003376D01*
X74365867Y-96023081D01*
X74378480Y-96044125D01*
X74388970Y-96066303D01*
X74397235Y-96089403D01*
X74403196Y-96113201D01*
X74406796Y-96137470D01*
X74408000Y-96161974D01*
X74408000Y-97086974D01*
X74406796Y-97111478D01*
X74403196Y-97135747D01*
X74397235Y-97159545D01*
X74388970Y-97182645D01*
X74378480Y-97204823D01*
X74365867Y-97225867D01*
X74351253Y-97245572D01*
X74334777Y-97263751D01*
X74316598Y-97280227D01*
X74296893Y-97294841D01*
X74275849Y-97307454D01*
X74253671Y-97317944D01*
X74230571Y-97326209D01*
X74206773Y-97332170D01*
X74182504Y-97335770D01*
X74158000Y-97336974D01*
X72908000Y-97336974D01*
X72883496Y-97335770D01*
X72859227Y-97332170D01*
X72835429Y-97326209D01*
X72812329Y-97317944D01*
X72790151Y-97307454D01*
X72769107Y-97294841D01*
X72749402Y-97280227D01*
X72731223Y-97263751D01*
X72714747Y-97245572D01*
X72700133Y-97225867D01*
X72687520Y-97204823D01*
X72677030Y-97182645D01*
X72668765Y-97159545D01*
X72662804Y-97135747D01*
X72659204Y-97111478D01*
X72658000Y-97086974D01*
X72658000Y-96161974D01*
X72659204Y-96137470D01*
X72662804Y-96113201D01*
X72668765Y-96089403D01*
X72677030Y-96066303D01*
X72687520Y-96044125D01*
X72700133Y-96023081D01*
X72714747Y-96003376D01*
X72731223Y-95985197D01*
X72749402Y-95968721D01*
X72769107Y-95954107D01*
X72790151Y-95941494D01*
X72812329Y-95931004D01*
X72835429Y-95922739D01*
X72859227Y-95916778D01*
X72883496Y-95913178D01*
X72908000Y-95911974D01*
X74158000Y-95911974D01*
X74182504Y-95913178D01*
X74182504Y-95913178D01*
G37*
D16*
X73533000Y-96624474D03*
G04 #@! TD*
D15*
G04 #@! TO.C,C3*
G36*
X67532504Y-90463178D02*
X67556773Y-90466778D01*
X67580571Y-90472739D01*
X67603671Y-90481004D01*
X67625849Y-90491494D01*
X67646893Y-90504107D01*
X67666598Y-90518721D01*
X67684777Y-90535197D01*
X67701253Y-90553376D01*
X67715867Y-90573081D01*
X67728480Y-90594125D01*
X67738970Y-90616303D01*
X67747235Y-90639403D01*
X67753196Y-90663201D01*
X67756796Y-90687470D01*
X67758000Y-90711974D01*
X67758000Y-91961974D01*
X67756796Y-91986478D01*
X67753196Y-92010747D01*
X67747235Y-92034545D01*
X67738970Y-92057645D01*
X67728480Y-92079823D01*
X67715867Y-92100867D01*
X67701253Y-92120572D01*
X67684777Y-92138751D01*
X67666598Y-92155227D01*
X67646893Y-92169841D01*
X67625849Y-92182454D01*
X67603671Y-92192944D01*
X67580571Y-92201209D01*
X67556773Y-92207170D01*
X67532504Y-92210770D01*
X67508000Y-92211974D01*
X66583000Y-92211974D01*
X66558496Y-92210770D01*
X66534227Y-92207170D01*
X66510429Y-92201209D01*
X66487329Y-92192944D01*
X66465151Y-92182454D01*
X66444107Y-92169841D01*
X66424402Y-92155227D01*
X66406223Y-92138751D01*
X66389747Y-92120572D01*
X66375133Y-92100867D01*
X66362520Y-92079823D01*
X66352030Y-92057645D01*
X66343765Y-92034545D01*
X66337804Y-92010747D01*
X66334204Y-91986478D01*
X66333000Y-91961974D01*
X66333000Y-90711974D01*
X66334204Y-90687470D01*
X66337804Y-90663201D01*
X66343765Y-90639403D01*
X66352030Y-90616303D01*
X66362520Y-90594125D01*
X66375133Y-90573081D01*
X66389747Y-90553376D01*
X66406223Y-90535197D01*
X66424402Y-90518721D01*
X66444107Y-90504107D01*
X66465151Y-90491494D01*
X66487329Y-90481004D01*
X66510429Y-90472739D01*
X66534227Y-90466778D01*
X66558496Y-90463178D01*
X66583000Y-90461974D01*
X67508000Y-90461974D01*
X67532504Y-90463178D01*
X67532504Y-90463178D01*
G37*
D16*
X67045500Y-91336974D03*
D15*
G36*
X70507504Y-90463178D02*
X70531773Y-90466778D01*
X70555571Y-90472739D01*
X70578671Y-90481004D01*
X70600849Y-90491494D01*
X70621893Y-90504107D01*
X70641598Y-90518721D01*
X70659777Y-90535197D01*
X70676253Y-90553376D01*
X70690867Y-90573081D01*
X70703480Y-90594125D01*
X70713970Y-90616303D01*
X70722235Y-90639403D01*
X70728196Y-90663201D01*
X70731796Y-90687470D01*
X70733000Y-90711974D01*
X70733000Y-91961974D01*
X70731796Y-91986478D01*
X70728196Y-92010747D01*
X70722235Y-92034545D01*
X70713970Y-92057645D01*
X70703480Y-92079823D01*
X70690867Y-92100867D01*
X70676253Y-92120572D01*
X70659777Y-92138751D01*
X70641598Y-92155227D01*
X70621893Y-92169841D01*
X70600849Y-92182454D01*
X70578671Y-92192944D01*
X70555571Y-92201209D01*
X70531773Y-92207170D01*
X70507504Y-92210770D01*
X70483000Y-92211974D01*
X69558000Y-92211974D01*
X69533496Y-92210770D01*
X69509227Y-92207170D01*
X69485429Y-92201209D01*
X69462329Y-92192944D01*
X69440151Y-92182454D01*
X69419107Y-92169841D01*
X69399402Y-92155227D01*
X69381223Y-92138751D01*
X69364747Y-92120572D01*
X69350133Y-92100867D01*
X69337520Y-92079823D01*
X69327030Y-92057645D01*
X69318765Y-92034545D01*
X69312804Y-92010747D01*
X69309204Y-91986478D01*
X69308000Y-91961974D01*
X69308000Y-90711974D01*
X69309204Y-90687470D01*
X69312804Y-90663201D01*
X69318765Y-90639403D01*
X69327030Y-90616303D01*
X69337520Y-90594125D01*
X69350133Y-90573081D01*
X69364747Y-90553376D01*
X69381223Y-90535197D01*
X69399402Y-90518721D01*
X69419107Y-90504107D01*
X69440151Y-90491494D01*
X69462329Y-90481004D01*
X69485429Y-90472739D01*
X69509227Y-90466778D01*
X69533496Y-90463178D01*
X69558000Y-90461974D01*
X70483000Y-90461974D01*
X70507504Y-90463178D01*
X70507504Y-90463178D01*
G37*
D16*
X70020500Y-91336974D03*
G04 #@! TD*
D15*
G04 #@! TO.C,C4*
G36*
X78599504Y-82526204D02*
X78623773Y-82529804D01*
X78647571Y-82535765D01*
X78670671Y-82544030D01*
X78692849Y-82554520D01*
X78713893Y-82567133D01*
X78733598Y-82581747D01*
X78751777Y-82598223D01*
X78768253Y-82616402D01*
X78782867Y-82636107D01*
X78795480Y-82657151D01*
X78805970Y-82679329D01*
X78814235Y-82702429D01*
X78820196Y-82726227D01*
X78823796Y-82750496D01*
X78825000Y-82775000D01*
X78825000Y-84025000D01*
X78823796Y-84049504D01*
X78820196Y-84073773D01*
X78814235Y-84097571D01*
X78805970Y-84120671D01*
X78795480Y-84142849D01*
X78782867Y-84163893D01*
X78768253Y-84183598D01*
X78751777Y-84201777D01*
X78733598Y-84218253D01*
X78713893Y-84232867D01*
X78692849Y-84245480D01*
X78670671Y-84255970D01*
X78647571Y-84264235D01*
X78623773Y-84270196D01*
X78599504Y-84273796D01*
X78575000Y-84275000D01*
X77650000Y-84275000D01*
X77625496Y-84273796D01*
X77601227Y-84270196D01*
X77577429Y-84264235D01*
X77554329Y-84255970D01*
X77532151Y-84245480D01*
X77511107Y-84232867D01*
X77491402Y-84218253D01*
X77473223Y-84201777D01*
X77456747Y-84183598D01*
X77442133Y-84163893D01*
X77429520Y-84142849D01*
X77419030Y-84120671D01*
X77410765Y-84097571D01*
X77404804Y-84073773D01*
X77401204Y-84049504D01*
X77400000Y-84025000D01*
X77400000Y-82775000D01*
X77401204Y-82750496D01*
X77404804Y-82726227D01*
X77410765Y-82702429D01*
X77419030Y-82679329D01*
X77429520Y-82657151D01*
X77442133Y-82636107D01*
X77456747Y-82616402D01*
X77473223Y-82598223D01*
X77491402Y-82581747D01*
X77511107Y-82567133D01*
X77532151Y-82554520D01*
X77554329Y-82544030D01*
X77577429Y-82535765D01*
X77601227Y-82529804D01*
X77625496Y-82526204D01*
X77650000Y-82525000D01*
X78575000Y-82525000D01*
X78599504Y-82526204D01*
X78599504Y-82526204D01*
G37*
D16*
X78112500Y-83400000D03*
D15*
G36*
X81574504Y-82526204D02*
X81598773Y-82529804D01*
X81622571Y-82535765D01*
X81645671Y-82544030D01*
X81667849Y-82554520D01*
X81688893Y-82567133D01*
X81708598Y-82581747D01*
X81726777Y-82598223D01*
X81743253Y-82616402D01*
X81757867Y-82636107D01*
X81770480Y-82657151D01*
X81780970Y-82679329D01*
X81789235Y-82702429D01*
X81795196Y-82726227D01*
X81798796Y-82750496D01*
X81800000Y-82775000D01*
X81800000Y-84025000D01*
X81798796Y-84049504D01*
X81795196Y-84073773D01*
X81789235Y-84097571D01*
X81780970Y-84120671D01*
X81770480Y-84142849D01*
X81757867Y-84163893D01*
X81743253Y-84183598D01*
X81726777Y-84201777D01*
X81708598Y-84218253D01*
X81688893Y-84232867D01*
X81667849Y-84245480D01*
X81645671Y-84255970D01*
X81622571Y-84264235D01*
X81598773Y-84270196D01*
X81574504Y-84273796D01*
X81550000Y-84275000D01*
X80625000Y-84275000D01*
X80600496Y-84273796D01*
X80576227Y-84270196D01*
X80552429Y-84264235D01*
X80529329Y-84255970D01*
X80507151Y-84245480D01*
X80486107Y-84232867D01*
X80466402Y-84218253D01*
X80448223Y-84201777D01*
X80431747Y-84183598D01*
X80417133Y-84163893D01*
X80404520Y-84142849D01*
X80394030Y-84120671D01*
X80385765Y-84097571D01*
X80379804Y-84073773D01*
X80376204Y-84049504D01*
X80375000Y-84025000D01*
X80375000Y-82775000D01*
X80376204Y-82750496D01*
X80379804Y-82726227D01*
X80385765Y-82702429D01*
X80394030Y-82679329D01*
X80404520Y-82657151D01*
X80417133Y-82636107D01*
X80431747Y-82616402D01*
X80448223Y-82598223D01*
X80466402Y-82581747D01*
X80486107Y-82567133D01*
X80507151Y-82554520D01*
X80529329Y-82544030D01*
X80552429Y-82535765D01*
X80576227Y-82529804D01*
X80600496Y-82526204D01*
X80625000Y-82525000D01*
X81550000Y-82525000D01*
X81574504Y-82526204D01*
X81574504Y-82526204D01*
G37*
D16*
X81087500Y-83400000D03*
G04 #@! TD*
D15*
G04 #@! TO.C,C7*
G36*
X112574504Y-77726204D02*
X112598773Y-77729804D01*
X112622571Y-77735765D01*
X112645671Y-77744030D01*
X112667849Y-77754520D01*
X112688893Y-77767133D01*
X112708598Y-77781747D01*
X112726777Y-77798223D01*
X112743253Y-77816402D01*
X112757867Y-77836107D01*
X112770480Y-77857151D01*
X112780970Y-77879329D01*
X112789235Y-77902429D01*
X112795196Y-77926227D01*
X112798796Y-77950496D01*
X112800000Y-77975000D01*
X112800000Y-79225000D01*
X112798796Y-79249504D01*
X112795196Y-79273773D01*
X112789235Y-79297571D01*
X112780970Y-79320671D01*
X112770480Y-79342849D01*
X112757867Y-79363893D01*
X112743253Y-79383598D01*
X112726777Y-79401777D01*
X112708598Y-79418253D01*
X112688893Y-79432867D01*
X112667849Y-79445480D01*
X112645671Y-79455970D01*
X112622571Y-79464235D01*
X112598773Y-79470196D01*
X112574504Y-79473796D01*
X112550000Y-79475000D01*
X111625000Y-79475000D01*
X111600496Y-79473796D01*
X111576227Y-79470196D01*
X111552429Y-79464235D01*
X111529329Y-79455970D01*
X111507151Y-79445480D01*
X111486107Y-79432867D01*
X111466402Y-79418253D01*
X111448223Y-79401777D01*
X111431747Y-79383598D01*
X111417133Y-79363893D01*
X111404520Y-79342849D01*
X111394030Y-79320671D01*
X111385765Y-79297571D01*
X111379804Y-79273773D01*
X111376204Y-79249504D01*
X111375000Y-79225000D01*
X111375000Y-77975000D01*
X111376204Y-77950496D01*
X111379804Y-77926227D01*
X111385765Y-77902429D01*
X111394030Y-77879329D01*
X111404520Y-77857151D01*
X111417133Y-77836107D01*
X111431747Y-77816402D01*
X111448223Y-77798223D01*
X111466402Y-77781747D01*
X111486107Y-77767133D01*
X111507151Y-77754520D01*
X111529329Y-77744030D01*
X111552429Y-77735765D01*
X111576227Y-77729804D01*
X111600496Y-77726204D01*
X111625000Y-77725000D01*
X112550000Y-77725000D01*
X112574504Y-77726204D01*
X112574504Y-77726204D01*
G37*
D16*
X112087500Y-78600000D03*
D15*
G36*
X109599504Y-77726204D02*
X109623773Y-77729804D01*
X109647571Y-77735765D01*
X109670671Y-77744030D01*
X109692849Y-77754520D01*
X109713893Y-77767133D01*
X109733598Y-77781747D01*
X109751777Y-77798223D01*
X109768253Y-77816402D01*
X109782867Y-77836107D01*
X109795480Y-77857151D01*
X109805970Y-77879329D01*
X109814235Y-77902429D01*
X109820196Y-77926227D01*
X109823796Y-77950496D01*
X109825000Y-77975000D01*
X109825000Y-79225000D01*
X109823796Y-79249504D01*
X109820196Y-79273773D01*
X109814235Y-79297571D01*
X109805970Y-79320671D01*
X109795480Y-79342849D01*
X109782867Y-79363893D01*
X109768253Y-79383598D01*
X109751777Y-79401777D01*
X109733598Y-79418253D01*
X109713893Y-79432867D01*
X109692849Y-79445480D01*
X109670671Y-79455970D01*
X109647571Y-79464235D01*
X109623773Y-79470196D01*
X109599504Y-79473796D01*
X109575000Y-79475000D01*
X108650000Y-79475000D01*
X108625496Y-79473796D01*
X108601227Y-79470196D01*
X108577429Y-79464235D01*
X108554329Y-79455970D01*
X108532151Y-79445480D01*
X108511107Y-79432867D01*
X108491402Y-79418253D01*
X108473223Y-79401777D01*
X108456747Y-79383598D01*
X108442133Y-79363893D01*
X108429520Y-79342849D01*
X108419030Y-79320671D01*
X108410765Y-79297571D01*
X108404804Y-79273773D01*
X108401204Y-79249504D01*
X108400000Y-79225000D01*
X108400000Y-77975000D01*
X108401204Y-77950496D01*
X108404804Y-77926227D01*
X108410765Y-77902429D01*
X108419030Y-77879329D01*
X108429520Y-77857151D01*
X108442133Y-77836107D01*
X108456747Y-77816402D01*
X108473223Y-77798223D01*
X108491402Y-77781747D01*
X108511107Y-77767133D01*
X108532151Y-77754520D01*
X108554329Y-77744030D01*
X108577429Y-77735765D01*
X108601227Y-77729804D01*
X108625496Y-77726204D01*
X108650000Y-77725000D01*
X109575000Y-77725000D01*
X109599504Y-77726204D01*
X109599504Y-77726204D01*
G37*
D16*
X109112500Y-78600000D03*
G04 #@! TD*
D15*
G04 #@! TO.C,C10*
G36*
X107732504Y-94463178D02*
X107756773Y-94466778D01*
X107780571Y-94472739D01*
X107803671Y-94481004D01*
X107825849Y-94491494D01*
X107846893Y-94504107D01*
X107866598Y-94518721D01*
X107884777Y-94535197D01*
X107901253Y-94553376D01*
X107915867Y-94573081D01*
X107928480Y-94594125D01*
X107938970Y-94616303D01*
X107947235Y-94639403D01*
X107953196Y-94663201D01*
X107956796Y-94687470D01*
X107958000Y-94711974D01*
X107958000Y-95961974D01*
X107956796Y-95986478D01*
X107953196Y-96010747D01*
X107947235Y-96034545D01*
X107938970Y-96057645D01*
X107928480Y-96079823D01*
X107915867Y-96100867D01*
X107901253Y-96120572D01*
X107884777Y-96138751D01*
X107866598Y-96155227D01*
X107846893Y-96169841D01*
X107825849Y-96182454D01*
X107803671Y-96192944D01*
X107780571Y-96201209D01*
X107756773Y-96207170D01*
X107732504Y-96210770D01*
X107708000Y-96211974D01*
X106783000Y-96211974D01*
X106758496Y-96210770D01*
X106734227Y-96207170D01*
X106710429Y-96201209D01*
X106687329Y-96192944D01*
X106665151Y-96182454D01*
X106644107Y-96169841D01*
X106624402Y-96155227D01*
X106606223Y-96138751D01*
X106589747Y-96120572D01*
X106575133Y-96100867D01*
X106562520Y-96079823D01*
X106552030Y-96057645D01*
X106543765Y-96034545D01*
X106537804Y-96010747D01*
X106534204Y-95986478D01*
X106533000Y-95961974D01*
X106533000Y-94711974D01*
X106534204Y-94687470D01*
X106537804Y-94663201D01*
X106543765Y-94639403D01*
X106552030Y-94616303D01*
X106562520Y-94594125D01*
X106575133Y-94573081D01*
X106589747Y-94553376D01*
X106606223Y-94535197D01*
X106624402Y-94518721D01*
X106644107Y-94504107D01*
X106665151Y-94491494D01*
X106687329Y-94481004D01*
X106710429Y-94472739D01*
X106734227Y-94466778D01*
X106758496Y-94463178D01*
X106783000Y-94461974D01*
X107708000Y-94461974D01*
X107732504Y-94463178D01*
X107732504Y-94463178D01*
G37*
D16*
X107245500Y-95336974D03*
D15*
G36*
X110707504Y-94463178D02*
X110731773Y-94466778D01*
X110755571Y-94472739D01*
X110778671Y-94481004D01*
X110800849Y-94491494D01*
X110821893Y-94504107D01*
X110841598Y-94518721D01*
X110859777Y-94535197D01*
X110876253Y-94553376D01*
X110890867Y-94573081D01*
X110903480Y-94594125D01*
X110913970Y-94616303D01*
X110922235Y-94639403D01*
X110928196Y-94663201D01*
X110931796Y-94687470D01*
X110933000Y-94711974D01*
X110933000Y-95961974D01*
X110931796Y-95986478D01*
X110928196Y-96010747D01*
X110922235Y-96034545D01*
X110913970Y-96057645D01*
X110903480Y-96079823D01*
X110890867Y-96100867D01*
X110876253Y-96120572D01*
X110859777Y-96138751D01*
X110841598Y-96155227D01*
X110821893Y-96169841D01*
X110800849Y-96182454D01*
X110778671Y-96192944D01*
X110755571Y-96201209D01*
X110731773Y-96207170D01*
X110707504Y-96210770D01*
X110683000Y-96211974D01*
X109758000Y-96211974D01*
X109733496Y-96210770D01*
X109709227Y-96207170D01*
X109685429Y-96201209D01*
X109662329Y-96192944D01*
X109640151Y-96182454D01*
X109619107Y-96169841D01*
X109599402Y-96155227D01*
X109581223Y-96138751D01*
X109564747Y-96120572D01*
X109550133Y-96100867D01*
X109537520Y-96079823D01*
X109527030Y-96057645D01*
X109518765Y-96034545D01*
X109512804Y-96010747D01*
X109509204Y-95986478D01*
X109508000Y-95961974D01*
X109508000Y-94711974D01*
X109509204Y-94687470D01*
X109512804Y-94663201D01*
X109518765Y-94639403D01*
X109527030Y-94616303D01*
X109537520Y-94594125D01*
X109550133Y-94573081D01*
X109564747Y-94553376D01*
X109581223Y-94535197D01*
X109599402Y-94518721D01*
X109619107Y-94504107D01*
X109640151Y-94491494D01*
X109662329Y-94481004D01*
X109685429Y-94472739D01*
X109709227Y-94466778D01*
X109733496Y-94463178D01*
X109758000Y-94461974D01*
X110683000Y-94461974D01*
X110707504Y-94463178D01*
X110707504Y-94463178D01*
G37*
D16*
X110220500Y-95336974D03*
G04 #@! TD*
D17*
G04 #@! TO.C,D1*
X79633000Y-87136974D03*
X84633000Y-87136974D03*
G04 #@! TD*
D15*
G04 #@! TO.C,D2*
G36*
X97219308Y-88703029D02*
X97243576Y-88706629D01*
X97267375Y-88712590D01*
X97290474Y-88720855D01*
X97312653Y-88731345D01*
X97333696Y-88743957D01*
X97353402Y-88758572D01*
X97371580Y-88775048D01*
X97388056Y-88793226D01*
X97402671Y-88812932D01*
X97415283Y-88833975D01*
X97425773Y-88856154D01*
X97434038Y-88879253D01*
X97439999Y-88903052D01*
X97443599Y-88927320D01*
X97444803Y-88951824D01*
X97444803Y-89851826D01*
X97443599Y-89876330D01*
X97439999Y-89900598D01*
X97434038Y-89924397D01*
X97425773Y-89947496D01*
X97415283Y-89969675D01*
X97402671Y-89990718D01*
X97388056Y-90010424D01*
X97371580Y-90028602D01*
X97353402Y-90045078D01*
X97333696Y-90059693D01*
X97312653Y-90072305D01*
X97290474Y-90082795D01*
X97267375Y-90091060D01*
X97243576Y-90097021D01*
X97219308Y-90100621D01*
X97194804Y-90101825D01*
X96544802Y-90101825D01*
X96520298Y-90100621D01*
X96496030Y-90097021D01*
X96472231Y-90091060D01*
X96449132Y-90082795D01*
X96426953Y-90072305D01*
X96405910Y-90059693D01*
X96386204Y-90045078D01*
X96368026Y-90028602D01*
X96351550Y-90010424D01*
X96336935Y-89990718D01*
X96324323Y-89969675D01*
X96313833Y-89947496D01*
X96305568Y-89924397D01*
X96299607Y-89900598D01*
X96296007Y-89876330D01*
X96294803Y-89851826D01*
X96294803Y-88951824D01*
X96296007Y-88927320D01*
X96299607Y-88903052D01*
X96305568Y-88879253D01*
X96313833Y-88856154D01*
X96324323Y-88833975D01*
X96336935Y-88812932D01*
X96351550Y-88793226D01*
X96368026Y-88775048D01*
X96386204Y-88758572D01*
X96405910Y-88743957D01*
X96426953Y-88731345D01*
X96449132Y-88720855D01*
X96472231Y-88712590D01*
X96496030Y-88706629D01*
X96520298Y-88703029D01*
X96544802Y-88701825D01*
X97194804Y-88701825D01*
X97219308Y-88703029D01*
X97219308Y-88703029D01*
G37*
D18*
X96869803Y-89401825D03*
D15*
G36*
X99269308Y-88703029D02*
X99293576Y-88706629D01*
X99317375Y-88712590D01*
X99340474Y-88720855D01*
X99362653Y-88731345D01*
X99383696Y-88743957D01*
X99403402Y-88758572D01*
X99421580Y-88775048D01*
X99438056Y-88793226D01*
X99452671Y-88812932D01*
X99465283Y-88833975D01*
X99475773Y-88856154D01*
X99484038Y-88879253D01*
X99489999Y-88903052D01*
X99493599Y-88927320D01*
X99494803Y-88951824D01*
X99494803Y-89851826D01*
X99493599Y-89876330D01*
X99489999Y-89900598D01*
X99484038Y-89924397D01*
X99475773Y-89947496D01*
X99465283Y-89969675D01*
X99452671Y-89990718D01*
X99438056Y-90010424D01*
X99421580Y-90028602D01*
X99403402Y-90045078D01*
X99383696Y-90059693D01*
X99362653Y-90072305D01*
X99340474Y-90082795D01*
X99317375Y-90091060D01*
X99293576Y-90097021D01*
X99269308Y-90100621D01*
X99244804Y-90101825D01*
X98594802Y-90101825D01*
X98570298Y-90100621D01*
X98546030Y-90097021D01*
X98522231Y-90091060D01*
X98499132Y-90082795D01*
X98476953Y-90072305D01*
X98455910Y-90059693D01*
X98436204Y-90045078D01*
X98418026Y-90028602D01*
X98401550Y-90010424D01*
X98386935Y-89990718D01*
X98374323Y-89969675D01*
X98363833Y-89947496D01*
X98355568Y-89924397D01*
X98349607Y-89900598D01*
X98346007Y-89876330D01*
X98344803Y-89851826D01*
X98344803Y-88951824D01*
X98346007Y-88927320D01*
X98349607Y-88903052D01*
X98355568Y-88879253D01*
X98363833Y-88856154D01*
X98374323Y-88833975D01*
X98386935Y-88812932D01*
X98401550Y-88793226D01*
X98418026Y-88775048D01*
X98436204Y-88758572D01*
X98455910Y-88743957D01*
X98476953Y-88731345D01*
X98499132Y-88720855D01*
X98522231Y-88712590D01*
X98546030Y-88706629D01*
X98570298Y-88703029D01*
X98594802Y-88701825D01*
X99244804Y-88701825D01*
X99269308Y-88703029D01*
X99269308Y-88703029D01*
G37*
D18*
X98919803Y-89401825D03*
G04 #@! TD*
D15*
G04 #@! TO.C,D3*
G36*
X99269308Y-90743029D02*
X99293576Y-90746629D01*
X99317375Y-90752590D01*
X99340474Y-90760855D01*
X99362653Y-90771345D01*
X99383696Y-90783957D01*
X99403402Y-90798572D01*
X99421580Y-90815048D01*
X99438056Y-90833226D01*
X99452671Y-90852932D01*
X99465283Y-90873975D01*
X99475773Y-90896154D01*
X99484038Y-90919253D01*
X99489999Y-90943052D01*
X99493599Y-90967320D01*
X99494803Y-90991824D01*
X99494803Y-91891826D01*
X99493599Y-91916330D01*
X99489999Y-91940598D01*
X99484038Y-91964397D01*
X99475773Y-91987496D01*
X99465283Y-92009675D01*
X99452671Y-92030718D01*
X99438056Y-92050424D01*
X99421580Y-92068602D01*
X99403402Y-92085078D01*
X99383696Y-92099693D01*
X99362653Y-92112305D01*
X99340474Y-92122795D01*
X99317375Y-92131060D01*
X99293576Y-92137021D01*
X99269308Y-92140621D01*
X99244804Y-92141825D01*
X98594802Y-92141825D01*
X98570298Y-92140621D01*
X98546030Y-92137021D01*
X98522231Y-92131060D01*
X98499132Y-92122795D01*
X98476953Y-92112305D01*
X98455910Y-92099693D01*
X98436204Y-92085078D01*
X98418026Y-92068602D01*
X98401550Y-92050424D01*
X98386935Y-92030718D01*
X98374323Y-92009675D01*
X98363833Y-91987496D01*
X98355568Y-91964397D01*
X98349607Y-91940598D01*
X98346007Y-91916330D01*
X98344803Y-91891826D01*
X98344803Y-90991824D01*
X98346007Y-90967320D01*
X98349607Y-90943052D01*
X98355568Y-90919253D01*
X98363833Y-90896154D01*
X98374323Y-90873975D01*
X98386935Y-90852932D01*
X98401550Y-90833226D01*
X98418026Y-90815048D01*
X98436204Y-90798572D01*
X98455910Y-90783957D01*
X98476953Y-90771345D01*
X98499132Y-90760855D01*
X98522231Y-90752590D01*
X98546030Y-90746629D01*
X98570298Y-90743029D01*
X98594802Y-90741825D01*
X99244804Y-90741825D01*
X99269308Y-90743029D01*
X99269308Y-90743029D01*
G37*
D18*
X98919803Y-91441825D03*
D15*
G36*
X97219308Y-90743029D02*
X97243576Y-90746629D01*
X97267375Y-90752590D01*
X97290474Y-90760855D01*
X97312653Y-90771345D01*
X97333696Y-90783957D01*
X97353402Y-90798572D01*
X97371580Y-90815048D01*
X97388056Y-90833226D01*
X97402671Y-90852932D01*
X97415283Y-90873975D01*
X97425773Y-90896154D01*
X97434038Y-90919253D01*
X97439999Y-90943052D01*
X97443599Y-90967320D01*
X97444803Y-90991824D01*
X97444803Y-91891826D01*
X97443599Y-91916330D01*
X97439999Y-91940598D01*
X97434038Y-91964397D01*
X97425773Y-91987496D01*
X97415283Y-92009675D01*
X97402671Y-92030718D01*
X97388056Y-92050424D01*
X97371580Y-92068602D01*
X97353402Y-92085078D01*
X97333696Y-92099693D01*
X97312653Y-92112305D01*
X97290474Y-92122795D01*
X97267375Y-92131060D01*
X97243576Y-92137021D01*
X97219308Y-92140621D01*
X97194804Y-92141825D01*
X96544802Y-92141825D01*
X96520298Y-92140621D01*
X96496030Y-92137021D01*
X96472231Y-92131060D01*
X96449132Y-92122795D01*
X96426953Y-92112305D01*
X96405910Y-92099693D01*
X96386204Y-92085078D01*
X96368026Y-92068602D01*
X96351550Y-92050424D01*
X96336935Y-92030718D01*
X96324323Y-92009675D01*
X96313833Y-91987496D01*
X96305568Y-91964397D01*
X96299607Y-91940598D01*
X96296007Y-91916330D01*
X96294803Y-91891826D01*
X96294803Y-90991824D01*
X96296007Y-90967320D01*
X96299607Y-90943052D01*
X96305568Y-90919253D01*
X96313833Y-90896154D01*
X96324323Y-90873975D01*
X96336935Y-90852932D01*
X96351550Y-90833226D01*
X96368026Y-90815048D01*
X96386204Y-90798572D01*
X96405910Y-90783957D01*
X96426953Y-90771345D01*
X96449132Y-90760855D01*
X96472231Y-90752590D01*
X96496030Y-90746629D01*
X96520298Y-90743029D01*
X96544802Y-90741825D01*
X97194804Y-90741825D01*
X97219308Y-90743029D01*
X97219308Y-90743029D01*
G37*
D18*
X96869803Y-91441825D03*
G04 #@! TD*
D19*
G04 #@! TO.C,J1*
X62200000Y-95600000D03*
D20*
X59660000Y-95600000D03*
G04 #@! TD*
G04 #@! TO.C,J2*
X89340000Y-57000000D03*
D19*
X86800000Y-57000000D03*
G04 #@! TD*
G04 #@! TO.C,J3*
X75480000Y-59000000D03*
D20*
X72940000Y-59000000D03*
X70400000Y-59000000D03*
X67860000Y-59000000D03*
X65320000Y-59000000D03*
X62780000Y-59000000D03*
G04 #@! TD*
D19*
G04 #@! TO.C,J6*
X114800000Y-83200000D03*
D20*
X114800000Y-80660000D03*
G04 #@! TD*
D21*
G04 #@! TO.C,L1*
X83350000Y-94600000D03*
X77800000Y-94600000D03*
G04 #@! TD*
D22*
G04 #@! TO.C,Q1*
X100483000Y-81386974D03*
X100483000Y-82336974D03*
X100483000Y-83286974D03*
X97783000Y-83286974D03*
X97783000Y-81386974D03*
X97783000Y-82336974D03*
G04 #@! TD*
D15*
G04 #@! TO.C,R1*
G36*
X90532505Y-86838178D02*
X90556773Y-86841778D01*
X90580572Y-86847739D01*
X90603671Y-86856004D01*
X90625850Y-86866494D01*
X90646893Y-86879106D01*
X90666599Y-86893721D01*
X90684777Y-86910197D01*
X90701253Y-86928375D01*
X90715868Y-86948081D01*
X90728480Y-86969124D01*
X90738970Y-86991303D01*
X90747235Y-87014402D01*
X90753196Y-87038201D01*
X90756796Y-87062469D01*
X90758000Y-87086973D01*
X90758000Y-87986975D01*
X90756796Y-88011479D01*
X90753196Y-88035747D01*
X90747235Y-88059546D01*
X90738970Y-88082645D01*
X90728480Y-88104824D01*
X90715868Y-88125867D01*
X90701253Y-88145573D01*
X90684777Y-88163751D01*
X90666599Y-88180227D01*
X90646893Y-88194842D01*
X90625850Y-88207454D01*
X90603671Y-88217944D01*
X90580572Y-88226209D01*
X90556773Y-88232170D01*
X90532505Y-88235770D01*
X90508001Y-88236974D01*
X89857999Y-88236974D01*
X89833495Y-88235770D01*
X89809227Y-88232170D01*
X89785428Y-88226209D01*
X89762329Y-88217944D01*
X89740150Y-88207454D01*
X89719107Y-88194842D01*
X89699401Y-88180227D01*
X89681223Y-88163751D01*
X89664747Y-88145573D01*
X89650132Y-88125867D01*
X89637520Y-88104824D01*
X89627030Y-88082645D01*
X89618765Y-88059546D01*
X89612804Y-88035747D01*
X89609204Y-88011479D01*
X89608000Y-87986975D01*
X89608000Y-87086973D01*
X89609204Y-87062469D01*
X89612804Y-87038201D01*
X89618765Y-87014402D01*
X89627030Y-86991303D01*
X89637520Y-86969124D01*
X89650132Y-86948081D01*
X89664747Y-86928375D01*
X89681223Y-86910197D01*
X89699401Y-86893721D01*
X89719107Y-86879106D01*
X89740150Y-86866494D01*
X89762329Y-86856004D01*
X89785428Y-86847739D01*
X89809227Y-86841778D01*
X89833495Y-86838178D01*
X89857999Y-86836974D01*
X90508001Y-86836974D01*
X90532505Y-86838178D01*
X90532505Y-86838178D01*
G37*
D18*
X90183000Y-87536974D03*
D15*
G36*
X88482505Y-86838178D02*
X88506773Y-86841778D01*
X88530572Y-86847739D01*
X88553671Y-86856004D01*
X88575850Y-86866494D01*
X88596893Y-86879106D01*
X88616599Y-86893721D01*
X88634777Y-86910197D01*
X88651253Y-86928375D01*
X88665868Y-86948081D01*
X88678480Y-86969124D01*
X88688970Y-86991303D01*
X88697235Y-87014402D01*
X88703196Y-87038201D01*
X88706796Y-87062469D01*
X88708000Y-87086973D01*
X88708000Y-87986975D01*
X88706796Y-88011479D01*
X88703196Y-88035747D01*
X88697235Y-88059546D01*
X88688970Y-88082645D01*
X88678480Y-88104824D01*
X88665868Y-88125867D01*
X88651253Y-88145573D01*
X88634777Y-88163751D01*
X88616599Y-88180227D01*
X88596893Y-88194842D01*
X88575850Y-88207454D01*
X88553671Y-88217944D01*
X88530572Y-88226209D01*
X88506773Y-88232170D01*
X88482505Y-88235770D01*
X88458001Y-88236974D01*
X87807999Y-88236974D01*
X87783495Y-88235770D01*
X87759227Y-88232170D01*
X87735428Y-88226209D01*
X87712329Y-88217944D01*
X87690150Y-88207454D01*
X87669107Y-88194842D01*
X87649401Y-88180227D01*
X87631223Y-88163751D01*
X87614747Y-88145573D01*
X87600132Y-88125867D01*
X87587520Y-88104824D01*
X87577030Y-88082645D01*
X87568765Y-88059546D01*
X87562804Y-88035747D01*
X87559204Y-88011479D01*
X87558000Y-87986975D01*
X87558000Y-87086973D01*
X87559204Y-87062469D01*
X87562804Y-87038201D01*
X87568765Y-87014402D01*
X87577030Y-86991303D01*
X87587520Y-86969124D01*
X87600132Y-86948081D01*
X87614747Y-86928375D01*
X87631223Y-86910197D01*
X87649401Y-86893721D01*
X87669107Y-86879106D01*
X87690150Y-86866494D01*
X87712329Y-86856004D01*
X87735428Y-86847739D01*
X87759227Y-86841778D01*
X87783495Y-86838178D01*
X87807999Y-86836974D01*
X88458001Y-86836974D01*
X88482505Y-86838178D01*
X88482505Y-86838178D01*
G37*
D18*
X88133000Y-87536974D03*
G04 #@! TD*
D15*
G04 #@! TO.C,R2*
G36*
X92257505Y-86838178D02*
X92281773Y-86841778D01*
X92305572Y-86847739D01*
X92328671Y-86856004D01*
X92350850Y-86866494D01*
X92371893Y-86879106D01*
X92391599Y-86893721D01*
X92409777Y-86910197D01*
X92426253Y-86928375D01*
X92440868Y-86948081D01*
X92453480Y-86969124D01*
X92463970Y-86991303D01*
X92472235Y-87014402D01*
X92478196Y-87038201D01*
X92481796Y-87062469D01*
X92483000Y-87086973D01*
X92483000Y-87986975D01*
X92481796Y-88011479D01*
X92478196Y-88035747D01*
X92472235Y-88059546D01*
X92463970Y-88082645D01*
X92453480Y-88104824D01*
X92440868Y-88125867D01*
X92426253Y-88145573D01*
X92409777Y-88163751D01*
X92391599Y-88180227D01*
X92371893Y-88194842D01*
X92350850Y-88207454D01*
X92328671Y-88217944D01*
X92305572Y-88226209D01*
X92281773Y-88232170D01*
X92257505Y-88235770D01*
X92233001Y-88236974D01*
X91582999Y-88236974D01*
X91558495Y-88235770D01*
X91534227Y-88232170D01*
X91510428Y-88226209D01*
X91487329Y-88217944D01*
X91465150Y-88207454D01*
X91444107Y-88194842D01*
X91424401Y-88180227D01*
X91406223Y-88163751D01*
X91389747Y-88145573D01*
X91375132Y-88125867D01*
X91362520Y-88104824D01*
X91352030Y-88082645D01*
X91343765Y-88059546D01*
X91337804Y-88035747D01*
X91334204Y-88011479D01*
X91333000Y-87986975D01*
X91333000Y-87086973D01*
X91334204Y-87062469D01*
X91337804Y-87038201D01*
X91343765Y-87014402D01*
X91352030Y-86991303D01*
X91362520Y-86969124D01*
X91375132Y-86948081D01*
X91389747Y-86928375D01*
X91406223Y-86910197D01*
X91424401Y-86893721D01*
X91444107Y-86879106D01*
X91465150Y-86866494D01*
X91487329Y-86856004D01*
X91510428Y-86847739D01*
X91534227Y-86841778D01*
X91558495Y-86838178D01*
X91582999Y-86836974D01*
X92233001Y-86836974D01*
X92257505Y-86838178D01*
X92257505Y-86838178D01*
G37*
D18*
X91908000Y-87536974D03*
D15*
G36*
X94307505Y-86838178D02*
X94331773Y-86841778D01*
X94355572Y-86847739D01*
X94378671Y-86856004D01*
X94400850Y-86866494D01*
X94421893Y-86879106D01*
X94441599Y-86893721D01*
X94459777Y-86910197D01*
X94476253Y-86928375D01*
X94490868Y-86948081D01*
X94503480Y-86969124D01*
X94513970Y-86991303D01*
X94522235Y-87014402D01*
X94528196Y-87038201D01*
X94531796Y-87062469D01*
X94533000Y-87086973D01*
X94533000Y-87986975D01*
X94531796Y-88011479D01*
X94528196Y-88035747D01*
X94522235Y-88059546D01*
X94513970Y-88082645D01*
X94503480Y-88104824D01*
X94490868Y-88125867D01*
X94476253Y-88145573D01*
X94459777Y-88163751D01*
X94441599Y-88180227D01*
X94421893Y-88194842D01*
X94400850Y-88207454D01*
X94378671Y-88217944D01*
X94355572Y-88226209D01*
X94331773Y-88232170D01*
X94307505Y-88235770D01*
X94283001Y-88236974D01*
X93632999Y-88236974D01*
X93608495Y-88235770D01*
X93584227Y-88232170D01*
X93560428Y-88226209D01*
X93537329Y-88217944D01*
X93515150Y-88207454D01*
X93494107Y-88194842D01*
X93474401Y-88180227D01*
X93456223Y-88163751D01*
X93439747Y-88145573D01*
X93425132Y-88125867D01*
X93412520Y-88104824D01*
X93402030Y-88082645D01*
X93393765Y-88059546D01*
X93387804Y-88035747D01*
X93384204Y-88011479D01*
X93383000Y-87986975D01*
X93383000Y-87086973D01*
X93384204Y-87062469D01*
X93387804Y-87038201D01*
X93393765Y-87014402D01*
X93402030Y-86991303D01*
X93412520Y-86969124D01*
X93425132Y-86948081D01*
X93439747Y-86928375D01*
X93456223Y-86910197D01*
X93474401Y-86893721D01*
X93494107Y-86879106D01*
X93515150Y-86866494D01*
X93537329Y-86856004D01*
X93560428Y-86847739D01*
X93584227Y-86841778D01*
X93608495Y-86838178D01*
X93632999Y-86836974D01*
X94283001Y-86836974D01*
X94307505Y-86838178D01*
X94307505Y-86838178D01*
G37*
D18*
X93958000Y-87536974D03*
G04 #@! TD*
D15*
G04 #@! TO.C,R5*
G36*
X100007505Y-76538178D02*
X100031773Y-76541778D01*
X100055572Y-76547739D01*
X100078671Y-76556004D01*
X100100850Y-76566494D01*
X100121893Y-76579106D01*
X100141599Y-76593721D01*
X100159777Y-76610197D01*
X100176253Y-76628375D01*
X100190868Y-76648081D01*
X100203480Y-76669124D01*
X100213970Y-76691303D01*
X100222235Y-76714402D01*
X100228196Y-76738201D01*
X100231796Y-76762469D01*
X100233000Y-76786973D01*
X100233000Y-77436975D01*
X100231796Y-77461479D01*
X100228196Y-77485747D01*
X100222235Y-77509546D01*
X100213970Y-77532645D01*
X100203480Y-77554824D01*
X100190868Y-77575867D01*
X100176253Y-77595573D01*
X100159777Y-77613751D01*
X100141599Y-77630227D01*
X100121893Y-77644842D01*
X100100850Y-77657454D01*
X100078671Y-77667944D01*
X100055572Y-77676209D01*
X100031773Y-77682170D01*
X100007505Y-77685770D01*
X99983001Y-77686974D01*
X99082999Y-77686974D01*
X99058495Y-77685770D01*
X99034227Y-77682170D01*
X99010428Y-77676209D01*
X98987329Y-77667944D01*
X98965150Y-77657454D01*
X98944107Y-77644842D01*
X98924401Y-77630227D01*
X98906223Y-77613751D01*
X98889747Y-77595573D01*
X98875132Y-77575867D01*
X98862520Y-77554824D01*
X98852030Y-77532645D01*
X98843765Y-77509546D01*
X98837804Y-77485747D01*
X98834204Y-77461479D01*
X98833000Y-77436975D01*
X98833000Y-76786973D01*
X98834204Y-76762469D01*
X98837804Y-76738201D01*
X98843765Y-76714402D01*
X98852030Y-76691303D01*
X98862520Y-76669124D01*
X98875132Y-76648081D01*
X98889747Y-76628375D01*
X98906223Y-76610197D01*
X98924401Y-76593721D01*
X98944107Y-76579106D01*
X98965150Y-76566494D01*
X98987329Y-76556004D01*
X99010428Y-76547739D01*
X99034227Y-76541778D01*
X99058495Y-76538178D01*
X99082999Y-76536974D01*
X99983001Y-76536974D01*
X100007505Y-76538178D01*
X100007505Y-76538178D01*
G37*
D18*
X99533000Y-77111974D03*
D15*
G36*
X100007505Y-78588178D02*
X100031773Y-78591778D01*
X100055572Y-78597739D01*
X100078671Y-78606004D01*
X100100850Y-78616494D01*
X100121893Y-78629106D01*
X100141599Y-78643721D01*
X100159777Y-78660197D01*
X100176253Y-78678375D01*
X100190868Y-78698081D01*
X100203480Y-78719124D01*
X100213970Y-78741303D01*
X100222235Y-78764402D01*
X100228196Y-78788201D01*
X100231796Y-78812469D01*
X100233000Y-78836973D01*
X100233000Y-79486975D01*
X100231796Y-79511479D01*
X100228196Y-79535747D01*
X100222235Y-79559546D01*
X100213970Y-79582645D01*
X100203480Y-79604824D01*
X100190868Y-79625867D01*
X100176253Y-79645573D01*
X100159777Y-79663751D01*
X100141599Y-79680227D01*
X100121893Y-79694842D01*
X100100850Y-79707454D01*
X100078671Y-79717944D01*
X100055572Y-79726209D01*
X100031773Y-79732170D01*
X100007505Y-79735770D01*
X99983001Y-79736974D01*
X99082999Y-79736974D01*
X99058495Y-79735770D01*
X99034227Y-79732170D01*
X99010428Y-79726209D01*
X98987329Y-79717944D01*
X98965150Y-79707454D01*
X98944107Y-79694842D01*
X98924401Y-79680227D01*
X98906223Y-79663751D01*
X98889747Y-79645573D01*
X98875132Y-79625867D01*
X98862520Y-79604824D01*
X98852030Y-79582645D01*
X98843765Y-79559546D01*
X98837804Y-79535747D01*
X98834204Y-79511479D01*
X98833000Y-79486975D01*
X98833000Y-78836973D01*
X98834204Y-78812469D01*
X98837804Y-78788201D01*
X98843765Y-78764402D01*
X98852030Y-78741303D01*
X98862520Y-78719124D01*
X98875132Y-78698081D01*
X98889747Y-78678375D01*
X98906223Y-78660197D01*
X98924401Y-78643721D01*
X98944107Y-78629106D01*
X98965150Y-78616494D01*
X98987329Y-78606004D01*
X99010428Y-78597739D01*
X99034227Y-78591778D01*
X99058495Y-78588178D01*
X99082999Y-78586974D01*
X99983001Y-78586974D01*
X100007505Y-78588178D01*
X100007505Y-78588178D01*
G37*
D18*
X99533000Y-79161974D03*
G04 #@! TD*
D15*
G04 #@! TO.C,R13*
G36*
X112174505Y-81901204D02*
X112198773Y-81904804D01*
X112222572Y-81910765D01*
X112245671Y-81919030D01*
X112267850Y-81929520D01*
X112288893Y-81942132D01*
X112308599Y-81956747D01*
X112326777Y-81973223D01*
X112343253Y-81991401D01*
X112357868Y-82011107D01*
X112370480Y-82032150D01*
X112380970Y-82054329D01*
X112389235Y-82077428D01*
X112395196Y-82101227D01*
X112398796Y-82125495D01*
X112400000Y-82149999D01*
X112400000Y-83050001D01*
X112398796Y-83074505D01*
X112395196Y-83098773D01*
X112389235Y-83122572D01*
X112380970Y-83145671D01*
X112370480Y-83167850D01*
X112357868Y-83188893D01*
X112343253Y-83208599D01*
X112326777Y-83226777D01*
X112308599Y-83243253D01*
X112288893Y-83257868D01*
X112267850Y-83270480D01*
X112245671Y-83280970D01*
X112222572Y-83289235D01*
X112198773Y-83295196D01*
X112174505Y-83298796D01*
X112150001Y-83300000D01*
X111499999Y-83300000D01*
X111475495Y-83298796D01*
X111451227Y-83295196D01*
X111427428Y-83289235D01*
X111404329Y-83280970D01*
X111382150Y-83270480D01*
X111361107Y-83257868D01*
X111341401Y-83243253D01*
X111323223Y-83226777D01*
X111306747Y-83208599D01*
X111292132Y-83188893D01*
X111279520Y-83167850D01*
X111269030Y-83145671D01*
X111260765Y-83122572D01*
X111254804Y-83098773D01*
X111251204Y-83074505D01*
X111250000Y-83050001D01*
X111250000Y-82149999D01*
X111251204Y-82125495D01*
X111254804Y-82101227D01*
X111260765Y-82077428D01*
X111269030Y-82054329D01*
X111279520Y-82032150D01*
X111292132Y-82011107D01*
X111306747Y-81991401D01*
X111323223Y-81973223D01*
X111341401Y-81956747D01*
X111361107Y-81942132D01*
X111382150Y-81929520D01*
X111404329Y-81919030D01*
X111427428Y-81910765D01*
X111451227Y-81904804D01*
X111475495Y-81901204D01*
X111499999Y-81900000D01*
X112150001Y-81900000D01*
X112174505Y-81901204D01*
X112174505Y-81901204D01*
G37*
D18*
X111825000Y-82600000D03*
D15*
G36*
X110124505Y-81901204D02*
X110148773Y-81904804D01*
X110172572Y-81910765D01*
X110195671Y-81919030D01*
X110217850Y-81929520D01*
X110238893Y-81942132D01*
X110258599Y-81956747D01*
X110276777Y-81973223D01*
X110293253Y-81991401D01*
X110307868Y-82011107D01*
X110320480Y-82032150D01*
X110330970Y-82054329D01*
X110339235Y-82077428D01*
X110345196Y-82101227D01*
X110348796Y-82125495D01*
X110350000Y-82149999D01*
X110350000Y-83050001D01*
X110348796Y-83074505D01*
X110345196Y-83098773D01*
X110339235Y-83122572D01*
X110330970Y-83145671D01*
X110320480Y-83167850D01*
X110307868Y-83188893D01*
X110293253Y-83208599D01*
X110276777Y-83226777D01*
X110258599Y-83243253D01*
X110238893Y-83257868D01*
X110217850Y-83270480D01*
X110195671Y-83280970D01*
X110172572Y-83289235D01*
X110148773Y-83295196D01*
X110124505Y-83298796D01*
X110100001Y-83300000D01*
X109449999Y-83300000D01*
X109425495Y-83298796D01*
X109401227Y-83295196D01*
X109377428Y-83289235D01*
X109354329Y-83280970D01*
X109332150Y-83270480D01*
X109311107Y-83257868D01*
X109291401Y-83243253D01*
X109273223Y-83226777D01*
X109256747Y-83208599D01*
X109242132Y-83188893D01*
X109229520Y-83167850D01*
X109219030Y-83145671D01*
X109210765Y-83122572D01*
X109204804Y-83098773D01*
X109201204Y-83074505D01*
X109200000Y-83050001D01*
X109200000Y-82149999D01*
X109201204Y-82125495D01*
X109204804Y-82101227D01*
X109210765Y-82077428D01*
X109219030Y-82054329D01*
X109229520Y-82032150D01*
X109242132Y-82011107D01*
X109256747Y-81991401D01*
X109273223Y-81973223D01*
X109291401Y-81956747D01*
X109311107Y-81942132D01*
X109332150Y-81929520D01*
X109354329Y-81919030D01*
X109377428Y-81910765D01*
X109401227Y-81904804D01*
X109425495Y-81901204D01*
X109449999Y-81900000D01*
X110100001Y-81900000D01*
X110124505Y-81901204D01*
X110124505Y-81901204D01*
G37*
D18*
X109775000Y-82600000D03*
G04 #@! TD*
D15*
G04 #@! TO.C,R14*
G36*
X86074505Y-74451204D02*
X86098773Y-74454804D01*
X86122572Y-74460765D01*
X86145671Y-74469030D01*
X86167850Y-74479520D01*
X86188893Y-74492132D01*
X86208599Y-74506747D01*
X86226777Y-74523223D01*
X86243253Y-74541401D01*
X86257868Y-74561107D01*
X86270480Y-74582150D01*
X86280970Y-74604329D01*
X86289235Y-74627428D01*
X86295196Y-74651227D01*
X86298796Y-74675495D01*
X86300000Y-74699999D01*
X86300000Y-75350001D01*
X86298796Y-75374505D01*
X86295196Y-75398773D01*
X86289235Y-75422572D01*
X86280970Y-75445671D01*
X86270480Y-75467850D01*
X86257868Y-75488893D01*
X86243253Y-75508599D01*
X86226777Y-75526777D01*
X86208599Y-75543253D01*
X86188893Y-75557868D01*
X86167850Y-75570480D01*
X86145671Y-75580970D01*
X86122572Y-75589235D01*
X86098773Y-75595196D01*
X86074505Y-75598796D01*
X86050001Y-75600000D01*
X85149999Y-75600000D01*
X85125495Y-75598796D01*
X85101227Y-75595196D01*
X85077428Y-75589235D01*
X85054329Y-75580970D01*
X85032150Y-75570480D01*
X85011107Y-75557868D01*
X84991401Y-75543253D01*
X84973223Y-75526777D01*
X84956747Y-75508599D01*
X84942132Y-75488893D01*
X84929520Y-75467850D01*
X84919030Y-75445671D01*
X84910765Y-75422572D01*
X84904804Y-75398773D01*
X84901204Y-75374505D01*
X84900000Y-75350001D01*
X84900000Y-74699999D01*
X84901204Y-74675495D01*
X84904804Y-74651227D01*
X84910765Y-74627428D01*
X84919030Y-74604329D01*
X84929520Y-74582150D01*
X84942132Y-74561107D01*
X84956747Y-74541401D01*
X84973223Y-74523223D01*
X84991401Y-74506747D01*
X85011107Y-74492132D01*
X85032150Y-74479520D01*
X85054329Y-74469030D01*
X85077428Y-74460765D01*
X85101227Y-74454804D01*
X85125495Y-74451204D01*
X85149999Y-74450000D01*
X86050001Y-74450000D01*
X86074505Y-74451204D01*
X86074505Y-74451204D01*
G37*
D18*
X85600000Y-75025000D03*
D15*
G36*
X86074505Y-72401204D02*
X86098773Y-72404804D01*
X86122572Y-72410765D01*
X86145671Y-72419030D01*
X86167850Y-72429520D01*
X86188893Y-72442132D01*
X86208599Y-72456747D01*
X86226777Y-72473223D01*
X86243253Y-72491401D01*
X86257868Y-72511107D01*
X86270480Y-72532150D01*
X86280970Y-72554329D01*
X86289235Y-72577428D01*
X86295196Y-72601227D01*
X86298796Y-72625495D01*
X86300000Y-72649999D01*
X86300000Y-73300001D01*
X86298796Y-73324505D01*
X86295196Y-73348773D01*
X86289235Y-73372572D01*
X86280970Y-73395671D01*
X86270480Y-73417850D01*
X86257868Y-73438893D01*
X86243253Y-73458599D01*
X86226777Y-73476777D01*
X86208599Y-73493253D01*
X86188893Y-73507868D01*
X86167850Y-73520480D01*
X86145671Y-73530970D01*
X86122572Y-73539235D01*
X86098773Y-73545196D01*
X86074505Y-73548796D01*
X86050001Y-73550000D01*
X85149999Y-73550000D01*
X85125495Y-73548796D01*
X85101227Y-73545196D01*
X85077428Y-73539235D01*
X85054329Y-73530970D01*
X85032150Y-73520480D01*
X85011107Y-73507868D01*
X84991401Y-73493253D01*
X84973223Y-73476777D01*
X84956747Y-73458599D01*
X84942132Y-73438893D01*
X84929520Y-73417850D01*
X84919030Y-73395671D01*
X84910765Y-73372572D01*
X84904804Y-73348773D01*
X84901204Y-73324505D01*
X84900000Y-73300001D01*
X84900000Y-72649999D01*
X84901204Y-72625495D01*
X84904804Y-72601227D01*
X84910765Y-72577428D01*
X84919030Y-72554329D01*
X84929520Y-72532150D01*
X84942132Y-72511107D01*
X84956747Y-72491401D01*
X84973223Y-72473223D01*
X84991401Y-72456747D01*
X85011107Y-72442132D01*
X85032150Y-72429520D01*
X85054329Y-72419030D01*
X85077428Y-72410765D01*
X85101227Y-72404804D01*
X85125495Y-72401204D01*
X85149999Y-72400000D01*
X86050001Y-72400000D01*
X86074505Y-72401204D01*
X86074505Y-72401204D01*
G37*
D18*
X85600000Y-72975000D03*
G04 #@! TD*
D15*
G04 #@! TO.C,R15*
G36*
X84074505Y-74476204D02*
X84098773Y-74479804D01*
X84122572Y-74485765D01*
X84145671Y-74494030D01*
X84167850Y-74504520D01*
X84188893Y-74517132D01*
X84208599Y-74531747D01*
X84226777Y-74548223D01*
X84243253Y-74566401D01*
X84257868Y-74586107D01*
X84270480Y-74607150D01*
X84280970Y-74629329D01*
X84289235Y-74652428D01*
X84295196Y-74676227D01*
X84298796Y-74700495D01*
X84300000Y-74724999D01*
X84300000Y-75375001D01*
X84298796Y-75399505D01*
X84295196Y-75423773D01*
X84289235Y-75447572D01*
X84280970Y-75470671D01*
X84270480Y-75492850D01*
X84257868Y-75513893D01*
X84243253Y-75533599D01*
X84226777Y-75551777D01*
X84208599Y-75568253D01*
X84188893Y-75582868D01*
X84167850Y-75595480D01*
X84145671Y-75605970D01*
X84122572Y-75614235D01*
X84098773Y-75620196D01*
X84074505Y-75623796D01*
X84050001Y-75625000D01*
X83149999Y-75625000D01*
X83125495Y-75623796D01*
X83101227Y-75620196D01*
X83077428Y-75614235D01*
X83054329Y-75605970D01*
X83032150Y-75595480D01*
X83011107Y-75582868D01*
X82991401Y-75568253D01*
X82973223Y-75551777D01*
X82956747Y-75533599D01*
X82942132Y-75513893D01*
X82929520Y-75492850D01*
X82919030Y-75470671D01*
X82910765Y-75447572D01*
X82904804Y-75423773D01*
X82901204Y-75399505D01*
X82900000Y-75375001D01*
X82900000Y-74724999D01*
X82901204Y-74700495D01*
X82904804Y-74676227D01*
X82910765Y-74652428D01*
X82919030Y-74629329D01*
X82929520Y-74607150D01*
X82942132Y-74586107D01*
X82956747Y-74566401D01*
X82973223Y-74548223D01*
X82991401Y-74531747D01*
X83011107Y-74517132D01*
X83032150Y-74504520D01*
X83054329Y-74494030D01*
X83077428Y-74485765D01*
X83101227Y-74479804D01*
X83125495Y-74476204D01*
X83149999Y-74475000D01*
X84050001Y-74475000D01*
X84074505Y-74476204D01*
X84074505Y-74476204D01*
G37*
D18*
X83600000Y-75050000D03*
D15*
G36*
X84074505Y-72426204D02*
X84098773Y-72429804D01*
X84122572Y-72435765D01*
X84145671Y-72444030D01*
X84167850Y-72454520D01*
X84188893Y-72467132D01*
X84208599Y-72481747D01*
X84226777Y-72498223D01*
X84243253Y-72516401D01*
X84257868Y-72536107D01*
X84270480Y-72557150D01*
X84280970Y-72579329D01*
X84289235Y-72602428D01*
X84295196Y-72626227D01*
X84298796Y-72650495D01*
X84300000Y-72674999D01*
X84300000Y-73325001D01*
X84298796Y-73349505D01*
X84295196Y-73373773D01*
X84289235Y-73397572D01*
X84280970Y-73420671D01*
X84270480Y-73442850D01*
X84257868Y-73463893D01*
X84243253Y-73483599D01*
X84226777Y-73501777D01*
X84208599Y-73518253D01*
X84188893Y-73532868D01*
X84167850Y-73545480D01*
X84145671Y-73555970D01*
X84122572Y-73564235D01*
X84098773Y-73570196D01*
X84074505Y-73573796D01*
X84050001Y-73575000D01*
X83149999Y-73575000D01*
X83125495Y-73573796D01*
X83101227Y-73570196D01*
X83077428Y-73564235D01*
X83054329Y-73555970D01*
X83032150Y-73545480D01*
X83011107Y-73532868D01*
X82991401Y-73518253D01*
X82973223Y-73501777D01*
X82956747Y-73483599D01*
X82942132Y-73463893D01*
X82929520Y-73442850D01*
X82919030Y-73420671D01*
X82910765Y-73397572D01*
X82904804Y-73373773D01*
X82901204Y-73349505D01*
X82900000Y-73325001D01*
X82900000Y-72674999D01*
X82901204Y-72650495D01*
X82904804Y-72626227D01*
X82910765Y-72602428D01*
X82919030Y-72579329D01*
X82929520Y-72557150D01*
X82942132Y-72536107D01*
X82956747Y-72516401D01*
X82973223Y-72498223D01*
X82991401Y-72481747D01*
X83011107Y-72467132D01*
X83032150Y-72454520D01*
X83054329Y-72444030D01*
X83077428Y-72435765D01*
X83101227Y-72429804D01*
X83125495Y-72426204D01*
X83149999Y-72425000D01*
X84050001Y-72425000D01*
X84074505Y-72426204D01*
X84074505Y-72426204D01*
G37*
D18*
X83600000Y-73000000D03*
G04 #@! TD*
D15*
G04 #@! TO.C,R16*
G36*
X82074505Y-72426204D02*
X82098773Y-72429804D01*
X82122572Y-72435765D01*
X82145671Y-72444030D01*
X82167850Y-72454520D01*
X82188893Y-72467132D01*
X82208599Y-72481747D01*
X82226777Y-72498223D01*
X82243253Y-72516401D01*
X82257868Y-72536107D01*
X82270480Y-72557150D01*
X82280970Y-72579329D01*
X82289235Y-72602428D01*
X82295196Y-72626227D01*
X82298796Y-72650495D01*
X82300000Y-72674999D01*
X82300000Y-73325001D01*
X82298796Y-73349505D01*
X82295196Y-73373773D01*
X82289235Y-73397572D01*
X82280970Y-73420671D01*
X82270480Y-73442850D01*
X82257868Y-73463893D01*
X82243253Y-73483599D01*
X82226777Y-73501777D01*
X82208599Y-73518253D01*
X82188893Y-73532868D01*
X82167850Y-73545480D01*
X82145671Y-73555970D01*
X82122572Y-73564235D01*
X82098773Y-73570196D01*
X82074505Y-73573796D01*
X82050001Y-73575000D01*
X81149999Y-73575000D01*
X81125495Y-73573796D01*
X81101227Y-73570196D01*
X81077428Y-73564235D01*
X81054329Y-73555970D01*
X81032150Y-73545480D01*
X81011107Y-73532868D01*
X80991401Y-73518253D01*
X80973223Y-73501777D01*
X80956747Y-73483599D01*
X80942132Y-73463893D01*
X80929520Y-73442850D01*
X80919030Y-73420671D01*
X80910765Y-73397572D01*
X80904804Y-73373773D01*
X80901204Y-73349505D01*
X80900000Y-73325001D01*
X80900000Y-72674999D01*
X80901204Y-72650495D01*
X80904804Y-72626227D01*
X80910765Y-72602428D01*
X80919030Y-72579329D01*
X80929520Y-72557150D01*
X80942132Y-72536107D01*
X80956747Y-72516401D01*
X80973223Y-72498223D01*
X80991401Y-72481747D01*
X81011107Y-72467132D01*
X81032150Y-72454520D01*
X81054329Y-72444030D01*
X81077428Y-72435765D01*
X81101227Y-72429804D01*
X81125495Y-72426204D01*
X81149999Y-72425000D01*
X82050001Y-72425000D01*
X82074505Y-72426204D01*
X82074505Y-72426204D01*
G37*
D18*
X81600000Y-73000000D03*
D15*
G36*
X82074505Y-74476204D02*
X82098773Y-74479804D01*
X82122572Y-74485765D01*
X82145671Y-74494030D01*
X82167850Y-74504520D01*
X82188893Y-74517132D01*
X82208599Y-74531747D01*
X82226777Y-74548223D01*
X82243253Y-74566401D01*
X82257868Y-74586107D01*
X82270480Y-74607150D01*
X82280970Y-74629329D01*
X82289235Y-74652428D01*
X82295196Y-74676227D01*
X82298796Y-74700495D01*
X82300000Y-74724999D01*
X82300000Y-75375001D01*
X82298796Y-75399505D01*
X82295196Y-75423773D01*
X82289235Y-75447572D01*
X82280970Y-75470671D01*
X82270480Y-75492850D01*
X82257868Y-75513893D01*
X82243253Y-75533599D01*
X82226777Y-75551777D01*
X82208599Y-75568253D01*
X82188893Y-75582868D01*
X82167850Y-75595480D01*
X82145671Y-75605970D01*
X82122572Y-75614235D01*
X82098773Y-75620196D01*
X82074505Y-75623796D01*
X82050001Y-75625000D01*
X81149999Y-75625000D01*
X81125495Y-75623796D01*
X81101227Y-75620196D01*
X81077428Y-75614235D01*
X81054329Y-75605970D01*
X81032150Y-75595480D01*
X81011107Y-75582868D01*
X80991401Y-75568253D01*
X80973223Y-75551777D01*
X80956747Y-75533599D01*
X80942132Y-75513893D01*
X80929520Y-75492850D01*
X80919030Y-75470671D01*
X80910765Y-75447572D01*
X80904804Y-75423773D01*
X80901204Y-75399505D01*
X80900000Y-75375001D01*
X80900000Y-74724999D01*
X80901204Y-74700495D01*
X80904804Y-74676227D01*
X80910765Y-74652428D01*
X80919030Y-74629329D01*
X80929520Y-74607150D01*
X80942132Y-74586107D01*
X80956747Y-74566401D01*
X80973223Y-74548223D01*
X80991401Y-74531747D01*
X81011107Y-74517132D01*
X81032150Y-74504520D01*
X81054329Y-74494030D01*
X81077428Y-74485765D01*
X81101227Y-74479804D01*
X81125495Y-74476204D01*
X81149999Y-74475000D01*
X82050001Y-74475000D01*
X82074505Y-74476204D01*
X82074505Y-74476204D01*
G37*
D18*
X81600000Y-75050000D03*
G04 #@! TD*
D15*
G04 #@! TO.C,R17*
G36*
X80074505Y-74451204D02*
X80098773Y-74454804D01*
X80122572Y-74460765D01*
X80145671Y-74469030D01*
X80167850Y-74479520D01*
X80188893Y-74492132D01*
X80208599Y-74506747D01*
X80226777Y-74523223D01*
X80243253Y-74541401D01*
X80257868Y-74561107D01*
X80270480Y-74582150D01*
X80280970Y-74604329D01*
X80289235Y-74627428D01*
X80295196Y-74651227D01*
X80298796Y-74675495D01*
X80300000Y-74699999D01*
X80300000Y-75350001D01*
X80298796Y-75374505D01*
X80295196Y-75398773D01*
X80289235Y-75422572D01*
X80280970Y-75445671D01*
X80270480Y-75467850D01*
X80257868Y-75488893D01*
X80243253Y-75508599D01*
X80226777Y-75526777D01*
X80208599Y-75543253D01*
X80188893Y-75557868D01*
X80167850Y-75570480D01*
X80145671Y-75580970D01*
X80122572Y-75589235D01*
X80098773Y-75595196D01*
X80074505Y-75598796D01*
X80050001Y-75600000D01*
X79149999Y-75600000D01*
X79125495Y-75598796D01*
X79101227Y-75595196D01*
X79077428Y-75589235D01*
X79054329Y-75580970D01*
X79032150Y-75570480D01*
X79011107Y-75557868D01*
X78991401Y-75543253D01*
X78973223Y-75526777D01*
X78956747Y-75508599D01*
X78942132Y-75488893D01*
X78929520Y-75467850D01*
X78919030Y-75445671D01*
X78910765Y-75422572D01*
X78904804Y-75398773D01*
X78901204Y-75374505D01*
X78900000Y-75350001D01*
X78900000Y-74699999D01*
X78901204Y-74675495D01*
X78904804Y-74651227D01*
X78910765Y-74627428D01*
X78919030Y-74604329D01*
X78929520Y-74582150D01*
X78942132Y-74561107D01*
X78956747Y-74541401D01*
X78973223Y-74523223D01*
X78991401Y-74506747D01*
X79011107Y-74492132D01*
X79032150Y-74479520D01*
X79054329Y-74469030D01*
X79077428Y-74460765D01*
X79101227Y-74454804D01*
X79125495Y-74451204D01*
X79149999Y-74450000D01*
X80050001Y-74450000D01*
X80074505Y-74451204D01*
X80074505Y-74451204D01*
G37*
D18*
X79600000Y-75025000D03*
D15*
G36*
X80074505Y-72401204D02*
X80098773Y-72404804D01*
X80122572Y-72410765D01*
X80145671Y-72419030D01*
X80167850Y-72429520D01*
X80188893Y-72442132D01*
X80208599Y-72456747D01*
X80226777Y-72473223D01*
X80243253Y-72491401D01*
X80257868Y-72511107D01*
X80270480Y-72532150D01*
X80280970Y-72554329D01*
X80289235Y-72577428D01*
X80295196Y-72601227D01*
X80298796Y-72625495D01*
X80300000Y-72649999D01*
X80300000Y-73300001D01*
X80298796Y-73324505D01*
X80295196Y-73348773D01*
X80289235Y-73372572D01*
X80280970Y-73395671D01*
X80270480Y-73417850D01*
X80257868Y-73438893D01*
X80243253Y-73458599D01*
X80226777Y-73476777D01*
X80208599Y-73493253D01*
X80188893Y-73507868D01*
X80167850Y-73520480D01*
X80145671Y-73530970D01*
X80122572Y-73539235D01*
X80098773Y-73545196D01*
X80074505Y-73548796D01*
X80050001Y-73550000D01*
X79149999Y-73550000D01*
X79125495Y-73548796D01*
X79101227Y-73545196D01*
X79077428Y-73539235D01*
X79054329Y-73530970D01*
X79032150Y-73520480D01*
X79011107Y-73507868D01*
X78991401Y-73493253D01*
X78973223Y-73476777D01*
X78956747Y-73458599D01*
X78942132Y-73438893D01*
X78929520Y-73417850D01*
X78919030Y-73395671D01*
X78910765Y-73372572D01*
X78904804Y-73348773D01*
X78901204Y-73324505D01*
X78900000Y-73300001D01*
X78900000Y-72649999D01*
X78901204Y-72625495D01*
X78904804Y-72601227D01*
X78910765Y-72577428D01*
X78919030Y-72554329D01*
X78929520Y-72532150D01*
X78942132Y-72511107D01*
X78956747Y-72491401D01*
X78973223Y-72473223D01*
X78991401Y-72456747D01*
X79011107Y-72442132D01*
X79032150Y-72429520D01*
X79054329Y-72419030D01*
X79077428Y-72410765D01*
X79101227Y-72404804D01*
X79125495Y-72401204D01*
X79149999Y-72400000D01*
X80050001Y-72400000D01*
X80074505Y-72401204D01*
X80074505Y-72401204D01*
G37*
D18*
X79600000Y-72975000D03*
G04 #@! TD*
D15*
G04 #@! TO.C,R18*
G36*
X95674505Y-60451204D02*
X95698773Y-60454804D01*
X95722572Y-60460765D01*
X95745671Y-60469030D01*
X95767850Y-60479520D01*
X95788893Y-60492132D01*
X95808599Y-60506747D01*
X95826777Y-60523223D01*
X95843253Y-60541401D01*
X95857868Y-60561107D01*
X95870480Y-60582150D01*
X95880970Y-60604329D01*
X95889235Y-60627428D01*
X95895196Y-60651227D01*
X95898796Y-60675495D01*
X95900000Y-60699999D01*
X95900000Y-61350001D01*
X95898796Y-61374505D01*
X95895196Y-61398773D01*
X95889235Y-61422572D01*
X95880970Y-61445671D01*
X95870480Y-61467850D01*
X95857868Y-61488893D01*
X95843253Y-61508599D01*
X95826777Y-61526777D01*
X95808599Y-61543253D01*
X95788893Y-61557868D01*
X95767850Y-61570480D01*
X95745671Y-61580970D01*
X95722572Y-61589235D01*
X95698773Y-61595196D01*
X95674505Y-61598796D01*
X95650001Y-61600000D01*
X94749999Y-61600000D01*
X94725495Y-61598796D01*
X94701227Y-61595196D01*
X94677428Y-61589235D01*
X94654329Y-61580970D01*
X94632150Y-61570480D01*
X94611107Y-61557868D01*
X94591401Y-61543253D01*
X94573223Y-61526777D01*
X94556747Y-61508599D01*
X94542132Y-61488893D01*
X94529520Y-61467850D01*
X94519030Y-61445671D01*
X94510765Y-61422572D01*
X94504804Y-61398773D01*
X94501204Y-61374505D01*
X94500000Y-61350001D01*
X94500000Y-60699999D01*
X94501204Y-60675495D01*
X94504804Y-60651227D01*
X94510765Y-60627428D01*
X94519030Y-60604329D01*
X94529520Y-60582150D01*
X94542132Y-60561107D01*
X94556747Y-60541401D01*
X94573223Y-60523223D01*
X94591401Y-60506747D01*
X94611107Y-60492132D01*
X94632150Y-60479520D01*
X94654329Y-60469030D01*
X94677428Y-60460765D01*
X94701227Y-60454804D01*
X94725495Y-60451204D01*
X94749999Y-60450000D01*
X95650001Y-60450000D01*
X95674505Y-60451204D01*
X95674505Y-60451204D01*
G37*
D18*
X95200000Y-61025000D03*
D15*
G36*
X95674505Y-58401204D02*
X95698773Y-58404804D01*
X95722572Y-58410765D01*
X95745671Y-58419030D01*
X95767850Y-58429520D01*
X95788893Y-58442132D01*
X95808599Y-58456747D01*
X95826777Y-58473223D01*
X95843253Y-58491401D01*
X95857868Y-58511107D01*
X95870480Y-58532150D01*
X95880970Y-58554329D01*
X95889235Y-58577428D01*
X95895196Y-58601227D01*
X95898796Y-58625495D01*
X95900000Y-58649999D01*
X95900000Y-59300001D01*
X95898796Y-59324505D01*
X95895196Y-59348773D01*
X95889235Y-59372572D01*
X95880970Y-59395671D01*
X95870480Y-59417850D01*
X95857868Y-59438893D01*
X95843253Y-59458599D01*
X95826777Y-59476777D01*
X95808599Y-59493253D01*
X95788893Y-59507868D01*
X95767850Y-59520480D01*
X95745671Y-59530970D01*
X95722572Y-59539235D01*
X95698773Y-59545196D01*
X95674505Y-59548796D01*
X95650001Y-59550000D01*
X94749999Y-59550000D01*
X94725495Y-59548796D01*
X94701227Y-59545196D01*
X94677428Y-59539235D01*
X94654329Y-59530970D01*
X94632150Y-59520480D01*
X94611107Y-59507868D01*
X94591401Y-59493253D01*
X94573223Y-59476777D01*
X94556747Y-59458599D01*
X94542132Y-59438893D01*
X94529520Y-59417850D01*
X94519030Y-59395671D01*
X94510765Y-59372572D01*
X94504804Y-59348773D01*
X94501204Y-59324505D01*
X94500000Y-59300001D01*
X94500000Y-58649999D01*
X94501204Y-58625495D01*
X94504804Y-58601227D01*
X94510765Y-58577428D01*
X94519030Y-58554329D01*
X94529520Y-58532150D01*
X94542132Y-58511107D01*
X94556747Y-58491401D01*
X94573223Y-58473223D01*
X94591401Y-58456747D01*
X94611107Y-58442132D01*
X94632150Y-58429520D01*
X94654329Y-58419030D01*
X94677428Y-58410765D01*
X94701227Y-58404804D01*
X94725495Y-58401204D01*
X94749999Y-58400000D01*
X95650001Y-58400000D01*
X95674505Y-58401204D01*
X95674505Y-58401204D01*
G37*
D18*
X95200000Y-58975000D03*
G04 #@! TD*
D15*
G04 #@! TO.C,R19*
G36*
X85874505Y-59001204D02*
X85898773Y-59004804D01*
X85922572Y-59010765D01*
X85945671Y-59019030D01*
X85967850Y-59029520D01*
X85988893Y-59042132D01*
X86008599Y-59056747D01*
X86026777Y-59073223D01*
X86043253Y-59091401D01*
X86057868Y-59111107D01*
X86070480Y-59132150D01*
X86080970Y-59154329D01*
X86089235Y-59177428D01*
X86095196Y-59201227D01*
X86098796Y-59225495D01*
X86100000Y-59249999D01*
X86100000Y-59900001D01*
X86098796Y-59924505D01*
X86095196Y-59948773D01*
X86089235Y-59972572D01*
X86080970Y-59995671D01*
X86070480Y-60017850D01*
X86057868Y-60038893D01*
X86043253Y-60058599D01*
X86026777Y-60076777D01*
X86008599Y-60093253D01*
X85988893Y-60107868D01*
X85967850Y-60120480D01*
X85945671Y-60130970D01*
X85922572Y-60139235D01*
X85898773Y-60145196D01*
X85874505Y-60148796D01*
X85850001Y-60150000D01*
X84949999Y-60150000D01*
X84925495Y-60148796D01*
X84901227Y-60145196D01*
X84877428Y-60139235D01*
X84854329Y-60130970D01*
X84832150Y-60120480D01*
X84811107Y-60107868D01*
X84791401Y-60093253D01*
X84773223Y-60076777D01*
X84756747Y-60058599D01*
X84742132Y-60038893D01*
X84729520Y-60017850D01*
X84719030Y-59995671D01*
X84710765Y-59972572D01*
X84704804Y-59948773D01*
X84701204Y-59924505D01*
X84700000Y-59900001D01*
X84700000Y-59249999D01*
X84701204Y-59225495D01*
X84704804Y-59201227D01*
X84710765Y-59177428D01*
X84719030Y-59154329D01*
X84729520Y-59132150D01*
X84742132Y-59111107D01*
X84756747Y-59091401D01*
X84773223Y-59073223D01*
X84791401Y-59056747D01*
X84811107Y-59042132D01*
X84832150Y-59029520D01*
X84854329Y-59019030D01*
X84877428Y-59010765D01*
X84901227Y-59004804D01*
X84925495Y-59001204D01*
X84949999Y-59000000D01*
X85850001Y-59000000D01*
X85874505Y-59001204D01*
X85874505Y-59001204D01*
G37*
D18*
X85400000Y-59575000D03*
D15*
G36*
X85874505Y-61051204D02*
X85898773Y-61054804D01*
X85922572Y-61060765D01*
X85945671Y-61069030D01*
X85967850Y-61079520D01*
X85988893Y-61092132D01*
X86008599Y-61106747D01*
X86026777Y-61123223D01*
X86043253Y-61141401D01*
X86057868Y-61161107D01*
X86070480Y-61182150D01*
X86080970Y-61204329D01*
X86089235Y-61227428D01*
X86095196Y-61251227D01*
X86098796Y-61275495D01*
X86100000Y-61299999D01*
X86100000Y-61950001D01*
X86098796Y-61974505D01*
X86095196Y-61998773D01*
X86089235Y-62022572D01*
X86080970Y-62045671D01*
X86070480Y-62067850D01*
X86057868Y-62088893D01*
X86043253Y-62108599D01*
X86026777Y-62126777D01*
X86008599Y-62143253D01*
X85988893Y-62157868D01*
X85967850Y-62170480D01*
X85945671Y-62180970D01*
X85922572Y-62189235D01*
X85898773Y-62195196D01*
X85874505Y-62198796D01*
X85850001Y-62200000D01*
X84949999Y-62200000D01*
X84925495Y-62198796D01*
X84901227Y-62195196D01*
X84877428Y-62189235D01*
X84854329Y-62180970D01*
X84832150Y-62170480D01*
X84811107Y-62157868D01*
X84791401Y-62143253D01*
X84773223Y-62126777D01*
X84756747Y-62108599D01*
X84742132Y-62088893D01*
X84729520Y-62067850D01*
X84719030Y-62045671D01*
X84710765Y-62022572D01*
X84704804Y-61998773D01*
X84701204Y-61974505D01*
X84700000Y-61950001D01*
X84700000Y-61299999D01*
X84701204Y-61275495D01*
X84704804Y-61251227D01*
X84710765Y-61227428D01*
X84719030Y-61204329D01*
X84729520Y-61182150D01*
X84742132Y-61161107D01*
X84756747Y-61141401D01*
X84773223Y-61123223D01*
X84791401Y-61106747D01*
X84811107Y-61092132D01*
X84832150Y-61079520D01*
X84854329Y-61069030D01*
X84877428Y-61060765D01*
X84901227Y-61054804D01*
X84925495Y-61051204D01*
X84949999Y-61050000D01*
X85850001Y-61050000D01*
X85874505Y-61051204D01*
X85874505Y-61051204D01*
G37*
D18*
X85400000Y-61625000D03*
G04 #@! TD*
D15*
G04 #@! TO.C,R20*
G36*
X114474505Y-88801204D02*
X114498773Y-88804804D01*
X114522572Y-88810765D01*
X114545671Y-88819030D01*
X114567850Y-88829520D01*
X114588893Y-88842132D01*
X114608599Y-88856747D01*
X114626777Y-88873223D01*
X114643253Y-88891401D01*
X114657868Y-88911107D01*
X114670480Y-88932150D01*
X114680970Y-88954329D01*
X114689235Y-88977428D01*
X114695196Y-89001227D01*
X114698796Y-89025495D01*
X114700000Y-89049999D01*
X114700000Y-89700001D01*
X114698796Y-89724505D01*
X114695196Y-89748773D01*
X114689235Y-89772572D01*
X114680970Y-89795671D01*
X114670480Y-89817850D01*
X114657868Y-89838893D01*
X114643253Y-89858599D01*
X114626777Y-89876777D01*
X114608599Y-89893253D01*
X114588893Y-89907868D01*
X114567850Y-89920480D01*
X114545671Y-89930970D01*
X114522572Y-89939235D01*
X114498773Y-89945196D01*
X114474505Y-89948796D01*
X114450001Y-89950000D01*
X113549999Y-89950000D01*
X113525495Y-89948796D01*
X113501227Y-89945196D01*
X113477428Y-89939235D01*
X113454329Y-89930970D01*
X113432150Y-89920480D01*
X113411107Y-89907868D01*
X113391401Y-89893253D01*
X113373223Y-89876777D01*
X113356747Y-89858599D01*
X113342132Y-89838893D01*
X113329520Y-89817850D01*
X113319030Y-89795671D01*
X113310765Y-89772572D01*
X113304804Y-89748773D01*
X113301204Y-89724505D01*
X113300000Y-89700001D01*
X113300000Y-89049999D01*
X113301204Y-89025495D01*
X113304804Y-89001227D01*
X113310765Y-88977428D01*
X113319030Y-88954329D01*
X113329520Y-88932150D01*
X113342132Y-88911107D01*
X113356747Y-88891401D01*
X113373223Y-88873223D01*
X113391401Y-88856747D01*
X113411107Y-88842132D01*
X113432150Y-88829520D01*
X113454329Y-88819030D01*
X113477428Y-88810765D01*
X113501227Y-88804804D01*
X113525495Y-88801204D01*
X113549999Y-88800000D01*
X114450001Y-88800000D01*
X114474505Y-88801204D01*
X114474505Y-88801204D01*
G37*
D18*
X114000000Y-89375000D03*
D15*
G36*
X114474505Y-90851204D02*
X114498773Y-90854804D01*
X114522572Y-90860765D01*
X114545671Y-90869030D01*
X114567850Y-90879520D01*
X114588893Y-90892132D01*
X114608599Y-90906747D01*
X114626777Y-90923223D01*
X114643253Y-90941401D01*
X114657868Y-90961107D01*
X114670480Y-90982150D01*
X114680970Y-91004329D01*
X114689235Y-91027428D01*
X114695196Y-91051227D01*
X114698796Y-91075495D01*
X114700000Y-91099999D01*
X114700000Y-91750001D01*
X114698796Y-91774505D01*
X114695196Y-91798773D01*
X114689235Y-91822572D01*
X114680970Y-91845671D01*
X114670480Y-91867850D01*
X114657868Y-91888893D01*
X114643253Y-91908599D01*
X114626777Y-91926777D01*
X114608599Y-91943253D01*
X114588893Y-91957868D01*
X114567850Y-91970480D01*
X114545671Y-91980970D01*
X114522572Y-91989235D01*
X114498773Y-91995196D01*
X114474505Y-91998796D01*
X114450001Y-92000000D01*
X113549999Y-92000000D01*
X113525495Y-91998796D01*
X113501227Y-91995196D01*
X113477428Y-91989235D01*
X113454329Y-91980970D01*
X113432150Y-91970480D01*
X113411107Y-91957868D01*
X113391401Y-91943253D01*
X113373223Y-91926777D01*
X113356747Y-91908599D01*
X113342132Y-91888893D01*
X113329520Y-91867850D01*
X113319030Y-91845671D01*
X113310765Y-91822572D01*
X113304804Y-91798773D01*
X113301204Y-91774505D01*
X113300000Y-91750001D01*
X113300000Y-91099999D01*
X113301204Y-91075495D01*
X113304804Y-91051227D01*
X113310765Y-91027428D01*
X113319030Y-91004329D01*
X113329520Y-90982150D01*
X113342132Y-90961107D01*
X113356747Y-90941401D01*
X113373223Y-90923223D01*
X113391401Y-90906747D01*
X113411107Y-90892132D01*
X113432150Y-90879520D01*
X113454329Y-90869030D01*
X113477428Y-90860765D01*
X113501227Y-90854804D01*
X113525495Y-90851204D01*
X113549999Y-90850000D01*
X114450001Y-90850000D01*
X114474505Y-90851204D01*
X114474505Y-90851204D01*
G37*
D18*
X114000000Y-91425000D03*
G04 #@! TD*
D15*
G04 #@! TO.C,R21*
G36*
X101524505Y-88663028D02*
X101548773Y-88666628D01*
X101572572Y-88672589D01*
X101595671Y-88680854D01*
X101617850Y-88691344D01*
X101638893Y-88703956D01*
X101658599Y-88718571D01*
X101676777Y-88735047D01*
X101693253Y-88753225D01*
X101707868Y-88772931D01*
X101720480Y-88793974D01*
X101730970Y-88816153D01*
X101739235Y-88839252D01*
X101745196Y-88863051D01*
X101748796Y-88887319D01*
X101750000Y-88911823D01*
X101750000Y-89811825D01*
X101748796Y-89836329D01*
X101745196Y-89860597D01*
X101739235Y-89884396D01*
X101730970Y-89907495D01*
X101720480Y-89929674D01*
X101707868Y-89950717D01*
X101693253Y-89970423D01*
X101676777Y-89988601D01*
X101658599Y-90005077D01*
X101638893Y-90019692D01*
X101617850Y-90032304D01*
X101595671Y-90042794D01*
X101572572Y-90051059D01*
X101548773Y-90057020D01*
X101524505Y-90060620D01*
X101500001Y-90061824D01*
X100849999Y-90061824D01*
X100825495Y-90060620D01*
X100801227Y-90057020D01*
X100777428Y-90051059D01*
X100754329Y-90042794D01*
X100732150Y-90032304D01*
X100711107Y-90019692D01*
X100691401Y-90005077D01*
X100673223Y-89988601D01*
X100656747Y-89970423D01*
X100642132Y-89950717D01*
X100629520Y-89929674D01*
X100619030Y-89907495D01*
X100610765Y-89884396D01*
X100604804Y-89860597D01*
X100601204Y-89836329D01*
X100600000Y-89811825D01*
X100600000Y-88911823D01*
X100601204Y-88887319D01*
X100604804Y-88863051D01*
X100610765Y-88839252D01*
X100619030Y-88816153D01*
X100629520Y-88793974D01*
X100642132Y-88772931D01*
X100656747Y-88753225D01*
X100673223Y-88735047D01*
X100691401Y-88718571D01*
X100711107Y-88703956D01*
X100732150Y-88691344D01*
X100754329Y-88680854D01*
X100777428Y-88672589D01*
X100801227Y-88666628D01*
X100825495Y-88663028D01*
X100849999Y-88661824D01*
X101500001Y-88661824D01*
X101524505Y-88663028D01*
X101524505Y-88663028D01*
G37*
D18*
X101175000Y-89361824D03*
D15*
G36*
X103574505Y-88663028D02*
X103598773Y-88666628D01*
X103622572Y-88672589D01*
X103645671Y-88680854D01*
X103667850Y-88691344D01*
X103688893Y-88703956D01*
X103708599Y-88718571D01*
X103726777Y-88735047D01*
X103743253Y-88753225D01*
X103757868Y-88772931D01*
X103770480Y-88793974D01*
X103780970Y-88816153D01*
X103789235Y-88839252D01*
X103795196Y-88863051D01*
X103798796Y-88887319D01*
X103800000Y-88911823D01*
X103800000Y-89811825D01*
X103798796Y-89836329D01*
X103795196Y-89860597D01*
X103789235Y-89884396D01*
X103780970Y-89907495D01*
X103770480Y-89929674D01*
X103757868Y-89950717D01*
X103743253Y-89970423D01*
X103726777Y-89988601D01*
X103708599Y-90005077D01*
X103688893Y-90019692D01*
X103667850Y-90032304D01*
X103645671Y-90042794D01*
X103622572Y-90051059D01*
X103598773Y-90057020D01*
X103574505Y-90060620D01*
X103550001Y-90061824D01*
X102899999Y-90061824D01*
X102875495Y-90060620D01*
X102851227Y-90057020D01*
X102827428Y-90051059D01*
X102804329Y-90042794D01*
X102782150Y-90032304D01*
X102761107Y-90019692D01*
X102741401Y-90005077D01*
X102723223Y-89988601D01*
X102706747Y-89970423D01*
X102692132Y-89950717D01*
X102679520Y-89929674D01*
X102669030Y-89907495D01*
X102660765Y-89884396D01*
X102654804Y-89860597D01*
X102651204Y-89836329D01*
X102650000Y-89811825D01*
X102650000Y-88911823D01*
X102651204Y-88887319D01*
X102654804Y-88863051D01*
X102660765Y-88839252D01*
X102669030Y-88816153D01*
X102679520Y-88793974D01*
X102692132Y-88772931D01*
X102706747Y-88753225D01*
X102723223Y-88735047D01*
X102741401Y-88718571D01*
X102761107Y-88703956D01*
X102782150Y-88691344D01*
X102804329Y-88680854D01*
X102827428Y-88672589D01*
X102851227Y-88666628D01*
X102875495Y-88663028D01*
X102899999Y-88661824D01*
X103550001Y-88661824D01*
X103574505Y-88663028D01*
X103574505Y-88663028D01*
G37*
D18*
X103225000Y-89361824D03*
G04 #@! TD*
D15*
G04 #@! TO.C,R22*
G36*
X103574505Y-90701204D02*
X103598773Y-90704804D01*
X103622572Y-90710765D01*
X103645671Y-90719030D01*
X103667850Y-90729520D01*
X103688893Y-90742132D01*
X103708599Y-90756747D01*
X103726777Y-90773223D01*
X103743253Y-90791401D01*
X103757868Y-90811107D01*
X103770480Y-90832150D01*
X103780970Y-90854329D01*
X103789235Y-90877428D01*
X103795196Y-90901227D01*
X103798796Y-90925495D01*
X103800000Y-90949999D01*
X103800000Y-91850001D01*
X103798796Y-91874505D01*
X103795196Y-91898773D01*
X103789235Y-91922572D01*
X103780970Y-91945671D01*
X103770480Y-91967850D01*
X103757868Y-91988893D01*
X103743253Y-92008599D01*
X103726777Y-92026777D01*
X103708599Y-92043253D01*
X103688893Y-92057868D01*
X103667850Y-92070480D01*
X103645671Y-92080970D01*
X103622572Y-92089235D01*
X103598773Y-92095196D01*
X103574505Y-92098796D01*
X103550001Y-92100000D01*
X102899999Y-92100000D01*
X102875495Y-92098796D01*
X102851227Y-92095196D01*
X102827428Y-92089235D01*
X102804329Y-92080970D01*
X102782150Y-92070480D01*
X102761107Y-92057868D01*
X102741401Y-92043253D01*
X102723223Y-92026777D01*
X102706747Y-92008599D01*
X102692132Y-91988893D01*
X102679520Y-91967850D01*
X102669030Y-91945671D01*
X102660765Y-91922572D01*
X102654804Y-91898773D01*
X102651204Y-91874505D01*
X102650000Y-91850001D01*
X102650000Y-90949999D01*
X102651204Y-90925495D01*
X102654804Y-90901227D01*
X102660765Y-90877428D01*
X102669030Y-90854329D01*
X102679520Y-90832150D01*
X102692132Y-90811107D01*
X102706747Y-90791401D01*
X102723223Y-90773223D01*
X102741401Y-90756747D01*
X102761107Y-90742132D01*
X102782150Y-90729520D01*
X102804329Y-90719030D01*
X102827428Y-90710765D01*
X102851227Y-90704804D01*
X102875495Y-90701204D01*
X102899999Y-90700000D01*
X103550001Y-90700000D01*
X103574505Y-90701204D01*
X103574505Y-90701204D01*
G37*
D18*
X103225000Y-91400000D03*
D15*
G36*
X101524505Y-90701204D02*
X101548773Y-90704804D01*
X101572572Y-90710765D01*
X101595671Y-90719030D01*
X101617850Y-90729520D01*
X101638893Y-90742132D01*
X101658599Y-90756747D01*
X101676777Y-90773223D01*
X101693253Y-90791401D01*
X101707868Y-90811107D01*
X101720480Y-90832150D01*
X101730970Y-90854329D01*
X101739235Y-90877428D01*
X101745196Y-90901227D01*
X101748796Y-90925495D01*
X101750000Y-90949999D01*
X101750000Y-91850001D01*
X101748796Y-91874505D01*
X101745196Y-91898773D01*
X101739235Y-91922572D01*
X101730970Y-91945671D01*
X101720480Y-91967850D01*
X101707868Y-91988893D01*
X101693253Y-92008599D01*
X101676777Y-92026777D01*
X101658599Y-92043253D01*
X101638893Y-92057868D01*
X101617850Y-92070480D01*
X101595671Y-92080970D01*
X101572572Y-92089235D01*
X101548773Y-92095196D01*
X101524505Y-92098796D01*
X101500001Y-92100000D01*
X100849999Y-92100000D01*
X100825495Y-92098796D01*
X100801227Y-92095196D01*
X100777428Y-92089235D01*
X100754329Y-92080970D01*
X100732150Y-92070480D01*
X100711107Y-92057868D01*
X100691401Y-92043253D01*
X100673223Y-92026777D01*
X100656747Y-92008599D01*
X100642132Y-91988893D01*
X100629520Y-91967850D01*
X100619030Y-91945671D01*
X100610765Y-91922572D01*
X100604804Y-91898773D01*
X100601204Y-91874505D01*
X100600000Y-91850001D01*
X100600000Y-90949999D01*
X100601204Y-90925495D01*
X100604804Y-90901227D01*
X100610765Y-90877428D01*
X100619030Y-90854329D01*
X100629520Y-90832150D01*
X100642132Y-90811107D01*
X100656747Y-90791401D01*
X100673223Y-90773223D01*
X100691401Y-90756747D01*
X100711107Y-90742132D01*
X100732150Y-90729520D01*
X100754329Y-90719030D01*
X100777428Y-90710765D01*
X100801227Y-90704804D01*
X100825495Y-90701204D01*
X100849999Y-90700000D01*
X101500001Y-90700000D01*
X101524505Y-90701204D01*
X101524505Y-90701204D01*
G37*
D18*
X101175000Y-91400000D03*
G04 #@! TD*
D23*
G04 #@! TO.C,U1*
X88733000Y-94086974D03*
X87783000Y-94086974D03*
X89683000Y-94086974D03*
X89683000Y-91386974D03*
X88733000Y-91386974D03*
X87783000Y-91386974D03*
G04 #@! TD*
D22*
G04 #@! TO.C,U2*
X69883000Y-94586974D03*
X69883000Y-95536974D03*
X69883000Y-96486974D03*
X67183000Y-96486974D03*
X67183000Y-94586974D03*
G04 #@! TD*
G04 #@! TO.C,U4*
X104383000Y-83286974D03*
X104383000Y-82336974D03*
X104383000Y-81386974D03*
X107083000Y-81386974D03*
X107083000Y-83286974D03*
X107083000Y-82336974D03*
G04 #@! TD*
D24*
G04 #@! TO.C,U6*
X111233000Y-88431974D03*
X111233000Y-89701974D03*
X111233000Y-90971974D03*
X111233000Y-92241974D03*
X105833000Y-92241974D03*
X105833000Y-90971974D03*
X105833000Y-89701974D03*
X105833000Y-88431974D03*
D25*
X107933000Y-91136974D03*
X107933000Y-89536974D03*
X109133000Y-91136974D03*
X109133000Y-89536974D03*
G04 #@! TD*
D26*
G04 #@! TO.C,J7*
X110200000Y-99625000D03*
D27*
X110900000Y-100150000D03*
X106900000Y-100150000D03*
D28*
X106075000Y-102300000D03*
X111725000Y-102300000D03*
D26*
X109550000Y-99625000D03*
X108900000Y-99625000D03*
X108250000Y-99625000D03*
X107600000Y-99625000D03*
G04 #@! TD*
D15*
G04 #@! TO.C,R23*
G36*
X67874505Y-78801204D02*
X67898773Y-78804804D01*
X67922572Y-78810765D01*
X67945671Y-78819030D01*
X67967850Y-78829520D01*
X67988893Y-78842132D01*
X68008599Y-78856747D01*
X68026777Y-78873223D01*
X68043253Y-78891401D01*
X68057868Y-78911107D01*
X68070480Y-78932150D01*
X68080970Y-78954329D01*
X68089235Y-78977428D01*
X68095196Y-79001227D01*
X68098796Y-79025495D01*
X68100000Y-79049999D01*
X68100000Y-79950001D01*
X68098796Y-79974505D01*
X68095196Y-79998773D01*
X68089235Y-80022572D01*
X68080970Y-80045671D01*
X68070480Y-80067850D01*
X68057868Y-80088893D01*
X68043253Y-80108599D01*
X68026777Y-80126777D01*
X68008599Y-80143253D01*
X67988893Y-80157868D01*
X67967850Y-80170480D01*
X67945671Y-80180970D01*
X67922572Y-80189235D01*
X67898773Y-80195196D01*
X67874505Y-80198796D01*
X67850001Y-80200000D01*
X67199999Y-80200000D01*
X67175495Y-80198796D01*
X67151227Y-80195196D01*
X67127428Y-80189235D01*
X67104329Y-80180970D01*
X67082150Y-80170480D01*
X67061107Y-80157868D01*
X67041401Y-80143253D01*
X67023223Y-80126777D01*
X67006747Y-80108599D01*
X66992132Y-80088893D01*
X66979520Y-80067850D01*
X66969030Y-80045671D01*
X66960765Y-80022572D01*
X66954804Y-79998773D01*
X66951204Y-79974505D01*
X66950000Y-79950001D01*
X66950000Y-79049999D01*
X66951204Y-79025495D01*
X66954804Y-79001227D01*
X66960765Y-78977428D01*
X66969030Y-78954329D01*
X66979520Y-78932150D01*
X66992132Y-78911107D01*
X67006747Y-78891401D01*
X67023223Y-78873223D01*
X67041401Y-78856747D01*
X67061107Y-78842132D01*
X67082150Y-78829520D01*
X67104329Y-78819030D01*
X67127428Y-78810765D01*
X67151227Y-78804804D01*
X67175495Y-78801204D01*
X67199999Y-78800000D01*
X67850001Y-78800000D01*
X67874505Y-78801204D01*
X67874505Y-78801204D01*
G37*
D18*
X67525000Y-79500000D03*
D15*
G36*
X65824505Y-78801204D02*
X65848773Y-78804804D01*
X65872572Y-78810765D01*
X65895671Y-78819030D01*
X65917850Y-78829520D01*
X65938893Y-78842132D01*
X65958599Y-78856747D01*
X65976777Y-78873223D01*
X65993253Y-78891401D01*
X66007868Y-78911107D01*
X66020480Y-78932150D01*
X66030970Y-78954329D01*
X66039235Y-78977428D01*
X66045196Y-79001227D01*
X66048796Y-79025495D01*
X66050000Y-79049999D01*
X66050000Y-79950001D01*
X66048796Y-79974505D01*
X66045196Y-79998773D01*
X66039235Y-80022572D01*
X66030970Y-80045671D01*
X66020480Y-80067850D01*
X66007868Y-80088893D01*
X65993253Y-80108599D01*
X65976777Y-80126777D01*
X65958599Y-80143253D01*
X65938893Y-80157868D01*
X65917850Y-80170480D01*
X65895671Y-80180970D01*
X65872572Y-80189235D01*
X65848773Y-80195196D01*
X65824505Y-80198796D01*
X65800001Y-80200000D01*
X65149999Y-80200000D01*
X65125495Y-80198796D01*
X65101227Y-80195196D01*
X65077428Y-80189235D01*
X65054329Y-80180970D01*
X65032150Y-80170480D01*
X65011107Y-80157868D01*
X64991401Y-80143253D01*
X64973223Y-80126777D01*
X64956747Y-80108599D01*
X64942132Y-80088893D01*
X64929520Y-80067850D01*
X64919030Y-80045671D01*
X64910765Y-80022572D01*
X64904804Y-79998773D01*
X64901204Y-79974505D01*
X64900000Y-79950001D01*
X64900000Y-79049999D01*
X64901204Y-79025495D01*
X64904804Y-79001227D01*
X64910765Y-78977428D01*
X64919030Y-78954329D01*
X64929520Y-78932150D01*
X64942132Y-78911107D01*
X64956747Y-78891401D01*
X64973223Y-78873223D01*
X64991401Y-78856747D01*
X65011107Y-78842132D01*
X65032150Y-78829520D01*
X65054329Y-78819030D01*
X65077428Y-78810765D01*
X65101227Y-78804804D01*
X65125495Y-78801204D01*
X65149999Y-78800000D01*
X65800001Y-78800000D01*
X65824505Y-78801204D01*
X65824505Y-78801204D01*
G37*
D18*
X65475000Y-79500000D03*
G04 #@! TD*
D15*
G04 #@! TO.C,R24*
G36*
X65824505Y-76501204D02*
X65848773Y-76504804D01*
X65872572Y-76510765D01*
X65895671Y-76519030D01*
X65917850Y-76529520D01*
X65938893Y-76542132D01*
X65958599Y-76556747D01*
X65976777Y-76573223D01*
X65993253Y-76591401D01*
X66007868Y-76611107D01*
X66020480Y-76632150D01*
X66030970Y-76654329D01*
X66039235Y-76677428D01*
X66045196Y-76701227D01*
X66048796Y-76725495D01*
X66050000Y-76749999D01*
X66050000Y-77650001D01*
X66048796Y-77674505D01*
X66045196Y-77698773D01*
X66039235Y-77722572D01*
X66030970Y-77745671D01*
X66020480Y-77767850D01*
X66007868Y-77788893D01*
X65993253Y-77808599D01*
X65976777Y-77826777D01*
X65958599Y-77843253D01*
X65938893Y-77857868D01*
X65917850Y-77870480D01*
X65895671Y-77880970D01*
X65872572Y-77889235D01*
X65848773Y-77895196D01*
X65824505Y-77898796D01*
X65800001Y-77900000D01*
X65149999Y-77900000D01*
X65125495Y-77898796D01*
X65101227Y-77895196D01*
X65077428Y-77889235D01*
X65054329Y-77880970D01*
X65032150Y-77870480D01*
X65011107Y-77857868D01*
X64991401Y-77843253D01*
X64973223Y-77826777D01*
X64956747Y-77808599D01*
X64942132Y-77788893D01*
X64929520Y-77767850D01*
X64919030Y-77745671D01*
X64910765Y-77722572D01*
X64904804Y-77698773D01*
X64901204Y-77674505D01*
X64900000Y-77650001D01*
X64900000Y-76749999D01*
X64901204Y-76725495D01*
X64904804Y-76701227D01*
X64910765Y-76677428D01*
X64919030Y-76654329D01*
X64929520Y-76632150D01*
X64942132Y-76611107D01*
X64956747Y-76591401D01*
X64973223Y-76573223D01*
X64991401Y-76556747D01*
X65011107Y-76542132D01*
X65032150Y-76529520D01*
X65054329Y-76519030D01*
X65077428Y-76510765D01*
X65101227Y-76504804D01*
X65125495Y-76501204D01*
X65149999Y-76500000D01*
X65800001Y-76500000D01*
X65824505Y-76501204D01*
X65824505Y-76501204D01*
G37*
D18*
X65475000Y-77200000D03*
D15*
G36*
X67874505Y-76501204D02*
X67898773Y-76504804D01*
X67922572Y-76510765D01*
X67945671Y-76519030D01*
X67967850Y-76529520D01*
X67988893Y-76542132D01*
X68008599Y-76556747D01*
X68026777Y-76573223D01*
X68043253Y-76591401D01*
X68057868Y-76611107D01*
X68070480Y-76632150D01*
X68080970Y-76654329D01*
X68089235Y-76677428D01*
X68095196Y-76701227D01*
X68098796Y-76725495D01*
X68100000Y-76749999D01*
X68100000Y-77650001D01*
X68098796Y-77674505D01*
X68095196Y-77698773D01*
X68089235Y-77722572D01*
X68080970Y-77745671D01*
X68070480Y-77767850D01*
X68057868Y-77788893D01*
X68043253Y-77808599D01*
X68026777Y-77826777D01*
X68008599Y-77843253D01*
X67988893Y-77857868D01*
X67967850Y-77870480D01*
X67945671Y-77880970D01*
X67922572Y-77889235D01*
X67898773Y-77895196D01*
X67874505Y-77898796D01*
X67850001Y-77900000D01*
X67199999Y-77900000D01*
X67175495Y-77898796D01*
X67151227Y-77895196D01*
X67127428Y-77889235D01*
X67104329Y-77880970D01*
X67082150Y-77870480D01*
X67061107Y-77857868D01*
X67041401Y-77843253D01*
X67023223Y-77826777D01*
X67006747Y-77808599D01*
X66992132Y-77788893D01*
X66979520Y-77767850D01*
X66969030Y-77745671D01*
X66960765Y-77722572D01*
X66954804Y-77698773D01*
X66951204Y-77674505D01*
X66950000Y-77650001D01*
X66950000Y-76749999D01*
X66951204Y-76725495D01*
X66954804Y-76701227D01*
X66960765Y-76677428D01*
X66969030Y-76654329D01*
X66979520Y-76632150D01*
X66992132Y-76611107D01*
X67006747Y-76591401D01*
X67023223Y-76573223D01*
X67041401Y-76556747D01*
X67061107Y-76542132D01*
X67082150Y-76529520D01*
X67104329Y-76519030D01*
X67127428Y-76510765D01*
X67151227Y-76504804D01*
X67175495Y-76501204D01*
X67199999Y-76500000D01*
X67850001Y-76500000D01*
X67874505Y-76501204D01*
X67874505Y-76501204D01*
G37*
D18*
X67525000Y-77200000D03*
G04 #@! TD*
D15*
G04 #@! TO.C,R25*
G36*
X67874505Y-74401204D02*
X67898773Y-74404804D01*
X67922572Y-74410765D01*
X67945671Y-74419030D01*
X67967850Y-74429520D01*
X67988893Y-74442132D01*
X68008599Y-74456747D01*
X68026777Y-74473223D01*
X68043253Y-74491401D01*
X68057868Y-74511107D01*
X68070480Y-74532150D01*
X68080970Y-74554329D01*
X68089235Y-74577428D01*
X68095196Y-74601227D01*
X68098796Y-74625495D01*
X68100000Y-74649999D01*
X68100000Y-75550001D01*
X68098796Y-75574505D01*
X68095196Y-75598773D01*
X68089235Y-75622572D01*
X68080970Y-75645671D01*
X68070480Y-75667850D01*
X68057868Y-75688893D01*
X68043253Y-75708599D01*
X68026777Y-75726777D01*
X68008599Y-75743253D01*
X67988893Y-75757868D01*
X67967850Y-75770480D01*
X67945671Y-75780970D01*
X67922572Y-75789235D01*
X67898773Y-75795196D01*
X67874505Y-75798796D01*
X67850001Y-75800000D01*
X67199999Y-75800000D01*
X67175495Y-75798796D01*
X67151227Y-75795196D01*
X67127428Y-75789235D01*
X67104329Y-75780970D01*
X67082150Y-75770480D01*
X67061107Y-75757868D01*
X67041401Y-75743253D01*
X67023223Y-75726777D01*
X67006747Y-75708599D01*
X66992132Y-75688893D01*
X66979520Y-75667850D01*
X66969030Y-75645671D01*
X66960765Y-75622572D01*
X66954804Y-75598773D01*
X66951204Y-75574505D01*
X66950000Y-75550001D01*
X66950000Y-74649999D01*
X66951204Y-74625495D01*
X66954804Y-74601227D01*
X66960765Y-74577428D01*
X66969030Y-74554329D01*
X66979520Y-74532150D01*
X66992132Y-74511107D01*
X67006747Y-74491401D01*
X67023223Y-74473223D01*
X67041401Y-74456747D01*
X67061107Y-74442132D01*
X67082150Y-74429520D01*
X67104329Y-74419030D01*
X67127428Y-74410765D01*
X67151227Y-74404804D01*
X67175495Y-74401204D01*
X67199999Y-74400000D01*
X67850001Y-74400000D01*
X67874505Y-74401204D01*
X67874505Y-74401204D01*
G37*
D18*
X67525000Y-75100000D03*
D15*
G36*
X65824505Y-74401204D02*
X65848773Y-74404804D01*
X65872572Y-74410765D01*
X65895671Y-74419030D01*
X65917850Y-74429520D01*
X65938893Y-74442132D01*
X65958599Y-74456747D01*
X65976777Y-74473223D01*
X65993253Y-74491401D01*
X66007868Y-74511107D01*
X66020480Y-74532150D01*
X66030970Y-74554329D01*
X66039235Y-74577428D01*
X66045196Y-74601227D01*
X66048796Y-74625495D01*
X66050000Y-74649999D01*
X66050000Y-75550001D01*
X66048796Y-75574505D01*
X66045196Y-75598773D01*
X66039235Y-75622572D01*
X66030970Y-75645671D01*
X66020480Y-75667850D01*
X66007868Y-75688893D01*
X65993253Y-75708599D01*
X65976777Y-75726777D01*
X65958599Y-75743253D01*
X65938893Y-75757868D01*
X65917850Y-75770480D01*
X65895671Y-75780970D01*
X65872572Y-75789235D01*
X65848773Y-75795196D01*
X65824505Y-75798796D01*
X65800001Y-75800000D01*
X65149999Y-75800000D01*
X65125495Y-75798796D01*
X65101227Y-75795196D01*
X65077428Y-75789235D01*
X65054329Y-75780970D01*
X65032150Y-75770480D01*
X65011107Y-75757868D01*
X64991401Y-75743253D01*
X64973223Y-75726777D01*
X64956747Y-75708599D01*
X64942132Y-75688893D01*
X64929520Y-75667850D01*
X64919030Y-75645671D01*
X64910765Y-75622572D01*
X64904804Y-75598773D01*
X64901204Y-75574505D01*
X64900000Y-75550001D01*
X64900000Y-74649999D01*
X64901204Y-74625495D01*
X64904804Y-74601227D01*
X64910765Y-74577428D01*
X64919030Y-74554329D01*
X64929520Y-74532150D01*
X64942132Y-74511107D01*
X64956747Y-74491401D01*
X64973223Y-74473223D01*
X64991401Y-74456747D01*
X65011107Y-74442132D01*
X65032150Y-74429520D01*
X65054329Y-74419030D01*
X65077428Y-74410765D01*
X65101227Y-74404804D01*
X65125495Y-74401204D01*
X65149999Y-74400000D01*
X65800001Y-74400000D01*
X65824505Y-74401204D01*
X65824505Y-74401204D01*
G37*
D18*
X65475000Y-75100000D03*
G04 #@! TD*
D15*
G04 #@! TO.C,C11*
G36*
X103374504Y-60926204D02*
X103398773Y-60929804D01*
X103422571Y-60935765D01*
X103445671Y-60944030D01*
X103467849Y-60954520D01*
X103488893Y-60967133D01*
X103508598Y-60981747D01*
X103526777Y-60998223D01*
X103543253Y-61016402D01*
X103557867Y-61036107D01*
X103570480Y-61057151D01*
X103580970Y-61079329D01*
X103589235Y-61102429D01*
X103595196Y-61126227D01*
X103598796Y-61150496D01*
X103600000Y-61175000D01*
X103600000Y-62425000D01*
X103598796Y-62449504D01*
X103595196Y-62473773D01*
X103589235Y-62497571D01*
X103580970Y-62520671D01*
X103570480Y-62542849D01*
X103557867Y-62563893D01*
X103543253Y-62583598D01*
X103526777Y-62601777D01*
X103508598Y-62618253D01*
X103488893Y-62632867D01*
X103467849Y-62645480D01*
X103445671Y-62655970D01*
X103422571Y-62664235D01*
X103398773Y-62670196D01*
X103374504Y-62673796D01*
X103350000Y-62675000D01*
X102425000Y-62675000D01*
X102400496Y-62673796D01*
X102376227Y-62670196D01*
X102352429Y-62664235D01*
X102329329Y-62655970D01*
X102307151Y-62645480D01*
X102286107Y-62632867D01*
X102266402Y-62618253D01*
X102248223Y-62601777D01*
X102231747Y-62583598D01*
X102217133Y-62563893D01*
X102204520Y-62542849D01*
X102194030Y-62520671D01*
X102185765Y-62497571D01*
X102179804Y-62473773D01*
X102176204Y-62449504D01*
X102175000Y-62425000D01*
X102175000Y-61175000D01*
X102176204Y-61150496D01*
X102179804Y-61126227D01*
X102185765Y-61102429D01*
X102194030Y-61079329D01*
X102204520Y-61057151D01*
X102217133Y-61036107D01*
X102231747Y-61016402D01*
X102248223Y-60998223D01*
X102266402Y-60981747D01*
X102286107Y-60967133D01*
X102307151Y-60954520D01*
X102329329Y-60944030D01*
X102352429Y-60935765D01*
X102376227Y-60929804D01*
X102400496Y-60926204D01*
X102425000Y-60925000D01*
X103350000Y-60925000D01*
X103374504Y-60926204D01*
X103374504Y-60926204D01*
G37*
D16*
X102887500Y-61800000D03*
D15*
G36*
X100399504Y-60926204D02*
X100423773Y-60929804D01*
X100447571Y-60935765D01*
X100470671Y-60944030D01*
X100492849Y-60954520D01*
X100513893Y-60967133D01*
X100533598Y-60981747D01*
X100551777Y-60998223D01*
X100568253Y-61016402D01*
X100582867Y-61036107D01*
X100595480Y-61057151D01*
X100605970Y-61079329D01*
X100614235Y-61102429D01*
X100620196Y-61126227D01*
X100623796Y-61150496D01*
X100625000Y-61175000D01*
X100625000Y-62425000D01*
X100623796Y-62449504D01*
X100620196Y-62473773D01*
X100614235Y-62497571D01*
X100605970Y-62520671D01*
X100595480Y-62542849D01*
X100582867Y-62563893D01*
X100568253Y-62583598D01*
X100551777Y-62601777D01*
X100533598Y-62618253D01*
X100513893Y-62632867D01*
X100492849Y-62645480D01*
X100470671Y-62655970D01*
X100447571Y-62664235D01*
X100423773Y-62670196D01*
X100399504Y-62673796D01*
X100375000Y-62675000D01*
X99450000Y-62675000D01*
X99425496Y-62673796D01*
X99401227Y-62670196D01*
X99377429Y-62664235D01*
X99354329Y-62655970D01*
X99332151Y-62645480D01*
X99311107Y-62632867D01*
X99291402Y-62618253D01*
X99273223Y-62601777D01*
X99256747Y-62583598D01*
X99242133Y-62563893D01*
X99229520Y-62542849D01*
X99219030Y-62520671D01*
X99210765Y-62497571D01*
X99204804Y-62473773D01*
X99201204Y-62449504D01*
X99200000Y-62425000D01*
X99200000Y-61175000D01*
X99201204Y-61150496D01*
X99204804Y-61126227D01*
X99210765Y-61102429D01*
X99219030Y-61079329D01*
X99229520Y-61057151D01*
X99242133Y-61036107D01*
X99256747Y-61016402D01*
X99273223Y-60998223D01*
X99291402Y-60981747D01*
X99311107Y-60967133D01*
X99332151Y-60954520D01*
X99354329Y-60944030D01*
X99377429Y-60935765D01*
X99401227Y-60929804D01*
X99425496Y-60926204D01*
X99450000Y-60925000D01*
X100375000Y-60925000D01*
X100399504Y-60926204D01*
X100399504Y-60926204D01*
G37*
D16*
X99912500Y-61800000D03*
G04 #@! TD*
D15*
G04 #@! TO.C,C12*
G36*
X100399504Y-57726204D02*
X100423773Y-57729804D01*
X100447571Y-57735765D01*
X100470671Y-57744030D01*
X100492849Y-57754520D01*
X100513893Y-57767133D01*
X100533598Y-57781747D01*
X100551777Y-57798223D01*
X100568253Y-57816402D01*
X100582867Y-57836107D01*
X100595480Y-57857151D01*
X100605970Y-57879329D01*
X100614235Y-57902429D01*
X100620196Y-57926227D01*
X100623796Y-57950496D01*
X100625000Y-57975000D01*
X100625000Y-59225000D01*
X100623796Y-59249504D01*
X100620196Y-59273773D01*
X100614235Y-59297571D01*
X100605970Y-59320671D01*
X100595480Y-59342849D01*
X100582867Y-59363893D01*
X100568253Y-59383598D01*
X100551777Y-59401777D01*
X100533598Y-59418253D01*
X100513893Y-59432867D01*
X100492849Y-59445480D01*
X100470671Y-59455970D01*
X100447571Y-59464235D01*
X100423773Y-59470196D01*
X100399504Y-59473796D01*
X100375000Y-59475000D01*
X99450000Y-59475000D01*
X99425496Y-59473796D01*
X99401227Y-59470196D01*
X99377429Y-59464235D01*
X99354329Y-59455970D01*
X99332151Y-59445480D01*
X99311107Y-59432867D01*
X99291402Y-59418253D01*
X99273223Y-59401777D01*
X99256747Y-59383598D01*
X99242133Y-59363893D01*
X99229520Y-59342849D01*
X99219030Y-59320671D01*
X99210765Y-59297571D01*
X99204804Y-59273773D01*
X99201204Y-59249504D01*
X99200000Y-59225000D01*
X99200000Y-57975000D01*
X99201204Y-57950496D01*
X99204804Y-57926227D01*
X99210765Y-57902429D01*
X99219030Y-57879329D01*
X99229520Y-57857151D01*
X99242133Y-57836107D01*
X99256747Y-57816402D01*
X99273223Y-57798223D01*
X99291402Y-57781747D01*
X99311107Y-57767133D01*
X99332151Y-57754520D01*
X99354329Y-57744030D01*
X99377429Y-57735765D01*
X99401227Y-57729804D01*
X99425496Y-57726204D01*
X99450000Y-57725000D01*
X100375000Y-57725000D01*
X100399504Y-57726204D01*
X100399504Y-57726204D01*
G37*
D16*
X99912500Y-58600000D03*
D15*
G36*
X103374504Y-57726204D02*
X103398773Y-57729804D01*
X103422571Y-57735765D01*
X103445671Y-57744030D01*
X103467849Y-57754520D01*
X103488893Y-57767133D01*
X103508598Y-57781747D01*
X103526777Y-57798223D01*
X103543253Y-57816402D01*
X103557867Y-57836107D01*
X103570480Y-57857151D01*
X103580970Y-57879329D01*
X103589235Y-57902429D01*
X103595196Y-57926227D01*
X103598796Y-57950496D01*
X103600000Y-57975000D01*
X103600000Y-59225000D01*
X103598796Y-59249504D01*
X103595196Y-59273773D01*
X103589235Y-59297571D01*
X103580970Y-59320671D01*
X103570480Y-59342849D01*
X103557867Y-59363893D01*
X103543253Y-59383598D01*
X103526777Y-59401777D01*
X103508598Y-59418253D01*
X103488893Y-59432867D01*
X103467849Y-59445480D01*
X103445671Y-59455970D01*
X103422571Y-59464235D01*
X103398773Y-59470196D01*
X103374504Y-59473796D01*
X103350000Y-59475000D01*
X102425000Y-59475000D01*
X102400496Y-59473796D01*
X102376227Y-59470196D01*
X102352429Y-59464235D01*
X102329329Y-59455970D01*
X102307151Y-59445480D01*
X102286107Y-59432867D01*
X102266402Y-59418253D01*
X102248223Y-59401777D01*
X102231747Y-59383598D01*
X102217133Y-59363893D01*
X102204520Y-59342849D01*
X102194030Y-59320671D01*
X102185765Y-59297571D01*
X102179804Y-59273773D01*
X102176204Y-59249504D01*
X102175000Y-59225000D01*
X102175000Y-57975000D01*
X102176204Y-57950496D01*
X102179804Y-57926227D01*
X102185765Y-57902429D01*
X102194030Y-57879329D01*
X102204520Y-57857151D01*
X102217133Y-57836107D01*
X102231747Y-57816402D01*
X102248223Y-57798223D01*
X102266402Y-57781747D01*
X102286107Y-57767133D01*
X102307151Y-57754520D01*
X102329329Y-57744030D01*
X102352429Y-57735765D01*
X102376227Y-57729804D01*
X102400496Y-57726204D01*
X102425000Y-57725000D01*
X103350000Y-57725000D01*
X103374504Y-57726204D01*
X103374504Y-57726204D01*
G37*
D16*
X102887500Y-58600000D03*
G04 #@! TD*
D19*
G04 #@! TO.C,J4*
X110800000Y-56200000D03*
G04 #@! TD*
M02*
