G04 #@! TF.GenerationSoftware,KiCad,Pcbnew,5.0.0-fee4fd1~66~ubuntu18.04.1*
G04 #@! TF.CreationDate,2018-09-26T23:31:27+02:00*
G04 #@! TF.ProjectId,esp8266_i2s,657370383236365F6932732E6B696361,rev?*
G04 #@! TF.SameCoordinates,Original*
G04 #@! TF.FileFunction,Legend,Top*
G04 #@! TF.FilePolarity,Positive*
%FSLAX46Y46*%
G04 Gerber Fmt 4.6, Leading zero omitted, Abs format (unit mm)*
G04 Created by KiCad (PCBNEW 5.0.0-fee4fd1~66~ubuntu18.04.1) date Wed Sep 26 23:31:27 2018*
%MOMM*%
%LPD*%
G01*
G04 APERTURE LIST*
%ADD10C,0.200000*%
%ADD11C,0.250000*%
%ADD12C,0.300000*%
%ADD13C,0.150000*%
%ADD14C,0.120000*%
%ADD15C,0.152400*%
%ADD16C,0.100000*%
G04 APERTURE END LIST*
D10*
X63264285Y-64678571D02*
X64192857Y-64678571D01*
X63692857Y-65250000D01*
X63907142Y-65250000D01*
X64050000Y-65321428D01*
X64121428Y-65392857D01*
X64192857Y-65535714D01*
X64192857Y-65892857D01*
X64121428Y-66035714D01*
X64050000Y-66107142D01*
X63907142Y-66178571D01*
X63478571Y-66178571D01*
X63335714Y-66107142D01*
X63264285Y-66035714D01*
X64835714Y-66035714D02*
X64907142Y-66107142D01*
X64835714Y-66178571D01*
X64764285Y-66107142D01*
X64835714Y-66035714D01*
X64835714Y-66178571D01*
X65407142Y-64678571D02*
X66335714Y-64678571D01*
X65835714Y-65250000D01*
X66050000Y-65250000D01*
X66192857Y-65321428D01*
X66264285Y-65392857D01*
X66335714Y-65535714D01*
X66335714Y-65892857D01*
X66264285Y-66035714D01*
X66192857Y-66107142D01*
X66050000Y-66178571D01*
X65621428Y-66178571D01*
X65478571Y-66107142D01*
X65407142Y-66035714D01*
X66764285Y-64678571D02*
X67264285Y-66178571D01*
X67764285Y-64678571D01*
X69621428Y-66178571D02*
X69478571Y-66107142D01*
X69407142Y-66035714D01*
X69335714Y-65892857D01*
X69335714Y-65464285D01*
X69407142Y-65321428D01*
X69478571Y-65250000D01*
X69621428Y-65178571D01*
X69835714Y-65178571D01*
X69978571Y-65250000D01*
X70050000Y-65321428D01*
X70121428Y-65464285D01*
X70121428Y-65892857D01*
X70050000Y-66035714D01*
X69978571Y-66107142D01*
X69835714Y-66178571D01*
X69621428Y-66178571D01*
X70764285Y-65178571D02*
X70764285Y-66178571D01*
X70764285Y-65321428D02*
X70835714Y-65250000D01*
X70978571Y-65178571D01*
X71192857Y-65178571D01*
X71335714Y-65250000D01*
X71407142Y-65392857D01*
X71407142Y-66178571D01*
X72335714Y-66178571D02*
X72192857Y-66107142D01*
X72121428Y-65964285D01*
X72121428Y-64678571D01*
X72764285Y-65178571D02*
X73121428Y-66178571D01*
X73478571Y-65178571D02*
X73121428Y-66178571D01*
X72978571Y-66535714D01*
X72907142Y-66607142D01*
X72764285Y-66678571D01*
X75192857Y-66035714D02*
X75264285Y-66107142D01*
X75192857Y-66178571D01*
X75121428Y-66107142D01*
X75192857Y-66035714D01*
X75192857Y-66178571D01*
X75192857Y-65607142D02*
X75121428Y-64750000D01*
X75192857Y-64678571D01*
X75264285Y-64750000D01*
X75192857Y-65607142D01*
X75192857Y-64678571D01*
X72585714Y-63242857D02*
X73252380Y-63242857D01*
X72680952Y-63242857D02*
X72633333Y-63195238D01*
X72585714Y-63100000D01*
X72585714Y-62957142D01*
X72633333Y-62861904D01*
X72728571Y-62814285D01*
X73252380Y-62814285D01*
X73204761Y-61909523D02*
X73252380Y-62004761D01*
X73252380Y-62195238D01*
X73204761Y-62290476D01*
X73157142Y-62338095D01*
X73061904Y-62385714D01*
X72776190Y-62385714D01*
X72680952Y-62338095D01*
X72633333Y-62290476D01*
X72585714Y-62195238D01*
X72585714Y-62004761D01*
X72633333Y-61909523D01*
X69985714Y-63242857D02*
X70652380Y-63242857D01*
X70080952Y-63242857D02*
X70033333Y-63195238D01*
X69985714Y-63100000D01*
X69985714Y-62957142D01*
X70033333Y-62861904D01*
X70128571Y-62814285D01*
X70652380Y-62814285D01*
X70604761Y-61909523D02*
X70652380Y-62004761D01*
X70652380Y-62195238D01*
X70604761Y-62290476D01*
X70557142Y-62338095D01*
X70461904Y-62385714D01*
X70176190Y-62385714D01*
X70080952Y-62338095D01*
X70033333Y-62290476D01*
X69985714Y-62195238D01*
X69985714Y-62004761D01*
X70033333Y-61909523D01*
X62585714Y-63242857D02*
X63252380Y-63242857D01*
X62680952Y-63242857D02*
X62633333Y-63195238D01*
X62585714Y-63100000D01*
X62585714Y-62957142D01*
X62633333Y-62861904D01*
X62728571Y-62814285D01*
X63252380Y-62814285D01*
X63204761Y-61909523D02*
X63252380Y-62004761D01*
X63252380Y-62195238D01*
X63204761Y-62290476D01*
X63157142Y-62338095D01*
X63061904Y-62385714D01*
X62776190Y-62385714D01*
X62680952Y-62338095D01*
X62633333Y-62290476D01*
X62585714Y-62195238D01*
X62585714Y-62004761D01*
X62633333Y-61909523D01*
D11*
X65852380Y-63266666D02*
X65376190Y-63600000D01*
X65852380Y-63838095D02*
X64852380Y-63838095D01*
X64852380Y-63457142D01*
X64900000Y-63361904D01*
X64947619Y-63314285D01*
X65042857Y-63266666D01*
X65185714Y-63266666D01*
X65280952Y-63314285D01*
X65328571Y-63361904D01*
X65376190Y-63457142D01*
X65376190Y-63838095D01*
X64852380Y-62933333D02*
X65852380Y-62266666D01*
X64852380Y-62266666D02*
X65852380Y-62933333D01*
X65852380Y-61885714D02*
X64852380Y-61885714D01*
X64852380Y-61647619D01*
X64900000Y-61504761D01*
X64995238Y-61409523D01*
X65090476Y-61361904D01*
X65280952Y-61314285D01*
X65423809Y-61314285D01*
X65614285Y-61361904D01*
X65709523Y-61409523D01*
X65804761Y-61504761D01*
X65852380Y-61647619D01*
X65852380Y-61885714D01*
X67452380Y-63861904D02*
X67452380Y-63290476D01*
X68452380Y-63576190D02*
X67452380Y-63576190D01*
X67452380Y-63052380D02*
X68452380Y-62385714D01*
X67452380Y-62385714D02*
X68452380Y-63052380D01*
X68452380Y-62004761D02*
X67452380Y-62004761D01*
X67452380Y-61766666D01*
X67500000Y-61623809D01*
X67595238Y-61528571D01*
X67690476Y-61480952D01*
X67880952Y-61433333D01*
X68023809Y-61433333D01*
X68214285Y-61480952D01*
X68309523Y-61528571D01*
X68404761Y-61623809D01*
X68452380Y-61766666D01*
X68452380Y-62004761D01*
X75100000Y-63361904D02*
X75052380Y-63457142D01*
X75052380Y-63600000D01*
X75100000Y-63742857D01*
X75195238Y-63838095D01*
X75290476Y-63885714D01*
X75480952Y-63933333D01*
X75623809Y-63933333D01*
X75814285Y-63885714D01*
X75909523Y-63838095D01*
X76004761Y-63742857D01*
X76052380Y-63600000D01*
X76052380Y-63504761D01*
X76004761Y-63361904D01*
X75957142Y-63314285D01*
X75623809Y-63314285D01*
X75623809Y-63504761D01*
X76052380Y-62885714D02*
X75052380Y-62885714D01*
X76052380Y-62314285D01*
X75052380Y-62314285D01*
X76052380Y-61838095D02*
X75052380Y-61838095D01*
X75052380Y-61600000D01*
X75100000Y-61457142D01*
X75195238Y-61361904D01*
X75290476Y-61314285D01*
X75480952Y-61266666D01*
X75623809Y-61266666D01*
X75814285Y-61314285D01*
X75909523Y-61361904D01*
X76004761Y-61457142D01*
X76052380Y-61600000D01*
X76052380Y-61838095D01*
D12*
X110578571Y-80492857D02*
X110792857Y-80564285D01*
X110864285Y-80635714D01*
X110935714Y-80778571D01*
X110935714Y-80992857D01*
X110864285Y-81135714D01*
X110792857Y-81207142D01*
X110650000Y-81278571D01*
X110078571Y-81278571D01*
X110078571Y-79778571D01*
X110578571Y-79778571D01*
X110721428Y-79850000D01*
X110792857Y-79921428D01*
X110864285Y-80064285D01*
X110864285Y-80207142D01*
X110792857Y-80350000D01*
X110721428Y-80421428D01*
X110578571Y-80492857D01*
X110078571Y-80492857D01*
X111578571Y-80707142D02*
X112721428Y-80707142D01*
X110578571Y-83492857D02*
X110792857Y-83564285D01*
X110864285Y-83635714D01*
X110935714Y-83778571D01*
X110935714Y-83992857D01*
X110864285Y-84135714D01*
X110792857Y-84207142D01*
X110650000Y-84278571D01*
X110078571Y-84278571D01*
X110078571Y-82778571D01*
X110578571Y-82778571D01*
X110721428Y-82850000D01*
X110792857Y-82921428D01*
X110864285Y-83064285D01*
X110864285Y-83207142D01*
X110792857Y-83350000D01*
X110721428Y-83421428D01*
X110578571Y-83492857D01*
X110078571Y-83492857D01*
X111578571Y-83707142D02*
X112721428Y-83707142D01*
X112150000Y-84278571D02*
X112150000Y-83135714D01*
D13*
G04 #@! TO.C,J8*
X103104000Y-78896000D02*
X103104000Y-66704000D01*
X115296000Y-78896000D02*
X103104000Y-78896000D01*
X103104000Y-66704000D02*
X115296000Y-66704000D01*
X117328000Y-70260000D02*
X117328000Y-75340000D01*
X115804000Y-77880000D02*
X115296000Y-77880000D01*
X115804000Y-67720000D02*
X115804000Y-77880000D01*
X115550000Y-67720000D02*
X115804000Y-67720000D01*
X115296000Y-67720000D02*
X115550000Y-67720000D01*
X116566000Y-70260000D02*
X116566000Y-75340000D01*
X115804000Y-75340000D02*
X117328000Y-75340000D01*
X117328000Y-70260000D02*
X115804000Y-70260000D01*
X115296000Y-78896000D02*
X115296000Y-77880000D01*
X115296000Y-67720000D02*
X115296000Y-66704000D01*
X110724000Y-76610000D02*
X110724000Y-74578000D01*
X114280000Y-76610000D02*
X110724000Y-76610000D01*
X114280000Y-68990000D02*
X114280000Y-76610000D01*
X110724000Y-68990000D02*
X114280000Y-68990000D01*
X110724000Y-71022000D02*
X110724000Y-68990000D01*
G04 #@! TO.C,J9*
X110724000Y-58422000D02*
X110724000Y-56390000D01*
X110724000Y-56390000D02*
X114280000Y-56390000D01*
X114280000Y-56390000D02*
X114280000Y-64010000D01*
X114280000Y-64010000D02*
X110724000Y-64010000D01*
X110724000Y-64010000D02*
X110724000Y-61978000D01*
X115296000Y-55120000D02*
X115296000Y-54104000D01*
X115296000Y-66296000D02*
X115296000Y-65280000D01*
X117328000Y-57660000D02*
X115804000Y-57660000D01*
X115804000Y-62740000D02*
X117328000Y-62740000D01*
X116566000Y-57660000D02*
X116566000Y-62740000D01*
X115296000Y-55120000D02*
X115550000Y-55120000D01*
X115550000Y-55120000D02*
X115804000Y-55120000D01*
X115804000Y-55120000D02*
X115804000Y-65280000D01*
X115804000Y-65280000D02*
X115296000Y-65280000D01*
X117328000Y-57660000D02*
X117328000Y-62740000D01*
X103104000Y-54104000D02*
X115296000Y-54104000D01*
X115296000Y-66296000D02*
X103104000Y-66296000D01*
X103104000Y-66296000D02*
X103104000Y-54104000D01*
D14*
G04 #@! TO.C,U3*
X50280000Y-85020000D02*
X50280000Y-68780000D01*
X50280000Y-68780000D02*
X57900000Y-68780000D01*
X73900000Y-68780000D02*
X74520000Y-68780000D01*
X74520000Y-68780000D02*
X74520000Y-70900000D01*
X74520000Y-82900000D02*
X74520000Y-85020000D01*
X74520000Y-85020000D02*
X73900000Y-85020000D01*
X57900000Y-85020000D02*
X50280000Y-85020000D01*
X57900000Y-85020000D02*
X57900000Y-85630000D01*
G04 #@! TO.C,C5*
X74110000Y-88997936D02*
X74110000Y-90202064D01*
X72290000Y-88997936D02*
X72290000Y-90202064D01*
G04 #@! TO.C,C6*
X84310000Y-77197936D02*
X84310000Y-78402064D01*
X82490000Y-77197936D02*
X82490000Y-78402064D01*
G04 #@! TO.C,C8*
X96090000Y-65997936D02*
X96090000Y-67202064D01*
X97910000Y-65997936D02*
X97910000Y-67202064D01*
G04 #@! TO.C,C9*
X82490000Y-67714564D02*
X82490000Y-66510436D01*
X84310000Y-67714564D02*
X84310000Y-66510436D01*
G04 #@! TO.C,J3*
X61450000Y-57670000D02*
X61450000Y-60330000D01*
X74210000Y-57670000D02*
X61450000Y-57670000D01*
X74210000Y-60330000D02*
X61450000Y-60330000D01*
X74210000Y-57670000D02*
X74210000Y-60330000D01*
X75480000Y-57670000D02*
X76810000Y-57670000D01*
X76810000Y-57670000D02*
X76810000Y-59000000D01*
G04 #@! TO.C,R3*
X59710000Y-90061252D02*
X59710000Y-89538748D01*
X58290000Y-90061252D02*
X58290000Y-89538748D01*
G04 #@! TO.C,R4*
X62090000Y-90061252D02*
X62090000Y-89538748D01*
X63510000Y-90061252D02*
X63510000Y-89538748D01*
G04 #@! TO.C,R6*
X77910000Y-89538748D02*
X77910000Y-90061252D01*
X76490000Y-89538748D02*
X76490000Y-90061252D01*
G04 #@! TO.C,R7*
X93690000Y-83538748D02*
X93690000Y-84061252D01*
X95110000Y-83538748D02*
X95110000Y-84061252D01*
G04 #@! TO.C,R8*
X97110000Y-83513748D02*
X97110000Y-84036252D01*
X95690000Y-83513748D02*
X95690000Y-84036252D01*
G04 #@! TO.C,R9*
X68890000Y-89338748D02*
X68890000Y-89861252D01*
X70310000Y-89338748D02*
X70310000Y-89861252D01*
G04 #@! TO.C,R10*
X66290000Y-90061252D02*
X66290000Y-89538748D01*
X67710000Y-90061252D02*
X67710000Y-89538748D01*
G04 #@! TO.C,R11*
X86890000Y-83938748D02*
X86890000Y-84461252D01*
X88310000Y-83938748D02*
X88310000Y-84461252D01*
G04 #@! TO.C,R12*
X86510000Y-83938748D02*
X86510000Y-84461252D01*
X85090000Y-83938748D02*
X85090000Y-84461252D01*
G04 #@! TO.C,SW2*
X84010000Y-95660000D02*
X80390000Y-95660000D01*
X84010000Y-89540000D02*
X84010000Y-95660000D01*
X80390000Y-89540000D02*
X84010000Y-89540000D01*
X80390000Y-95660000D02*
X80390000Y-89540000D01*
G04 #@! TO.C,SW3*
X89190000Y-95860000D02*
X89190000Y-89740000D01*
X89190000Y-89740000D02*
X92810000Y-89740000D01*
X92810000Y-89740000D02*
X92810000Y-95860000D01*
X92810000Y-95860000D02*
X89190000Y-95860000D01*
D13*
G04 #@! TO.C,U5*
X87725000Y-75225000D02*
X87725000Y-75275000D01*
X91875000Y-75225000D02*
X91875000Y-75370000D01*
X91875000Y-80375000D02*
X91875000Y-80230000D01*
X87725000Y-80375000D02*
X87725000Y-80230000D01*
X87725000Y-75225000D02*
X91875000Y-75225000D01*
X87725000Y-80375000D02*
X91875000Y-80375000D01*
X87725000Y-75275000D02*
X86325000Y-75275000D01*
D15*
G04 #@! TO.C,U7*
X92181600Y-62545400D02*
X92181600Y-62367600D01*
X87660400Y-71994200D02*
X87660400Y-72172000D01*
X87660400Y-72172000D02*
X92181600Y-72172000D01*
X92181600Y-72172000D02*
X92181600Y-71994200D01*
X92181600Y-62367600D02*
X90225800Y-62367600D01*
X90225800Y-62367600D02*
X89616200Y-62367600D01*
X89616200Y-62367600D02*
X87660400Y-62367600D01*
X87660400Y-62367600D02*
X87660400Y-62545400D01*
X90225800Y-62367600D02*
G75*
G02X89616200Y-62367600I-304800J0D01*
G01*
D14*
G04 #@! TO.C,J4*
X109470000Y-57530000D02*
X112130000Y-57530000D01*
X109470000Y-57470000D02*
X109470000Y-57530000D01*
X112130000Y-57470000D02*
X112130000Y-57530000D01*
X109470000Y-57470000D02*
X112130000Y-57470000D01*
X109470000Y-56200000D02*
X109470000Y-54870000D01*
X109470000Y-54870000D02*
X110800000Y-54870000D01*
G04 #@! TO.C,J8*
D13*
X101649904Y-68748666D02*
X102221333Y-68748666D01*
X102335619Y-68786761D01*
X102411809Y-68862952D01*
X102449904Y-68977238D01*
X102449904Y-69053428D01*
X101992761Y-68253428D02*
X101954666Y-68329619D01*
X101916571Y-68367714D01*
X101840380Y-68405809D01*
X101802285Y-68405809D01*
X101726095Y-68367714D01*
X101688000Y-68329619D01*
X101649904Y-68253428D01*
X101649904Y-68101047D01*
X101688000Y-68024857D01*
X101726095Y-67986761D01*
X101802285Y-67948666D01*
X101840380Y-67948666D01*
X101916571Y-67986761D01*
X101954666Y-68024857D01*
X101992761Y-68101047D01*
X101992761Y-68253428D01*
X102030857Y-68329619D01*
X102068952Y-68367714D01*
X102145142Y-68405809D01*
X102297523Y-68405809D01*
X102373714Y-68367714D01*
X102411809Y-68329619D01*
X102449904Y-68253428D01*
X102449904Y-68101047D01*
X102411809Y-68024857D01*
X102373714Y-67986761D01*
X102297523Y-67948666D01*
X102145142Y-67948666D01*
X102068952Y-67986761D01*
X102030857Y-68024857D01*
X101992761Y-68101047D01*
D16*
X108792000Y-76985714D02*
X108792000Y-76700000D01*
X108963428Y-77042857D02*
X108363428Y-76842857D01*
X108963428Y-76642857D01*
X108563428Y-76185714D02*
X108963428Y-76185714D01*
X108563428Y-76442857D02*
X108877714Y-76442857D01*
X108934857Y-76414285D01*
X108963428Y-76357142D01*
X108963428Y-76271428D01*
X108934857Y-76214285D01*
X108906285Y-76185714D01*
X108963428Y-75642857D02*
X108363428Y-75642857D01*
X108934857Y-75642857D02*
X108963428Y-75700000D01*
X108963428Y-75814285D01*
X108934857Y-75871428D01*
X108906285Y-75900000D01*
X108849142Y-75928571D01*
X108677714Y-75928571D01*
X108620571Y-75900000D01*
X108592000Y-75871428D01*
X108563428Y-75814285D01*
X108563428Y-75700000D01*
X108592000Y-75642857D01*
X108963428Y-75357142D02*
X108563428Y-75357142D01*
X108363428Y-75357142D02*
X108392000Y-75385714D01*
X108420571Y-75357142D01*
X108392000Y-75328571D01*
X108363428Y-75357142D01*
X108420571Y-75357142D01*
X108963428Y-74985714D02*
X108934857Y-75042857D01*
X108906285Y-75071428D01*
X108849142Y-75100000D01*
X108677714Y-75100000D01*
X108620571Y-75071428D01*
X108592000Y-75042857D01*
X108563428Y-74985714D01*
X108563428Y-74900000D01*
X108592000Y-74842857D01*
X108620571Y-74814285D01*
X108677714Y-74785714D01*
X108849142Y-74785714D01*
X108906285Y-74814285D01*
X108934857Y-74842857D01*
X108963428Y-74900000D01*
X108963428Y-74985714D01*
X108363428Y-74357142D02*
X108792000Y-74357142D01*
X108877714Y-74385714D01*
X108934857Y-74442857D01*
X108963428Y-74528571D01*
X108963428Y-74585714D01*
X108963428Y-73814285D02*
X108649142Y-73814285D01*
X108592000Y-73842857D01*
X108563428Y-73900000D01*
X108563428Y-74014285D01*
X108592000Y-74071428D01*
X108934857Y-73814285D02*
X108963428Y-73871428D01*
X108963428Y-74014285D01*
X108934857Y-74071428D01*
X108877714Y-74100000D01*
X108820571Y-74100000D01*
X108763428Y-74071428D01*
X108734857Y-74014285D01*
X108734857Y-73871428D01*
X108706285Y-73814285D01*
X108934857Y-73271428D02*
X108963428Y-73328571D01*
X108963428Y-73442857D01*
X108934857Y-73500000D01*
X108906285Y-73528571D01*
X108849142Y-73557142D01*
X108677714Y-73557142D01*
X108620571Y-73528571D01*
X108592000Y-73500000D01*
X108563428Y-73442857D01*
X108563428Y-73328571D01*
X108592000Y-73271428D01*
X108963428Y-73014285D02*
X108363428Y-73014285D01*
X108734857Y-72957142D02*
X108963428Y-72785714D01*
X108563428Y-72785714D02*
X108792000Y-73014285D01*
X108363428Y-72585714D02*
X108363428Y-72214285D01*
X108592000Y-72414285D01*
X108592000Y-72328571D01*
X108620571Y-72271428D01*
X108649142Y-72242857D01*
X108706285Y-72214285D01*
X108849142Y-72214285D01*
X108906285Y-72242857D01*
X108934857Y-72271428D01*
X108963428Y-72328571D01*
X108963428Y-72500000D01*
X108934857Y-72557142D01*
X108906285Y-72585714D01*
X109020571Y-72100000D02*
X109020571Y-71642857D01*
X108392000Y-71185714D02*
X108363428Y-71242857D01*
X108363428Y-71328571D01*
X108392000Y-71414285D01*
X108449142Y-71471428D01*
X108506285Y-71500000D01*
X108620571Y-71528571D01*
X108706285Y-71528571D01*
X108820571Y-71500000D01*
X108877714Y-71471428D01*
X108934857Y-71414285D01*
X108963428Y-71328571D01*
X108963428Y-71271428D01*
X108934857Y-71185714D01*
X108906285Y-71157142D01*
X108706285Y-71157142D01*
X108706285Y-71271428D01*
X108963428Y-70900000D02*
X108563428Y-70900000D01*
X108677714Y-70900000D02*
X108620571Y-70871428D01*
X108592000Y-70842857D01*
X108563428Y-70785714D01*
X108563428Y-70728571D01*
X108963428Y-70442857D02*
X108934857Y-70500000D01*
X108906285Y-70528571D01*
X108849142Y-70557142D01*
X108677714Y-70557142D01*
X108620571Y-70528571D01*
X108592000Y-70500000D01*
X108563428Y-70442857D01*
X108563428Y-70357142D01*
X108592000Y-70300000D01*
X108620571Y-70271428D01*
X108677714Y-70242857D01*
X108849142Y-70242857D01*
X108906285Y-70271428D01*
X108934857Y-70300000D01*
X108963428Y-70357142D01*
X108963428Y-70442857D01*
X108563428Y-69728571D02*
X108963428Y-69728571D01*
X108563428Y-69985714D02*
X108877714Y-69985714D01*
X108934857Y-69957142D01*
X108963428Y-69900000D01*
X108963428Y-69814285D01*
X108934857Y-69757142D01*
X108906285Y-69728571D01*
X108563428Y-69442857D02*
X108963428Y-69442857D01*
X108620571Y-69442857D02*
X108592000Y-69414285D01*
X108563428Y-69357142D01*
X108563428Y-69271428D01*
X108592000Y-69214285D01*
X108649142Y-69185714D01*
X108963428Y-69185714D01*
X108963428Y-68642857D02*
X108363428Y-68642857D01*
X108934857Y-68642857D02*
X108963428Y-68700000D01*
X108963428Y-68814285D01*
X108934857Y-68871428D01*
X108906285Y-68900000D01*
X108849142Y-68928571D01*
X108677714Y-68928571D01*
X108620571Y-68900000D01*
X108592000Y-68871428D01*
X108563428Y-68814285D01*
X108563428Y-68700000D01*
X108592000Y-68642857D01*
G04 #@! TO.C,J9*
D13*
X101649904Y-56148666D02*
X102221333Y-56148666D01*
X102335619Y-56186761D01*
X102411809Y-56262952D01*
X102449904Y-56377238D01*
X102449904Y-56453428D01*
X102449904Y-55729619D02*
X102449904Y-55577238D01*
X102411809Y-55501047D01*
X102373714Y-55462952D01*
X102259428Y-55386761D01*
X102107047Y-55348666D01*
X101802285Y-55348666D01*
X101726095Y-55386761D01*
X101688000Y-55424857D01*
X101649904Y-55501047D01*
X101649904Y-55653428D01*
X101688000Y-55729619D01*
X101726095Y-55767714D01*
X101802285Y-55805809D01*
X101992761Y-55805809D01*
X102068952Y-55767714D01*
X102107047Y-55729619D01*
X102145142Y-55653428D01*
X102145142Y-55501047D01*
X102107047Y-55424857D01*
X102068952Y-55386761D01*
X101992761Y-55348666D01*
D16*
X108792000Y-64385714D02*
X108792000Y-64100000D01*
X108963428Y-64442857D02*
X108363428Y-64242857D01*
X108963428Y-64042857D01*
X108563428Y-63585714D02*
X108963428Y-63585714D01*
X108563428Y-63842857D02*
X108877714Y-63842857D01*
X108934857Y-63814285D01*
X108963428Y-63757142D01*
X108963428Y-63671428D01*
X108934857Y-63614285D01*
X108906285Y-63585714D01*
X108963428Y-63042857D02*
X108363428Y-63042857D01*
X108934857Y-63042857D02*
X108963428Y-63100000D01*
X108963428Y-63214285D01*
X108934857Y-63271428D01*
X108906285Y-63300000D01*
X108849142Y-63328571D01*
X108677714Y-63328571D01*
X108620571Y-63300000D01*
X108592000Y-63271428D01*
X108563428Y-63214285D01*
X108563428Y-63100000D01*
X108592000Y-63042857D01*
X108963428Y-62757142D02*
X108563428Y-62757142D01*
X108363428Y-62757142D02*
X108392000Y-62785714D01*
X108420571Y-62757142D01*
X108392000Y-62728571D01*
X108363428Y-62757142D01*
X108420571Y-62757142D01*
X108963428Y-62385714D02*
X108934857Y-62442857D01*
X108906285Y-62471428D01*
X108849142Y-62500000D01*
X108677714Y-62500000D01*
X108620571Y-62471428D01*
X108592000Y-62442857D01*
X108563428Y-62385714D01*
X108563428Y-62300000D01*
X108592000Y-62242857D01*
X108620571Y-62214285D01*
X108677714Y-62185714D01*
X108849142Y-62185714D01*
X108906285Y-62214285D01*
X108934857Y-62242857D01*
X108963428Y-62300000D01*
X108963428Y-62385714D01*
X108363428Y-61757142D02*
X108792000Y-61757142D01*
X108877714Y-61785714D01*
X108934857Y-61842857D01*
X108963428Y-61928571D01*
X108963428Y-61985714D01*
X108963428Y-61214285D02*
X108649142Y-61214285D01*
X108592000Y-61242857D01*
X108563428Y-61300000D01*
X108563428Y-61414285D01*
X108592000Y-61471428D01*
X108934857Y-61214285D02*
X108963428Y-61271428D01*
X108963428Y-61414285D01*
X108934857Y-61471428D01*
X108877714Y-61500000D01*
X108820571Y-61500000D01*
X108763428Y-61471428D01*
X108734857Y-61414285D01*
X108734857Y-61271428D01*
X108706285Y-61214285D01*
X108934857Y-60671428D02*
X108963428Y-60728571D01*
X108963428Y-60842857D01*
X108934857Y-60900000D01*
X108906285Y-60928571D01*
X108849142Y-60957142D01*
X108677714Y-60957142D01*
X108620571Y-60928571D01*
X108592000Y-60900000D01*
X108563428Y-60842857D01*
X108563428Y-60728571D01*
X108592000Y-60671428D01*
X108963428Y-60414285D02*
X108363428Y-60414285D01*
X108734857Y-60357142D02*
X108963428Y-60185714D01*
X108563428Y-60185714D02*
X108792000Y-60414285D01*
X108363428Y-59985714D02*
X108363428Y-59614285D01*
X108592000Y-59814285D01*
X108592000Y-59728571D01*
X108620571Y-59671428D01*
X108649142Y-59642857D01*
X108706285Y-59614285D01*
X108849142Y-59614285D01*
X108906285Y-59642857D01*
X108934857Y-59671428D01*
X108963428Y-59728571D01*
X108963428Y-59900000D01*
X108934857Y-59957142D01*
X108906285Y-59985714D01*
X109020571Y-59500000D02*
X109020571Y-59042857D01*
X108392000Y-58585714D02*
X108363428Y-58642857D01*
X108363428Y-58728571D01*
X108392000Y-58814285D01*
X108449142Y-58871428D01*
X108506285Y-58900000D01*
X108620571Y-58928571D01*
X108706285Y-58928571D01*
X108820571Y-58900000D01*
X108877714Y-58871428D01*
X108934857Y-58814285D01*
X108963428Y-58728571D01*
X108963428Y-58671428D01*
X108934857Y-58585714D01*
X108906285Y-58557142D01*
X108706285Y-58557142D01*
X108706285Y-58671428D01*
X108963428Y-58300000D02*
X108563428Y-58300000D01*
X108677714Y-58300000D02*
X108620571Y-58271428D01*
X108592000Y-58242857D01*
X108563428Y-58185714D01*
X108563428Y-58128571D01*
X108963428Y-57842857D02*
X108934857Y-57900000D01*
X108906285Y-57928571D01*
X108849142Y-57957142D01*
X108677714Y-57957142D01*
X108620571Y-57928571D01*
X108592000Y-57900000D01*
X108563428Y-57842857D01*
X108563428Y-57757142D01*
X108592000Y-57700000D01*
X108620571Y-57671428D01*
X108677714Y-57642857D01*
X108849142Y-57642857D01*
X108906285Y-57671428D01*
X108934857Y-57700000D01*
X108963428Y-57757142D01*
X108963428Y-57842857D01*
X108563428Y-57128571D02*
X108963428Y-57128571D01*
X108563428Y-57385714D02*
X108877714Y-57385714D01*
X108934857Y-57357142D01*
X108963428Y-57300000D01*
X108963428Y-57214285D01*
X108934857Y-57157142D01*
X108906285Y-57128571D01*
X108563428Y-56842857D02*
X108963428Y-56842857D01*
X108620571Y-56842857D02*
X108592000Y-56814285D01*
X108563428Y-56757142D01*
X108563428Y-56671428D01*
X108592000Y-56614285D01*
X108649142Y-56585714D01*
X108963428Y-56585714D01*
X108963428Y-56042857D02*
X108363428Y-56042857D01*
X108934857Y-56042857D02*
X108963428Y-56100000D01*
X108963428Y-56214285D01*
X108934857Y-56271428D01*
X108906285Y-56300000D01*
X108849142Y-56328571D01*
X108677714Y-56328571D01*
X108620571Y-56300000D01*
X108592000Y-56271428D01*
X108563428Y-56214285D01*
X108563428Y-56100000D01*
X108592000Y-56042857D01*
G04 #@! TO.C,U3*
D13*
X63452380Y-77361904D02*
X64261904Y-77361904D01*
X64357142Y-77314285D01*
X64404761Y-77266666D01*
X64452380Y-77171428D01*
X64452380Y-76980952D01*
X64404761Y-76885714D01*
X64357142Y-76838095D01*
X64261904Y-76790476D01*
X63452380Y-76790476D01*
X63452380Y-76409523D02*
X63452380Y-75790476D01*
X63833333Y-76123809D01*
X63833333Y-75980952D01*
X63880952Y-75885714D01*
X63928571Y-75838095D01*
X64023809Y-75790476D01*
X64261904Y-75790476D01*
X64357142Y-75838095D01*
X64404761Y-75885714D01*
X64452380Y-75980952D01*
X64452380Y-76266666D01*
X64404761Y-76361904D01*
X64357142Y-76409523D01*
G04 #@! TO.C,C5*
X75377142Y-89766666D02*
X75424761Y-89814285D01*
X75472380Y-89957142D01*
X75472380Y-90052380D01*
X75424761Y-90195238D01*
X75329523Y-90290476D01*
X75234285Y-90338095D01*
X75043809Y-90385714D01*
X74900952Y-90385714D01*
X74710476Y-90338095D01*
X74615238Y-90290476D01*
X74520000Y-90195238D01*
X74472380Y-90052380D01*
X74472380Y-89957142D01*
X74520000Y-89814285D01*
X74567619Y-89766666D01*
X74472380Y-88861904D02*
X74472380Y-89338095D01*
X74948571Y-89385714D01*
X74900952Y-89338095D01*
X74853333Y-89242857D01*
X74853333Y-89004761D01*
X74900952Y-88909523D01*
X74948571Y-88861904D01*
X75043809Y-88814285D01*
X75281904Y-88814285D01*
X75377142Y-88861904D01*
X75424761Y-88909523D01*
X75472380Y-89004761D01*
X75472380Y-89242857D01*
X75424761Y-89338095D01*
X75377142Y-89385714D01*
X73652380Y-95804761D02*
X73652380Y-96376190D01*
X73652380Y-96090476D02*
X72652380Y-96090476D01*
X72795238Y-96185714D01*
X72890476Y-96280952D01*
X72938095Y-96376190D01*
X72652380Y-95185714D02*
X72652380Y-95090476D01*
X72700000Y-94995238D01*
X72747619Y-94947619D01*
X72842857Y-94900000D01*
X73033333Y-94852380D01*
X73271428Y-94852380D01*
X73461904Y-94900000D01*
X73557142Y-94947619D01*
X73604761Y-94995238D01*
X73652380Y-95090476D01*
X73652380Y-95185714D01*
X73604761Y-95280952D01*
X73557142Y-95328571D01*
X73461904Y-95376190D01*
X73271428Y-95423809D01*
X73033333Y-95423809D01*
X72842857Y-95376190D01*
X72747619Y-95328571D01*
X72700000Y-95280952D01*
X72652380Y-95185714D01*
X72652380Y-94233333D02*
X72652380Y-94138095D01*
X72700000Y-94042857D01*
X72747619Y-93995238D01*
X72842857Y-93947619D01*
X73033333Y-93900000D01*
X73271428Y-93900000D01*
X73461904Y-93947619D01*
X73557142Y-93995238D01*
X73604761Y-94042857D01*
X73652380Y-94138095D01*
X73652380Y-94233333D01*
X73604761Y-94328571D01*
X73557142Y-94376190D01*
X73461904Y-94423809D01*
X73271428Y-94471428D01*
X73033333Y-94471428D01*
X72842857Y-94423809D01*
X72747619Y-94376190D01*
X72700000Y-94328571D01*
X72652380Y-94233333D01*
X72985714Y-93042857D02*
X73652380Y-93042857D01*
X72985714Y-93471428D02*
X73509523Y-93471428D01*
X73604761Y-93423809D01*
X73652380Y-93328571D01*
X73652380Y-93185714D01*
X73604761Y-93090476D01*
X73557142Y-93042857D01*
X72985714Y-92709523D02*
X72985714Y-92328571D01*
X73652380Y-92566666D02*
X72795238Y-92566666D01*
X72700000Y-92519047D01*
X72652380Y-92423809D01*
X72652380Y-92328571D01*
G04 #@! TO.C,C6*
X85577142Y-77966666D02*
X85624761Y-78014285D01*
X85672380Y-78157142D01*
X85672380Y-78252380D01*
X85624761Y-78395238D01*
X85529523Y-78490476D01*
X85434285Y-78538095D01*
X85243809Y-78585714D01*
X85100952Y-78585714D01*
X84910476Y-78538095D01*
X84815238Y-78490476D01*
X84720000Y-78395238D01*
X84672380Y-78252380D01*
X84672380Y-78157142D01*
X84720000Y-78014285D01*
X84767619Y-77966666D01*
X84672380Y-77109523D02*
X84672380Y-77300000D01*
X84720000Y-77395238D01*
X84767619Y-77442857D01*
X84910476Y-77538095D01*
X85100952Y-77585714D01*
X85481904Y-77585714D01*
X85577142Y-77538095D01*
X85624761Y-77490476D01*
X85672380Y-77395238D01*
X85672380Y-77204761D01*
X85624761Y-77109523D01*
X85577142Y-77061904D01*
X85481904Y-77014285D01*
X85243809Y-77014285D01*
X85148571Y-77061904D01*
X85100952Y-77109523D01*
X85053333Y-77204761D01*
X85053333Y-77395238D01*
X85100952Y-77490476D01*
X85148571Y-77538095D01*
X85243809Y-77585714D01*
X82032380Y-79204761D02*
X82032380Y-79776190D01*
X82032380Y-79490476D02*
X81032380Y-79490476D01*
X81175238Y-79585714D01*
X81270476Y-79680952D01*
X81318095Y-79776190D01*
X81032380Y-78585714D02*
X81032380Y-78490476D01*
X81080000Y-78395238D01*
X81127619Y-78347619D01*
X81222857Y-78300000D01*
X81413333Y-78252380D01*
X81651428Y-78252380D01*
X81841904Y-78300000D01*
X81937142Y-78347619D01*
X81984761Y-78395238D01*
X82032380Y-78490476D01*
X82032380Y-78585714D01*
X81984761Y-78680952D01*
X81937142Y-78728571D01*
X81841904Y-78776190D01*
X81651428Y-78823809D01*
X81413333Y-78823809D01*
X81222857Y-78776190D01*
X81127619Y-78728571D01*
X81080000Y-78680952D01*
X81032380Y-78585714D01*
X81032380Y-77633333D02*
X81032380Y-77538095D01*
X81080000Y-77442857D01*
X81127619Y-77395238D01*
X81222857Y-77347619D01*
X81413333Y-77300000D01*
X81651428Y-77300000D01*
X81841904Y-77347619D01*
X81937142Y-77395238D01*
X81984761Y-77442857D01*
X82032380Y-77538095D01*
X82032380Y-77633333D01*
X81984761Y-77728571D01*
X81937142Y-77776190D01*
X81841904Y-77823809D01*
X81651428Y-77871428D01*
X81413333Y-77871428D01*
X81222857Y-77823809D01*
X81127619Y-77776190D01*
X81080000Y-77728571D01*
X81032380Y-77633333D01*
X81365714Y-76442857D02*
X82032380Y-76442857D01*
X81365714Y-76871428D02*
X81889523Y-76871428D01*
X81984761Y-76823809D01*
X82032380Y-76728571D01*
X82032380Y-76585714D01*
X81984761Y-76490476D01*
X81937142Y-76442857D01*
X81365714Y-76109523D02*
X81365714Y-75728571D01*
X82032380Y-75966666D02*
X81175238Y-75966666D01*
X81080000Y-75919047D01*
X81032380Y-75823809D01*
X81032380Y-75728571D01*
G04 #@! TO.C,C8*
X99177142Y-66766666D02*
X99224761Y-66814285D01*
X99272380Y-66957142D01*
X99272380Y-67052380D01*
X99224761Y-67195238D01*
X99129523Y-67290476D01*
X99034285Y-67338095D01*
X98843809Y-67385714D01*
X98700952Y-67385714D01*
X98510476Y-67338095D01*
X98415238Y-67290476D01*
X98320000Y-67195238D01*
X98272380Y-67052380D01*
X98272380Y-66957142D01*
X98320000Y-66814285D01*
X98367619Y-66766666D01*
X98700952Y-66195238D02*
X98653333Y-66290476D01*
X98605714Y-66338095D01*
X98510476Y-66385714D01*
X98462857Y-66385714D01*
X98367619Y-66338095D01*
X98320000Y-66290476D01*
X98272380Y-66195238D01*
X98272380Y-66004761D01*
X98320000Y-65909523D01*
X98367619Y-65861904D01*
X98462857Y-65814285D01*
X98510476Y-65814285D01*
X98605714Y-65861904D01*
X98653333Y-65909523D01*
X98700952Y-66004761D01*
X98700952Y-66195238D01*
X98748571Y-66290476D01*
X98796190Y-66338095D01*
X98891428Y-66385714D01*
X99081904Y-66385714D01*
X99177142Y-66338095D01*
X99224761Y-66290476D01*
X99272380Y-66195238D01*
X99272380Y-66004761D01*
X99224761Y-65909523D01*
X99177142Y-65861904D01*
X99081904Y-65814285D01*
X98891428Y-65814285D01*
X98796190Y-65861904D01*
X98748571Y-65909523D01*
X98700952Y-66004761D01*
X95632380Y-68004761D02*
X95632380Y-68576190D01*
X95632380Y-68290476D02*
X94632380Y-68290476D01*
X94775238Y-68385714D01*
X94870476Y-68480952D01*
X94918095Y-68576190D01*
X94632380Y-67385714D02*
X94632380Y-67290476D01*
X94680000Y-67195238D01*
X94727619Y-67147619D01*
X94822857Y-67100000D01*
X95013333Y-67052380D01*
X95251428Y-67052380D01*
X95441904Y-67100000D01*
X95537142Y-67147619D01*
X95584761Y-67195238D01*
X95632380Y-67290476D01*
X95632380Y-67385714D01*
X95584761Y-67480952D01*
X95537142Y-67528571D01*
X95441904Y-67576190D01*
X95251428Y-67623809D01*
X95013333Y-67623809D01*
X94822857Y-67576190D01*
X94727619Y-67528571D01*
X94680000Y-67480952D01*
X94632380Y-67385714D01*
X94632380Y-66433333D02*
X94632380Y-66338095D01*
X94680000Y-66242857D01*
X94727619Y-66195238D01*
X94822857Y-66147619D01*
X95013333Y-66100000D01*
X95251428Y-66100000D01*
X95441904Y-66147619D01*
X95537142Y-66195238D01*
X95584761Y-66242857D01*
X95632380Y-66338095D01*
X95632380Y-66433333D01*
X95584761Y-66528571D01*
X95537142Y-66576190D01*
X95441904Y-66623809D01*
X95251428Y-66671428D01*
X95013333Y-66671428D01*
X94822857Y-66623809D01*
X94727619Y-66576190D01*
X94680000Y-66528571D01*
X94632380Y-66433333D01*
X94965714Y-65242857D02*
X95632380Y-65242857D01*
X94965714Y-65671428D02*
X95489523Y-65671428D01*
X95584761Y-65623809D01*
X95632380Y-65528571D01*
X95632380Y-65385714D01*
X95584761Y-65290476D01*
X95537142Y-65242857D01*
X94965714Y-64909523D02*
X94965714Y-64528571D01*
X95632380Y-64766666D02*
X94775238Y-64766666D01*
X94680000Y-64719047D01*
X94632380Y-64623809D01*
X94632380Y-64528571D01*
G04 #@! TO.C,C9*
X81937142Y-67279166D02*
X81984761Y-67326785D01*
X82032380Y-67469642D01*
X82032380Y-67564880D01*
X81984761Y-67707738D01*
X81889523Y-67802976D01*
X81794285Y-67850595D01*
X81603809Y-67898214D01*
X81460952Y-67898214D01*
X81270476Y-67850595D01*
X81175238Y-67802976D01*
X81080000Y-67707738D01*
X81032380Y-67564880D01*
X81032380Y-67469642D01*
X81080000Y-67326785D01*
X81127619Y-67279166D01*
X82032380Y-66802976D02*
X82032380Y-66612500D01*
X81984761Y-66517261D01*
X81937142Y-66469642D01*
X81794285Y-66374404D01*
X81603809Y-66326785D01*
X81222857Y-66326785D01*
X81127619Y-66374404D01*
X81080000Y-66422023D01*
X81032380Y-66517261D01*
X81032380Y-66707738D01*
X81080000Y-66802976D01*
X81127619Y-66850595D01*
X81222857Y-66898214D01*
X81460952Y-66898214D01*
X81556190Y-66850595D01*
X81603809Y-66802976D01*
X81651428Y-66707738D01*
X81651428Y-66517261D01*
X81603809Y-66422023D01*
X81556190Y-66374404D01*
X81460952Y-66326785D01*
X85672380Y-68517261D02*
X85672380Y-69088690D01*
X85672380Y-68802976D02*
X84672380Y-68802976D01*
X84815238Y-68898214D01*
X84910476Y-68993452D01*
X84958095Y-69088690D01*
X84672380Y-67898214D02*
X84672380Y-67802976D01*
X84720000Y-67707738D01*
X84767619Y-67660119D01*
X84862857Y-67612500D01*
X85053333Y-67564880D01*
X85291428Y-67564880D01*
X85481904Y-67612500D01*
X85577142Y-67660119D01*
X85624761Y-67707738D01*
X85672380Y-67802976D01*
X85672380Y-67898214D01*
X85624761Y-67993452D01*
X85577142Y-68041071D01*
X85481904Y-68088690D01*
X85291428Y-68136309D01*
X85053333Y-68136309D01*
X84862857Y-68088690D01*
X84767619Y-68041071D01*
X84720000Y-67993452D01*
X84672380Y-67898214D01*
X84672380Y-66945833D02*
X84672380Y-66850595D01*
X84720000Y-66755357D01*
X84767619Y-66707738D01*
X84862857Y-66660119D01*
X85053333Y-66612500D01*
X85291428Y-66612500D01*
X85481904Y-66660119D01*
X85577142Y-66707738D01*
X85624761Y-66755357D01*
X85672380Y-66850595D01*
X85672380Y-66945833D01*
X85624761Y-67041071D01*
X85577142Y-67088690D01*
X85481904Y-67136309D01*
X85291428Y-67183928D01*
X85053333Y-67183928D01*
X84862857Y-67136309D01*
X84767619Y-67088690D01*
X84720000Y-67041071D01*
X84672380Y-66945833D01*
X85005714Y-65755357D02*
X85672380Y-65755357D01*
X85005714Y-66183928D02*
X85529523Y-66183928D01*
X85624761Y-66136309D01*
X85672380Y-66041071D01*
X85672380Y-65898214D01*
X85624761Y-65802976D01*
X85577142Y-65755357D01*
X85005714Y-65422023D02*
X85005714Y-65041071D01*
X85672380Y-65279166D02*
X84815238Y-65279166D01*
X84720000Y-65231547D01*
X84672380Y-65136309D01*
X84672380Y-65041071D01*
G04 #@! TO.C,J3*
X77262380Y-59333333D02*
X77976666Y-59333333D01*
X78119523Y-59380952D01*
X78214761Y-59476190D01*
X78262380Y-59619047D01*
X78262380Y-59714285D01*
X77262380Y-58952380D02*
X77262380Y-58333333D01*
X77643333Y-58666666D01*
X77643333Y-58523809D01*
X77690952Y-58428571D01*
X77738571Y-58380952D01*
X77833809Y-58333333D01*
X78071904Y-58333333D01*
X78167142Y-58380952D01*
X78214761Y-58428571D01*
X78262380Y-58523809D01*
X78262380Y-58809523D01*
X78214761Y-58904761D01*
X78167142Y-58952380D01*
X59902380Y-60595238D02*
X60711904Y-60595238D01*
X60807142Y-60547619D01*
X60854761Y-60500000D01*
X60902380Y-60404761D01*
X60902380Y-60214285D01*
X60854761Y-60119047D01*
X60807142Y-60071428D01*
X60711904Y-60023809D01*
X59902380Y-60023809D01*
X60616666Y-59595238D02*
X60616666Y-59119047D01*
X60902380Y-59690476D02*
X59902380Y-59357142D01*
X60902380Y-59023809D01*
X60902380Y-58119047D02*
X60426190Y-58452380D01*
X60902380Y-58690476D02*
X59902380Y-58690476D01*
X59902380Y-58309523D01*
X59950000Y-58214285D01*
X59997619Y-58166666D01*
X60092857Y-58119047D01*
X60235714Y-58119047D01*
X60330952Y-58166666D01*
X60378571Y-58214285D01*
X60426190Y-58309523D01*
X60426190Y-58690476D01*
X59902380Y-57833333D02*
X59902380Y-57261904D01*
X60902380Y-57547619D02*
X59902380Y-57547619D01*
G04 #@! TO.C,R3*
X59452380Y-87166666D02*
X58976190Y-87500000D01*
X59452380Y-87738095D02*
X58452380Y-87738095D01*
X58452380Y-87357142D01*
X58500000Y-87261904D01*
X58547619Y-87214285D01*
X58642857Y-87166666D01*
X58785714Y-87166666D01*
X58880952Y-87214285D01*
X58928571Y-87261904D01*
X58976190Y-87357142D01*
X58976190Y-87738095D01*
X58452380Y-86833333D02*
X58452380Y-86214285D01*
X58833333Y-86547619D01*
X58833333Y-86404761D01*
X58880952Y-86309523D01*
X58928571Y-86261904D01*
X59023809Y-86214285D01*
X59261904Y-86214285D01*
X59357142Y-86261904D01*
X59404761Y-86309523D01*
X59452380Y-86404761D01*
X59452380Y-86690476D01*
X59404761Y-86785714D01*
X59357142Y-86833333D01*
X59452380Y-93595238D02*
X59452380Y-94166666D01*
X59452380Y-93880952D02*
X58452380Y-93880952D01*
X58595238Y-93976190D01*
X58690476Y-94071428D01*
X58738095Y-94166666D01*
X58452380Y-92976190D02*
X58452380Y-92880952D01*
X58500000Y-92785714D01*
X58547619Y-92738095D01*
X58642857Y-92690476D01*
X58833333Y-92642857D01*
X59071428Y-92642857D01*
X59261904Y-92690476D01*
X59357142Y-92738095D01*
X59404761Y-92785714D01*
X59452380Y-92880952D01*
X59452380Y-92976190D01*
X59404761Y-93071428D01*
X59357142Y-93119047D01*
X59261904Y-93166666D01*
X59071428Y-93214285D01*
X58833333Y-93214285D01*
X58642857Y-93166666D01*
X58547619Y-93119047D01*
X58500000Y-93071428D01*
X58452380Y-92976190D01*
X59452380Y-92214285D02*
X58452380Y-92214285D01*
X59071428Y-92119047D02*
X59452380Y-91833333D01*
X58785714Y-91833333D02*
X59166666Y-92214285D01*
G04 #@! TO.C,R4*
X61602380Y-89966666D02*
X61126190Y-90300000D01*
X61602380Y-90538095D02*
X60602380Y-90538095D01*
X60602380Y-90157142D01*
X60650000Y-90061904D01*
X60697619Y-90014285D01*
X60792857Y-89966666D01*
X60935714Y-89966666D01*
X61030952Y-90014285D01*
X61078571Y-90061904D01*
X61126190Y-90157142D01*
X61126190Y-90538095D01*
X60935714Y-89109523D02*
X61602380Y-89109523D01*
X60554761Y-89347619D02*
X61269047Y-89585714D01*
X61269047Y-88966666D01*
X63252380Y-93595238D02*
X63252380Y-94166666D01*
X63252380Y-93880952D02*
X62252380Y-93880952D01*
X62395238Y-93976190D01*
X62490476Y-94071428D01*
X62538095Y-94166666D01*
X62252380Y-92976190D02*
X62252380Y-92880952D01*
X62300000Y-92785714D01*
X62347619Y-92738095D01*
X62442857Y-92690476D01*
X62633333Y-92642857D01*
X62871428Y-92642857D01*
X63061904Y-92690476D01*
X63157142Y-92738095D01*
X63204761Y-92785714D01*
X63252380Y-92880952D01*
X63252380Y-92976190D01*
X63204761Y-93071428D01*
X63157142Y-93119047D01*
X63061904Y-93166666D01*
X62871428Y-93214285D01*
X62633333Y-93214285D01*
X62442857Y-93166666D01*
X62347619Y-93119047D01*
X62300000Y-93071428D01*
X62252380Y-92976190D01*
X63252380Y-92214285D02*
X62252380Y-92214285D01*
X62871428Y-92119047D02*
X63252380Y-91833333D01*
X62585714Y-91833333D02*
X62966666Y-92214285D01*
G04 #@! TO.C,R6*
X79302380Y-89966666D02*
X78826190Y-90300000D01*
X79302380Y-90538095D02*
X78302380Y-90538095D01*
X78302380Y-90157142D01*
X78350000Y-90061904D01*
X78397619Y-90014285D01*
X78492857Y-89966666D01*
X78635714Y-89966666D01*
X78730952Y-90014285D01*
X78778571Y-90061904D01*
X78826190Y-90157142D01*
X78826190Y-90538095D01*
X78302380Y-89109523D02*
X78302380Y-89300000D01*
X78350000Y-89395238D01*
X78397619Y-89442857D01*
X78540476Y-89538095D01*
X78730952Y-89585714D01*
X79111904Y-89585714D01*
X79207142Y-89538095D01*
X79254761Y-89490476D01*
X79302380Y-89395238D01*
X79302380Y-89204761D01*
X79254761Y-89109523D01*
X79207142Y-89061904D01*
X79111904Y-89014285D01*
X78873809Y-89014285D01*
X78778571Y-89061904D01*
X78730952Y-89109523D01*
X78683333Y-89204761D01*
X78683333Y-89395238D01*
X78730952Y-89490476D01*
X78778571Y-89538095D01*
X78873809Y-89585714D01*
X77652380Y-93795238D02*
X77652380Y-94366666D01*
X77652380Y-94080952D02*
X76652380Y-94080952D01*
X76795238Y-94176190D01*
X76890476Y-94271428D01*
X76938095Y-94366666D01*
X76652380Y-93176190D02*
X76652380Y-93080952D01*
X76700000Y-92985714D01*
X76747619Y-92938095D01*
X76842857Y-92890476D01*
X77033333Y-92842857D01*
X77271428Y-92842857D01*
X77461904Y-92890476D01*
X77557142Y-92938095D01*
X77604761Y-92985714D01*
X77652380Y-93080952D01*
X77652380Y-93176190D01*
X77604761Y-93271428D01*
X77557142Y-93319047D01*
X77461904Y-93366666D01*
X77271428Y-93414285D01*
X77033333Y-93414285D01*
X76842857Y-93366666D01*
X76747619Y-93319047D01*
X76700000Y-93271428D01*
X76652380Y-93176190D01*
X77652380Y-92414285D02*
X76652380Y-92414285D01*
X77271428Y-92319047D02*
X77652380Y-92033333D01*
X76985714Y-92033333D02*
X77366666Y-92414285D01*
G04 #@! TO.C,R7*
X93252380Y-83966666D02*
X92776190Y-84300000D01*
X93252380Y-84538095D02*
X92252380Y-84538095D01*
X92252380Y-84157142D01*
X92300000Y-84061904D01*
X92347619Y-84014285D01*
X92442857Y-83966666D01*
X92585714Y-83966666D01*
X92680952Y-84014285D01*
X92728571Y-84061904D01*
X92776190Y-84157142D01*
X92776190Y-84538095D01*
X92252380Y-83633333D02*
X92252380Y-82966666D01*
X93252380Y-83395238D01*
X93852380Y-86447619D02*
X93852380Y-86352380D01*
X93900000Y-86257142D01*
X93947619Y-86209523D01*
X94042857Y-86161904D01*
X94233333Y-86114285D01*
X94471428Y-86114285D01*
X94661904Y-86161904D01*
X94757142Y-86209523D01*
X94804761Y-86257142D01*
X94852380Y-86352380D01*
X94852380Y-86447619D01*
X94804761Y-86542857D01*
X94757142Y-86590476D01*
X94661904Y-86638095D01*
X94471428Y-86685714D01*
X94233333Y-86685714D01*
X94042857Y-86638095D01*
X93947619Y-86590476D01*
X93900000Y-86542857D01*
X93852380Y-86447619D01*
G04 #@! TO.C,R8*
X98502380Y-83941666D02*
X98026190Y-84275000D01*
X98502380Y-84513095D02*
X97502380Y-84513095D01*
X97502380Y-84132142D01*
X97550000Y-84036904D01*
X97597619Y-83989285D01*
X97692857Y-83941666D01*
X97835714Y-83941666D01*
X97930952Y-83989285D01*
X97978571Y-84036904D01*
X98026190Y-84132142D01*
X98026190Y-84513095D01*
X97930952Y-83370238D02*
X97883333Y-83465476D01*
X97835714Y-83513095D01*
X97740476Y-83560714D01*
X97692857Y-83560714D01*
X97597619Y-83513095D01*
X97550000Y-83465476D01*
X97502380Y-83370238D01*
X97502380Y-83179761D01*
X97550000Y-83084523D01*
X97597619Y-83036904D01*
X97692857Y-82989285D01*
X97740476Y-82989285D01*
X97835714Y-83036904D01*
X97883333Y-83084523D01*
X97930952Y-83179761D01*
X97930952Y-83370238D01*
X97978571Y-83465476D01*
X98026190Y-83513095D01*
X98121428Y-83560714D01*
X98311904Y-83560714D01*
X98407142Y-83513095D01*
X98454761Y-83465476D01*
X98502380Y-83370238D01*
X98502380Y-83179761D01*
X98454761Y-83084523D01*
X98407142Y-83036904D01*
X98311904Y-82989285D01*
X98121428Y-82989285D01*
X98026190Y-83036904D01*
X97978571Y-83084523D01*
X97930952Y-83179761D01*
X95852380Y-86447619D02*
X95852380Y-86352380D01*
X95900000Y-86257142D01*
X95947619Y-86209523D01*
X96042857Y-86161904D01*
X96233333Y-86114285D01*
X96471428Y-86114285D01*
X96661904Y-86161904D01*
X96757142Y-86209523D01*
X96804761Y-86257142D01*
X96852380Y-86352380D01*
X96852380Y-86447619D01*
X96804761Y-86542857D01*
X96757142Y-86590476D01*
X96661904Y-86638095D01*
X96471428Y-86685714D01*
X96233333Y-86685714D01*
X96042857Y-86638095D01*
X95947619Y-86590476D01*
X95900000Y-86542857D01*
X95852380Y-86447619D01*
G04 #@! TO.C,R9*
X71702380Y-89766666D02*
X71226190Y-90100000D01*
X71702380Y-90338095D02*
X70702380Y-90338095D01*
X70702380Y-89957142D01*
X70750000Y-89861904D01*
X70797619Y-89814285D01*
X70892857Y-89766666D01*
X71035714Y-89766666D01*
X71130952Y-89814285D01*
X71178571Y-89861904D01*
X71226190Y-89957142D01*
X71226190Y-90338095D01*
X71702380Y-89290476D02*
X71702380Y-89100000D01*
X71654761Y-89004761D01*
X71607142Y-88957142D01*
X71464285Y-88861904D01*
X71273809Y-88814285D01*
X70892857Y-88814285D01*
X70797619Y-88861904D01*
X70750000Y-88909523D01*
X70702380Y-89004761D01*
X70702380Y-89195238D01*
X70750000Y-89290476D01*
X70797619Y-89338095D01*
X70892857Y-89385714D01*
X71130952Y-89385714D01*
X71226190Y-89338095D01*
X71273809Y-89290476D01*
X71321428Y-89195238D01*
X71321428Y-89004761D01*
X71273809Y-88909523D01*
X71226190Y-88861904D01*
X71130952Y-88814285D01*
X70052380Y-93395238D02*
X70052380Y-93966666D01*
X70052380Y-93680952D02*
X69052380Y-93680952D01*
X69195238Y-93776190D01*
X69290476Y-93871428D01*
X69338095Y-93966666D01*
X69052380Y-92776190D02*
X69052380Y-92680952D01*
X69100000Y-92585714D01*
X69147619Y-92538095D01*
X69242857Y-92490476D01*
X69433333Y-92442857D01*
X69671428Y-92442857D01*
X69861904Y-92490476D01*
X69957142Y-92538095D01*
X70004761Y-92585714D01*
X70052380Y-92680952D01*
X70052380Y-92776190D01*
X70004761Y-92871428D01*
X69957142Y-92919047D01*
X69861904Y-92966666D01*
X69671428Y-93014285D01*
X69433333Y-93014285D01*
X69242857Y-92966666D01*
X69147619Y-92919047D01*
X69100000Y-92871428D01*
X69052380Y-92776190D01*
X70052380Y-92014285D02*
X69052380Y-92014285D01*
X69671428Y-91919047D02*
X70052380Y-91633333D01*
X69385714Y-91633333D02*
X69766666Y-92014285D01*
G04 #@! TO.C,R10*
X65802380Y-90442857D02*
X65326190Y-90776190D01*
X65802380Y-91014285D02*
X64802380Y-91014285D01*
X64802380Y-90633333D01*
X64850000Y-90538095D01*
X64897619Y-90490476D01*
X64992857Y-90442857D01*
X65135714Y-90442857D01*
X65230952Y-90490476D01*
X65278571Y-90538095D01*
X65326190Y-90633333D01*
X65326190Y-91014285D01*
X65802380Y-89490476D02*
X65802380Y-90061904D01*
X65802380Y-89776190D02*
X64802380Y-89776190D01*
X64945238Y-89871428D01*
X65040476Y-89966666D01*
X65088095Y-90061904D01*
X64802380Y-88871428D02*
X64802380Y-88776190D01*
X64850000Y-88680952D01*
X64897619Y-88633333D01*
X64992857Y-88585714D01*
X65183333Y-88538095D01*
X65421428Y-88538095D01*
X65611904Y-88585714D01*
X65707142Y-88633333D01*
X65754761Y-88680952D01*
X65802380Y-88776190D01*
X65802380Y-88871428D01*
X65754761Y-88966666D01*
X65707142Y-89014285D01*
X65611904Y-89061904D01*
X65421428Y-89109523D01*
X65183333Y-89109523D01*
X64992857Y-89061904D01*
X64897619Y-89014285D01*
X64850000Y-88966666D01*
X64802380Y-88871428D01*
X67452380Y-93595238D02*
X67452380Y-94166666D01*
X67452380Y-93880952D02*
X66452380Y-93880952D01*
X66595238Y-93976190D01*
X66690476Y-94071428D01*
X66738095Y-94166666D01*
X66452380Y-92976190D02*
X66452380Y-92880952D01*
X66500000Y-92785714D01*
X66547619Y-92738095D01*
X66642857Y-92690476D01*
X66833333Y-92642857D01*
X67071428Y-92642857D01*
X67261904Y-92690476D01*
X67357142Y-92738095D01*
X67404761Y-92785714D01*
X67452380Y-92880952D01*
X67452380Y-92976190D01*
X67404761Y-93071428D01*
X67357142Y-93119047D01*
X67261904Y-93166666D01*
X67071428Y-93214285D01*
X66833333Y-93214285D01*
X66642857Y-93166666D01*
X66547619Y-93119047D01*
X66500000Y-93071428D01*
X66452380Y-92976190D01*
X67452380Y-92214285D02*
X66452380Y-92214285D01*
X67071428Y-92119047D02*
X67452380Y-91833333D01*
X66785714Y-91833333D02*
X67166666Y-92214285D01*
G04 #@! TO.C,R11*
X89702380Y-84842857D02*
X89226190Y-85176190D01*
X89702380Y-85414285D02*
X88702380Y-85414285D01*
X88702380Y-85033333D01*
X88750000Y-84938095D01*
X88797619Y-84890476D01*
X88892857Y-84842857D01*
X89035714Y-84842857D01*
X89130952Y-84890476D01*
X89178571Y-84938095D01*
X89226190Y-85033333D01*
X89226190Y-85414285D01*
X89702380Y-83890476D02*
X89702380Y-84461904D01*
X89702380Y-84176190D02*
X88702380Y-84176190D01*
X88845238Y-84271428D01*
X88940476Y-84366666D01*
X88988095Y-84461904D01*
X89702380Y-82938095D02*
X89702380Y-83509523D01*
X89702380Y-83223809D02*
X88702380Y-83223809D01*
X88845238Y-83319047D01*
X88940476Y-83414285D01*
X88988095Y-83509523D01*
X87052380Y-86847619D02*
X87052380Y-86752380D01*
X87100000Y-86657142D01*
X87147619Y-86609523D01*
X87242857Y-86561904D01*
X87433333Y-86514285D01*
X87671428Y-86514285D01*
X87861904Y-86561904D01*
X87957142Y-86609523D01*
X88004761Y-86657142D01*
X88052380Y-86752380D01*
X88052380Y-86847619D01*
X88004761Y-86942857D01*
X87957142Y-86990476D01*
X87861904Y-87038095D01*
X87671428Y-87085714D01*
X87433333Y-87085714D01*
X87242857Y-87038095D01*
X87147619Y-86990476D01*
X87100000Y-86942857D01*
X87052380Y-86847619D01*
G04 #@! TO.C,R12*
X84652380Y-84842857D02*
X84176190Y-85176190D01*
X84652380Y-85414285D02*
X83652380Y-85414285D01*
X83652380Y-85033333D01*
X83700000Y-84938095D01*
X83747619Y-84890476D01*
X83842857Y-84842857D01*
X83985714Y-84842857D01*
X84080952Y-84890476D01*
X84128571Y-84938095D01*
X84176190Y-85033333D01*
X84176190Y-85414285D01*
X84652380Y-83890476D02*
X84652380Y-84461904D01*
X84652380Y-84176190D02*
X83652380Y-84176190D01*
X83795238Y-84271428D01*
X83890476Y-84366666D01*
X83938095Y-84461904D01*
X83747619Y-83509523D02*
X83700000Y-83461904D01*
X83652380Y-83366666D01*
X83652380Y-83128571D01*
X83700000Y-83033333D01*
X83747619Y-82985714D01*
X83842857Y-82938095D01*
X83938095Y-82938095D01*
X84080952Y-82985714D01*
X84652380Y-83557142D01*
X84652380Y-82938095D01*
X85252380Y-86847619D02*
X85252380Y-86752380D01*
X85300000Y-86657142D01*
X85347619Y-86609523D01*
X85442857Y-86561904D01*
X85633333Y-86514285D01*
X85871428Y-86514285D01*
X86061904Y-86561904D01*
X86157142Y-86609523D01*
X86204761Y-86657142D01*
X86252380Y-86752380D01*
X86252380Y-86847619D01*
X86204761Y-86942857D01*
X86157142Y-86990476D01*
X86061904Y-87038095D01*
X85871428Y-87085714D01*
X85633333Y-87085714D01*
X85442857Y-87038095D01*
X85347619Y-86990476D01*
X85300000Y-86942857D01*
X85252380Y-86847619D01*
G04 #@! TO.C,SW2*
X80004761Y-93933333D02*
X80052380Y-93790476D01*
X80052380Y-93552380D01*
X80004761Y-93457142D01*
X79957142Y-93409523D01*
X79861904Y-93361904D01*
X79766666Y-93361904D01*
X79671428Y-93409523D01*
X79623809Y-93457142D01*
X79576190Y-93552380D01*
X79528571Y-93742857D01*
X79480952Y-93838095D01*
X79433333Y-93885714D01*
X79338095Y-93933333D01*
X79242857Y-93933333D01*
X79147619Y-93885714D01*
X79100000Y-93838095D01*
X79052380Y-93742857D01*
X79052380Y-93504761D01*
X79100000Y-93361904D01*
X79052380Y-93028571D02*
X80052380Y-92790476D01*
X79338095Y-92600000D01*
X80052380Y-92409523D01*
X79052380Y-92171428D01*
X79147619Y-91838095D02*
X79100000Y-91790476D01*
X79052380Y-91695238D01*
X79052380Y-91457142D01*
X79100000Y-91361904D01*
X79147619Y-91314285D01*
X79242857Y-91266666D01*
X79338095Y-91266666D01*
X79480952Y-91314285D01*
X80052380Y-91885714D01*
X80052380Y-91266666D01*
X85652380Y-93147619D02*
X85176190Y-93480952D01*
X85652380Y-93719047D02*
X84652380Y-93719047D01*
X84652380Y-93338095D01*
X84700000Y-93242857D01*
X84747619Y-93195238D01*
X84842857Y-93147619D01*
X84985714Y-93147619D01*
X85080952Y-93195238D01*
X85128571Y-93242857D01*
X85176190Y-93338095D01*
X85176190Y-93719047D01*
X85604761Y-92766666D02*
X85652380Y-92623809D01*
X85652380Y-92385714D01*
X85604761Y-92290476D01*
X85557142Y-92242857D01*
X85461904Y-92195238D01*
X85366666Y-92195238D01*
X85271428Y-92242857D01*
X85223809Y-92290476D01*
X85176190Y-92385714D01*
X85128571Y-92576190D01*
X85080952Y-92671428D01*
X85033333Y-92719047D01*
X84938095Y-92766666D01*
X84842857Y-92766666D01*
X84747619Y-92719047D01*
X84700000Y-92671428D01*
X84652380Y-92576190D01*
X84652380Y-92338095D01*
X84700000Y-92195238D01*
X84652380Y-91909523D02*
X84652380Y-91338095D01*
X85652380Y-91623809D02*
X84652380Y-91623809D01*
G04 #@! TO.C,SW3*
X88804761Y-94133333D02*
X88852380Y-93990476D01*
X88852380Y-93752380D01*
X88804761Y-93657142D01*
X88757142Y-93609523D01*
X88661904Y-93561904D01*
X88566666Y-93561904D01*
X88471428Y-93609523D01*
X88423809Y-93657142D01*
X88376190Y-93752380D01*
X88328571Y-93942857D01*
X88280952Y-94038095D01*
X88233333Y-94085714D01*
X88138095Y-94133333D01*
X88042857Y-94133333D01*
X87947619Y-94085714D01*
X87900000Y-94038095D01*
X87852380Y-93942857D01*
X87852380Y-93704761D01*
X87900000Y-93561904D01*
X87852380Y-93228571D02*
X88852380Y-92990476D01*
X88138095Y-92800000D01*
X88852380Y-92609523D01*
X87852380Y-92371428D01*
X87852380Y-92085714D02*
X87852380Y-91466666D01*
X88233333Y-91800000D01*
X88233333Y-91657142D01*
X88280952Y-91561904D01*
X88328571Y-91514285D01*
X88423809Y-91466666D01*
X88661904Y-91466666D01*
X88757142Y-91514285D01*
X88804761Y-91561904D01*
X88852380Y-91657142D01*
X88852380Y-91942857D01*
X88804761Y-92038095D01*
X88757142Y-92085714D01*
X93928571Y-94061904D02*
X93928571Y-94395238D01*
X94452380Y-94395238D02*
X93452380Y-94395238D01*
X93452380Y-93919047D01*
X94452380Y-93061904D02*
X94452380Y-93538095D01*
X93452380Y-93538095D01*
X94404761Y-92776190D02*
X94452380Y-92633333D01*
X94452380Y-92395238D01*
X94404761Y-92300000D01*
X94357142Y-92252380D01*
X94261904Y-92204761D01*
X94166666Y-92204761D01*
X94071428Y-92252380D01*
X94023809Y-92300000D01*
X93976190Y-92395238D01*
X93928571Y-92585714D01*
X93880952Y-92680952D01*
X93833333Y-92728571D01*
X93738095Y-92776190D01*
X93642857Y-92776190D01*
X93547619Y-92728571D01*
X93500000Y-92680952D01*
X93452380Y-92585714D01*
X93452380Y-92347619D01*
X93500000Y-92204761D01*
X94452380Y-91776190D02*
X93452380Y-91776190D01*
X93928571Y-91776190D02*
X93928571Y-91204761D01*
X94452380Y-91204761D02*
X93452380Y-91204761D01*
G04 #@! TO.C,U5*
X89038095Y-77252380D02*
X89038095Y-78061904D01*
X89085714Y-78157142D01*
X89133333Y-78204761D01*
X89228571Y-78252380D01*
X89419047Y-78252380D01*
X89514285Y-78204761D01*
X89561904Y-78157142D01*
X89609523Y-78061904D01*
X89609523Y-77252380D01*
X90561904Y-77252380D02*
X90085714Y-77252380D01*
X90038095Y-77728571D01*
X90085714Y-77680952D01*
X90180952Y-77633333D01*
X90419047Y-77633333D01*
X90514285Y-77680952D01*
X90561904Y-77728571D01*
X90609523Y-77823809D01*
X90609523Y-78061904D01*
X90561904Y-78157142D01*
X90514285Y-78204761D01*
X90419047Y-78252380D01*
X90180952Y-78252380D01*
X90085714Y-78204761D01*
X90038095Y-78157142D01*
X86585714Y-74652380D02*
X86585714Y-73652380D01*
X87157142Y-74652380D01*
X87157142Y-73652380D01*
X87966666Y-74128571D02*
X88109523Y-74176190D01*
X88157142Y-74223809D01*
X88204761Y-74319047D01*
X88204761Y-74461904D01*
X88157142Y-74557142D01*
X88109523Y-74604761D01*
X88014285Y-74652380D01*
X87633333Y-74652380D01*
X87633333Y-73652380D01*
X87966666Y-73652380D01*
X88061904Y-73700000D01*
X88109523Y-73747619D01*
X88157142Y-73842857D01*
X88157142Y-73938095D01*
X88109523Y-74033333D01*
X88061904Y-74080952D01*
X87966666Y-74128571D01*
X87633333Y-74128571D01*
X88538095Y-73652380D02*
X89157142Y-73652380D01*
X88823809Y-74033333D01*
X88966666Y-74033333D01*
X89061904Y-74080952D01*
X89109523Y-74128571D01*
X89157142Y-74223809D01*
X89157142Y-74461904D01*
X89109523Y-74557142D01*
X89061904Y-74604761D01*
X88966666Y-74652380D01*
X88680952Y-74652380D01*
X88585714Y-74604761D01*
X88538095Y-74557142D01*
X89585714Y-74652380D02*
X89585714Y-73652380D01*
X90157142Y-74652380D01*
X90157142Y-73652380D01*
X91109523Y-73652380D02*
X90633333Y-73652380D01*
X90585714Y-74128571D01*
X90633333Y-74080952D01*
X90728571Y-74033333D01*
X90966666Y-74033333D01*
X91061904Y-74080952D01*
X91109523Y-74128571D01*
X91157142Y-74223809D01*
X91157142Y-74461904D01*
X91109523Y-74557142D01*
X91061904Y-74604761D01*
X90966666Y-74652380D01*
X90728571Y-74652380D01*
X90633333Y-74604761D01*
X90585714Y-74557142D01*
X92109523Y-74652380D02*
X91538095Y-74652380D01*
X91823809Y-74652380D02*
X91823809Y-73652380D01*
X91728571Y-73795238D01*
X91633333Y-73890476D01*
X91538095Y-73938095D01*
X93061904Y-74652380D02*
X92490476Y-74652380D01*
X92776190Y-74652380D02*
X92776190Y-73652380D01*
X92680952Y-73795238D01*
X92585714Y-73890476D01*
X92490476Y-73938095D01*
G04 #@! TO.C,U7*
X89238095Y-66852380D02*
X89238095Y-67661904D01*
X89285714Y-67757142D01*
X89333333Y-67804761D01*
X89428571Y-67852380D01*
X89619047Y-67852380D01*
X89714285Y-67804761D01*
X89761904Y-67757142D01*
X89809523Y-67661904D01*
X89809523Y-66852380D01*
X90190476Y-66852380D02*
X90857142Y-66852380D01*
X90428571Y-67852380D01*
X85190476Y-61652380D02*
X85190476Y-60652380D01*
X85571428Y-60652380D01*
X85666666Y-60700000D01*
X85714285Y-60747619D01*
X85761904Y-60842857D01*
X85761904Y-60985714D01*
X85714285Y-61080952D01*
X85666666Y-61128571D01*
X85571428Y-61176190D01*
X85190476Y-61176190D01*
X86761904Y-61557142D02*
X86714285Y-61604761D01*
X86571428Y-61652380D01*
X86476190Y-61652380D01*
X86333333Y-61604761D01*
X86238095Y-61509523D01*
X86190476Y-61414285D01*
X86142857Y-61223809D01*
X86142857Y-61080952D01*
X86190476Y-60890476D01*
X86238095Y-60795238D01*
X86333333Y-60700000D01*
X86476190Y-60652380D01*
X86571428Y-60652380D01*
X86714285Y-60700000D01*
X86761904Y-60747619D01*
X87190476Y-61652380D02*
X87190476Y-60652380D01*
X87523809Y-61366666D01*
X87857142Y-60652380D01*
X87857142Y-61652380D01*
X88238095Y-60652380D02*
X88857142Y-60652380D01*
X88523809Y-61033333D01*
X88666666Y-61033333D01*
X88761904Y-61080952D01*
X88809523Y-61128571D01*
X88857142Y-61223809D01*
X88857142Y-61461904D01*
X88809523Y-61557142D01*
X88761904Y-61604761D01*
X88666666Y-61652380D01*
X88380952Y-61652380D01*
X88285714Y-61604761D01*
X88238095Y-61557142D01*
X89476190Y-60652380D02*
X89571428Y-60652380D01*
X89666666Y-60700000D01*
X89714285Y-60747619D01*
X89761904Y-60842857D01*
X89809523Y-61033333D01*
X89809523Y-61271428D01*
X89761904Y-61461904D01*
X89714285Y-61557142D01*
X89666666Y-61604761D01*
X89571428Y-61652380D01*
X89476190Y-61652380D01*
X89380952Y-61604761D01*
X89333333Y-61557142D01*
X89285714Y-61461904D01*
X89238095Y-61271428D01*
X89238095Y-61033333D01*
X89285714Y-60842857D01*
X89333333Y-60747619D01*
X89380952Y-60700000D01*
X89476190Y-60652380D01*
X90666666Y-60652380D02*
X90476190Y-60652380D01*
X90380952Y-60700000D01*
X90333333Y-60747619D01*
X90238095Y-60890476D01*
X90190476Y-61080952D01*
X90190476Y-61461904D01*
X90238095Y-61557142D01*
X90285714Y-61604761D01*
X90380952Y-61652380D01*
X90571428Y-61652380D01*
X90666666Y-61604761D01*
X90714285Y-61557142D01*
X90761904Y-61461904D01*
X90761904Y-61223809D01*
X90714285Y-61128571D01*
X90666666Y-61080952D01*
X90571428Y-61033333D01*
X90380952Y-61033333D01*
X90285714Y-61080952D01*
X90238095Y-61128571D01*
X90190476Y-61223809D01*
X91380952Y-60652380D02*
X91476190Y-60652380D01*
X91571428Y-60700000D01*
X91619047Y-60747619D01*
X91666666Y-60842857D01*
X91714285Y-61033333D01*
X91714285Y-61271428D01*
X91666666Y-61461904D01*
X91619047Y-61557142D01*
X91571428Y-61604761D01*
X91476190Y-61652380D01*
X91380952Y-61652380D01*
X91285714Y-61604761D01*
X91238095Y-61557142D01*
X91190476Y-61461904D01*
X91142857Y-61271428D01*
X91142857Y-61033333D01*
X91190476Y-60842857D01*
X91238095Y-60747619D01*
X91285714Y-60700000D01*
X91380952Y-60652380D01*
X92142857Y-61652380D02*
X92142857Y-60652380D01*
X92523809Y-60652380D01*
X92619047Y-60700000D01*
X92666666Y-60747619D01*
X92714285Y-60842857D01*
X92714285Y-60985714D01*
X92666666Y-61080952D01*
X92619047Y-61128571D01*
X92523809Y-61176190D01*
X92142857Y-61176190D01*
X93047619Y-60652380D02*
X93285714Y-61652380D01*
X93476190Y-60938095D01*
X93666666Y-61652380D01*
X93904761Y-60652380D01*
X94857142Y-61652380D02*
X94523809Y-61176190D01*
X94285714Y-61652380D02*
X94285714Y-60652380D01*
X94666666Y-60652380D01*
X94761904Y-60700000D01*
X94809523Y-60747619D01*
X94857142Y-60842857D01*
X94857142Y-60985714D01*
X94809523Y-61080952D01*
X94761904Y-61128571D01*
X94666666Y-61176190D01*
X94285714Y-61176190D01*
G04 #@! TO.C,J4*
X110466666Y-53322380D02*
X110466666Y-54036666D01*
X110419047Y-54179523D01*
X110323809Y-54274761D01*
X110180952Y-54322380D01*
X110085714Y-54322380D01*
X111371428Y-53655714D02*
X111371428Y-54322380D01*
X111133333Y-53274761D02*
X110895238Y-53989047D01*
X111514285Y-53989047D01*
G04 #@! TD*
M02*
