G04 #@! TF.GenerationSoftware,KiCad,Pcbnew,5.0.1-33cea8e~68~ubuntu16.04.1*
G04 #@! TF.CreationDate,2018-11-12T15:24:54+01:00*
G04 #@! TF.ProjectId,passband,7061737362616E642E6B696361645F70,rev?*
G04 #@! TF.SameCoordinates,Original*
G04 #@! TF.FileFunction,Legend,Top*
G04 #@! TF.FilePolarity,Positive*
%FSLAX46Y46*%
G04 Gerber Fmt 4.6, Leading zero omitted, Abs format (unit mm)*
G04 Created by KiCad (PCBNEW 5.0.1-33cea8e~68~ubuntu16.04.1) date lun. 12 nov. 2018 15:24:54 CET*
%MOMM*%
%LPD*%
G01*
G04 APERTURE LIST*
%ADD10C,0.120000*%
%ADD11C,0.150000*%
G04 APERTURE END LIST*
D10*
G04 #@! TO.C,R1*
X115770000Y-98180000D02*
X115770000Y-108920000D01*
X97630000Y-98180000D02*
X97630000Y-108920000D01*
X115770000Y-98180000D02*
X97630000Y-98180000D01*
X115770000Y-108920000D02*
X97630000Y-108920000D01*
X110320000Y-108920000D02*
X110320000Y-113920000D01*
X103080000Y-108920000D02*
X103080000Y-113920000D01*
X110320000Y-108920000D02*
X103080000Y-108920000D01*
X110320000Y-113920000D02*
X103080000Y-113920000D01*
X109820000Y-113920000D02*
X109820000Y-123920000D01*
X103579000Y-113920000D02*
X103579000Y-123920000D01*
X109820000Y-113920000D02*
X103579000Y-113920000D01*
X109820000Y-123920000D02*
X103579000Y-123920000D01*
G04 #@! TO.C,C1*
X113780000Y-96470000D02*
X113780000Y-93730000D01*
X121220000Y-96470000D02*
X121220000Y-93730000D01*
X121220000Y-93730000D02*
X113780000Y-93730000D01*
X121220000Y-96470000D02*
X113780000Y-96470000D01*
G04 #@! TO.C,C2*
X105580000Y-93730000D02*
X113020000Y-93730000D01*
X105580000Y-96470000D02*
X113020000Y-96470000D01*
X105580000Y-93730000D02*
X105580000Y-96470000D01*
X113020000Y-93730000D02*
X113020000Y-96470000D01*
G04 #@! TO.C,J2*
X127470000Y-73670000D02*
X128800000Y-73670000D01*
X127470000Y-75000000D02*
X127470000Y-73670000D01*
X127470000Y-76270000D02*
X130130000Y-76270000D01*
X130130000Y-76270000D02*
X130130000Y-78870000D01*
X127470000Y-76270000D02*
X127470000Y-78870000D01*
X127470000Y-78870000D02*
X130130000Y-78870000D01*
G04 #@! TO.C,J3*
X127370000Y-90370000D02*
X130030000Y-90370000D01*
X127370000Y-87770000D02*
X127370000Y-90370000D01*
X130030000Y-87770000D02*
X130030000Y-90370000D01*
X127370000Y-87770000D02*
X130030000Y-87770000D01*
X127370000Y-86500000D02*
X127370000Y-85170000D01*
X127370000Y-85170000D02*
X128700000Y-85170000D01*
G04 #@! TO.C,J4*
X108870000Y-71830000D02*
X108870000Y-69170000D01*
X106270000Y-71830000D02*
X108870000Y-71830000D01*
X106270000Y-69170000D02*
X108870000Y-69170000D01*
X106270000Y-71830000D02*
X106270000Y-69170000D01*
X105000000Y-71830000D02*
X103670000Y-71830000D01*
X103670000Y-71830000D02*
X103670000Y-70500000D01*
G04 #@! TO.C,J5*
X113470000Y-71830000D02*
X113470000Y-70500000D01*
X114800000Y-71830000D02*
X113470000Y-71830000D01*
X116070000Y-71830000D02*
X116070000Y-69170000D01*
X116070000Y-69170000D02*
X118670000Y-69170000D01*
X116070000Y-71830000D02*
X118670000Y-71830000D01*
X118670000Y-71830000D02*
X118670000Y-69170000D01*
G04 #@! TO.C,U1*
X109270000Y-86490000D02*
G75*
G02X109270000Y-88490000I0J-1000000D01*
G01*
X109270000Y-88490000D02*
X109270000Y-90140000D01*
X109270000Y-90140000D02*
X119550000Y-90140000D01*
X119550000Y-90140000D02*
X119550000Y-84840000D01*
X119550000Y-84840000D02*
X109270000Y-84840000D01*
X109270000Y-84840000D02*
X109270000Y-86490000D01*
G04 #@! TO.C,J1*
X98270000Y-91870000D02*
X100930000Y-91870000D01*
X98270000Y-89270000D02*
X98270000Y-91870000D01*
X100930000Y-89270000D02*
X100930000Y-91870000D01*
X98270000Y-89270000D02*
X100930000Y-89270000D01*
X98270000Y-88000000D02*
X98270000Y-86670000D01*
X98270000Y-86670000D02*
X99600000Y-86670000D01*
G04 #@! TO.C,C3*
X112070000Y-79200000D02*
G75*
G03X112070000Y-79200000I-2620000J0D01*
G01*
X109450000Y-76620000D02*
X109450000Y-81780000D01*
X109490000Y-76620000D02*
X109490000Y-81780000D01*
X109530000Y-76621000D02*
X109530000Y-81779000D01*
X109570000Y-76622000D02*
X109570000Y-81778000D01*
X109610000Y-76624000D02*
X109610000Y-81776000D01*
X109650000Y-76627000D02*
X109650000Y-81773000D01*
X109690000Y-76631000D02*
X109690000Y-78160000D01*
X109690000Y-80240000D02*
X109690000Y-81769000D01*
X109730000Y-76635000D02*
X109730000Y-78160000D01*
X109730000Y-80240000D02*
X109730000Y-81765000D01*
X109770000Y-76639000D02*
X109770000Y-78160000D01*
X109770000Y-80240000D02*
X109770000Y-81761000D01*
X109810000Y-76644000D02*
X109810000Y-78160000D01*
X109810000Y-80240000D02*
X109810000Y-81756000D01*
X109850000Y-76650000D02*
X109850000Y-78160000D01*
X109850000Y-80240000D02*
X109850000Y-81750000D01*
X109890000Y-76657000D02*
X109890000Y-78160000D01*
X109890000Y-80240000D02*
X109890000Y-81743000D01*
X109930000Y-76664000D02*
X109930000Y-78160000D01*
X109930000Y-80240000D02*
X109930000Y-81736000D01*
X109970000Y-76672000D02*
X109970000Y-78160000D01*
X109970000Y-80240000D02*
X109970000Y-81728000D01*
X110010000Y-76680000D02*
X110010000Y-78160000D01*
X110010000Y-80240000D02*
X110010000Y-81720000D01*
X110050000Y-76689000D02*
X110050000Y-78160000D01*
X110050000Y-80240000D02*
X110050000Y-81711000D01*
X110090000Y-76699000D02*
X110090000Y-78160000D01*
X110090000Y-80240000D02*
X110090000Y-81701000D01*
X110130000Y-76709000D02*
X110130000Y-78160000D01*
X110130000Y-80240000D02*
X110130000Y-81691000D01*
X110171000Y-76720000D02*
X110171000Y-78160000D01*
X110171000Y-80240000D02*
X110171000Y-81680000D01*
X110211000Y-76732000D02*
X110211000Y-78160000D01*
X110211000Y-80240000D02*
X110211000Y-81668000D01*
X110251000Y-76745000D02*
X110251000Y-78160000D01*
X110251000Y-80240000D02*
X110251000Y-81655000D01*
X110291000Y-76758000D02*
X110291000Y-78160000D01*
X110291000Y-80240000D02*
X110291000Y-81642000D01*
X110331000Y-76772000D02*
X110331000Y-78160000D01*
X110331000Y-80240000D02*
X110331000Y-81628000D01*
X110371000Y-76786000D02*
X110371000Y-78160000D01*
X110371000Y-80240000D02*
X110371000Y-81614000D01*
X110411000Y-76802000D02*
X110411000Y-78160000D01*
X110411000Y-80240000D02*
X110411000Y-81598000D01*
X110451000Y-76818000D02*
X110451000Y-78160000D01*
X110451000Y-80240000D02*
X110451000Y-81582000D01*
X110491000Y-76835000D02*
X110491000Y-78160000D01*
X110491000Y-80240000D02*
X110491000Y-81565000D01*
X110531000Y-76852000D02*
X110531000Y-78160000D01*
X110531000Y-80240000D02*
X110531000Y-81548000D01*
X110571000Y-76871000D02*
X110571000Y-78160000D01*
X110571000Y-80240000D02*
X110571000Y-81529000D01*
X110611000Y-76890000D02*
X110611000Y-78160000D01*
X110611000Y-80240000D02*
X110611000Y-81510000D01*
X110651000Y-76910000D02*
X110651000Y-78160000D01*
X110651000Y-80240000D02*
X110651000Y-81490000D01*
X110691000Y-76932000D02*
X110691000Y-78160000D01*
X110691000Y-80240000D02*
X110691000Y-81468000D01*
X110731000Y-76953000D02*
X110731000Y-78160000D01*
X110731000Y-80240000D02*
X110731000Y-81447000D01*
X110771000Y-76976000D02*
X110771000Y-78160000D01*
X110771000Y-80240000D02*
X110771000Y-81424000D01*
X110811000Y-77000000D02*
X110811000Y-78160000D01*
X110811000Y-80240000D02*
X110811000Y-81400000D01*
X110851000Y-77025000D02*
X110851000Y-78160000D01*
X110851000Y-80240000D02*
X110851000Y-81375000D01*
X110891000Y-77051000D02*
X110891000Y-78160000D01*
X110891000Y-80240000D02*
X110891000Y-81349000D01*
X110931000Y-77078000D02*
X110931000Y-78160000D01*
X110931000Y-80240000D02*
X110931000Y-81322000D01*
X110971000Y-77105000D02*
X110971000Y-78160000D01*
X110971000Y-80240000D02*
X110971000Y-81295000D01*
X111011000Y-77135000D02*
X111011000Y-78160000D01*
X111011000Y-80240000D02*
X111011000Y-81265000D01*
X111051000Y-77165000D02*
X111051000Y-78160000D01*
X111051000Y-80240000D02*
X111051000Y-81235000D01*
X111091000Y-77196000D02*
X111091000Y-78160000D01*
X111091000Y-80240000D02*
X111091000Y-81204000D01*
X111131000Y-77229000D02*
X111131000Y-78160000D01*
X111131000Y-80240000D02*
X111131000Y-81171000D01*
X111171000Y-77263000D02*
X111171000Y-78160000D01*
X111171000Y-80240000D02*
X111171000Y-81137000D01*
X111211000Y-77299000D02*
X111211000Y-78160000D01*
X111211000Y-80240000D02*
X111211000Y-81101000D01*
X111251000Y-77336000D02*
X111251000Y-78160000D01*
X111251000Y-80240000D02*
X111251000Y-81064000D01*
X111291000Y-77374000D02*
X111291000Y-78160000D01*
X111291000Y-80240000D02*
X111291000Y-81026000D01*
X111331000Y-77415000D02*
X111331000Y-78160000D01*
X111331000Y-80240000D02*
X111331000Y-80985000D01*
X111371000Y-77457000D02*
X111371000Y-78160000D01*
X111371000Y-80240000D02*
X111371000Y-80943000D01*
X111411000Y-77501000D02*
X111411000Y-78160000D01*
X111411000Y-80240000D02*
X111411000Y-80899000D01*
X111451000Y-77547000D02*
X111451000Y-78160000D01*
X111451000Y-80240000D02*
X111451000Y-80853000D01*
X111491000Y-77595000D02*
X111491000Y-78160000D01*
X111491000Y-80240000D02*
X111491000Y-80805000D01*
X111531000Y-77646000D02*
X111531000Y-78160000D01*
X111531000Y-80240000D02*
X111531000Y-80754000D01*
X111571000Y-77700000D02*
X111571000Y-78160000D01*
X111571000Y-80240000D02*
X111571000Y-80700000D01*
X111611000Y-77757000D02*
X111611000Y-78160000D01*
X111611000Y-80240000D02*
X111611000Y-80643000D01*
X111651000Y-77817000D02*
X111651000Y-78160000D01*
X111651000Y-80240000D02*
X111651000Y-80583000D01*
X111691000Y-77881000D02*
X111691000Y-78160000D01*
X111691000Y-80240000D02*
X111691000Y-80519000D01*
X111731000Y-77949000D02*
X111731000Y-78160000D01*
X111731000Y-80240000D02*
X111731000Y-80451000D01*
X111771000Y-78022000D02*
X111771000Y-80378000D01*
X111811000Y-78102000D02*
X111811000Y-80298000D01*
X111851000Y-78189000D02*
X111851000Y-80211000D01*
X111891000Y-78285000D02*
X111891000Y-80115000D01*
X111931000Y-78395000D02*
X111931000Y-80005000D01*
X111971000Y-78523000D02*
X111971000Y-79877000D01*
X112011000Y-78682000D02*
X112011000Y-79718000D01*
X112051000Y-78916000D02*
X112051000Y-79484000D01*
X106645225Y-77725000D02*
X107145225Y-77725000D01*
X106895225Y-77475000D02*
X106895225Y-77975000D01*
G04 #@! TO.C,R5*
X127720000Y-123920000D02*
X121479000Y-123920000D01*
X127720000Y-113920000D02*
X121479000Y-113920000D01*
X121479000Y-113920000D02*
X121479000Y-123920000D01*
X127720000Y-113920000D02*
X127720000Y-123920000D01*
X128220000Y-113920000D02*
X120980000Y-113920000D01*
X128220000Y-108920000D02*
X120980000Y-108920000D01*
X120980000Y-108920000D02*
X120980000Y-113920000D01*
X128220000Y-108920000D02*
X128220000Y-113920000D01*
X133670000Y-108920000D02*
X115530000Y-108920000D01*
X133670000Y-98180000D02*
X115530000Y-98180000D01*
X115530000Y-98180000D02*
X115530000Y-108920000D01*
X133670000Y-98180000D02*
X133670000Y-108920000D01*
G04 #@! TO.C,R2*
X124040000Y-94060000D02*
X124040000Y-93730000D01*
X124040000Y-93730000D02*
X130580000Y-93730000D01*
X130580000Y-93730000D02*
X130580000Y-94060000D01*
X124040000Y-96140000D02*
X124040000Y-96470000D01*
X124040000Y-96470000D02*
X130580000Y-96470000D01*
X130580000Y-96470000D02*
X130580000Y-96140000D01*
G04 #@! TO.C,R3*
X123070000Y-84220000D02*
X122740000Y-84220000D01*
X123070000Y-90760000D02*
X123070000Y-84220000D01*
X122740000Y-90760000D02*
X123070000Y-90760000D01*
X120330000Y-84220000D02*
X120660000Y-84220000D01*
X120330000Y-90760000D02*
X120330000Y-84220000D01*
X120660000Y-90760000D02*
X120330000Y-90760000D01*
G04 #@! TO.C,R4*
X114940000Y-79460000D02*
X114940000Y-79130000D01*
X114940000Y-79130000D02*
X121480000Y-79130000D01*
X121480000Y-79130000D02*
X121480000Y-79460000D01*
X114940000Y-81540000D02*
X114940000Y-81870000D01*
X114940000Y-81870000D02*
X121480000Y-81870000D01*
X121480000Y-81870000D02*
X121480000Y-81540000D01*
G04 #@! TO.C,R6*
X102940000Y-72860000D02*
X102940000Y-72530000D01*
X102940000Y-72530000D02*
X109480000Y-72530000D01*
X109480000Y-72530000D02*
X109480000Y-72860000D01*
X102940000Y-74940000D02*
X102940000Y-75270000D01*
X102940000Y-75270000D02*
X109480000Y-75270000D01*
X109480000Y-75270000D02*
X109480000Y-74940000D01*
G04 #@! TO.C,R7*
X119280000Y-75270000D02*
X119280000Y-74940000D01*
X112740000Y-75270000D02*
X119280000Y-75270000D01*
X112740000Y-74940000D02*
X112740000Y-75270000D01*
X119280000Y-72530000D02*
X119280000Y-72860000D01*
X112740000Y-72530000D02*
X119280000Y-72530000D01*
X112740000Y-72860000D02*
X112740000Y-72530000D01*
G04 #@! TO.C,R8*
X104440000Y-84140000D02*
X104770000Y-84140000D01*
X104770000Y-84140000D02*
X104770000Y-90680000D01*
X104770000Y-90680000D02*
X104440000Y-90680000D01*
X102360000Y-84140000D02*
X102030000Y-84140000D01*
X102030000Y-84140000D02*
X102030000Y-90680000D01*
X102030000Y-90680000D02*
X102360000Y-90680000D01*
G04 #@! TO.C,R9*
X108170000Y-84120000D02*
X107840000Y-84120000D01*
X108170000Y-90660000D02*
X108170000Y-84120000D01*
X107840000Y-90660000D02*
X108170000Y-90660000D01*
X105430000Y-84120000D02*
X105760000Y-84120000D01*
X105430000Y-90660000D02*
X105430000Y-84120000D01*
X105760000Y-90660000D02*
X105430000Y-90660000D01*
G04 #@! TO.C,R1*
D11*
X117352380Y-105166666D02*
X116876190Y-105500000D01*
X117352380Y-105738095D02*
X116352380Y-105738095D01*
X116352380Y-105357142D01*
X116400000Y-105261904D01*
X116447619Y-105214285D01*
X116542857Y-105166666D01*
X116685714Y-105166666D01*
X116780952Y-105214285D01*
X116828571Y-105261904D01*
X116876190Y-105357142D01*
X116876190Y-105738095D01*
X117352380Y-104214285D02*
X117352380Y-104785714D01*
X117352380Y-104500000D02*
X116352380Y-104500000D01*
X116495238Y-104595238D01*
X116590476Y-104690476D01*
X116638095Y-104785714D01*
G04 #@! TO.C,C1*
X117333333Y-97957142D02*
X117285714Y-98004761D01*
X117142857Y-98052380D01*
X117047619Y-98052380D01*
X116904761Y-98004761D01*
X116809523Y-97909523D01*
X116761904Y-97814285D01*
X116714285Y-97623809D01*
X116714285Y-97480952D01*
X116761904Y-97290476D01*
X116809523Y-97195238D01*
X116904761Y-97100000D01*
X117047619Y-97052380D01*
X117142857Y-97052380D01*
X117285714Y-97100000D01*
X117333333Y-97147619D01*
X118285714Y-98052380D02*
X117714285Y-98052380D01*
X118000000Y-98052380D02*
X118000000Y-97052380D01*
X117904761Y-97195238D01*
X117809523Y-97290476D01*
X117714285Y-97338095D01*
G04 #@! TO.C,C2*
X109133333Y-92957142D02*
X109085714Y-93004761D01*
X108942857Y-93052380D01*
X108847619Y-93052380D01*
X108704761Y-93004761D01*
X108609523Y-92909523D01*
X108561904Y-92814285D01*
X108514285Y-92623809D01*
X108514285Y-92480952D01*
X108561904Y-92290476D01*
X108609523Y-92195238D01*
X108704761Y-92100000D01*
X108847619Y-92052380D01*
X108942857Y-92052380D01*
X109085714Y-92100000D01*
X109133333Y-92147619D01*
X109514285Y-92147619D02*
X109561904Y-92100000D01*
X109657142Y-92052380D01*
X109895238Y-92052380D01*
X109990476Y-92100000D01*
X110038095Y-92147619D01*
X110085714Y-92242857D01*
X110085714Y-92338095D01*
X110038095Y-92480952D01*
X109466666Y-93052380D01*
X110085714Y-93052380D01*
G04 #@! TO.C,J2*
X128466666Y-72122380D02*
X128466666Y-72836666D01*
X128419047Y-72979523D01*
X128323809Y-73074761D01*
X128180952Y-73122380D01*
X128085714Y-73122380D01*
X128895238Y-72217619D02*
X128942857Y-72170000D01*
X129038095Y-72122380D01*
X129276190Y-72122380D01*
X129371428Y-72170000D01*
X129419047Y-72217619D01*
X129466666Y-72312857D01*
X129466666Y-72408095D01*
X129419047Y-72550952D01*
X128847619Y-73122380D01*
X129466666Y-73122380D01*
G04 #@! TO.C,J3*
X128366666Y-83622380D02*
X128366666Y-84336666D01*
X128319047Y-84479523D01*
X128223809Y-84574761D01*
X128080952Y-84622380D01*
X127985714Y-84622380D01*
X128747619Y-83622380D02*
X129366666Y-83622380D01*
X129033333Y-84003333D01*
X129176190Y-84003333D01*
X129271428Y-84050952D01*
X129319047Y-84098571D01*
X129366666Y-84193809D01*
X129366666Y-84431904D01*
X129319047Y-84527142D01*
X129271428Y-84574761D01*
X129176190Y-84622380D01*
X128890476Y-84622380D01*
X128795238Y-84574761D01*
X128747619Y-84527142D01*
G04 #@! TO.C,J4*
X102122380Y-70833333D02*
X102836666Y-70833333D01*
X102979523Y-70880952D01*
X103074761Y-70976190D01*
X103122380Y-71119047D01*
X103122380Y-71214285D01*
X102455714Y-69928571D02*
X103122380Y-69928571D01*
X102074761Y-70166666D02*
X102789047Y-70404761D01*
X102789047Y-69785714D01*
G04 #@! TO.C,J5*
X111922380Y-70833333D02*
X112636666Y-70833333D01*
X112779523Y-70880952D01*
X112874761Y-70976190D01*
X112922380Y-71119047D01*
X112922380Y-71214285D01*
X111922380Y-69880952D02*
X111922380Y-70357142D01*
X112398571Y-70404761D01*
X112350952Y-70357142D01*
X112303333Y-70261904D01*
X112303333Y-70023809D01*
X112350952Y-69928571D01*
X112398571Y-69880952D01*
X112493809Y-69833333D01*
X112731904Y-69833333D01*
X112827142Y-69880952D01*
X112874761Y-69928571D01*
X112922380Y-70023809D01*
X112922380Y-70261904D01*
X112874761Y-70357142D01*
X112827142Y-70404761D01*
G04 #@! TO.C,U1*
X107722380Y-88251904D02*
X108531904Y-88251904D01*
X108627142Y-88204285D01*
X108674761Y-88156666D01*
X108722380Y-88061428D01*
X108722380Y-87870952D01*
X108674761Y-87775714D01*
X108627142Y-87728095D01*
X108531904Y-87680476D01*
X107722380Y-87680476D01*
X108722380Y-86680476D02*
X108722380Y-87251904D01*
X108722380Y-86966190D02*
X107722380Y-86966190D01*
X107865238Y-87061428D01*
X107960476Y-87156666D01*
X108008095Y-87251904D01*
G04 #@! TO.C,J1*
X99266666Y-85122380D02*
X99266666Y-85836666D01*
X99219047Y-85979523D01*
X99123809Y-86074761D01*
X98980952Y-86122380D01*
X98885714Y-86122380D01*
X100266666Y-86122380D02*
X99695238Y-86122380D01*
X99980952Y-86122380D02*
X99980952Y-85122380D01*
X99885714Y-85265238D01*
X99790476Y-85360476D01*
X99695238Y-85408095D01*
G04 #@! TO.C,C3*
X109283333Y-75807142D02*
X109235714Y-75854761D01*
X109092857Y-75902380D01*
X108997619Y-75902380D01*
X108854761Y-75854761D01*
X108759523Y-75759523D01*
X108711904Y-75664285D01*
X108664285Y-75473809D01*
X108664285Y-75330952D01*
X108711904Y-75140476D01*
X108759523Y-75045238D01*
X108854761Y-74950000D01*
X108997619Y-74902380D01*
X109092857Y-74902380D01*
X109235714Y-74950000D01*
X109283333Y-74997619D01*
X109616666Y-74902380D02*
X110235714Y-74902380D01*
X109902380Y-75283333D01*
X110045238Y-75283333D01*
X110140476Y-75330952D01*
X110188095Y-75378571D01*
X110235714Y-75473809D01*
X110235714Y-75711904D01*
X110188095Y-75807142D01*
X110140476Y-75854761D01*
X110045238Y-75902380D01*
X109759523Y-75902380D01*
X109664285Y-75854761D01*
X109616666Y-75807142D01*
G04 #@! TO.C,R5*
X135252380Y-105166666D02*
X134776190Y-105500000D01*
X135252380Y-105738095D02*
X134252380Y-105738095D01*
X134252380Y-105357142D01*
X134300000Y-105261904D01*
X134347619Y-105214285D01*
X134442857Y-105166666D01*
X134585714Y-105166666D01*
X134680952Y-105214285D01*
X134728571Y-105261904D01*
X134776190Y-105357142D01*
X134776190Y-105738095D01*
X134252380Y-104261904D02*
X134252380Y-104738095D01*
X134728571Y-104785714D01*
X134680952Y-104738095D01*
X134633333Y-104642857D01*
X134633333Y-104404761D01*
X134680952Y-104309523D01*
X134728571Y-104261904D01*
X134823809Y-104214285D01*
X135061904Y-104214285D01*
X135157142Y-104261904D01*
X135204761Y-104309523D01*
X135252380Y-104404761D01*
X135252380Y-104642857D01*
X135204761Y-104738095D01*
X135157142Y-104785714D01*
G04 #@! TO.C,R2*
X127143333Y-93182380D02*
X126810000Y-92706190D01*
X126571904Y-93182380D02*
X126571904Y-92182380D01*
X126952857Y-92182380D01*
X127048095Y-92230000D01*
X127095714Y-92277619D01*
X127143333Y-92372857D01*
X127143333Y-92515714D01*
X127095714Y-92610952D01*
X127048095Y-92658571D01*
X126952857Y-92706190D01*
X126571904Y-92706190D01*
X127524285Y-92277619D02*
X127571904Y-92230000D01*
X127667142Y-92182380D01*
X127905238Y-92182380D01*
X128000476Y-92230000D01*
X128048095Y-92277619D01*
X128095714Y-92372857D01*
X128095714Y-92468095D01*
X128048095Y-92610952D01*
X127476666Y-93182380D01*
X128095714Y-93182380D01*
G04 #@! TO.C,R3*
X119782380Y-87656666D02*
X119306190Y-87990000D01*
X119782380Y-88228095D02*
X118782380Y-88228095D01*
X118782380Y-87847142D01*
X118830000Y-87751904D01*
X118877619Y-87704285D01*
X118972857Y-87656666D01*
X119115714Y-87656666D01*
X119210952Y-87704285D01*
X119258571Y-87751904D01*
X119306190Y-87847142D01*
X119306190Y-88228095D01*
X118782380Y-87323333D02*
X118782380Y-86704285D01*
X119163333Y-87037619D01*
X119163333Y-86894761D01*
X119210952Y-86799523D01*
X119258571Y-86751904D01*
X119353809Y-86704285D01*
X119591904Y-86704285D01*
X119687142Y-86751904D01*
X119734761Y-86799523D01*
X119782380Y-86894761D01*
X119782380Y-87180476D01*
X119734761Y-87275714D01*
X119687142Y-87323333D01*
G04 #@! TO.C,R4*
X118043333Y-78582380D02*
X117710000Y-78106190D01*
X117471904Y-78582380D02*
X117471904Y-77582380D01*
X117852857Y-77582380D01*
X117948095Y-77630000D01*
X117995714Y-77677619D01*
X118043333Y-77772857D01*
X118043333Y-77915714D01*
X117995714Y-78010952D01*
X117948095Y-78058571D01*
X117852857Y-78106190D01*
X117471904Y-78106190D01*
X118900476Y-77915714D02*
X118900476Y-78582380D01*
X118662380Y-77534761D02*
X118424285Y-78249047D01*
X119043333Y-78249047D01*
G04 #@! TO.C,R6*
X106043333Y-71982380D02*
X105710000Y-71506190D01*
X105471904Y-71982380D02*
X105471904Y-70982380D01*
X105852857Y-70982380D01*
X105948095Y-71030000D01*
X105995714Y-71077619D01*
X106043333Y-71172857D01*
X106043333Y-71315714D01*
X105995714Y-71410952D01*
X105948095Y-71458571D01*
X105852857Y-71506190D01*
X105471904Y-71506190D01*
X106900476Y-70982380D02*
X106710000Y-70982380D01*
X106614761Y-71030000D01*
X106567142Y-71077619D01*
X106471904Y-71220476D01*
X106424285Y-71410952D01*
X106424285Y-71791904D01*
X106471904Y-71887142D01*
X106519523Y-71934761D01*
X106614761Y-71982380D01*
X106805238Y-71982380D01*
X106900476Y-71934761D01*
X106948095Y-71887142D01*
X106995714Y-71791904D01*
X106995714Y-71553809D01*
X106948095Y-71458571D01*
X106900476Y-71410952D01*
X106805238Y-71363333D01*
X106614761Y-71363333D01*
X106519523Y-71410952D01*
X106471904Y-71458571D01*
X106424285Y-71553809D01*
G04 #@! TO.C,R7*
X115843333Y-71982380D02*
X115510000Y-71506190D01*
X115271904Y-71982380D02*
X115271904Y-70982380D01*
X115652857Y-70982380D01*
X115748095Y-71030000D01*
X115795714Y-71077619D01*
X115843333Y-71172857D01*
X115843333Y-71315714D01*
X115795714Y-71410952D01*
X115748095Y-71458571D01*
X115652857Y-71506190D01*
X115271904Y-71506190D01*
X116176666Y-70982380D02*
X116843333Y-70982380D01*
X116414761Y-71982380D01*
G04 #@! TO.C,R8*
X106222380Y-87576666D02*
X105746190Y-87910000D01*
X106222380Y-88148095D02*
X105222380Y-88148095D01*
X105222380Y-87767142D01*
X105270000Y-87671904D01*
X105317619Y-87624285D01*
X105412857Y-87576666D01*
X105555714Y-87576666D01*
X105650952Y-87624285D01*
X105698571Y-87671904D01*
X105746190Y-87767142D01*
X105746190Y-88148095D01*
X105650952Y-87005238D02*
X105603333Y-87100476D01*
X105555714Y-87148095D01*
X105460476Y-87195714D01*
X105412857Y-87195714D01*
X105317619Y-87148095D01*
X105270000Y-87100476D01*
X105222380Y-87005238D01*
X105222380Y-86814761D01*
X105270000Y-86719523D01*
X105317619Y-86671904D01*
X105412857Y-86624285D01*
X105460476Y-86624285D01*
X105555714Y-86671904D01*
X105603333Y-86719523D01*
X105650952Y-86814761D01*
X105650952Y-87005238D01*
X105698571Y-87100476D01*
X105746190Y-87148095D01*
X105841428Y-87195714D01*
X106031904Y-87195714D01*
X106127142Y-87148095D01*
X106174761Y-87100476D01*
X106222380Y-87005238D01*
X106222380Y-86814761D01*
X106174761Y-86719523D01*
X106127142Y-86671904D01*
X106031904Y-86624285D01*
X105841428Y-86624285D01*
X105746190Y-86671904D01*
X105698571Y-86719523D01*
X105650952Y-86814761D01*
G04 #@! TO.C,R9*
X104882380Y-87556666D02*
X104406190Y-87890000D01*
X104882380Y-88128095D02*
X103882380Y-88128095D01*
X103882380Y-87747142D01*
X103930000Y-87651904D01*
X103977619Y-87604285D01*
X104072857Y-87556666D01*
X104215714Y-87556666D01*
X104310952Y-87604285D01*
X104358571Y-87651904D01*
X104406190Y-87747142D01*
X104406190Y-88128095D01*
X104882380Y-87080476D02*
X104882380Y-86890000D01*
X104834761Y-86794761D01*
X104787142Y-86747142D01*
X104644285Y-86651904D01*
X104453809Y-86604285D01*
X104072857Y-86604285D01*
X103977619Y-86651904D01*
X103930000Y-86699523D01*
X103882380Y-86794761D01*
X103882380Y-86985238D01*
X103930000Y-87080476D01*
X103977619Y-87128095D01*
X104072857Y-87175714D01*
X104310952Y-87175714D01*
X104406190Y-87128095D01*
X104453809Y-87080476D01*
X104501428Y-86985238D01*
X104501428Y-86794761D01*
X104453809Y-86699523D01*
X104406190Y-86651904D01*
X104310952Y-86604285D01*
G04 #@! TD*
M02*
