EESchema Schematic File Version 4
LIBS:teensy_esp8266-cache
EELAYER 26 0
EELAYER END
$Descr A4 11693 8268
encoding utf-8
Sheet 1 1
Title ""
Date ""
Rev ""
Comp ""
Comment1 ""
Comment2 ""
Comment3 ""
Comment4 ""
$EndDescr
$Comp
L RF_Module:ESP-12F U1
U 1 1 5B86C36B
P 4550 3750
F 0 "U1" H 4550 4728 50  0000 C CNN
F 1 "ESP-12F" H 4550 4637 50  0000 C CNN
F 2 "RF_Module:ESP-12E" H 4550 3750 50  0001 C CNN
F 3 "http://wiki.ai-thinker.com/_media/esp8266/esp8266_series_modules_user_manual_v1.1.pdf" H 4200 3850 50  0001 C CNN
	1    4550 3750
	1    0    0    -1  
$EndComp
$Comp
L teensy:Teensy3.2 U2
U 1 1 5B86C480
P 7350 3800
F 0 "U2" H 7350 5387 60  0000 C CNN
F 1 "Teensy3.2" H 7350 5281 60  0000 C CNN
F 2 "teensy:Teensy30_31_32_LC" H 7350 3000 60  0001 C CNN
F 3 "" H 7350 3000 60  0000 C CNN
	1    7350 3800
	1    0    0    -1  
$EndComp
$Comp
L FTDI:FTDI J1
U 1 1 5B87957B
P 4500 1050
F 0 "J1" V 4516 670 50  0000 R CNN
F 1 "FTDI" V 4425 670 50  0000 R CNN
F 2 "Connector_PinHeader_2.54mm:PinHeader_1x06_P2.54mm_Vertical" H 4500 1050 50  0001 C CNN
F 3 "~" H 4500 1050 50  0001 C CNN
	1    4500 1050
	0    -1   -1   0   
$EndComp
$Comp
L power:GND #PWR0101
U 1 1 5B8795EA
P 4150 1400
F 0 "#PWR0101" H 4150 1150 50  0001 C CNN
F 1 "GND" H 4155 1227 50  0000 C CNN
F 2 "" H 4150 1400 50  0001 C CNN
F 3 "" H 4150 1400 50  0001 C CNN
	1    4150 1400
	1    0    0    -1  
$EndComp
$Comp
L power:+3.3V #PWR0104
U 1 1 5B8796EF
P 3950 2550
F 0 "#PWR0104" H 3950 2400 50  0001 C CNN
F 1 "+3.3V" H 3965 2723 50  0000 C CNN
F 2 "" H 3950 2550 50  0001 C CNN
F 3 "" H 3950 2550 50  0001 C CNN
	1    3950 2550
	1    0    0    -1  
$EndComp
$Comp
L power:GND #PWR0105
U 1 1 5B87974C
P 4550 5150
F 0 "#PWR0105" H 4550 4900 50  0001 C CNN
F 1 "GND" H 4555 4977 50  0000 C CNN
F 2 "" H 4550 5150 50  0001 C CNN
F 3 "" H 4550 5150 50  0001 C CNN
	1    4550 5150
	1    0    0    -1  
$EndComp
Wire Wire Line
	4300 1250 4150 1250
Wire Wire Line
	4150 1250 4150 1400
Wire Wire Line
	5450 3450 5150 3450
Wire Wire Line
	5350 3250 5150 3250
Wire Wire Line
	5550 3500 5550 3850
Wire Wire Line
	5550 3850 5150 3850
Wire Wire Line
	5550 3500 6350 3500
Wire Wire Line
	5550 3850 5550 4050
Connection ~ 5550 3850
Text Notes 5300 3850 0    50   ~ 0
I_BCK
Text Notes 5300 4050 0    50   ~ 0
O_BCK
Wire Wire Line
	8350 4900 8550 4900
Wire Wire Line
	8550 4900 8550 5400
Wire Wire Line
	8550 5400 5650 5400
Wire Wire Line
	5650 5400 5650 3950
Wire Wire Line
	5650 3950 5150 3950
Wire Wire Line
	5650 3950 5650 3350
Wire Wire Line
	5650 3350 5150 3350
Connection ~ 5650 3950
Text Notes 5300 3350 0    50   ~ 0
O_WS
Text Notes 5300 3950 0    50   ~ 0
I_WS
Wire Wire Line
	5150 3750 5750 3750
Text Notes 5300 3450 0    50   ~ 0
O_DATA
Text Notes 5300 3750 0    50   ~ 0
I_DATA
Wire Wire Line
	8350 5000 8700 5000
Wire Wire Line
	8700 5000 8700 5300
Wire Wire Line
	8700 5300 5750 5300
Wire Wire Line
	5750 5300 5750 3750
Wire Wire Line
	6350 4400 5850 4400
Wire Wire Line
	5850 4400 5850 3450
Wire Wire Line
	5850 3450 5450 3450
Connection ~ 5450 3450
$Comp
L power:+3.3V #PWR0106
U 1 1 5B87B91B
P 8900 4800
F 0 "#PWR0106" H 8900 4650 50  0001 C CNN
F 1 "+3.3V" H 8915 4973 50  0000 C CNN
F 2 "" H 8900 4800 50  0001 C CNN
F 3 "" H 8900 4800 50  0001 C CNN
	1    8900 4800
	1    0    0    -1  
$EndComp
Wire Wire Line
	8350 4800 8900 4800
NoConn ~ 6350 2600
NoConn ~ 6350 2700
NoConn ~ 6350 2800
NoConn ~ 6350 2900
NoConn ~ 6350 3000
NoConn ~ 6350 3100
NoConn ~ 6350 3200
NoConn ~ 6350 3300
NoConn ~ 6350 3400
NoConn ~ 6350 3600
NoConn ~ 6350 3700
NoConn ~ 6350 3800
NoConn ~ 6350 3900
NoConn ~ 6350 4000
NoConn ~ 6350 4200
NoConn ~ 6350 4300
NoConn ~ 6350 4500
NoConn ~ 6350 4600
NoConn ~ 6350 4700
NoConn ~ 6350 4800
NoConn ~ 6350 4900
NoConn ~ 6350 5000
NoConn ~ 6350 5100
NoConn ~ 8350 5100
NoConn ~ 8350 4600
NoConn ~ 8350 4400
NoConn ~ 8350 4300
NoConn ~ 8350 4200
NoConn ~ 8350 4100
NoConn ~ 8350 4000
NoConn ~ 8350 3900
NoConn ~ 8350 3800
NoConn ~ 8350 3700
NoConn ~ 8350 3600
NoConn ~ 8350 3500
NoConn ~ 8350 3400
NoConn ~ 8350 3300
NoConn ~ 8350 3200
NoConn ~ 8350 3100
NoConn ~ 8350 3000
NoConn ~ 8350 2900
NoConn ~ 8350 2800
NoConn ~ 8350 2700
NoConn ~ 8350 2600
NoConn ~ 8350 2500
NoConn ~ 8350 4700
$Comp
L power:GND #PWR0107
U 1 1 5B88BE98
P 6150 2500
F 0 "#PWR0107" H 6150 2250 50  0001 C CNN
F 1 "GND" H 6155 2327 50  0000 C CNN
F 2 "" H 6150 2500 50  0001 C CNN
F 3 "" H 6150 2500 50  0001 C CNN
	1    6150 2500
	1    0    0    -1  
$EndComp
Wire Wire Line
	6150 2500 6350 2500
NoConn ~ 6350 4100
NoConn ~ 4800 1250
NoConn ~ 4400 1250
$Comp
L Device:R R2
U 1 1 5B88D38D
P 3350 2800
F 0 "R2" H 3420 2846 50  0000 L CNN
F 1 "10k" H 3420 2755 50  0000 L CNN
F 2 "Resistor_SMD:R_0603_1608Metric_Pad1.05x0.95mm_HandSolder" V 3280 2800 50  0001 C CNN
F 3 "~" H 3350 2800 50  0001 C CNN
	1    3350 2800
	1    0    0    -1  
$EndComp
$Comp
L Device:R R1
U 1 1 5B88D3F9
P 2950 2800
F 0 "R1" H 3020 2846 50  0000 L CNN
F 1 "10k" H 3020 2755 50  0000 L CNN
F 2 "Resistor_SMD:R_0603_1608Metric_Pad1.05x0.95mm_HandSolder" V 2880 2800 50  0001 C CNN
F 3 "~" H 2950 2800 50  0001 C CNN
	1    2950 2800
	1    0    0    -1  
$EndComp
$Comp
L Device:C C1
U 1 1 5B88D472
P 4000 2700
F 0 "C1" H 4115 2746 50  0000 L CNN
F 1 "100nf" H 4115 2655 50  0000 L CNN
F 2 "Capacitor_SMD:C_0603_1608Metric_Pad1.05x0.95mm_HandSolder" H 4038 2550 50  0001 C CNN
F 3 "~" H 4000 2700 50  0001 C CNN
	1    4000 2700
	1    0    0    -1  
$EndComp
$Comp
L power:GND #PWR0108
U 1 1 5B88D500
P 4000 2850
F 0 "#PWR0108" H 4000 2600 50  0001 C CNN
F 1 "GND" H 4005 2677 50  0000 C CNN
F 2 "" H 4000 2850 50  0001 C CNN
F 3 "" H 4000 2850 50  0001 C CNN
	1    4000 2850
	1    0    0    -1  
$EndComp
Wire Wire Line
	4350 2950 4550 2950
Wire Wire Line
	4350 2550 4350 2950
Wire Wire Line
	4000 2550 3950 2550
Connection ~ 4000 2550
Connection ~ 3950 2550
Wire Wire Line
	3350 3350 3950 3350
Wire Wire Line
	2950 3250 3950 3250
Wire Wire Line
	3950 3250 3950 3150
Wire Wire Line
	4700 1250 4700 1500
Wire Wire Line
	4700 1500 5350 1500
Wire Wire Line
	4600 1250 4600 1600
Wire Wire Line
	4600 1600 5450 1600
Wire Wire Line
	5350 1500 5350 3250
Wire Wire Line
	5450 1600 5450 3450
Connection ~ 4350 2550
$Comp
L Device:R R3
U 1 1 5B8975CC
P 5250 2800
F 0 "R3" H 5320 2846 50  0000 L CNN
F 1 "10k" H 5320 2755 50  0000 L CNN
F 2 "Resistor_SMD:R_0603_1608Metric_Pad1.05x0.95mm_HandSolder" V 5180 2800 50  0001 C CNN
F 3 "~" H 5250 2800 50  0001 C CNN
	1    5250 2800
	1    0    0    -1  
$EndComp
$Comp
L Device:R R5
U 1 1 5B897619
P 5650 2800
F 0 "R5" H 5720 2846 50  0000 L CNN
F 1 "10k" H 5720 2755 50  0000 L CNN
F 2 "Resistor_SMD:R_0603_1608Metric_Pad1.05x0.95mm_HandSolder" V 5580 2800 50  0001 C CNN
F 3 "~" H 5650 2800 50  0001 C CNN
	1    5650 2800
	1    0    0    -1  
$EndComp
Wire Wire Line
	4000 2550 4350 2550
Wire Wire Line
	5650 2550 5650 2650
Wire Wire Line
	5650 2950 5650 3350
Connection ~ 5650 3350
Wire Wire Line
	5250 2950 5250 3150
Wire Wire Line
	5250 2650 5250 2550
Wire Wire Line
	2950 2550 3350 2550
Wire Wire Line
	2950 2550 2950 2650
Wire Wire Line
	2950 2950 2950 3250
Wire Wire Line
	3350 2950 3350 3350
Wire Wire Line
	3350 2650 3350 2550
Connection ~ 3350 2550
Wire Wire Line
	3350 2550 3950 2550
$Comp
L Device:R R4
U 1 1 5B8A1188
P 5550 4700
F 0 "R4" H 5620 4746 50  0000 L CNN
F 1 "10k" H 5620 4655 50  0000 L CNN
F 2 "Resistor_SMD:R_0603_1608Metric_Pad1.05x0.95mm_HandSolder" V 5480 4700 50  0001 C CNN
F 3 "~" H 5550 4700 50  0001 C CNN
	1    5550 4700
	1    0    0    -1  
$EndComp
Wire Wire Line
	4550 4450 4550 5000
Wire Wire Line
	4550 5000 4550 5150
Connection ~ 4550 5000
$Comp
L Switch:SW_Push SW1
U 1 1 5B8A42CC
P 2950 4250
F 0 "SW1" V 2996 4202 50  0000 R CNN
F 1 "RST" V 2905 4202 50  0000 R CNN
F 2 "Button_Switch_SMD:SW_SPST_FSMSM" H 2950 4450 50  0001 C CNN
F 3 "" H 2950 4450 50  0001 C CNN
	1    2950 4250
	0    -1   -1   0   
$EndComp
$Comp
L Switch:SW_Push SW2
U 1 1 5B8A43F5
P 5250 4650
F 0 "SW2" V 5296 4602 50  0000 R CNN
F 1 "FLSH" V 5205 4602 50  0000 R CNN
F 2 "Button_Switch_SMD:SW_SPST_FSMSM" H 5250 4850 50  0001 C CNN
F 3 "" H 5250 4850 50  0001 C CNN
	1    5250 4650
	0    -1   -1   0   
$EndComp
Wire Wire Line
	5150 4050 5550 4050
Wire Wire Line
	5550 5000 5550 4850
Wire Wire Line
	4550 5000 5250 5000
Wire Wire Line
	5550 4050 5550 4550
Connection ~ 5550 4050
Wire Wire Line
	5250 4450 5250 3150
Wire Wire Line
	5250 4850 5250 5000
Connection ~ 5250 5000
Wire Wire Line
	5250 5000 5550 5000
Wire Wire Line
	2950 3250 2950 4050
Connection ~ 2950 3250
Wire Wire Line
	2950 4450 2950 5000
Wire Wire Line
	2950 5000 4550 5000
Connection ~ 5250 2550
Wire Wire Line
	5250 2550 5650 2550
Connection ~ 5250 3150
Wire Wire Line
	4350 2550 5250 2550
Wire Wire Line
	5150 3150 5250 3150
NoConn ~ 5150 3550
NoConn ~ 5150 3650
NoConn ~ 5150 4150
NoConn ~ 3950 4250
NoConn ~ 3950 4150
NoConn ~ 3950 4050
NoConn ~ 3950 3950
NoConn ~ 3950 3850
NoConn ~ 3950 3750
NoConn ~ 3950 3550
NoConn ~ 4500 1250
NoConn ~ 8350 4500
$EndSCHEMATC
