EESchema Schematic File Version 4
LIBS:led-cache
EELAYER 26 0
EELAYER END
$Descr A4 11693 8268
encoding utf-8
Sheet 1 1
Title ""
Date ""
Rev ""
Comp ""
Comment1 ""
Comment2 ""
Comment3 ""
Comment4 ""
$EndDescr
$Comp
L Device:LED D1
U 1 1 5B7EEE26
P 5000 3000
F 0 "D1" H 4992 2745 50  0000 C CNN
F 1 "LED" H 4992 2836 50  0000 C CNN
F 2 "LED_SMD:LED_1W_3W_R8" H 5000 3000 50  0001 C CNN
F 3 "~" H 5000 3000 50  0001 C CNN
	1    5000 3000
	-1   0    0    1   
$EndComp
$Comp
L Device:R R1
U 1 1 5B7EEEFD
P 4950 3950
F 0 "R1" H 5020 3996 50  0000 L CNN
F 1 "1" H 5020 3905 50  0000 L CNN
F 2 "Resistor_SMD:R_2010_5025Metric_Pad1.52x2.65mm_HandSolder" V 4880 3950 50  0001 C CNN
F 3 "~" H 4950 3950 50  0001 C CNN
	1    4950 3950
	1    0    0    -1  
$EndComp
$Comp
L Device:R R2
U 1 1 5B7EEF7B
P 5200 3950
F 0 "R2" H 5270 3996 50  0000 L CNN
F 1 "2" H 5270 3905 50  0000 L CNN
F 2 "Resistor_SMD:R_2010_5025Metric_Pad1.52x2.65mm_HandSolder" V 5130 3950 50  0001 C CNN
F 3 "~" H 5200 3950 50  0001 C CNN
	1    5200 3950
	1    0    0    -1  
$EndComp
$Comp
L Device:R R3
U 1 1 5B7EEFE1
P 5450 3950
F 0 "R3" H 5520 3996 50  0000 L CNN
F 1 "4" H 5520 3905 50  0000 L CNN
F 2 "Resistor_SMD:R_2010_5025Metric_Pad1.52x2.65mm_HandSolder" V 5380 3950 50  0001 C CNN
F 3 "~" H 5450 3950 50  0001 C CNN
	1    5450 3950
	1    0    0    -1  
$EndComp
$Comp
L Device:R R4
U 1 1 5B7EF03A
P 5700 3950
F 0 "R4" H 5770 3996 50  0000 L CNN
F 1 "8" H 5770 3905 50  0000 L CNN
F 2 "Resistor_SMD:R_2010_5025Metric_Pad1.52x2.65mm_HandSolder" V 5630 3950 50  0001 C CNN
F 3 "~" H 5700 3950 50  0001 C CNN
	1    5700 3950
	1    0    0    -1  
$EndComp
$Comp
L Device:R R5
U 1 1 5B7EF0AF
P 5950 3950
F 0 "R5" H 6020 3996 50  0000 L CNN
F 1 "16" H 6020 3905 50  0000 L CNN
F 2 "Resistor_SMD:R_2010_5025Metric_Pad1.52x2.65mm_HandSolder" V 5880 3950 50  0001 C CNN
F 3 "~" H 5950 3950 50  0001 C CNN
	1    5950 3950
	1    0    0    -1  
$EndComp
$Comp
L Device:R R6
U 1 1 5B7EF69A
P 6200 3950
F 0 "R6" H 6270 3996 50  0000 L CNN
F 1 "32" H 6270 3905 50  0000 L CNN
F 2 "Resistor_SMD:R_2010_5025Metric_Pad1.52x2.65mm_HandSolder" V 6130 3950 50  0001 C CNN
F 3 "~" H 6200 3950 50  0001 C CNN
	1    6200 3950
	1    0    0    -1  
$EndComp
$Comp
L Device:R R7
U 1 1 5B7EF6A1
P 6450 3950
F 0 "R7" H 6520 3996 50  0000 L CNN
F 1 "64" H 6520 3905 50  0000 L CNN
F 2 "Resistor_SMD:R_2010_5025Metric_Pad1.52x2.65mm_HandSolder" V 6380 3950 50  0001 C CNN
F 3 "~" H 6450 3950 50  0001 C CNN
	1    6450 3950
	1    0    0    -1  
$EndComp
$Comp
L Device:R R8
U 1 1 5B7EF6A8
P 6700 3950
F 0 "R8" H 6770 3996 50  0000 L CNN
F 1 "128" H 6770 3905 50  0000 L CNN
F 2 "Resistor_SMD:R_2010_5025Metric_Pad1.52x2.65mm_HandSolder" V 6630 3950 50  0001 C CNN
F 3 "~" H 6700 3950 50  0001 C CNN
	1    6700 3950
	1    0    0    -1  
$EndComp
Wire Wire Line
	6700 3600 6700 3800
Wire Wire Line
	6450 3800 6450 3600
Connection ~ 6450 3600
Wire Wire Line
	6450 3600 6700 3600
Wire Wire Line
	6200 3800 6200 3600
Connection ~ 6200 3600
Wire Wire Line
	6200 3600 6450 3600
Wire Wire Line
	5950 3800 5950 3600
Connection ~ 5950 3600
Wire Wire Line
	5950 3600 6200 3600
Wire Wire Line
	5700 3800 5700 3600
Wire Wire Line
	5450 3800 5450 3600
Connection ~ 5450 3600
Wire Wire Line
	5450 3600 5700 3600
Wire Wire Line
	5200 3800 5200 3600
Connection ~ 5200 3600
Wire Wire Line
	5200 3600 5450 3600
Wire Wire Line
	4950 3800 4950 3600
Wire Wire Line
	4950 3600 5200 3600
$Comp
L Switch:SW_DIP_x08 SW1
U 1 1 5B7EFEC4
P 5750 4850
F 0 "SW1" V 5704 5380 50  0000 L CNN
F 1 "SW_DIP_x08" V 5795 5380 50  0000 L CNN
F 2 "Button_Switch_THT:SW_DIP_SPSTx08_Slide_9.78x22.5mm_W7.62mm_P2.54mm" H 5750 4850 50  0001 C CNN
F 3 "" H 5750 4850 50  0001 C CNN
	1    5750 4850
	0    1    -1   0   
$EndComp
Wire Wire Line
	4950 4100 4950 4550
Wire Wire Line
	4950 4550 5450 4550
Wire Wire Line
	5200 4100 5200 4400
Wire Wire Line
	5200 4400 5550 4400
Wire Wire Line
	5550 4400 5550 4550
Wire Wire Line
	5450 4100 5450 4250
Wire Wire Line
	5450 4250 5650 4250
Wire Wire Line
	5650 4250 5650 4550
Wire Wire Line
	5700 4100 5700 4200
Wire Wire Line
	5700 4200 5750 4200
Wire Wire Line
	5750 4200 5750 4550
Wire Wire Line
	5950 4100 5950 4200
Wire Wire Line
	5850 4200 5850 4550
Wire Wire Line
	5950 4550 5950 4300
Wire Wire Line
	6200 4300 6200 4100
Wire Wire Line
	6050 4550 6050 4400
Wire Wire Line
	6450 4400 6450 4100
Wire Wire Line
	6700 4550 6700 4100
Wire Wire Line
	4650 3000 4850 3000
$Comp
L power:+5V #PWR0101
U 1 1 5B7F2421
P 7000 5350
F 0 "#PWR0101" H 7000 5200 50  0001 C CNN
F 1 "+5V" H 7015 5523 50  0000 C CNN
F 2 "" H 7000 5350 50  0001 C CNN
F 3 "" H 7000 5350 50  0001 C CNN
	1    7000 5350
	1    0    0    -1  
$EndComp
$Comp
L power:GND #PWR0102
U 1 1 5B7F24C5
P 7200 3100
F 0 "#PWR0102" H 7200 2850 50  0001 C CNN
F 1 "GND" H 7205 2927 50  0000 C CNN
F 2 "" H 7200 3100 50  0001 C CNN
F 3 "" H 7200 3100 50  0001 C CNN
	1    7200 3100
	1    0    0    -1  
$EndComp
Wire Wire Line
	5150 3000 7050 3000
Wire Wire Line
	5450 5150 5450 5350
Wire Wire Line
	5450 5350 5550 5350
Wire Wire Line
	6150 5150 6150 5350
Connection ~ 6150 5350
Wire Wire Line
	6150 5350 6350 5350
Wire Wire Line
	6050 5150 6050 5350
Connection ~ 6050 5350
Wire Wire Line
	6050 5350 6150 5350
Wire Wire Line
	5950 5150 5950 5350
Connection ~ 5950 5350
Wire Wire Line
	5950 5350 6050 5350
Wire Wire Line
	5850 5150 5850 5350
Connection ~ 5850 5350
Wire Wire Line
	5850 5350 5950 5350
Wire Wire Line
	5750 5150 5750 5350
Connection ~ 5750 5350
Wire Wire Line
	5750 5350 5850 5350
Wire Wire Line
	5650 5150 5650 5350
Connection ~ 5650 5350
Wire Wire Line
	5650 5350 5750 5350
Wire Wire Line
	5550 5150 5550 5350
Connection ~ 5550 5350
Wire Wire Line
	5550 5350 5650 5350
$Comp
L Switch:SW_DPDT_x2 SW2
U 1 1 5B7F7EB2
P 6550 5350
F 0 "SW2" H 6550 5635 50  0000 C CNN
F 1 "SW_DPDT_x2" H 6550 5544 50  0000 C CNN
F 2 "Button_Switch_THT:SW_CuK_OS102011MA1QN1_SPDT_Angled" H 6550 5350 50  0001 C CNN
F 3 "" H 6550 5350 50  0001 C CNN
	1    6550 5350
	1    0    0    -1  
$EndComp
Wire Wire Line
	6750 5250 6850 5250
Wire Wire Line
	6850 5250 6850 5350
Wire Wire Line
	6850 5350 7000 5350
$Comp
L power:GND #PWR0103
U 1 1 5B7F9C07
P 6750 5450
F 0 "#PWR0103" H 6750 5200 50  0001 C CNN
F 1 "GND" H 6755 5277 50  0000 C CNN
F 2 "" H 6750 5450 50  0001 C CNN
F 3 "" H 6750 5450 50  0001 C CNN
	1    6750 5450
	1    0    0    -1  
$EndComp
Wire Wire Line
	4650 3000 4650 3600
Wire Wire Line
	4650 3600 4950 3600
Connection ~ 4950 3600
Wire Wire Line
	5700 3600 5950 3600
Connection ~ 5700 3600
Wire Wire Line
	5850 4200 5950 4200
Wire Wire Line
	5950 4300 6200 4300
Wire Wire Line
	6050 4400 6450 4400
Wire Wire Line
	6150 4550 6700 4550
$Comp
L Connector:Conn_01x02_Male J3
U 1 1 5B80454D
P 7400 4300
F 0 "J3" H 7373 4180 50  0000 R CNN
F 1 "Conn_01x02_Male" H 7373 4271 50  0000 R CNN
F 2 "Connector_PinHeader_2.54mm:PinHeader_1x02_P2.54mm_Vertical" H 7400 4300 50  0001 C CNN
F 3 "~" H 7400 4300 50  0001 C CNN
	1    7400 4300
	-1   0    0    1   
$EndComp
$Comp
L Connector:Conn_01x01_Male J2
U 1 1 5B804600
P 7400 3550
F 0 "J2" H 7373 3480 50  0000 R CNN
F 1 "Conn_01x01_Male" H 7373 3571 50  0000 R CNN
F 2 "Connector_PinHeader_2.54mm:PinHeader_1x01_P2.54mm_Vertical" H 7400 3550 50  0001 C CNN
F 3 "~" H 7400 3550 50  0001 C CNN
	1    7400 3550
	-1   0    0    1   
$EndComp
$Comp
L Connector:Conn_01x01_Male J4
U 1 1 5B804683
P 7400 5050
F 0 "J4" H 7373 4980 50  0000 R CNN
F 1 "Conn_01x01_Male" H 7373 5071 50  0000 R CNN
F 2 "Connector_PinHeader_2.54mm:PinHeader_1x01_P2.54mm_Vertical" H 7400 5050 50  0001 C CNN
F 3 "~" H 7400 5050 50  0001 C CNN
	1    7400 5050
	-1   0    0    1   
$EndComp
Wire Wire Line
	6850 5250 6850 5050
Connection ~ 6850 5250
Wire Wire Line
	6850 5050 7050 5050
Wire Wire Line
	7200 4300 7050 4300
Wire Wire Line
	7050 4300 7050 5050
Connection ~ 7050 5050
Wire Wire Line
	7050 5050 7200 5050
Wire Wire Line
	7050 4200 7200 4200
Wire Wire Line
	7050 3550 7200 3550
Connection ~ 7050 3550
Wire Wire Line
	7050 3550 7050 4200
Wire Wire Line
	7050 3000 7200 3000
Wire Wire Line
	7200 3000 7200 3100
Wire Wire Line
	7050 3000 7050 3550
Connection ~ 7050 3000
$Comp
L Connector:Conn_01x01_Male J1
U 1 1 5B81285A
P 4100 3000
F 0 "J1" H 4206 3178 50  0000 C CNN
F 1 "Conn_01x01_Male" H 4206 3087 50  0000 C CNN
F 2 "Connector_PinHeader_2.54mm:PinHeader_1x01_P2.54mm_Vertical" H 4100 3000 50  0001 C CNN
F 3 "~" H 4100 3000 50  0001 C CNN
	1    4100 3000
	1    0    0    -1  
$EndComp
Wire Wire Line
	4300 3000 4650 3000
Connection ~ 4650 3000
$EndSCHEMATC
