(module TC1508S (layer F.Cu) (tedit 5BA29AC2)
  (attr smd)
  (fp_text reference REF** (at -6.295 0 90) (layer F.SilkS)
    (effects (font (size 1 1) (thickness 0.15)))
  )
  (fp_text value TC1508S (at 0 0) (layer F.Fab)
    (effects (font (size 1 1) (thickness 0.15)))
  )
  (fp_line (start -4.495 3.75) (end -5.295 2.95) (layer F.SilkS) (width 0.15))
  (fp_line (start -5.295 2.95) (end -5.295 -3.75) (layer F.SilkS) (width 0.15))
  (fp_line (start -5.295 -3.75) (end 5.295 -3.75) (layer F.SilkS) (width 0.15))
  (fp_line (start 5.295 -3.75) (end 5.295 3.75) (layer F.SilkS) (width 0.15))
  (fp_line (start 5.295 3.75) (end -4.495 3.75) (layer F.SilkS) (width 0.15))
  (fp_line (start -5.45 -3.9) (end 5.45 -3.9) (layer F.CrtYd) (width 0.05))
  (fp_line (start 5.45 -3.9) (end 5.45 3.9) (layer F.CrtYd) (width 0.05))
  (fp_line (start 5.45 3.9) (end -5.45 3.9) (layer F.CrtYd) (width 0.05))
  (fp_line (start -5.45 3.9) (end -5.45 -3.9) (layer F.CrtYd) (width 0.05))
  (fp_text user TC1508S (at 6.35 0 90) (layer F.SilkS)
    (effects (font (size 1 1) (thickness 0.15)))
  )
  (pad 16 smd rect (at -4.445 -2) (size 0.7 2.5) (layers F.Cu F.Paste F.Mask))
  (pad 1 smd rect (at -4.445 2) (size 0.7 2.5) (layers F.Cu F.Paste F.Mask))
  (pad 15 smd rect (at -3.175 -2) (size 0.7 2.5) (layers F.Cu F.Paste F.Mask))
  (pad 2 smd rect (at -3.175 2) (size 0.7 2.5) (layers F.Cu F.Paste F.Mask))
  (pad 14 smd rect (at -1.905 -2) (size 0.7 2.5) (layers F.Cu F.Paste F.Mask))
  (pad 3 smd rect (at -1.905 2) (size 0.7 2.5) (layers F.Cu F.Paste F.Mask))
  (pad 13 smd rect (at -0.635 -2) (size 0.7 2.5) (layers F.Cu F.Paste F.Mask))
  (pad 4 smd rect (at -0.635 2) (size 0.7 2.5) (layers F.Cu F.Paste F.Mask))
  (pad 12 smd rect (at 0.635 -2) (size 0.7 2.5) (layers F.Cu F.Paste F.Mask))
  (pad 5 smd rect (at 0.635 2) (size 0.7 2.5) (layers F.Cu F.Paste F.Mask))
  (pad 11 smd rect (at 1.905 -2) (size 0.7 2.5) (layers F.Cu F.Paste F.Mask))
  (pad 6 smd rect (at 1.905 2) (size 0.7 2.5) (layers F.Cu F.Paste F.Mask))
  (pad 10 smd rect (at 3.175 -2) (size 0.7 2.5) (layers F.Cu F.Paste F.Mask))
  (pad 7 smd rect (at 3.175 2) (size 0.7 2.5) (layers F.Cu F.Paste F.Mask))
  (pad 9 smd rect (at 4.445 -2) (size 0.7 2.5) (layers F.Cu F.Paste F.Mask))
  (pad 8 smd rect (at 4.445 2) (size 0.7 2.5) (layers F.Cu F.Paste F.Mask))
)
