M48
;DRILL file {KiCad 5.0.0-fee4fd1~66~ubuntu16.04.1} date Tue Aug 28 16:22:56 2018
;FORMAT={-:-/ absolute / inch / decimal}
FMAT,2
INCH,TZ
T1C0.0315
T2C0.0374
T3C0.0390
T4C0.0394
T5C0.0512
T6C0.0701
%
G90
G05
M72
T1
X4.1478Y-3.0388
X4.1478Y-3.1388
X4.1478Y-3.2388
X4.1478Y-3.3388
X4.1478Y-3.4388
X4.1478Y-3.5388
X4.1478Y-3.6388
X4.1478Y-3.7388
X4.1478Y-3.8388
X4.1478Y-3.9388
X4.1478Y-4.0388
X4.1478Y-4.1388
X4.1478Y-4.2388
X4.1478Y-4.3388
X4.1478Y-4.4388
X4.7478Y-3.0388
X4.7478Y-3.1388
X4.7478Y-3.2388
X4.7478Y-3.3388
X4.7478Y-3.4388
X4.7478Y-3.5388
X4.7478Y-3.6388
X4.7478Y-3.7388
X4.7478Y-3.8388
X4.7478Y-3.9388
X4.7478Y-4.0388
X4.7478Y-4.1388
X4.7478Y-4.2388
X4.7478Y-4.3388
X4.7478Y-4.4388
T2
X4.1299Y-2.4961
X4.2283Y-2.4961
X4.3268Y-2.4961
X4.4252Y-2.4961
X4.5236Y-2.4961
T3
X3.7913Y-3.7126
X3.7913Y-3.8898
X3.7917Y-3.3189
X3.7917Y-3.4961
X3.7913Y-2.9252
X3.7913Y-3.1024
X3.7913Y-4.1063
X3.7913Y-4.2835
T4
X4.2953Y-2.748
X4.3953Y-2.748
X4.4953Y-2.748
X4.5953Y-2.748
T5
X3.8894Y-3.663
X3.8894Y-3.939
X3.8898Y-3.2693
X3.8898Y-3.5453
X3.8894Y-2.8756
X3.8894Y-3.1516
X3.8894Y-4.0567
X3.8894Y-4.3327
T6
X4.1478Y-2.9388
X4.1478Y-4.5388
X4.7478Y-2.9388
X4.7478Y-4.5388
T0
M30
