EESchema Schematic File Version 4
LIBS:shutter-cache
EELAYER 26 0
EELAYER END
$Descr A4 11693 8268
encoding utf-8
Sheet 1 1
Title ""
Date ""
Rev ""
Comp ""
Comment1 ""
Comment2 ""
Comment3 ""
Comment4 ""
$EndDescr
$Comp
L Switch:SW_Push SW1
U 1 1 5B8519D5
P 2550 3200
F 0 "SW1" H 2550 3485 50  0000 C CNN
F 1 "SW_Push" H 2550 3394 50  0000 C CNN
F 2 "Button_Switch_THT:SW_Tactile_SPST_Angled_PTS645Vx31-2LFS" H 2550 3400 50  0001 C CNN
F 3 "" H 2550 3400 50  0001 C CNN
	1    2550 3200
	1    0    0    -1  
$EndComp
$Comp
L Switch:SW_Push SW2
U 1 1 5B851ABB
P 2550 3550
F 0 "SW2" H 2550 3835 50  0000 C CNN
F 1 "SW_Push" H 2550 3744 50  0000 C CNN
F 2 "Button_Switch_THT:SW_Tactile_SPST_Angled_PTS645Vx31-2LFS" H 2550 3750 50  0001 C CNN
F 3 "" H 2550 3750 50  0001 C CNN
	1    2550 3550
	1    0    0    -1  
$EndComp
$Comp
L Switch:SW_Push SW3
U 1 1 5B851B10
P 2550 3900
F 0 "SW3" H 2550 4185 50  0000 C CNN
F 1 "SW_Push" H 2550 4094 50  0000 C CNN
F 2 "Button_Switch_THT:SW_Tactile_SPST_Angled_PTS645Vx31-2LFS" H 2550 4100 50  0001 C CNN
F 3 "" H 2550 4100 50  0001 C CNN
	1    2550 3900
	1    0    0    -1  
$EndComp
$Comp
L Switch:SW_Push SW4
U 1 1 5B851B6C
P 2550 4250
F 0 "SW4" H 2550 4535 50  0000 C CNN
F 1 "SW_Push" H 2550 4444 50  0000 C CNN
F 2 "Button_Switch_THT:SW_Tactile_SPST_Angled_PTS645Vx31-2LFS" H 2550 4450 50  0001 C CNN
F 3 "" H 2550 4450 50  0001 C CNN
	1    2550 4250
	1    0    0    -1  
$EndComp
$Comp
L power:GND #PWR0101
U 1 1 5B851E88
P 4150 5300
F 0 "#PWR0101" H 4150 5050 50  0001 C CNN
F 1 "GND" H 4155 5127 50  0000 C CNN
F 2 "" H 4150 5300 50  0001 C CNN
F 3 "" H 4150 5300 50  0001 C CNN
	1    4150 5300
	1    0    0    -1  
$EndComp
$Comp
L power:+5V #PWR0102
U 1 1 5B851ED5
P 4350 2200
F 0 "#PWR0102" H 4350 2050 50  0001 C CNN
F 1 "+5V" H 4365 2373 50  0000 C CNN
F 2 "" H 4350 2200 50  0001 C CNN
F 3 "" H 4350 2200 50  0001 C CNN
	1    4350 2200
	1    0    0    -1  
$EndComp
Wire Wire Line
	4350 2200 4350 2400
Wire Wire Line
	4150 4700 4150 5250
Wire Wire Line
	4250 4700 4250 5250
Wire Wire Line
	4250 5250 4150 5250
Connection ~ 4150 5250
Wire Wire Line
	4150 5250 4150 5300
$Comp
L power:GND #PWR0103
U 1 1 5B8520B6
P 6650 4200
F 0 "#PWR0103" H 6650 3950 50  0001 C CNN
F 1 "GND" H 6655 4027 50  0000 C CNN
F 2 "" H 6650 4200 50  0001 C CNN
F 3 "" H 6650 4200 50  0001 C CNN
	1    6650 4200
	1    0    0    -1  
$EndComp
NoConn ~ 2850 1750
NoConn ~ 3050 1750
NoConn ~ 3250 1750
NoConn ~ 3450 1750
NoConn ~ 3650 1750
NoConn ~ 3850 1750
NoConn ~ 4250 1750
NoConn ~ 4450 1750
NoConn ~ 5050 1750
NoConn ~ 5250 1750
$Comp
L SSD1306_OLED-0.91-128x32:SSD1306 U1
U 1 1 5B852210
P 4150 1750
F 0 "U1" H 4150 2587 60  0000 C CNN
F 1 "SSD1306" H 4150 2481 60  0000 C CNN
F 2 "Connector_PinHeader_2.54mm:PinHeader_1x04_P2.54mm_Vertical" H 4150 1750 60  0001 C CNN
F 3 "" H 4150 1750 60  0001 C CNN
	1    4150 1750
	1    0    0    -1  
$EndComp
$Comp
L power:GND #PWR0104
U 1 1 5B8528EC
P 4050 1750
F 0 "#PWR0104" H 4050 1500 50  0001 C CNN
F 1 "GND" H 4055 1577 50  0000 C CNN
F 2 "" H 4050 1750 50  0001 C CNN
F 3 "" H 4050 1750 50  0001 C CNN
	1    4050 1750
	1    0    0    -1  
$EndComp
$Comp
L power:+5V #PWR0105
U 1 1 5B85292A
P 5650 1750
F 0 "#PWR0105" H 5650 1600 50  0001 C CNN
F 1 "+5V" H 5665 1923 50  0000 C CNN
F 2 "" H 5650 1750 50  0001 C CNN
F 3 "" H 5650 1750 50  0001 C CNN
	1    5650 1750
	1    0    0    -1  
$EndComp
Wire Wire Line
	5450 1750 5450 1850
Wire Wire Line
	5450 1850 5650 1850
Wire Wire Line
	5650 1850 5650 1750
Wire Wire Line
	4650 4100 4850 4100
Wire Wire Line
	4850 4100 4850 1750
Wire Wire Line
	4650 1750 4650 2200
Wire Wire Line
	4650 2200 4900 2200
Wire Wire Line
	4900 2200 4900 4200
Wire Wire Line
	4900 4200 4650 4200
Wire Wire Line
	2750 3900 2750 3600
Wire Wire Line
	2750 3600 3650 3600
Wire Wire Line
	2750 4250 2850 4250
Wire Wire Line
	2850 4250 2850 3700
Wire Wire Line
	2850 3700 3650 3700
Wire Wire Line
	2750 3500 2750 3550
Wire Wire Line
	2750 3500 3650 3500
Wire Wire Line
	2750 3200 2750 3400
Wire Wire Line
	2750 3400 3650 3400
$Comp
L power:GND #PWR0106
U 1 1 5B8545C7
P 2350 4500
F 0 "#PWR0106" H 2350 4250 50  0001 C CNN
F 1 "GND" H 2355 4327 50  0000 C CNN
F 2 "" H 2350 4500 50  0001 C CNN
F 3 "" H 2350 4500 50  0001 C CNN
	1    2350 4500
	1    0    0    -1  
$EndComp
Wire Wire Line
	2350 3200 2350 3550
Connection ~ 2350 3550
Wire Wire Line
	2350 3550 2350 3900
Connection ~ 2350 3900
Wire Wire Line
	2350 3900 2350 4250
Connection ~ 2350 4250
Wire Wire Line
	2350 4250 2350 4500
NoConn ~ 5800 3750
Wire Wire Line
	6600 3450 6650 3450
Wire Wire Line
	6600 3550 6650 3550
NoConn ~ 3650 3100
NoConn ~ 3650 3200
NoConn ~ 3650 3300
NoConn ~ 3650 4000
NoConn ~ 3650 4100
NoConn ~ 3650 4200
NoConn ~ 3650 4300
NoConn ~ 3650 4400
NoConn ~ 4650 4400
NoConn ~ 4650 4300
NoConn ~ 4650 3500
NoConn ~ 4650 3200
NoConn ~ 4650 3100
NoConn ~ 4050 2700
NoConn ~ 4250 2700
Wire Wire Line
	5500 3650 5800 3650
$Comp
L shutter-rescue:TC1508S-custom U2
U 1 1 5BA35686
P 6200 3450
F 0 "U2" H 6200 3775 50  0000 C CNN
F 1 "TC1508S" H 6200 3684 50  0000 C CNN
F 2 "Custom:TC1508S" H 6150 3700 50  0001 C CNN
F 3 "" H 6150 3700 50  0001 C CNN
	1    6200 3450
	1    0    0    -1  
$EndComp
Wire Wire Line
	5500 4050 5800 4050
Wire Wire Line
	6650 3450 6650 3550
Wire Wire Line
	6600 3950 6650 3950
Wire Wire Line
	6650 3950 6650 3850
Wire Wire Line
	6650 3850 6600 3850
Wire Wire Line
	6650 3550 6650 3850
Connection ~ 6650 3550
Connection ~ 6650 3850
Wire Wire Line
	6650 3950 6650 4200
Connection ~ 6650 3950
$Comp
L Connector:Conn_01x04_Male J1
U 1 1 5BA43232
P 7450 3750
F 0 "J1" H 7423 3630 50  0000 R CNN
F 1 "Conn_01x04_Male" H 7423 3721 50  0000 R CNN
F 2 "Connector_PinHeader_2.54mm:PinHeader_1x04_P2.54mm_Vertical" H 7450 3750 50  0001 C CNN
F 3 "~" H 7450 3750 50  0001 C CNN
	1    7450 3750
	-1   0    0    1   
$EndComp
Wire Wire Line
	7100 3350 7100 3550
Wire Wire Line
	7100 3550 7250 3550
Wire Wire Line
	7100 4050 7100 3850
Wire Wire Line
	7100 3850 7250 3850
Wire Wire Line
	6300 4450 6450 4450
Wire Wire Line
	6450 4450 6450 4200
Wire Wire Line
	6450 4200 6650 4200
Connection ~ 6650 4200
Text GLabel 4650 3700 2    50   Input ~ 0
19
Text GLabel 4650 3800 2    50   Input ~ 0
20
Text GLabel 4650 3900 2    50   Input ~ 0
21
Text GLabel 4650 4000 2    50   Input ~ 0
22
Text GLabel 5700 3950 0    50   Input ~ 0
19
Text GLabel 5700 3850 0    50   Input ~ 0
20
Text GLabel 5700 3550 0    50   Input ~ 0
21
Text GLabel 5700 3450 0    50   Input ~ 0
22
Wire Wire Line
	5500 3650 5500 4050
Wire Wire Line
	5700 3450 5800 3450
Wire Wire Line
	5700 3550 5800 3550
Wire Wire Line
	5700 3850 5800 3850
Wire Wire Line
	5700 3950 5800 3950
Wire Wire Line
	6600 3350 7100 3350
Wire Wire Line
	6600 3650 7250 3650
Wire Wire Line
	6600 3750 7250 3750
Wire Wire Line
	6600 4050 7100 4050
$Comp
L Device:R R1
U 1 1 5BDD1400
P 5500 2850
F 0 "R1" H 5570 2896 50  0000 L CNN
F 1 "8.2" H 5570 2805 50  0000 L CNN
F 2 "Resistor_SMD:R_2010_5025Metric_Pad1.52x2.65mm_HandSolder" V 5430 2850 50  0001 C CNN
F 3 "~" H 5500 2850 50  0001 C CNN
	1    5500 2850
	1    0    0    -1  
$EndComp
Wire Wire Line
	5500 3650 5500 3000
Connection ~ 5500 3650
Wire Wire Line
	5500 2700 5500 2400
$Comp
L Device:C C1
U 1 1 5BA4870B
P 6150 4450
F 0 "C1" V 5898 4450 50  0000 C CNN
F 1 "10uF" V 5989 4450 50  0000 C CNN
F 2 "Capacitor_SMD:C_1206_3216Metric_Pad1.42x1.75mm_HandSolder" H 6188 4300 50  0001 C CNN
F 3 "~" H 6150 4450 50  0001 C CNN
	1    6150 4450
	0    1    1    0   
$EndComp
Wire Wire Line
	5500 4050 5500 4450
Connection ~ 5500 4050
Wire Wire Line
	5500 4450 6000 4450
$Comp
L Device:C C2
U 1 1 5BE443DF
P 4500 2600
F 0 "C2" V 4248 2600 50  0000 C CNN
F 1 "10uF" V 4339 2600 50  0000 C CNN
F 2 "Capacitor_SMD:C_1206_3216Metric_Pad1.42x1.75mm_HandSolder" H 4538 2450 50  0001 C CNN
F 3 "~" H 4500 2600 50  0001 C CNN
	1    4500 2600
	0    1    1    0   
$EndComp
Wire Wire Line
	4350 2400 5500 2400
Wire Wire Line
	4350 2400 4350 2600
Connection ~ 4350 2400
Connection ~ 4350 2600
Wire Wire Line
	4350 2600 4350 2700
$Comp
L power:GND #PWR0107
U 1 1 5BE46CAF
P 4650 2600
F 0 "#PWR0107" H 4650 2350 50  0001 C CNN
F 1 "GND" H 4655 2427 50  0000 C CNN
F 2 "" H 4650 2600 50  0001 C CNN
F 3 "" H 4650 2600 50  0001 C CNN
	1    4650 2600
	1    0    0    -1  
$EndComp
$Comp
L Connector:Conn_01x02_Female J2
U 1 1 5BE46F56
P 2700 5450
F 0 "J2" V 2547 5498 50  0000 L CNN
F 1 "bnc_in" V 2638 5498 50  0000 L CNN
F 2 "Connector_PinHeader_2.54mm:PinHeader_1x02_P2.54mm_Vertical" H 2700 5450 50  0001 C CNN
F 3 "~" H 2700 5450 50  0001 C CNN
	1    2700 5450
	0    1    1    0   
$EndComp
$Comp
L Connector:Conn_01x02_Female J3
U 1 1 5BE46FF0
P 3200 5450
F 0 "J3" V 3047 5498 50  0000 L CNN
F 1 "bnc_out" V 3138 5498 50  0000 L CNN
F 2 "Connector_PinHeader_2.54mm:PinHeader_1x02_P2.54mm_Vertical" H 3200 5450 50  0001 C CNN
F 3 "~" H 3200 5450 50  0001 C CNN
	1    3200 5450
	0    1    1    0   
$EndComp
$Comp
L power:GND #PWR0108
U 1 1 5BE47E7C
P 3200 5250
F 0 "#PWR0108" H 3200 5000 50  0001 C CNN
F 1 "GND" V 3205 5122 50  0000 R CNN
F 2 "" H 3200 5250 50  0001 C CNN
F 3 "" H 3200 5250 50  0001 C CNN
	1    3200 5250
	0    -1   -1   0   
$EndComp
$Comp
L power:GND #PWR0109
U 1 1 5BE47EEC
P 2700 5250
F 0 "#PWR0109" H 2700 5000 50  0001 C CNN
F 1 "GND" V 2705 5122 50  0000 R CNN
F 2 "" H 2700 5250 50  0001 C CNN
F 3 "" H 2700 5250 50  0001 C CNN
	1    2700 5250
	0    -1   -1   0   
$EndComp
Wire Wire Line
	2600 5250 2600 4700
Wire Wire Line
	2600 4700 3250 4700
Wire Wire Line
	3250 4700 3250 3800
Wire Wire Line
	3250 3800 3650 3800
$Comp
L MCU_Module:Arduino_Nano_v3.x A1
U 1 1 5B85175B
P 4150 3700
F 0 "A1" H 4150 2614 50  0000 C CNN
F 1 "Arduino_Nano_v3.x" H 4150 2523 50  0000 C CNN
F 2 "Module:Arduino_Nano_WithMountingHoles" H 4300 2750 50  0001 L CNN
F 3 "http://www.mouser.com/pdfdocs/Gravitech_Arduino_Nano3_0.pdf" H 4150 2700 50  0001 C CNN
	1    4150 3700
	1    0    0    -1  
$EndComp
Wire Wire Line
	3100 5250 3100 4850
Wire Wire Line
	3100 4850 3450 4850
Wire Wire Line
	3450 4850 3450 3900
Wire Wire Line
	3450 3900 3650 3900
$EndSCHEMATC
