G04 #@! TF.GenerationSoftware,KiCad,Pcbnew,5.0.0-fee4fd1~66~ubuntu18.04.1*
G04 #@! TF.CreationDate,2018-09-28T01:38:46+02:00*
G04 #@! TF.ProjectId,panel2,70616E656C322E6B696361645F706362,rev?*
G04 #@! TF.SameCoordinates,Original*
G04 #@! TF.FileFunction,Legend,Bot*
G04 #@! TF.FilePolarity,Positive*
%FSLAX46Y46*%
G04 Gerber Fmt 4.6, Leading zero omitted, Abs format (unit mm)*
G04 Created by KiCad (PCBNEW 5.0.0-fee4fd1~66~ubuntu18.04.1) date Fri Sep 28 01:38:46 2018*
%MOMM*%
%LPD*%
G01*
G04 APERTURE LIST*
%ADD10C,0.300000*%
%ADD11C,0.200000*%
%ADD12C,0.150000*%
%ADD13C,0.120000*%
G04 APERTURE END LIST*
D10*
X48693626Y-65982935D02*
X48693626Y-67482935D01*
X48693626Y-66768649D02*
X49550769Y-66768649D01*
X49550769Y-65982935D02*
X49550769Y-67482935D01*
X50907912Y-65982935D02*
X50907912Y-66768649D01*
X50836483Y-66911507D01*
X50693626Y-66982935D01*
X50407912Y-66982935D01*
X50265055Y-66911507D01*
X50907912Y-66054364D02*
X50765055Y-65982935D01*
X50407912Y-65982935D01*
X50265055Y-66054364D01*
X50193626Y-66197221D01*
X50193626Y-66340078D01*
X50265055Y-66482935D01*
X50407912Y-66554364D01*
X50765055Y-66554364D01*
X50907912Y-66625792D01*
X52265055Y-65982935D02*
X52265055Y-67482935D01*
X52265055Y-66054364D02*
X52122198Y-65982935D01*
X51836483Y-65982935D01*
X51693626Y-66054364D01*
X51622198Y-66125792D01*
X51550769Y-66268649D01*
X51550769Y-66697221D01*
X51622198Y-66840078D01*
X51693626Y-66911507D01*
X51836483Y-66982935D01*
X52122198Y-66982935D01*
X52265055Y-66911507D01*
X52979340Y-65982935D02*
X52979340Y-66982935D01*
X52979340Y-66697221D02*
X53050769Y-66840078D01*
X53122198Y-66911507D01*
X53265055Y-66982935D01*
X53407912Y-66982935D01*
X53907912Y-65982935D02*
X53907912Y-66982935D01*
X53907912Y-67482935D02*
X53836483Y-67411507D01*
X53907912Y-67340078D01*
X53979340Y-67411507D01*
X53907912Y-67482935D01*
X53907912Y-67340078D01*
X55193626Y-66054364D02*
X55050769Y-65982935D01*
X54765055Y-65982935D01*
X54622198Y-66054364D01*
X54550769Y-66197221D01*
X54550769Y-66768649D01*
X54622198Y-66911507D01*
X54765055Y-66982935D01*
X55050769Y-66982935D01*
X55193626Y-66911507D01*
X55265055Y-66768649D01*
X55265055Y-66625792D01*
X54550769Y-66482935D01*
X55907912Y-66982935D02*
X55907912Y-65982935D01*
X55907912Y-66840078D02*
X55979340Y-66911507D01*
X56122198Y-66982935D01*
X56336483Y-66982935D01*
X56479340Y-66911507D01*
X56550769Y-66768649D01*
X56550769Y-65982935D01*
X45622198Y-64790078D02*
X45693626Y-64861507D01*
X45836483Y-64932935D01*
X46193626Y-64932935D01*
X46336483Y-64861507D01*
X46407912Y-64790078D01*
X46479340Y-64647221D01*
X46479340Y-64504364D01*
X46407912Y-64290078D01*
X45550769Y-63432935D01*
X46479340Y-63432935D01*
X47765055Y-64932935D02*
X47479340Y-64932935D01*
X47336483Y-64861507D01*
X47265055Y-64790078D01*
X47122198Y-64575792D01*
X47050769Y-64290078D01*
X47050769Y-63718649D01*
X47122198Y-63575792D01*
X47193626Y-63504364D01*
X47336483Y-63432935D01*
X47622198Y-63432935D01*
X47765055Y-63504364D01*
X47836483Y-63575792D01*
X47907912Y-63718649D01*
X47907912Y-64075792D01*
X47836483Y-64218649D01*
X47765055Y-64290078D01*
X47622198Y-64361507D01*
X47336483Y-64361507D01*
X47193626Y-64290078D01*
X47122198Y-64218649D01*
X47050769Y-64075792D01*
X49622198Y-65004364D02*
X48336483Y-63075792D01*
X50407912Y-64932935D02*
X50550769Y-64932935D01*
X50693626Y-64861507D01*
X50765055Y-64790078D01*
X50836483Y-64647221D01*
X50907912Y-64361507D01*
X50907912Y-64004364D01*
X50836483Y-63718649D01*
X50765055Y-63575792D01*
X50693626Y-63504364D01*
X50550769Y-63432935D01*
X50407912Y-63432935D01*
X50265055Y-63504364D01*
X50193626Y-63575792D01*
X50122198Y-63718649D01*
X50050769Y-64004364D01*
X50050769Y-64361507D01*
X50122198Y-64647221D01*
X50193626Y-64790078D01*
X50265055Y-64861507D01*
X50407912Y-64932935D01*
X51622198Y-63432935D02*
X51907912Y-63432935D01*
X52050769Y-63504364D01*
X52122198Y-63575792D01*
X52265055Y-63790078D01*
X52336483Y-64075792D01*
X52336483Y-64647221D01*
X52265055Y-64790078D01*
X52193626Y-64861507D01*
X52050769Y-64932935D01*
X51765055Y-64932935D01*
X51622198Y-64861507D01*
X51550769Y-64790078D01*
X51479340Y-64647221D01*
X51479340Y-64290078D01*
X51550769Y-64147221D01*
X51622198Y-64075792D01*
X51765055Y-64004364D01*
X52050769Y-64004364D01*
X52193626Y-64075792D01*
X52265055Y-64147221D01*
X52336483Y-64290078D01*
X54050769Y-65004364D02*
X52765055Y-63075792D01*
X54479340Y-64790078D02*
X54550769Y-64861507D01*
X54693626Y-64932935D01*
X55050769Y-64932935D01*
X55193626Y-64861507D01*
X55265055Y-64790078D01*
X55336483Y-64647221D01*
X55336483Y-64504364D01*
X55265055Y-64290078D01*
X54407912Y-63432935D01*
X55336483Y-63432935D01*
X56265055Y-64932935D02*
X56407912Y-64932935D01*
X56550769Y-64861507D01*
X56622198Y-64790078D01*
X56693626Y-64647221D01*
X56765055Y-64361507D01*
X56765055Y-64004364D01*
X56693626Y-63718649D01*
X56622198Y-63575792D01*
X56550769Y-63504364D01*
X56407912Y-63432935D01*
X56265055Y-63432935D01*
X56122198Y-63504364D01*
X56050769Y-63575792D01*
X55979340Y-63718649D01*
X55907912Y-64004364D01*
X55907912Y-64361507D01*
X55979340Y-64647221D01*
X56050769Y-64790078D01*
X56122198Y-64861507D01*
X56265055Y-64932935D01*
X58193626Y-63432935D02*
X57336483Y-63432935D01*
X57765055Y-63432935D02*
X57765055Y-64932935D01*
X57622198Y-64718649D01*
X57479340Y-64575792D01*
X57336483Y-64504364D01*
X59050769Y-64290078D02*
X58907912Y-64361507D01*
X58836483Y-64432935D01*
X58765055Y-64575792D01*
X58765055Y-64647221D01*
X58836483Y-64790078D01*
X58907912Y-64861507D01*
X59050769Y-64932935D01*
X59336483Y-64932935D01*
X59479340Y-64861507D01*
X59550769Y-64790078D01*
X59622198Y-64647221D01*
X59622198Y-64575792D01*
X59550769Y-64432935D01*
X59479340Y-64361507D01*
X59336483Y-64290078D01*
X59050769Y-64290078D01*
X58907912Y-64218649D01*
X58836483Y-64147221D01*
X58765055Y-64004364D01*
X58765055Y-63718649D01*
X58836483Y-63575792D01*
X58907912Y-63504364D01*
X59050769Y-63432935D01*
X59336483Y-63432935D01*
X59479340Y-63504364D01*
X59550769Y-63575792D01*
X59622198Y-63718649D01*
X59622198Y-64004364D01*
X59550769Y-64147221D01*
X59479340Y-64218649D01*
X59336483Y-64290078D01*
D11*
X120516498Y-75105924D02*
X120468879Y-75058305D01*
X120421260Y-75105924D01*
X120468879Y-75153543D01*
X120516498Y-75105924D01*
X120421260Y-75105924D01*
X120802212Y-75105924D02*
X121373641Y-75153543D01*
X121421260Y-75105924D01*
X121373641Y-75058305D01*
X120802212Y-75105924D01*
X121421260Y-75105924D01*
X120421260Y-73867829D02*
X121421260Y-73867829D01*
X120421260Y-73296400D01*
X121421260Y-73296400D01*
X120468879Y-72439258D02*
X120421260Y-72534496D01*
X120421260Y-72724972D01*
X120468879Y-72820210D01*
X120564117Y-72867829D01*
X120945069Y-72867829D01*
X121040307Y-72820210D01*
X121087926Y-72724972D01*
X121087926Y-72534496D01*
X121040307Y-72439258D01*
X120945069Y-72391639D01*
X120849831Y-72391639D01*
X120754593Y-72867829D01*
X121087926Y-71201162D02*
X120087926Y-71201162D01*
X121040307Y-71201162D02*
X121087926Y-71105924D01*
X121087926Y-70915448D01*
X121040307Y-70820210D01*
X120992688Y-70772591D01*
X120897450Y-70724972D01*
X120611736Y-70724972D01*
X120516498Y-70772591D01*
X120468879Y-70820210D01*
X120421260Y-70915448D01*
X120421260Y-71105924D01*
X120468879Y-71201162D01*
X120421260Y-69867829D02*
X120945069Y-69867829D01*
X121040307Y-69915448D01*
X121087926Y-70010686D01*
X121087926Y-70201162D01*
X121040307Y-70296400D01*
X120468879Y-69867829D02*
X120421260Y-69963067D01*
X120421260Y-70201162D01*
X120468879Y-70296400D01*
X120564117Y-70344019D01*
X120659355Y-70344019D01*
X120754593Y-70296400D01*
X120802212Y-70201162D01*
X120802212Y-69963067D01*
X120849831Y-69867829D01*
X120468879Y-69439258D02*
X120421260Y-69344019D01*
X120421260Y-69153543D01*
X120468879Y-69058305D01*
X120564117Y-69010686D01*
X120611736Y-69010686D01*
X120706974Y-69058305D01*
X120754593Y-69153543D01*
X120754593Y-69296400D01*
X120802212Y-69391639D01*
X120897450Y-69439258D01*
X120945069Y-69439258D01*
X121040307Y-69391639D01*
X121087926Y-69296400D01*
X121087926Y-69153543D01*
X121040307Y-69058305D01*
X120421260Y-67820210D02*
X121087926Y-67820210D01*
X121421260Y-67820210D02*
X121373641Y-67867829D01*
X121326021Y-67820210D01*
X121373641Y-67772591D01*
X121421260Y-67820210D01*
X121326021Y-67820210D01*
X121087926Y-67344019D02*
X120421260Y-67344019D01*
X120992688Y-67344019D02*
X121040307Y-67296400D01*
X121087926Y-67201162D01*
X121087926Y-67058305D01*
X121040307Y-66963067D01*
X120945069Y-66915448D01*
X120421260Y-66915448D01*
X120468879Y-66486877D02*
X120421260Y-66391639D01*
X120421260Y-66201162D01*
X120468879Y-66105924D01*
X120564117Y-66058305D01*
X120611736Y-66058305D01*
X120706974Y-66105924D01*
X120754593Y-66201162D01*
X120754593Y-66344019D01*
X120802212Y-66439258D01*
X120897450Y-66486877D01*
X120945069Y-66486877D01*
X121040307Y-66439258D01*
X121087926Y-66344019D01*
X121087926Y-66201162D01*
X121040307Y-66105924D01*
X120468879Y-65248781D02*
X120421260Y-65344019D01*
X120421260Y-65534496D01*
X120468879Y-65629734D01*
X120564117Y-65677353D01*
X120945069Y-65677353D01*
X121040307Y-65629734D01*
X121087926Y-65534496D01*
X121087926Y-65344019D01*
X121040307Y-65248781D01*
X120945069Y-65201162D01*
X120849831Y-65201162D01*
X120754593Y-65677353D01*
X121468879Y-65344019D02*
X121326021Y-65486877D01*
X120421260Y-64772591D02*
X121087926Y-64772591D01*
X120897450Y-64772591D02*
X120992688Y-64724972D01*
X121040307Y-64677353D01*
X121087926Y-64582115D01*
X121087926Y-64486877D01*
X120468879Y-63772591D02*
X120421260Y-63867829D01*
X120421260Y-64058305D01*
X120468879Y-64153543D01*
X120564117Y-64201162D01*
X120945069Y-64201162D01*
X121040307Y-64153543D01*
X121087926Y-64058305D01*
X121087926Y-63867829D01*
X121040307Y-63772591D01*
X120945069Y-63724972D01*
X120849831Y-63724972D01*
X120754593Y-64201162D01*
X120421260Y-63296400D02*
X121087926Y-63296400D01*
X120897450Y-63296400D02*
X120992688Y-63248781D01*
X121040307Y-63201162D01*
X121087926Y-63105924D01*
X121087926Y-63010686D01*
X120421260Y-61772591D02*
X120468879Y-61867829D01*
X120564117Y-61915448D01*
X121421260Y-61915448D01*
X120421260Y-60963067D02*
X120945069Y-60963067D01*
X121040307Y-61010686D01*
X121087926Y-61105924D01*
X121087926Y-61296400D01*
X121040307Y-61391639D01*
X120468879Y-60963067D02*
X120421260Y-61058305D01*
X120421260Y-61296400D01*
X120468879Y-61391639D01*
X120564117Y-61439258D01*
X120659355Y-61439258D01*
X120754593Y-61391639D01*
X120802212Y-61296400D01*
X120802212Y-61058305D01*
X120849831Y-60963067D01*
X121087926Y-59724972D02*
X120087926Y-59724972D01*
X121040307Y-59724972D02*
X121087926Y-59629734D01*
X121087926Y-59439258D01*
X121040307Y-59344019D01*
X120992688Y-59296400D01*
X120897450Y-59248781D01*
X120611736Y-59248781D01*
X120516498Y-59296400D01*
X120468879Y-59344019D01*
X120421260Y-59439258D01*
X120421260Y-59629734D01*
X120468879Y-59724972D01*
X120421260Y-58820210D02*
X121087926Y-58820210D01*
X121421260Y-58820210D02*
X121373641Y-58867829D01*
X121326021Y-58820210D01*
X121373641Y-58772591D01*
X121421260Y-58820210D01*
X121326021Y-58820210D01*
X120421260Y-58201162D02*
X120468879Y-58296400D01*
X120564117Y-58344019D01*
X121421260Y-58344019D01*
X120468879Y-57439258D02*
X120421260Y-57534496D01*
X120421260Y-57724972D01*
X120468879Y-57820210D01*
X120564117Y-57867829D01*
X120945069Y-57867829D01*
X121040307Y-57820210D01*
X121087926Y-57724972D01*
X121087926Y-57534496D01*
X121040307Y-57439258D01*
X120945069Y-57391639D01*
X120849831Y-57391639D01*
X120754593Y-57867829D01*
X118768879Y-74272591D02*
X118721260Y-74177353D01*
X118721260Y-73986877D01*
X118768879Y-73891639D01*
X118864117Y-73844019D01*
X118911736Y-73844019D01*
X119006974Y-73891639D01*
X119054593Y-73986877D01*
X119054593Y-74129734D01*
X119102212Y-74224972D01*
X119197450Y-74272591D01*
X119245069Y-74272591D01*
X119340307Y-74224972D01*
X119387926Y-74129734D01*
X119387926Y-73986877D01*
X119340307Y-73891639D01*
X118721260Y-73415448D02*
X119387926Y-73415448D01*
X119721260Y-73415448D02*
X119673641Y-73463067D01*
X119626021Y-73415448D01*
X119673641Y-73367829D01*
X119721260Y-73415448D01*
X119626021Y-73415448D01*
X118721260Y-71748781D02*
X119245069Y-71748781D01*
X119340307Y-71796400D01*
X119387926Y-71891639D01*
X119387926Y-72082115D01*
X119340307Y-72177353D01*
X118768879Y-71748781D02*
X118721260Y-71844019D01*
X118721260Y-72082115D01*
X118768879Y-72177353D01*
X118864117Y-72224972D01*
X118959355Y-72224972D01*
X119054593Y-72177353D01*
X119102212Y-72082115D01*
X119102212Y-71844019D01*
X119149831Y-71748781D01*
X118721260Y-71129734D02*
X118768879Y-71224972D01*
X118864117Y-71272591D01*
X119721260Y-71272591D01*
X118721260Y-70748781D02*
X119387926Y-70748781D01*
X119721260Y-70748781D02*
X119673641Y-70796400D01*
X119626021Y-70748781D01*
X119673641Y-70701162D01*
X119721260Y-70748781D01*
X119626021Y-70748781D01*
X118721260Y-70272591D02*
X119387926Y-70272591D01*
X119292688Y-70272591D02*
X119340307Y-70224972D01*
X119387926Y-70129734D01*
X119387926Y-69986877D01*
X119340307Y-69891639D01*
X119245069Y-69844019D01*
X118721260Y-69844019D01*
X119245069Y-69844019D02*
X119340307Y-69796400D01*
X119387926Y-69701162D01*
X119387926Y-69558305D01*
X119340307Y-69463067D01*
X119245069Y-69415448D01*
X118721260Y-69415448D01*
X118768879Y-68558305D02*
X118721260Y-68653543D01*
X118721260Y-68844019D01*
X118768879Y-68939258D01*
X118864117Y-68986877D01*
X119245069Y-68986877D01*
X119340307Y-68939258D01*
X119387926Y-68844019D01*
X119387926Y-68653543D01*
X119340307Y-68558305D01*
X119245069Y-68510686D01*
X119149831Y-68510686D01*
X119054593Y-68986877D01*
X119387926Y-68082115D02*
X118721260Y-68082115D01*
X119292688Y-68082115D02*
X119340307Y-68034496D01*
X119387926Y-67939258D01*
X119387926Y-67796400D01*
X119340307Y-67701162D01*
X119245069Y-67653543D01*
X118721260Y-67653543D01*
X119387926Y-67320210D02*
X119387926Y-66939258D01*
X119721260Y-67177353D02*
X118864117Y-67177353D01*
X118768879Y-67129734D01*
X118721260Y-67034496D01*
X118721260Y-66939258D01*
X118721260Y-66177353D02*
X119245069Y-66177353D01*
X119340307Y-66224972D01*
X119387926Y-66320210D01*
X119387926Y-66510686D01*
X119340307Y-66605924D01*
X118768879Y-66177353D02*
X118721260Y-66272591D01*
X118721260Y-66510686D01*
X118768879Y-66605924D01*
X118864117Y-66653543D01*
X118959355Y-66653543D01*
X119054593Y-66605924D01*
X119102212Y-66510686D01*
X119102212Y-66272591D01*
X119149831Y-66177353D01*
X119387926Y-65844019D02*
X119387926Y-65463067D01*
X119721260Y-65701162D02*
X118864117Y-65701162D01*
X118768879Y-65653543D01*
X118721260Y-65558305D01*
X118721260Y-65463067D01*
X118721260Y-65129734D02*
X119387926Y-65129734D01*
X119721260Y-65129734D02*
X119673641Y-65177353D01*
X119626021Y-65129734D01*
X119673641Y-65082115D01*
X119721260Y-65129734D01*
X119626021Y-65129734D01*
X118721260Y-64510686D02*
X118768879Y-64605924D01*
X118816498Y-64653543D01*
X118911736Y-64701162D01*
X119197450Y-64701162D01*
X119292688Y-64653543D01*
X119340307Y-64605924D01*
X119387926Y-64510686D01*
X119387926Y-64367829D01*
X119340307Y-64272591D01*
X119292688Y-64224972D01*
X119197450Y-64177353D01*
X118911736Y-64177353D01*
X118816498Y-64224972D01*
X118768879Y-64272591D01*
X118721260Y-64367829D01*
X118721260Y-64510686D01*
X119387926Y-63748781D02*
X118721260Y-63748781D01*
X119292688Y-63748781D02*
X119340307Y-63701162D01*
X119387926Y-63605924D01*
X119387926Y-63463067D01*
X119340307Y-63367829D01*
X119245069Y-63320210D01*
X118721260Y-63320210D01*
X119721260Y-62082115D02*
X118911736Y-62082115D01*
X118816498Y-62034496D01*
X118768879Y-61986877D01*
X118721260Y-61891639D01*
X118721260Y-61701162D01*
X118768879Y-61605924D01*
X118816498Y-61558305D01*
X118911736Y-61510686D01*
X119721260Y-61510686D01*
X118768879Y-61082115D02*
X118721260Y-60939258D01*
X118721260Y-60701162D01*
X118768879Y-60605924D01*
X118816498Y-60558305D01*
X118911736Y-60510686D01*
X119006974Y-60510686D01*
X119102212Y-60558305D01*
X119149831Y-60605924D01*
X119197450Y-60701162D01*
X119245069Y-60891639D01*
X119292688Y-60986877D01*
X119340307Y-61034496D01*
X119435545Y-61082115D01*
X119530783Y-61082115D01*
X119626021Y-61034496D01*
X119673641Y-60986877D01*
X119721260Y-60891639D01*
X119721260Y-60653543D01*
X119673641Y-60510686D01*
X119245069Y-59748781D02*
X119197450Y-59605924D01*
X119149831Y-59558305D01*
X119054593Y-59510686D01*
X118911736Y-59510686D01*
X118816498Y-59558305D01*
X118768879Y-59605924D01*
X118721260Y-59701162D01*
X118721260Y-60082115D01*
X119721260Y-60082115D01*
X119721260Y-59748781D01*
X119673641Y-59653543D01*
X119626021Y-59605924D01*
X119530783Y-59558305D01*
X119435545Y-59558305D01*
X119340307Y-59605924D01*
X119292688Y-59653543D01*
X119245069Y-59748781D01*
X119245069Y-60082115D01*
X118816498Y-57558305D02*
X118768879Y-57510686D01*
X118721260Y-57558305D01*
X118768879Y-57605924D01*
X118816498Y-57558305D01*
X118721260Y-57558305D01*
X119102212Y-57558305D02*
X119673641Y-57605924D01*
X119721260Y-57558305D01*
X119673641Y-57510686D01*
X119102212Y-57558305D01*
X119721260Y-57558305D01*
D10*
X125866498Y-75441639D02*
X126009355Y-75370210D01*
X126223641Y-75370210D01*
X126437926Y-75441639D01*
X126580783Y-75584496D01*
X126652212Y-75727353D01*
X126723641Y-76013067D01*
X126723641Y-76227353D01*
X126652212Y-76513067D01*
X126580783Y-76655924D01*
X126437926Y-76798781D01*
X126223641Y-76870210D01*
X126080783Y-76870210D01*
X125866498Y-76798781D01*
X125795069Y-76727353D01*
X125795069Y-76227353D01*
X126080783Y-76227353D01*
X125152212Y-76870210D02*
X125152212Y-75370210D01*
X124295069Y-76870210D01*
X124295069Y-75370210D01*
X123580783Y-76870210D02*
X123580783Y-75370210D01*
X123223641Y-75370210D01*
X123009355Y-75441639D01*
X122866498Y-75584496D01*
X122795069Y-75727353D01*
X122723641Y-76013067D01*
X122723641Y-76227353D01*
X122795069Y-76513067D01*
X122866498Y-76655924D01*
X123009355Y-76798781D01*
X123223641Y-76870210D01*
X123580783Y-76870210D01*
X125609355Y-72770210D02*
X126323641Y-72770210D01*
X126395069Y-73484496D01*
X126323641Y-73413067D01*
X126180783Y-73341639D01*
X125823641Y-73341639D01*
X125680783Y-73413067D01*
X125609355Y-73484496D01*
X125537926Y-73627353D01*
X125537926Y-73984496D01*
X125609355Y-74127353D01*
X125680783Y-74198781D01*
X125823641Y-74270210D01*
X126180783Y-74270210D01*
X126323641Y-74198781D01*
X126395069Y-74127353D01*
X125109355Y-72770210D02*
X124609355Y-74270210D01*
X124109355Y-72770210D01*
D12*
G04 #@! TO.C,U2*
X127775000Y-110525000D02*
X127775000Y-110550000D01*
X123625000Y-110525000D02*
X123625000Y-110630000D01*
X123625000Y-120675000D02*
X123625000Y-120570000D01*
X127775000Y-120675000D02*
X127775000Y-120570000D01*
X127775000Y-110525000D02*
X123625000Y-110525000D01*
X127775000Y-120675000D02*
X123625000Y-120675000D01*
X127775000Y-110550000D02*
X129150000Y-110550000D01*
D13*
G04 #@! TO.C,D1*
X79280000Y-107120000D02*
G75*
G03X79280000Y-107120000I-4300000J0D01*
G01*
X74853000Y-102675000D02*
X74853000Y-98865000D01*
X74853000Y-98865000D02*
X77774000Y-98865000D01*
X77774000Y-98865000D02*
X77774000Y-103691000D01*
G04 #@! TO.C,SW1*
X90140000Y-94680000D02*
X80240000Y-94680000D01*
X90140000Y-117301000D02*
X80240000Y-117301000D01*
X90140000Y-94680000D02*
X90140000Y-117301000D01*
X80240000Y-94680000D02*
X80240000Y-117301000D01*
X90380000Y-94440000D02*
X88996000Y-94440000D01*
X90380000Y-94440000D02*
X90380000Y-95823000D01*
X87220000Y-96465000D02*
X87220000Y-97735000D01*
X87220000Y-97735000D02*
X83160000Y-97735000D01*
X83160000Y-97735000D02*
X83160000Y-96465000D01*
X83160000Y-96465000D02*
X87220000Y-96465000D01*
X87220000Y-96585000D02*
X85866667Y-96585000D01*
X87220000Y-96705000D02*
X85866667Y-96705000D01*
X87220000Y-96825000D02*
X85866667Y-96825000D01*
X87220000Y-96945000D02*
X85866667Y-96945000D01*
X87220000Y-97065000D02*
X85866667Y-97065000D01*
X87220000Y-97185000D02*
X85866667Y-97185000D01*
X87220000Y-97305000D02*
X85866667Y-97305000D01*
X87220000Y-97425000D02*
X85866667Y-97425000D01*
X87220000Y-97545000D02*
X85866667Y-97545000D01*
X87220000Y-97665000D02*
X85866667Y-97665000D01*
X85866667Y-96465000D02*
X85866667Y-97735000D01*
X87220000Y-99005000D02*
X87220000Y-100275000D01*
X87220000Y-100275000D02*
X83160000Y-100275000D01*
X83160000Y-100275000D02*
X83160000Y-99005000D01*
X83160000Y-99005000D02*
X87220000Y-99005000D01*
X87220000Y-99125000D02*
X85866667Y-99125000D01*
X87220000Y-99245000D02*
X85866667Y-99245000D01*
X87220000Y-99365000D02*
X85866667Y-99365000D01*
X87220000Y-99485000D02*
X85866667Y-99485000D01*
X87220000Y-99605000D02*
X85866667Y-99605000D01*
X87220000Y-99725000D02*
X85866667Y-99725000D01*
X87220000Y-99845000D02*
X85866667Y-99845000D01*
X87220000Y-99965000D02*
X85866667Y-99965000D01*
X87220000Y-100085000D02*
X85866667Y-100085000D01*
X87220000Y-100205000D02*
X85866667Y-100205000D01*
X85866667Y-99005000D02*
X85866667Y-100275000D01*
X87220000Y-101545000D02*
X87220000Y-102815000D01*
X87220000Y-102815000D02*
X83160000Y-102815000D01*
X83160000Y-102815000D02*
X83160000Y-101545000D01*
X83160000Y-101545000D02*
X87220000Y-101545000D01*
X87220000Y-101665000D02*
X85866667Y-101665000D01*
X87220000Y-101785000D02*
X85866667Y-101785000D01*
X87220000Y-101905000D02*
X85866667Y-101905000D01*
X87220000Y-102025000D02*
X85866667Y-102025000D01*
X87220000Y-102145000D02*
X85866667Y-102145000D01*
X87220000Y-102265000D02*
X85866667Y-102265000D01*
X87220000Y-102385000D02*
X85866667Y-102385000D01*
X87220000Y-102505000D02*
X85866667Y-102505000D01*
X87220000Y-102625000D02*
X85866667Y-102625000D01*
X87220000Y-102745000D02*
X85866667Y-102745000D01*
X85866667Y-101545000D02*
X85866667Y-102815000D01*
X87220000Y-104085000D02*
X87220000Y-105355000D01*
X87220000Y-105355000D02*
X83160000Y-105355000D01*
X83160000Y-105355000D02*
X83160000Y-104085000D01*
X83160000Y-104085000D02*
X87220000Y-104085000D01*
X87220000Y-104205000D02*
X85866667Y-104205000D01*
X87220000Y-104325000D02*
X85866667Y-104325000D01*
X87220000Y-104445000D02*
X85866667Y-104445000D01*
X87220000Y-104565000D02*
X85866667Y-104565000D01*
X87220000Y-104685000D02*
X85866667Y-104685000D01*
X87220000Y-104805000D02*
X85866667Y-104805000D01*
X87220000Y-104925000D02*
X85866667Y-104925000D01*
X87220000Y-105045000D02*
X85866667Y-105045000D01*
X87220000Y-105165000D02*
X85866667Y-105165000D01*
X87220000Y-105285000D02*
X85866667Y-105285000D01*
X85866667Y-104085000D02*
X85866667Y-105355000D01*
X87220000Y-106625000D02*
X87220000Y-107895000D01*
X87220000Y-107895000D02*
X83160000Y-107895000D01*
X83160000Y-107895000D02*
X83160000Y-106625000D01*
X83160000Y-106625000D02*
X87220000Y-106625000D01*
X87220000Y-106745000D02*
X85866667Y-106745000D01*
X87220000Y-106865000D02*
X85866667Y-106865000D01*
X87220000Y-106985000D02*
X85866667Y-106985000D01*
X87220000Y-107105000D02*
X85866667Y-107105000D01*
X87220000Y-107225000D02*
X85866667Y-107225000D01*
X87220000Y-107345000D02*
X85866667Y-107345000D01*
X87220000Y-107465000D02*
X85866667Y-107465000D01*
X87220000Y-107585000D02*
X85866667Y-107585000D01*
X87220000Y-107705000D02*
X85866667Y-107705000D01*
X87220000Y-107825000D02*
X85866667Y-107825000D01*
X85866667Y-106625000D02*
X85866667Y-107895000D01*
X87220000Y-109165000D02*
X87220000Y-110435000D01*
X87220000Y-110435000D02*
X83160000Y-110435000D01*
X83160000Y-110435000D02*
X83160000Y-109165000D01*
X83160000Y-109165000D02*
X87220000Y-109165000D01*
X87220000Y-109285000D02*
X85866667Y-109285000D01*
X87220000Y-109405000D02*
X85866667Y-109405000D01*
X87220000Y-109525000D02*
X85866667Y-109525000D01*
X87220000Y-109645000D02*
X85866667Y-109645000D01*
X87220000Y-109765000D02*
X85866667Y-109765000D01*
X87220000Y-109885000D02*
X85866667Y-109885000D01*
X87220000Y-110005000D02*
X85866667Y-110005000D01*
X87220000Y-110125000D02*
X85866667Y-110125000D01*
X87220000Y-110245000D02*
X85866667Y-110245000D01*
X87220000Y-110365000D02*
X85866667Y-110365000D01*
X85866667Y-109165000D02*
X85866667Y-110435000D01*
X87220000Y-111705000D02*
X87220000Y-112975000D01*
X87220000Y-112975000D02*
X83160000Y-112975000D01*
X83160000Y-112975000D02*
X83160000Y-111705000D01*
X83160000Y-111705000D02*
X87220000Y-111705000D01*
X87220000Y-111825000D02*
X85866667Y-111825000D01*
X87220000Y-111945000D02*
X85866667Y-111945000D01*
X87220000Y-112065000D02*
X85866667Y-112065000D01*
X87220000Y-112185000D02*
X85866667Y-112185000D01*
X87220000Y-112305000D02*
X85866667Y-112305000D01*
X87220000Y-112425000D02*
X85866667Y-112425000D01*
X87220000Y-112545000D02*
X85866667Y-112545000D01*
X87220000Y-112665000D02*
X85866667Y-112665000D01*
X87220000Y-112785000D02*
X85866667Y-112785000D01*
X87220000Y-112905000D02*
X85866667Y-112905000D01*
X85866667Y-111705000D02*
X85866667Y-112975000D01*
X87220000Y-114245000D02*
X87220000Y-115515000D01*
X87220000Y-115515000D02*
X83160000Y-115515000D01*
X83160000Y-115515000D02*
X83160000Y-114245000D01*
X83160000Y-114245000D02*
X87220000Y-114245000D01*
X87220000Y-114365000D02*
X85866667Y-114365000D01*
X87220000Y-114485000D02*
X85866667Y-114485000D01*
X87220000Y-114605000D02*
X85866667Y-114605000D01*
X87220000Y-114725000D02*
X85866667Y-114725000D01*
X87220000Y-114845000D02*
X85866667Y-114845000D01*
X87220000Y-114965000D02*
X85866667Y-114965000D01*
X87220000Y-115085000D02*
X85866667Y-115085000D01*
X87220000Y-115205000D02*
X85866667Y-115205000D01*
X87220000Y-115325000D02*
X85866667Y-115325000D01*
X87220000Y-115445000D02*
X85866667Y-115445000D01*
X85866667Y-114245000D02*
X85866667Y-115515000D01*
D12*
G04 #@! TO.C,SW2*
X63330000Y-110840000D02*
X63330000Y-102240000D01*
X58730000Y-110840000D02*
X58730000Y-108640000D01*
X58730000Y-104540000D02*
X58730000Y-102240000D01*
G04 #@! TO.C,U2*
X100052198Y-69226507D02*
X101322198Y-69226507D01*
X101322198Y-69226507D02*
X101322198Y-61606507D01*
X101322198Y-61606507D02*
X100052198Y-61606507D01*
X88622198Y-70496507D02*
X84812198Y-70496507D01*
X84812198Y-70496507D02*
X84812198Y-67956507D01*
X84812198Y-67956507D02*
X88622198Y-67956507D01*
X88622198Y-67956507D02*
X88622198Y-70496507D01*
X94972198Y-69226507D02*
X94972198Y-61606507D01*
X94972198Y-61606507D02*
X100052198Y-61606507D01*
X94972198Y-69226507D02*
X100052198Y-69226507D01*
X93702198Y-70496507D02*
X91162198Y-70496507D01*
X91162198Y-70496507D02*
X91162198Y-67956507D01*
X91162198Y-67956507D02*
X93702198Y-67956507D01*
X93702198Y-67956507D02*
X93702198Y-70496507D01*
X67032198Y-62876507D02*
X67032198Y-67956507D01*
X67032198Y-67956507D02*
X69572198Y-67956507D01*
X69572198Y-67956507D02*
X69572198Y-62876507D01*
X69572198Y-62876507D02*
X67032198Y-62876507D01*
X73382198Y-70496507D02*
X73382198Y-60336507D01*
X82272198Y-60336507D02*
X82272198Y-70496507D01*
X73382198Y-60336507D02*
X82272198Y-60336507D01*
X73382198Y-70496507D02*
X82272198Y-70496507D01*
X100052198Y-56526507D02*
X64492198Y-56526507D01*
X64492198Y-56526507D02*
X64492198Y-74306507D01*
X64492198Y-74306507D02*
X100052198Y-74306507D01*
X100052198Y-74306507D02*
X100052198Y-56526507D01*
D13*
G04 #@! TO.C,U1*
X37132198Y-57296507D02*
X37132198Y-73536507D01*
X37132198Y-73536507D02*
X44752198Y-73536507D01*
X60752198Y-73536507D02*
X61372198Y-73536507D01*
X61372198Y-73536507D02*
X61372198Y-71416507D01*
X61372198Y-59416507D02*
X61372198Y-57296507D01*
X61372198Y-57296507D02*
X60752198Y-57296507D01*
X44752198Y-57296507D02*
X37132198Y-57296507D01*
X44752198Y-57296507D02*
X44752198Y-56686507D01*
G04 #@! TO.C,D1*
X117708641Y-64991639D02*
X117708641Y-69051639D01*
X117708641Y-69051639D02*
X114538641Y-69051639D01*
X114538641Y-69051639D02*
X114538641Y-64991639D01*
G04 #@! TO.C,U2*
D12*
X126461904Y-109052380D02*
X126461904Y-109861904D01*
X126414285Y-109957142D01*
X126366666Y-110004761D01*
X126271428Y-110052380D01*
X126080952Y-110052380D01*
X125985714Y-110004761D01*
X125938095Y-109957142D01*
X125890476Y-109861904D01*
X125890476Y-109052380D01*
X125461904Y-109147619D02*
X125414285Y-109100000D01*
X125319047Y-109052380D01*
X125080952Y-109052380D01*
X124985714Y-109100000D01*
X124938095Y-109147619D01*
X124890476Y-109242857D01*
X124890476Y-109338095D01*
X124938095Y-109480952D01*
X125509523Y-110052380D01*
X124890476Y-110052380D01*
G04 #@! TO.C,D1*
X71622380Y-101301904D02*
X70622380Y-101301904D01*
X70622380Y-101540000D01*
X70670000Y-101682857D01*
X70765238Y-101778095D01*
X70860476Y-101825714D01*
X71050952Y-101873333D01*
X71193809Y-101873333D01*
X71384285Y-101825714D01*
X71479523Y-101778095D01*
X71574761Y-101682857D01*
X71622380Y-101540000D01*
X71622380Y-101301904D01*
X71622380Y-102825714D02*
X71622380Y-102254285D01*
X71622380Y-102540000D02*
X70622380Y-102540000D01*
X70765238Y-102444761D01*
X70860476Y-102349523D01*
X70908095Y-102254285D01*
G04 #@! TO.C,SW2*
X65034761Y-105806666D02*
X65082380Y-105949523D01*
X65082380Y-106187619D01*
X65034761Y-106282857D01*
X64987142Y-106330476D01*
X64891904Y-106378095D01*
X64796666Y-106378095D01*
X64701428Y-106330476D01*
X64653809Y-106282857D01*
X64606190Y-106187619D01*
X64558571Y-105997142D01*
X64510952Y-105901904D01*
X64463333Y-105854285D01*
X64368095Y-105806666D01*
X64272857Y-105806666D01*
X64177619Y-105854285D01*
X64130000Y-105901904D01*
X64082380Y-105997142D01*
X64082380Y-106235238D01*
X64130000Y-106378095D01*
X64082380Y-106711428D02*
X65082380Y-106949523D01*
X64368095Y-107140000D01*
X65082380Y-107330476D01*
X64082380Y-107568571D01*
X64177619Y-107901904D02*
X64130000Y-107949523D01*
X64082380Y-108044761D01*
X64082380Y-108282857D01*
X64130000Y-108378095D01*
X64177619Y-108425714D01*
X64272857Y-108473333D01*
X64368095Y-108473333D01*
X64510952Y-108425714D01*
X65082380Y-107854285D01*
X65082380Y-108473333D01*
G04 #@! TO.C,U2*
X83034102Y-54708887D02*
X83034102Y-55518411D01*
X82986483Y-55613649D01*
X82938864Y-55661268D01*
X82843626Y-55708887D01*
X82653150Y-55708887D01*
X82557912Y-55661268D01*
X82510293Y-55613649D01*
X82462674Y-55518411D01*
X82462674Y-54708887D01*
X82034102Y-54804126D02*
X81986483Y-54756507D01*
X81891245Y-54708887D01*
X81653150Y-54708887D01*
X81557912Y-54756507D01*
X81510293Y-54804126D01*
X81462674Y-54899364D01*
X81462674Y-54994602D01*
X81510293Y-55137459D01*
X82081721Y-55708887D01*
X81462674Y-55708887D01*
G04 #@! TO.C,U1*
X43444578Y-54094602D02*
X44254102Y-54094602D01*
X44349340Y-54142221D01*
X44396959Y-54189840D01*
X44444578Y-54285078D01*
X44444578Y-54475554D01*
X44396959Y-54570792D01*
X44349340Y-54618411D01*
X44254102Y-54666030D01*
X43444578Y-54666030D01*
X44444578Y-55666030D02*
X44444578Y-55094602D01*
X44444578Y-55380316D02*
X43444578Y-55380316D01*
X43587436Y-55285078D01*
X43682674Y-55189840D01*
X43730293Y-55094602D01*
G04 #@! TO.C,D1*
X116476021Y-69853543D02*
X115476021Y-69853543D01*
X115476021Y-70091639D01*
X115523641Y-70234496D01*
X115618879Y-70329734D01*
X115714117Y-70377353D01*
X115904593Y-70424972D01*
X116047450Y-70424972D01*
X116237926Y-70377353D01*
X116333164Y-70329734D01*
X116428402Y-70234496D01*
X116476021Y-70091639D01*
X116476021Y-69853543D01*
X116476021Y-71377353D02*
X116476021Y-70805924D01*
X116476021Y-71091639D02*
X115476021Y-71091639D01*
X115618879Y-70996400D01*
X115714117Y-70901162D01*
X115761736Y-70805924D01*
G04 #@! TD*
M02*
