M48
;DRILL file {KiCad 5.0.1-33cea8e~68~ubuntu18.04.1} date sam. 10 nov. 2018 16:16:31 CET
;FORMAT={-:-/ absolute / metric / decimal}
FMAT,2
METRIC,TZ
T1C0.400
T2C0.800
T3C0.900
T4C0.990
T5C1.000
T6C1.300
T7C1.500
T8C1.780
%
G90
G05
M71
T1
X71.1Y-121.8
X71.4Y-120.
X81.8Y-120.
X97.1Y-116.9
X98.1Y-119.3
X99.545Y-78.5
X100.1Y-117.3
X101.2Y-118.8
X105.4Y-101.
X105.4Y-103.
X105.4Y-105.
X105.4Y-107.
X105.4Y-109.
X105.4Y-111.
X105.4Y-113.
X105.4Y-115.
X105.5Y-127.6
X106.3Y-126.4
X106.3Y-128.9
X107.4Y-101.
X107.4Y-103.
X107.4Y-105.
X107.4Y-107.
X107.4Y-109.
X107.4Y-111.
X107.4Y-113.
X107.4Y-115.
X107.8Y-126.4
X107.8Y-128.9
X109.3Y-126.4
X109.3Y-128.9
X109.4Y-101.
X109.4Y-103.
X109.4Y-105.
X109.4Y-107.
X109.4Y-109.
X109.4Y-111.
X109.4Y-113.
X109.4Y-115.
X110.4Y-106.
X110.4Y-108.
X110.4Y-109.9
X110.4Y-111.9
X110.8Y-126.4
X110.8Y-128.9
X110.9Y-115.
X111.4Y-101.
X111.4Y-103.
X111.4Y-105.
X111.4Y-107.
X111.4Y-109.
X111.4Y-111.
X111.4Y-113.
X111.4Y-119.3
X111.5Y-108.
X111.6Y-112.
X111.9Y-106.
X112.Y-109.9
X112.3Y-126.4
X112.3Y-128.9
X113.8Y-126.4
X113.8Y-128.9
X114.9Y-94.6
X114.9Y-96.1
X114.9Y-97.6
X114.9Y-99.1
X114.9Y-100.6
X114.9Y-103.6
X114.9Y-105.1
X114.9Y-106.6
X114.9Y-108.1
X114.9Y-109.6
X114.9Y-111.1
X114.9Y-112.6
X114.9Y-114.1
X114.9Y-120.1
X114.9Y-121.6
X114.9Y-123.1
X115.3Y-126.4
X115.3Y-128.9
X115.9Y-94.6
X115.9Y-96.1
X115.9Y-97.6
X115.9Y-99.1
X115.9Y-100.6
X115.9Y-103.6
X115.9Y-105.1
X115.9Y-106.6
X115.9Y-108.1
X115.9Y-109.6
X115.9Y-111.1
X115.9Y-112.6
X115.9Y-114.1
X115.9Y-115.6
X115.9Y-117.1
X115.9Y-118.6
X115.9Y-120.1
X115.9Y-121.6
X115.9Y-123.1
X116.8Y-126.4
X116.8Y-128.9
X117.6Y-127.6
X118.3Y-94.
X118.6Y-129.
X119.3Y-92.5
X119.4Y-95.1
X119.6Y-122.9
X119.8Y-127.9
X120.5Y-96.3
X120.6Y-94.
X121.Y-92.5
X121.Y-121.5
X121.8Y-97.4
X122.1Y-95.3
X122.2Y-120.1
X122.5Y-93.4
X123.3Y-96.3
X123.5Y-98.1
X123.9Y-94.4
X124.2Y-117.3
X124.6Y-100.6
X124.7Y-103.4
X124.7Y-105.8
X124.7Y-114.4
X124.8Y-108.4
X124.8Y-111.3
T2
X51.6Y-89.88
X51.6Y-97.5
X51.6Y-80.08
X51.6Y-87.7
X59.1Y-83.18
X59.1Y-90.8
X73.5Y-88.1
X78.5Y-88.1
X62.2Y-101.8
X69.82Y-101.8
X63.78Y-83.6
X71.4Y-83.6
X62.18Y-98.4
X69.8Y-98.4
X98.205Y-37.255
X98.205Y-39.795
X98.205Y-42.335
X98.205Y-44.875
X98.205Y-47.415
X98.205Y-49.955
X98.205Y-52.495
X98.205Y-55.035
X98.205Y-57.575
X98.205Y-60.115
X98.205Y-62.655
X98.205Y-65.195
X98.205Y-67.735
X98.205Y-70.275
X98.205Y-72.815
X113.445Y-37.255
X113.445Y-39.795
X113.445Y-42.335
X113.445Y-44.875
X113.445Y-47.415
X113.445Y-49.955
X113.445Y-52.495
X113.445Y-55.035
X113.445Y-57.575
X113.445Y-60.115
X113.445Y-62.655
X113.445Y-65.195
X113.445Y-67.735
X113.445Y-70.275
X113.445Y-72.815
X76.Y-75.68
X76.Y-83.3
X56.Y-93.1
X56.Y-95.6
X120.38Y-101.4
X120.38Y-103.94
X120.38Y-106.48
X120.38Y-109.02
X120.38Y-111.56
X120.38Y-114.1
X120.38Y-116.64
X120.38Y-119.18
X128.Y-101.4
X128.Y-103.94
X128.Y-106.48
X128.Y-109.02
X128.Y-111.56
X128.Y-114.1
X128.Y-116.64
X128.Y-119.18
X62.28Y-86.98
X62.28Y-89.52
X62.28Y-92.06
X62.28Y-94.6
X69.9Y-86.98
X69.9Y-89.52
X69.9Y-92.06
X69.9Y-94.6
X78.48Y-115.58
X78.48Y-118.12
X78.48Y-120.66
X78.48Y-123.2
X86.1Y-115.58
X86.1Y-118.12
X86.1Y-120.66
X86.1Y-123.2
X73.5Y-93.
X78.5Y-93.
T3
X100.83Y-107.74
X100.83Y-109.74
X100.83Y-111.74
T4
X122.3Y-66.3
X122.3Y-70.8
X122.29Y-56.3
X122.29Y-60.8
X122.3Y-46.3
X122.3Y-50.8
X122.3Y-36.3
X122.3Y-40.8
T5
X111.2Y-93.4
X102.6Y-86.7
X105.14Y-86.7
X107.68Y-86.7
X110.22Y-86.7
X80.76Y-112.1
X83.3Y-112.1
X116.8Y-81.96
X116.8Y-84.5
X51.38Y-34.89
X51.38Y-37.43
X51.38Y-39.97
X51.38Y-42.51
X51.38Y-45.05
X51.38Y-47.59
X51.38Y-50.13
X51.38Y-52.67
X51.38Y-55.21
X51.38Y-57.75
X51.38Y-60.29
X51.38Y-62.83
X51.38Y-65.37
X51.38Y-67.91
X53.92Y-34.89
X53.92Y-37.43
X53.92Y-39.97
X53.92Y-42.51
X53.92Y-45.05
X53.92Y-47.59
X53.92Y-50.13
X53.92Y-52.67
X53.92Y-55.21
X53.92Y-57.75
X53.92Y-60.29
X53.92Y-62.83
X53.92Y-65.37
X53.92Y-67.91
X61.54Y-34.89
X61.54Y-37.43
X61.54Y-39.97
X61.54Y-42.51
X61.54Y-45.05
X61.54Y-47.59
X61.54Y-50.13
X61.54Y-52.67
X61.54Y-55.21
X61.54Y-57.75
X61.54Y-60.29
X61.54Y-62.83
X61.54Y-65.37
X61.54Y-67.91
X64.08Y-34.89
X64.08Y-37.43
X64.08Y-39.97
X64.08Y-42.51
X64.08Y-45.05
X64.08Y-47.59
X64.08Y-50.13
X64.08Y-52.67
X64.08Y-55.21
X64.08Y-57.75
X64.08Y-60.29
X64.08Y-62.83
X64.08Y-65.37
X64.08Y-67.91
X103.9Y-119.8
X106.44Y-119.8
X53.6Y-76.4
X56.14Y-76.4
X81.86Y-34.89
X81.86Y-37.43
X81.86Y-39.97
X81.86Y-42.51
X81.86Y-45.05
X81.86Y-47.59
X81.86Y-50.13
X81.86Y-52.67
X81.86Y-55.21
X81.86Y-57.75
X81.86Y-60.29
X81.86Y-62.83
X81.86Y-65.37
X81.86Y-67.91
X84.4Y-34.89
X84.4Y-37.43
X84.4Y-39.97
X84.4Y-42.51
X84.4Y-45.05
X84.4Y-47.59
X84.4Y-50.13
X84.4Y-52.67
X84.4Y-55.21
X84.4Y-57.75
X84.4Y-60.29
X84.4Y-62.83
X84.4Y-65.37
X84.4Y-67.91
X48.2Y-92.36
X48.2Y-94.9
X65.1Y-76.5
X67.64Y-76.5
X121.3Y-81.96
X121.3Y-84.5
X122.1Y-126.1
X41.22Y-34.89
X41.22Y-37.43
X41.22Y-39.97
X41.22Y-42.51
X41.22Y-45.05
X41.22Y-47.59
X41.22Y-50.13
X41.22Y-52.67
X41.22Y-55.21
X41.22Y-57.75
X41.22Y-60.29
X41.22Y-62.83
X41.22Y-65.37
X41.22Y-67.91
X43.76Y-34.89
X43.76Y-37.43
X43.76Y-39.97
X43.76Y-42.51
X43.76Y-45.05
X43.76Y-47.59
X43.76Y-50.13
X43.76Y-52.67
X43.76Y-55.21
X43.76Y-57.75
X43.76Y-60.29
X43.76Y-62.83
X43.76Y-65.37
X43.76Y-67.91
X46.3Y-34.89
X46.3Y-37.43
X46.3Y-39.97
X46.3Y-42.51
X46.3Y-45.05
X46.3Y-47.59
X46.3Y-50.13
X46.3Y-52.67
X46.3Y-55.21
X46.3Y-57.75
X46.3Y-60.29
X46.3Y-62.83
X46.3Y-65.37
X46.3Y-67.91
X48.84Y-34.89
X48.84Y-37.43
X48.84Y-39.97
X48.84Y-42.51
X48.84Y-45.05
X48.84Y-47.59
X48.84Y-50.13
X48.84Y-52.67
X48.84Y-55.21
X48.84Y-57.75
X48.84Y-60.29
X48.84Y-62.83
X48.84Y-65.37
X48.84Y-67.91
X71.7Y-34.89
X71.7Y-37.43
X71.7Y-39.97
X71.7Y-42.51
X71.7Y-45.05
X71.7Y-47.59
X71.7Y-50.13
X71.7Y-52.67
X71.7Y-55.21
X71.7Y-57.75
X71.7Y-60.29
X71.7Y-62.83
X71.7Y-65.37
X71.7Y-67.91
X74.24Y-34.89
X74.24Y-37.43
X74.24Y-39.97
X74.24Y-42.51
X74.24Y-45.05
X74.24Y-47.59
X74.24Y-50.13
X74.24Y-52.67
X74.24Y-55.21
X74.24Y-57.75
X74.24Y-60.29
X74.24Y-62.83
X74.24Y-65.37
X74.24Y-67.91
X66.62Y-34.89
X66.62Y-37.43
X66.62Y-39.97
X66.62Y-42.51
X66.62Y-45.05
X66.62Y-47.59
X66.62Y-50.13
X66.62Y-52.67
X66.62Y-55.21
X66.62Y-57.75
X66.62Y-60.29
X66.62Y-62.83
X66.62Y-65.37
X66.62Y-67.91
X69.16Y-34.89
X69.16Y-37.43
X69.16Y-39.97
X69.16Y-42.51
X69.16Y-45.05
X69.16Y-47.59
X69.16Y-50.13
X69.16Y-52.67
X69.16Y-55.21
X69.16Y-57.75
X69.16Y-60.29
X69.16Y-62.83
X69.16Y-65.37
X69.16Y-67.91
X76.78Y-34.89
X76.78Y-37.43
X76.78Y-39.97
X76.78Y-42.51
X76.78Y-45.05
X76.78Y-47.59
X76.78Y-50.13
X76.78Y-52.67
X76.78Y-55.21
X76.78Y-57.75
X76.78Y-60.29
X76.78Y-62.83
X76.78Y-65.37
X76.78Y-67.91
X79.32Y-34.89
X79.32Y-37.43
X79.32Y-39.97
X79.32Y-42.51
X79.32Y-45.05
X79.32Y-47.59
X79.32Y-50.13
X79.32Y-52.67
X79.32Y-55.21
X79.32Y-57.75
X79.32Y-60.29
X79.32Y-62.83
X79.32Y-65.37
X79.32Y-67.91
X48.2Y-82.56
X48.2Y-85.1
X68.6Y-116.2
X68.6Y-118.74
X100.3Y-100.8
X68.6Y-122.4
X68.6Y-124.94
X73.8Y-104.5
X76.34Y-104.5
X80.9Y-126.7
X83.44Y-126.7
X102.08Y-80.2
X104.62Y-80.2
X107.16Y-80.2
X109.7Y-80.2
X86.94Y-34.89
X86.94Y-37.43
X86.94Y-39.97
X86.94Y-42.51
X86.94Y-45.05
X86.94Y-47.59
X86.94Y-50.13
X86.94Y-52.67
X86.94Y-55.21
X86.94Y-57.75
X86.94Y-60.29
X86.94Y-62.83
X86.94Y-65.37
X86.94Y-67.91
X89.48Y-34.89
X89.48Y-37.43
X89.48Y-39.97
X89.48Y-42.51
X89.48Y-45.05
X89.48Y-47.59
X89.48Y-50.13
X89.48Y-52.67
X89.48Y-55.21
X89.48Y-57.75
X89.48Y-60.29
X89.48Y-62.83
X89.48Y-65.37
X89.48Y-67.91
X56.46Y-34.89
X56.46Y-37.43
X56.46Y-39.97
X56.46Y-42.51
X56.46Y-45.05
X56.46Y-47.59
X56.46Y-50.13
X56.46Y-52.67
X56.46Y-55.21
X56.46Y-57.75
X56.46Y-60.29
X56.46Y-62.83
X56.46Y-65.37
X56.46Y-67.91
X59.Y-34.89
X59.Y-37.43
X59.Y-39.97
X59.Y-42.51
X59.Y-45.05
X59.Y-47.59
X59.Y-50.13
X59.Y-52.67
X59.Y-55.21
X59.Y-57.75
X59.Y-60.29
X59.Y-62.83
X59.Y-65.37
X59.Y-67.91
T6
X119.8Y-55.05
X119.8Y-62.06
X119.81Y-45.05
X119.81Y-52.06
X119.81Y-35.05
X119.81Y-42.06
X90.6Y-93.2
X90.6Y-98.2
X90.6Y-103.2
X90.6Y-75.3
X90.6Y-80.3
X90.6Y-85.3
X119.81Y-65.05
X119.81Y-72.06
T7
X100.83Y-105.64
X100.83Y-113.84
T8
X98.205Y-34.715
X98.205Y-75.355
X113.445Y-34.715
X113.445Y-75.355
T0
M30
