G04 #@! TF.GenerationSoftware,KiCad,Pcbnew,5.0.1-33cea8e~68~ubuntu18.04.1*
G04 #@! TF.CreationDate,2018-11-10T16:16:33+01:00*
G04 #@! TF.ProjectId,panel3,70616E656C332E6B696361645F706362,rev?*
G04 #@! TF.SameCoordinates,Original*
G04 #@! TF.FileFunction,Paste,Bot*
G04 #@! TF.FilePolarity,Positive*
%FSLAX46Y46*%
G04 Gerber Fmt 4.6, Leading zero omitted, Abs format (unit mm)*
G04 Created by KiCad (PCBNEW 5.0.1-33cea8e~68~ubuntu18.04.1) date sam. 10 nov. 2018 16:16:33 CET*
%MOMM*%
%LPD*%
G01*
G04 APERTURE LIST*
%ADD10R,1.500000X0.600000*%
%ADD11C,0.150000*%
%ADD12C,1.425000*%
%ADD13C,1.525000*%
%ADD14C,5.700000*%
%ADD15R,2.700000X3.500000*%
%ADD16C,0.950000*%
G04 APERTURE END LIST*
D10*
G04 #@! TO.C,U2*
X102500000Y-62645000D03*
X102500000Y-61375000D03*
X102500000Y-60105000D03*
X102500000Y-58835000D03*
X102500000Y-57565000D03*
X102500000Y-56295000D03*
X102500000Y-55025000D03*
X102500000Y-53755000D03*
X107900000Y-53755000D03*
X107900000Y-55025000D03*
X107900000Y-56295000D03*
X107900000Y-57565000D03*
X107900000Y-58835000D03*
X107900000Y-60105000D03*
X107900000Y-61375000D03*
X107900000Y-62645000D03*
G04 #@! TD*
D11*
G04 #@! TO.C,C1*
G36*
X106274504Y-50026204D02*
X106298773Y-50029804D01*
X106322571Y-50035765D01*
X106345671Y-50044030D01*
X106367849Y-50054520D01*
X106388893Y-50067133D01*
X106408598Y-50081747D01*
X106426777Y-50098223D01*
X106443253Y-50116402D01*
X106457867Y-50136107D01*
X106470480Y-50157151D01*
X106480970Y-50179329D01*
X106489235Y-50202429D01*
X106495196Y-50226227D01*
X106498796Y-50250496D01*
X106500000Y-50275000D01*
X106500000Y-51525000D01*
X106498796Y-51549504D01*
X106495196Y-51573773D01*
X106489235Y-51597571D01*
X106480970Y-51620671D01*
X106470480Y-51642849D01*
X106457867Y-51663893D01*
X106443253Y-51683598D01*
X106426777Y-51701777D01*
X106408598Y-51718253D01*
X106388893Y-51732867D01*
X106367849Y-51745480D01*
X106345671Y-51755970D01*
X106322571Y-51764235D01*
X106298773Y-51770196D01*
X106274504Y-51773796D01*
X106250000Y-51775000D01*
X105325000Y-51775000D01*
X105300496Y-51773796D01*
X105276227Y-51770196D01*
X105252429Y-51764235D01*
X105229329Y-51755970D01*
X105207151Y-51745480D01*
X105186107Y-51732867D01*
X105166402Y-51718253D01*
X105148223Y-51701777D01*
X105131747Y-51683598D01*
X105117133Y-51663893D01*
X105104520Y-51642849D01*
X105094030Y-51620671D01*
X105085765Y-51597571D01*
X105079804Y-51573773D01*
X105076204Y-51549504D01*
X105075000Y-51525000D01*
X105075000Y-50275000D01*
X105076204Y-50250496D01*
X105079804Y-50226227D01*
X105085765Y-50202429D01*
X105094030Y-50179329D01*
X105104520Y-50157151D01*
X105117133Y-50136107D01*
X105131747Y-50116402D01*
X105148223Y-50098223D01*
X105166402Y-50081747D01*
X105186107Y-50067133D01*
X105207151Y-50054520D01*
X105229329Y-50044030D01*
X105252429Y-50035765D01*
X105276227Y-50029804D01*
X105300496Y-50026204D01*
X105325000Y-50025000D01*
X106250000Y-50025000D01*
X106274504Y-50026204D01*
X106274504Y-50026204D01*
G37*
D12*
X105787500Y-50900000D03*
D11*
G36*
X103299504Y-50026204D02*
X103323773Y-50029804D01*
X103347571Y-50035765D01*
X103370671Y-50044030D01*
X103392849Y-50054520D01*
X103413893Y-50067133D01*
X103433598Y-50081747D01*
X103451777Y-50098223D01*
X103468253Y-50116402D01*
X103482867Y-50136107D01*
X103495480Y-50157151D01*
X103505970Y-50179329D01*
X103514235Y-50202429D01*
X103520196Y-50226227D01*
X103523796Y-50250496D01*
X103525000Y-50275000D01*
X103525000Y-51525000D01*
X103523796Y-51549504D01*
X103520196Y-51573773D01*
X103514235Y-51597571D01*
X103505970Y-51620671D01*
X103495480Y-51642849D01*
X103482867Y-51663893D01*
X103468253Y-51683598D01*
X103451777Y-51701777D01*
X103433598Y-51718253D01*
X103413893Y-51732867D01*
X103392849Y-51745480D01*
X103370671Y-51755970D01*
X103347571Y-51764235D01*
X103323773Y-51770196D01*
X103299504Y-51773796D01*
X103275000Y-51775000D01*
X102350000Y-51775000D01*
X102325496Y-51773796D01*
X102301227Y-51770196D01*
X102277429Y-51764235D01*
X102254329Y-51755970D01*
X102232151Y-51745480D01*
X102211107Y-51732867D01*
X102191402Y-51718253D01*
X102173223Y-51701777D01*
X102156747Y-51683598D01*
X102142133Y-51663893D01*
X102129520Y-51642849D01*
X102119030Y-51620671D01*
X102110765Y-51597571D01*
X102104804Y-51573773D01*
X102101204Y-51549504D01*
X102100000Y-51525000D01*
X102100000Y-50275000D01*
X102101204Y-50250496D01*
X102104804Y-50226227D01*
X102110765Y-50202429D01*
X102119030Y-50179329D01*
X102129520Y-50157151D01*
X102142133Y-50136107D01*
X102156747Y-50116402D01*
X102173223Y-50098223D01*
X102191402Y-50081747D01*
X102211107Y-50067133D01*
X102232151Y-50054520D01*
X102254329Y-50044030D01*
X102277429Y-50035765D01*
X102301227Y-50029804D01*
X102325496Y-50026204D01*
X102350000Y-50025000D01*
X103275000Y-50025000D01*
X103299504Y-50026204D01*
X103299504Y-50026204D01*
G37*
D12*
X102812500Y-50900000D03*
G04 #@! TD*
D11*
G04 #@! TO.C,R1*
G36*
X103299505Y-69676204D02*
X103323773Y-69679804D01*
X103347572Y-69685765D01*
X103370671Y-69694030D01*
X103392850Y-69704520D01*
X103413893Y-69717132D01*
X103433599Y-69731747D01*
X103451777Y-69748223D01*
X103468253Y-69766401D01*
X103482868Y-69786107D01*
X103495480Y-69807150D01*
X103505970Y-69829329D01*
X103514235Y-69852428D01*
X103520196Y-69876227D01*
X103523796Y-69900495D01*
X103525000Y-69924999D01*
X103525000Y-70950001D01*
X103523796Y-70974505D01*
X103520196Y-70998773D01*
X103514235Y-71022572D01*
X103505970Y-71045671D01*
X103495480Y-71067850D01*
X103482868Y-71088893D01*
X103468253Y-71108599D01*
X103451777Y-71126777D01*
X103433599Y-71143253D01*
X103413893Y-71157868D01*
X103392850Y-71170480D01*
X103370671Y-71180970D01*
X103347572Y-71189235D01*
X103323773Y-71195196D01*
X103299505Y-71198796D01*
X103275001Y-71200000D01*
X101124999Y-71200000D01*
X101100495Y-71198796D01*
X101076227Y-71195196D01*
X101052428Y-71189235D01*
X101029329Y-71180970D01*
X101007150Y-71170480D01*
X100986107Y-71157868D01*
X100966401Y-71143253D01*
X100948223Y-71126777D01*
X100931747Y-71108599D01*
X100917132Y-71088893D01*
X100904520Y-71067850D01*
X100894030Y-71045671D01*
X100885765Y-71022572D01*
X100879804Y-70998773D01*
X100876204Y-70974505D01*
X100875000Y-70950001D01*
X100875000Y-69924999D01*
X100876204Y-69900495D01*
X100879804Y-69876227D01*
X100885765Y-69852428D01*
X100894030Y-69829329D01*
X100904520Y-69807150D01*
X100917132Y-69786107D01*
X100931747Y-69766401D01*
X100948223Y-69748223D01*
X100966401Y-69731747D01*
X100986107Y-69717132D01*
X101007150Y-69704520D01*
X101029329Y-69694030D01*
X101052428Y-69685765D01*
X101076227Y-69679804D01*
X101100495Y-69676204D01*
X101124999Y-69675000D01*
X103275001Y-69675000D01*
X103299505Y-69676204D01*
X103299505Y-69676204D01*
G37*
D13*
X102200000Y-70437500D03*
D11*
G36*
X103299505Y-65001204D02*
X103323773Y-65004804D01*
X103347572Y-65010765D01*
X103370671Y-65019030D01*
X103392850Y-65029520D01*
X103413893Y-65042132D01*
X103433599Y-65056747D01*
X103451777Y-65073223D01*
X103468253Y-65091401D01*
X103482868Y-65111107D01*
X103495480Y-65132150D01*
X103505970Y-65154329D01*
X103514235Y-65177428D01*
X103520196Y-65201227D01*
X103523796Y-65225495D01*
X103525000Y-65249999D01*
X103525000Y-66275001D01*
X103523796Y-66299505D01*
X103520196Y-66323773D01*
X103514235Y-66347572D01*
X103505970Y-66370671D01*
X103495480Y-66392850D01*
X103482868Y-66413893D01*
X103468253Y-66433599D01*
X103451777Y-66451777D01*
X103433599Y-66468253D01*
X103413893Y-66482868D01*
X103392850Y-66495480D01*
X103370671Y-66505970D01*
X103347572Y-66514235D01*
X103323773Y-66520196D01*
X103299505Y-66523796D01*
X103275001Y-66525000D01*
X101124999Y-66525000D01*
X101100495Y-66523796D01*
X101076227Y-66520196D01*
X101052428Y-66514235D01*
X101029329Y-66505970D01*
X101007150Y-66495480D01*
X100986107Y-66482868D01*
X100966401Y-66468253D01*
X100948223Y-66451777D01*
X100931747Y-66433599D01*
X100917132Y-66413893D01*
X100904520Y-66392850D01*
X100894030Y-66370671D01*
X100885765Y-66347572D01*
X100879804Y-66323773D01*
X100876204Y-66299505D01*
X100875000Y-66275001D01*
X100875000Y-65249999D01*
X100876204Y-65225495D01*
X100879804Y-65201227D01*
X100885765Y-65177428D01*
X100894030Y-65154329D01*
X100904520Y-65132150D01*
X100917132Y-65111107D01*
X100931747Y-65091401D01*
X100948223Y-65073223D01*
X100966401Y-65056747D01*
X100986107Y-65042132D01*
X101007150Y-65029520D01*
X101029329Y-65019030D01*
X101052428Y-65010765D01*
X101076227Y-65004804D01*
X101100495Y-65001204D01*
X101124999Y-65000000D01*
X103275001Y-65000000D01*
X103299505Y-65001204D01*
X103299505Y-65001204D01*
G37*
D13*
X102200000Y-65762500D03*
G04 #@! TD*
D14*
G04 #@! TO.C,D1*
X114780000Y-110320000D03*
D15*
X116130000Y-103970000D03*
X113430000Y-116670000D03*
G04 #@! TD*
D11*
G04 #@! TO.C,R9*
G36*
X80935779Y-117426144D02*
X80958834Y-117429563D01*
X80981443Y-117435227D01*
X81003387Y-117443079D01*
X81024457Y-117453044D01*
X81044448Y-117465026D01*
X81063168Y-117478910D01*
X81080438Y-117494562D01*
X81096090Y-117511832D01*
X81109974Y-117530552D01*
X81121956Y-117550543D01*
X81131921Y-117571613D01*
X81139773Y-117593557D01*
X81145437Y-117616166D01*
X81148856Y-117639221D01*
X81150000Y-117662500D01*
X81150000Y-118137500D01*
X81148856Y-118160779D01*
X81145437Y-118183834D01*
X81139773Y-118206443D01*
X81131921Y-118228387D01*
X81121956Y-118249457D01*
X81109974Y-118269448D01*
X81096090Y-118288168D01*
X81080438Y-118305438D01*
X81063168Y-118321090D01*
X81044448Y-118334974D01*
X81024457Y-118346956D01*
X81003387Y-118356921D01*
X80981443Y-118364773D01*
X80958834Y-118370437D01*
X80935779Y-118373856D01*
X80912500Y-118375000D01*
X80337500Y-118375000D01*
X80314221Y-118373856D01*
X80291166Y-118370437D01*
X80268557Y-118364773D01*
X80246613Y-118356921D01*
X80225543Y-118346956D01*
X80205552Y-118334974D01*
X80186832Y-118321090D01*
X80169562Y-118305438D01*
X80153910Y-118288168D01*
X80140026Y-118269448D01*
X80128044Y-118249457D01*
X80118079Y-118228387D01*
X80110227Y-118206443D01*
X80104563Y-118183834D01*
X80101144Y-118160779D01*
X80100000Y-118137500D01*
X80100000Y-117662500D01*
X80101144Y-117639221D01*
X80104563Y-117616166D01*
X80110227Y-117593557D01*
X80118079Y-117571613D01*
X80128044Y-117550543D01*
X80140026Y-117530552D01*
X80153910Y-117511832D01*
X80169562Y-117494562D01*
X80186832Y-117478910D01*
X80205552Y-117465026D01*
X80225543Y-117453044D01*
X80246613Y-117443079D01*
X80268557Y-117435227D01*
X80291166Y-117429563D01*
X80314221Y-117426144D01*
X80337500Y-117425000D01*
X80912500Y-117425000D01*
X80935779Y-117426144D01*
X80935779Y-117426144D01*
G37*
D16*
X80625000Y-117900000D03*
D11*
G36*
X82685779Y-117426144D02*
X82708834Y-117429563D01*
X82731443Y-117435227D01*
X82753387Y-117443079D01*
X82774457Y-117453044D01*
X82794448Y-117465026D01*
X82813168Y-117478910D01*
X82830438Y-117494562D01*
X82846090Y-117511832D01*
X82859974Y-117530552D01*
X82871956Y-117550543D01*
X82881921Y-117571613D01*
X82889773Y-117593557D01*
X82895437Y-117616166D01*
X82898856Y-117639221D01*
X82900000Y-117662500D01*
X82900000Y-118137500D01*
X82898856Y-118160779D01*
X82895437Y-118183834D01*
X82889773Y-118206443D01*
X82881921Y-118228387D01*
X82871956Y-118249457D01*
X82859974Y-118269448D01*
X82846090Y-118288168D01*
X82830438Y-118305438D01*
X82813168Y-118321090D01*
X82794448Y-118334974D01*
X82774457Y-118346956D01*
X82753387Y-118356921D01*
X82731443Y-118364773D01*
X82708834Y-118370437D01*
X82685779Y-118373856D01*
X82662500Y-118375000D01*
X82087500Y-118375000D01*
X82064221Y-118373856D01*
X82041166Y-118370437D01*
X82018557Y-118364773D01*
X81996613Y-118356921D01*
X81975543Y-118346956D01*
X81955552Y-118334974D01*
X81936832Y-118321090D01*
X81919562Y-118305438D01*
X81903910Y-118288168D01*
X81890026Y-118269448D01*
X81878044Y-118249457D01*
X81868079Y-118228387D01*
X81860227Y-118206443D01*
X81854563Y-118183834D01*
X81851144Y-118160779D01*
X81850000Y-118137500D01*
X81850000Y-117662500D01*
X81851144Y-117639221D01*
X81854563Y-117616166D01*
X81860227Y-117593557D01*
X81868079Y-117571613D01*
X81878044Y-117550543D01*
X81890026Y-117530552D01*
X81903910Y-117511832D01*
X81919562Y-117494562D01*
X81936832Y-117478910D01*
X81955552Y-117465026D01*
X81975543Y-117453044D01*
X81996613Y-117443079D01*
X82018557Y-117435227D01*
X82041166Y-117429563D01*
X82064221Y-117426144D01*
X82087500Y-117425000D01*
X82662500Y-117425000D01*
X82685779Y-117426144D01*
X82685779Y-117426144D01*
G37*
D16*
X82375000Y-117900000D03*
G04 #@! TD*
D11*
G04 #@! TO.C,R11*
G36*
X83660779Y-119201144D02*
X83683834Y-119204563D01*
X83706443Y-119210227D01*
X83728387Y-119218079D01*
X83749457Y-119228044D01*
X83769448Y-119240026D01*
X83788168Y-119253910D01*
X83805438Y-119269562D01*
X83821090Y-119286832D01*
X83834974Y-119305552D01*
X83846956Y-119325543D01*
X83856921Y-119346613D01*
X83864773Y-119368557D01*
X83870437Y-119391166D01*
X83873856Y-119414221D01*
X83875000Y-119437500D01*
X83875000Y-120012500D01*
X83873856Y-120035779D01*
X83870437Y-120058834D01*
X83864773Y-120081443D01*
X83856921Y-120103387D01*
X83846956Y-120124457D01*
X83834974Y-120144448D01*
X83821090Y-120163168D01*
X83805438Y-120180438D01*
X83788168Y-120196090D01*
X83769448Y-120209974D01*
X83749457Y-120221956D01*
X83728387Y-120231921D01*
X83706443Y-120239773D01*
X83683834Y-120245437D01*
X83660779Y-120248856D01*
X83637500Y-120250000D01*
X83162500Y-120250000D01*
X83139221Y-120248856D01*
X83116166Y-120245437D01*
X83093557Y-120239773D01*
X83071613Y-120231921D01*
X83050543Y-120221956D01*
X83030552Y-120209974D01*
X83011832Y-120196090D01*
X82994562Y-120180438D01*
X82978910Y-120163168D01*
X82965026Y-120144448D01*
X82953044Y-120124457D01*
X82943079Y-120103387D01*
X82935227Y-120081443D01*
X82929563Y-120058834D01*
X82926144Y-120035779D01*
X82925000Y-120012500D01*
X82925000Y-119437500D01*
X82926144Y-119414221D01*
X82929563Y-119391166D01*
X82935227Y-119368557D01*
X82943079Y-119346613D01*
X82953044Y-119325543D01*
X82965026Y-119305552D01*
X82978910Y-119286832D01*
X82994562Y-119269562D01*
X83011832Y-119253910D01*
X83030552Y-119240026D01*
X83050543Y-119228044D01*
X83071613Y-119218079D01*
X83093557Y-119210227D01*
X83116166Y-119204563D01*
X83139221Y-119201144D01*
X83162500Y-119200000D01*
X83637500Y-119200000D01*
X83660779Y-119201144D01*
X83660779Y-119201144D01*
G37*
D16*
X83400000Y-119725000D03*
D11*
G36*
X83660779Y-120951144D02*
X83683834Y-120954563D01*
X83706443Y-120960227D01*
X83728387Y-120968079D01*
X83749457Y-120978044D01*
X83769448Y-120990026D01*
X83788168Y-121003910D01*
X83805438Y-121019562D01*
X83821090Y-121036832D01*
X83834974Y-121055552D01*
X83846956Y-121075543D01*
X83856921Y-121096613D01*
X83864773Y-121118557D01*
X83870437Y-121141166D01*
X83873856Y-121164221D01*
X83875000Y-121187500D01*
X83875000Y-121762500D01*
X83873856Y-121785779D01*
X83870437Y-121808834D01*
X83864773Y-121831443D01*
X83856921Y-121853387D01*
X83846956Y-121874457D01*
X83834974Y-121894448D01*
X83821090Y-121913168D01*
X83805438Y-121930438D01*
X83788168Y-121946090D01*
X83769448Y-121959974D01*
X83749457Y-121971956D01*
X83728387Y-121981921D01*
X83706443Y-121989773D01*
X83683834Y-121995437D01*
X83660779Y-121998856D01*
X83637500Y-122000000D01*
X83162500Y-122000000D01*
X83139221Y-121998856D01*
X83116166Y-121995437D01*
X83093557Y-121989773D01*
X83071613Y-121981921D01*
X83050543Y-121971956D01*
X83030552Y-121959974D01*
X83011832Y-121946090D01*
X82994562Y-121930438D01*
X82978910Y-121913168D01*
X82965026Y-121894448D01*
X82953044Y-121874457D01*
X82943079Y-121853387D01*
X82935227Y-121831443D01*
X82929563Y-121808834D01*
X82926144Y-121785779D01*
X82925000Y-121762500D01*
X82925000Y-121187500D01*
X82926144Y-121164221D01*
X82929563Y-121141166D01*
X82935227Y-121118557D01*
X82943079Y-121096613D01*
X82953044Y-121075543D01*
X82965026Y-121055552D01*
X82978910Y-121036832D01*
X82994562Y-121019562D01*
X83011832Y-121003910D01*
X83030552Y-120990026D01*
X83050543Y-120978044D01*
X83071613Y-120968079D01*
X83093557Y-120960227D01*
X83116166Y-120954563D01*
X83139221Y-120951144D01*
X83162500Y-120950000D01*
X83637500Y-120950000D01*
X83660779Y-120951144D01*
X83660779Y-120951144D01*
G37*
D16*
X83400000Y-121475000D03*
G04 #@! TD*
D11*
G04 #@! TO.C,R12*
G36*
X82785779Y-114726144D02*
X82808834Y-114729563D01*
X82831443Y-114735227D01*
X82853387Y-114743079D01*
X82874457Y-114753044D01*
X82894448Y-114765026D01*
X82913168Y-114778910D01*
X82930438Y-114794562D01*
X82946090Y-114811832D01*
X82959974Y-114830552D01*
X82971956Y-114850543D01*
X82981921Y-114871613D01*
X82989773Y-114893557D01*
X82995437Y-114916166D01*
X82998856Y-114939221D01*
X83000000Y-114962500D01*
X83000000Y-115437500D01*
X82998856Y-115460779D01*
X82995437Y-115483834D01*
X82989773Y-115506443D01*
X82981921Y-115528387D01*
X82971956Y-115549457D01*
X82959974Y-115569448D01*
X82946090Y-115588168D01*
X82930438Y-115605438D01*
X82913168Y-115621090D01*
X82894448Y-115634974D01*
X82874457Y-115646956D01*
X82853387Y-115656921D01*
X82831443Y-115664773D01*
X82808834Y-115670437D01*
X82785779Y-115673856D01*
X82762500Y-115675000D01*
X82187500Y-115675000D01*
X82164221Y-115673856D01*
X82141166Y-115670437D01*
X82118557Y-115664773D01*
X82096613Y-115656921D01*
X82075543Y-115646956D01*
X82055552Y-115634974D01*
X82036832Y-115621090D01*
X82019562Y-115605438D01*
X82003910Y-115588168D01*
X81990026Y-115569448D01*
X81978044Y-115549457D01*
X81968079Y-115528387D01*
X81960227Y-115506443D01*
X81954563Y-115483834D01*
X81951144Y-115460779D01*
X81950000Y-115437500D01*
X81950000Y-114962500D01*
X81951144Y-114939221D01*
X81954563Y-114916166D01*
X81960227Y-114893557D01*
X81968079Y-114871613D01*
X81978044Y-114850543D01*
X81990026Y-114830552D01*
X82003910Y-114811832D01*
X82019562Y-114794562D01*
X82036832Y-114778910D01*
X82055552Y-114765026D01*
X82075543Y-114753044D01*
X82096613Y-114743079D01*
X82118557Y-114735227D01*
X82141166Y-114729563D01*
X82164221Y-114726144D01*
X82187500Y-114725000D01*
X82762500Y-114725000D01*
X82785779Y-114726144D01*
X82785779Y-114726144D01*
G37*
D16*
X82475000Y-115200000D03*
D11*
G36*
X81035779Y-114726144D02*
X81058834Y-114729563D01*
X81081443Y-114735227D01*
X81103387Y-114743079D01*
X81124457Y-114753044D01*
X81144448Y-114765026D01*
X81163168Y-114778910D01*
X81180438Y-114794562D01*
X81196090Y-114811832D01*
X81209974Y-114830552D01*
X81221956Y-114850543D01*
X81231921Y-114871613D01*
X81239773Y-114893557D01*
X81245437Y-114916166D01*
X81248856Y-114939221D01*
X81250000Y-114962500D01*
X81250000Y-115437500D01*
X81248856Y-115460779D01*
X81245437Y-115483834D01*
X81239773Y-115506443D01*
X81231921Y-115528387D01*
X81221956Y-115549457D01*
X81209974Y-115569448D01*
X81196090Y-115588168D01*
X81180438Y-115605438D01*
X81163168Y-115621090D01*
X81144448Y-115634974D01*
X81124457Y-115646956D01*
X81103387Y-115656921D01*
X81081443Y-115664773D01*
X81058834Y-115670437D01*
X81035779Y-115673856D01*
X81012500Y-115675000D01*
X80437500Y-115675000D01*
X80414221Y-115673856D01*
X80391166Y-115670437D01*
X80368557Y-115664773D01*
X80346613Y-115656921D01*
X80325543Y-115646956D01*
X80305552Y-115634974D01*
X80286832Y-115621090D01*
X80269562Y-115605438D01*
X80253910Y-115588168D01*
X80240026Y-115569448D01*
X80228044Y-115549457D01*
X80218079Y-115528387D01*
X80210227Y-115506443D01*
X80204563Y-115483834D01*
X80201144Y-115460779D01*
X80200000Y-115437500D01*
X80200000Y-114962500D01*
X80201144Y-114939221D01*
X80204563Y-114916166D01*
X80210227Y-114893557D01*
X80218079Y-114871613D01*
X80228044Y-114850543D01*
X80240026Y-114830552D01*
X80253910Y-114811832D01*
X80269562Y-114794562D01*
X80286832Y-114778910D01*
X80305552Y-114765026D01*
X80325543Y-114753044D01*
X80346613Y-114743079D01*
X80368557Y-114735227D01*
X80391166Y-114729563D01*
X80414221Y-114726144D01*
X80437500Y-114725000D01*
X81012500Y-114725000D01*
X81035779Y-114726144D01*
X81035779Y-114726144D01*
G37*
D16*
X80725000Y-115200000D03*
G04 #@! TD*
M02*
