G04 #@! TF.GenerationSoftware,KiCad,Pcbnew,5.0.1-33cea8e~68~ubuntu18.04.1*
G04 #@! TF.CreationDate,2018-11-10T16:16:34+01:00*
G04 #@! TF.ProjectId,panel3,70616E656C332E6B696361645F706362,rev?*
G04 #@! TF.SameCoordinates,Original*
G04 #@! TF.FileFunction,Profile,NP*
%FSLAX46Y46*%
G04 Gerber Fmt 4.6, Leading zero omitted, Abs format (unit mm)*
G04 Created by KiCad (PCBNEW 5.0.1-33cea8e~68~ubuntu18.04.1) date sam. 10 nov. 2018 16:16:34 CET*
%MOMM*%
%LPD*%
G01*
G04 APERTURE LIST*
%ADD10C,0.150000*%
%ADD11C,0.200000*%
G04 APERTURE END LIST*
D10*
X93300000Y-77200000D02*
X93300000Y-70900000D01*
X94800000Y-81000000D02*
X94800000Y-89000000D01*
X93300000Y-81000000D02*
X94800000Y-81000000D01*
X94800000Y-77200000D02*
X93300000Y-77200000D01*
X94800000Y-38300000D02*
X94800000Y-77200000D01*
X94800000Y-38300000D02*
X94800000Y-33300000D01*
X111600000Y-90300000D02*
X98200000Y-90300000D01*
X111600000Y-89000000D02*
X111600000Y-90300000D01*
X94800000Y-89000000D02*
X111600000Y-89000000D01*
X115500000Y-89000000D02*
X124300000Y-89000000D01*
X115500000Y-90300000D02*
X115500000Y-89000000D01*
X131400000Y-90300000D02*
X115500000Y-90300000D01*
X93300000Y-95900000D02*
X93300000Y-81000000D01*
X94800000Y-93700000D02*
X94800000Y-95900000D01*
X94800000Y-113500000D02*
X94800000Y-126900000D01*
X94800000Y-110300000D02*
X94800000Y-113500000D01*
X93300000Y-129600000D02*
X93300000Y-112200000D01*
X90600000Y-107800000D02*
X44600000Y-107800000D01*
X90600000Y-109100000D02*
X66300000Y-109100000D01*
X90600000Y-107800000D02*
X90600000Y-109100000D01*
X93300000Y-95900000D02*
X93300000Y-109100000D01*
X94800000Y-110300000D02*
X94800000Y-95900000D01*
X93300000Y-109900000D02*
X93300000Y-112200000D01*
X93300000Y-109100000D02*
X93300000Y-109900000D01*
X83900000Y-69500000D02*
X90800000Y-69500000D01*
X83900000Y-70900000D02*
X93300000Y-70900000D01*
X83900000Y-69500000D02*
X83900000Y-70900000D01*
X79300000Y-69500000D02*
X50300000Y-69500000D01*
X79300000Y-70900000D02*
X79300000Y-69500000D01*
X54000000Y-70900000D02*
X79300000Y-70900000D01*
X50300000Y-69500000D02*
X40600000Y-69500000D01*
X44600000Y-70900000D02*
X54000000Y-70900000D01*
X124300000Y-33300000D02*
X94800000Y-33300000D01*
X124300000Y-89000000D02*
X124300000Y-33300000D01*
D11*
X98200000Y-130300000D02*
X94800000Y-126900000D01*
X134800000Y-93700000D02*
X131400000Y-90300000D01*
X94800000Y-93700000D02*
X98200000Y-90300000D01*
X131400000Y-130300000D02*
X134800000Y-126900000D01*
X133000000Y-125300000D02*
G75*
G03X133000000Y-125300000I-3200000J0D01*
G01*
X102900000Y-125300000D02*
G75*
G03X102900000Y-125300000I-3100000J0D01*
G01*
X132900000Y-95300000D02*
G75*
G03X132900000Y-95300000I-3100000J0D01*
G01*
X102900000Y-95300000D02*
G75*
G03X102900000Y-95300000I-3100000J0D01*
G01*
X134800000Y-126900158D02*
X134800000Y-93700000D01*
X98200000Y-130300000D02*
X131400158Y-130300000D01*
D10*
X66300000Y-109100000D02*
X66300000Y-129600000D01*
X66300000Y-129600000D02*
X93300000Y-129600000D01*
X44600000Y-70900000D02*
X44600000Y-107800000D01*
X39806000Y-68672000D02*
X39806000Y-33366000D01*
X40600000Y-69500000D02*
X39806000Y-68672000D01*
X93200000Y-67100000D02*
X90800000Y-69500000D01*
X93200000Y-34900000D02*
X93200000Y-67100000D01*
X91622000Y-33366000D02*
X93200000Y-34900000D01*
X39806000Y-33366000D02*
X91622000Y-33366000D01*
M02*
