Frequency,Nominal,Min,Max
169.43091573544527,0.00008969796823782815,0.000060167946589945325,0.00011967705943103538
170.46276664105875,0.00009090465546455208,0.00006087808667846522,0.00012141662837426476
171.50090161995837,0.00009214713221904604,0.00006160765230870233,0.00012321044523898444
172.54535894276714,0.00009342683693641698,0.00006235735899875221,0.00012506080969390575
173.59617711318003,0.00009474528223636893,0.00006312795607409525,0.0001269701465071162
174.6533948693832,0.00009610405960564429,0.00006392022862231961,0.0001289410138756314
175.7170511854822,0.00009750484443154476,0.00006473499958260009,0.00013097611241245384
176.78718527293873,0.0000989494014161433,0.00006557313197957091,0.0001330782948510566
177.86383658201606,0.00010043959040415318,0.00006643553131261174,0.00013525057653428923
178.94704480323355,0.00010197737266228476,0.00006732314811564425,0.00013749614676114742
180.03684986882968,0.00010356481765006658,0.00006823698069789521,0.00013981838107257543
181.1332919542341,0.000105204110325917,0.00006917807808352524,0.00014222085456551528
182.23641147954885,0.00010689755903956882,0.00007014754316542131,0.00014470735633818167
183.34624911103836,0.00010864760406264506,0.00007114653609119443,0.0001472819051738022
184.46284576262858,0.00011045682682025002,0.00007217627790169896,0.00014994876658926804
185.5862425974153,0.00011232795988776897,0.00007323805444365718,0.00015271247138526562
186.71648102918155,0.00011426389782855952,0.00007433322058067015,0.00015557783585195637
187.8536027239244,0.00011626770895286007,0.00007546320472779368,0.0001585499838001226
188.997649601391,0.00011834264809022812,0.00007662951374044424,0.00016163437061257241
190.14866383662374,0.00012049217047597208,0.00007783373818828,0.00016483680952648785
191.30668786151523,0.0001227199468650524,0.00007907755804913586,0.000168163500391796
192.47176436637253,0.00012502987999818028,0.00008036274886369512,0.00017162106117210498
193.64393630149073,0.00012742612256303465,0.00008169118839091679,0.00017521656249574574
194.82324687873654,0.00012991309680518868,0.0000830648638150655,0.00017895756559734239
196.00973957314116,0.0001324955159669,0.00008448587955492076,0.00018285216403852284
197.2034581245029,0.00013517840775123118,0.00008595646573377433,0.0001869090296436877
198.40444653899988,0.0001379671400335348,0.00008747898737728396,0.00019113746314792222
199.61274909081206,0.000140867449070176,0.0000890559544081522,0.00019554745011621092
200.8284103237535,0.000143885470487384,0.00009069003252132048,0.00020014972277577388
202.05147505291455,0.0001470277733675391,0.00009238405502793389,0.0002049558284848178
203.2819883663138,0.00015030139779432597,0.00009414103576769017,0.00020997820567007314
204.5199956265603,0.00015371389626300694,0.00009596418320369045,0.00021523026817871598
205.76554247252582,0.00015727337942073808,0.00009785691582353732,0.00022072649913086262
207.01867482102736,0.00016098856666229167,0.00009982287898808838,0.0002264825555188923
208.27943886851986,0.00016486884218099878,0.00010186596338663059,0.0002325153849854725
209.5478810927992,0.00016892431716067753,0.00010399032527495797,0.0002388433564335311
210.82404825471556,0.00017316589889002082,0.0001062004086987068,0.00024548640637520606
212.10798739989733,0.00017760536769855832,0.00010850096992577177,0.000252466203231623
213.39974586048535,0.00018225546274346554,0.00011089710434579732,0.0002598063321493046
214.6993712568779,0.00018712997783468095,0.00011339427612458045,0.00026753250332120303
216.00691149948614,0.00019224386866674317,0.00011599835094224851,0.00027567278729801945
217.32241479050026,0.00019761337303969011,0.00011871563218916997,0.000284779477711684
218.64592962566667,0.00020325614590400412,0.00012155290104265137,0.00029452492674258556
219.9775047960755,0.00020919141136175543,0.00012451746091138186,0.0003048641671106292
221.31718938995942,0.00021544013410633442,0.00012761718679927167,0.00031589316179531974
222.6650327945034,0.0002220252132037855,0.0001308605802250248,0.00032818894552323846
224.02108469766503,0.00022897170161374926,0.0001342568304244914,0.00034131728200513425
225.3853950900065,0.00023630705544117587,0.0001378158826739395,0.000355356485599537
226.75801426653751,0.00024406141762610723,0.00014154851469942834,0.00037039439021179887
228.13899282856917,0.0002522679416285718,0.00014546642228906826,0.00038652977969814767
229.52838168557966,0.00026096316170301726,0.00014958231539934923,0.00040387407625843525
230.9262320570908,0.0002701874176034819,0.0001539100262573216,0.0004225533415105694
232.33259547455634,0.0002799853430839912,0.0001584646312053356,0.00044271065836005107
233.74752378326173,0.0002904064294077252,0.00016326258832782814,0.0004645089789556183
235.17106914423513,0.00030150567735720655,0.0001683218932470676,0.00048813454616462556
236.6032840361706,0.0003133443540280379,0.00017366225588971636,0.0005138010247164696
238.0442212573626,0.0003259908741481875,0.00017930530152270832,0.0005417545156793335
239.49393392765236,0.00033952182995424483,0.00018527479995405927,0.0005722796773032239
240.9524754903861,0.00035402319901155395,0.00019159692751200718,0.0006057072407420792
242.41989971438537,0.00036959176607975124,0.00019830056728836352,0.0006424232967312198
243.896260695929,0.0003863368035917056,0.0002054176541864779,0.0006828808474282918
245.38161286074757,0.0004043820660466159,0.0002129835726033848,0.0007276142784741981
246.87601096602967,0.00042386816730770576,0.00022103761615292126,0.0007772576275178997
248.37951010244052,0.0004449554273499606,0.00022962352077431092,0.0008325678328148014
249.89216569615294,0.0004678272976875368,0.00023879008496496644,0.0008944545774342083
251.41403351089056,0.0004926945041820985,0.0002485918938450207,0.0009640189588590728
252.94516964998354,0.0005198000845374282,0.00025909016746234544,0.00104260409852711
254.4856305584368,0.0005494255487064261,0.0002703537583823158,0.0011318620978148512
256.03547302501096,0.000581898458146913,0.0002824603294478689,0.0012338436614023575
257.5947541843158,0.0006176018106694985,0.00029549774998742636,0.0013511195908364807
259.16353151891633,0.000656985740471443,0.00030956575817033384,0.0014869477634692002
260.74186286145203,0.0007005822107552836,0.00032477794927883945,0.0016455060918380464
262.329806396769,0.0007490236078387485,0.00034126416523935766,0.001832222898221469
263.9274206640647,0.0008030664684986078,0.00035917338097485806,0.0020542539040056423
265.5347645590459,0.000863622027664646,0.00037867720958727777,0.002321184537934633
267.15189733610026,0.0009317959237586784,0.00039997418323367415,0.0026460864508141115
268.7788786104802,0.0010089403395219495,0.00042329501285479716,0.0030471446277458383
270.4157683605011,0.0010967232358959854,0.00044890909194149456,0.0035502279400513323
272.06262692975207,0.0011972213911208098,0.00047713259335732856,0.004193062367135166
273.7195150293205,0.001313047066516063,0.0005083386226554477,0.005032199921466147
275.3864937400305,0.001447522908181908,0.0005429700490552541,0.00615497447791199
277.06362451469425,0.0016049272049966923,0.0005815558550755521,0.007700433384291952
278.7509691803776,0.00179084364561386,0.0006247321557623373,0.0098959475723223
280.44858994067926,0.0020126693783603816,0.000673269480919002,0.01311706150469977
282.156549378024,0.0022803680776478565,0.0007281085539036596,0.017956345104355592
283.8749104559697,0.002607611121531536,0.000790407740170118,0.02513916601812608
285.60373652152856,0.0030135491263800418,0.0008616067394539977,0.03459552331687574
287.34309130750216,0.0035256347374642717,0.0009435132191023118,0.043101769376352655
289.09303893483116,0.004184246791226276,0.0010384223648932404,0.05354888350096326
290.8536439149591,0.005050481658837922,0.0011492844899494716,0.05527746874714087
292.6249711522105,0.006219622612636688,0.0012799441546139422,0.05200485253764635
294.4070859461835,0.007844795862875599,0.0014354879509551203,0.06541300631632377
296.20005399415726,0.010177917305907894,0.0016227612839793152,0.07943015260855033
298.00394139351397,0.013632894307370406,0.0018371451435418521,0.06775409965311008
299.8188146441752,0.018835043511609126,0.00208987722532599,0.046052101747656726
301.6447406510535,0.026393352849961443,0.002400243999424484,0.05537037477139041
303.48178672651903,0.03554643357727688,0.0027871132977317047,0.07300911549902087
305.33002059288094,0.042150435641968964,0.0032589080019221196,0.0726104017300379
307.18951038488376,0.043005658437127274,0.0032196868987454576,0.05443850341897373
309.0603246522194,0.042105123550073634,0.0030989974600178828,0.044669059847846956
310.942532362054,0.0425559851743247,0.0031105655915842035,0.05486955139403375
312.83620290157063,0.04049240611001012,0.003253072102503385,0.07045880791007973
314.74140608052704,0.03297786413559013,0.0027508646565188827,0.06904215361519996
316.65821213382935,0.02393653935517619,0.0023167760588836133,0.05185129275871417
318.58669172412107,0.016877008445330466,0.0019764366492016306,0.04830112981538569
320.5269159443881,0.012118249020578056,0.001704774795012914,0.06928450799423096
322.47895632057975,0.008980910255900186,0.0014845508633346395,0.07348982482389584
324.4428848142453,0.006868573639351859,0.0013036031839115715,0.059198597166668795
326.41877382518686,0.00539997347660595,0.0011531571192468985,0.05453892741888058
328.40669619412853,0.004345507478097213,0.001026754738654714,0.05651500439729966
330.4067252054016,0.0035660353911287665,0.0009195585727788209,0.047299767117206314
332.41893458964597,0.002975014097103265,0.0008278874871670474,0.03854614624196997
334.4433985265286,0.0025169299390153457,0.0007489004111702717,0.031924274881942605
336.4801916474776,0.002155074811646555,0.0006803765058978016,0.023354216251670317
338.5293890384342,0.0018644824757508257,0.0006205595997185233,0.016467062715378893
340.59106624261995,0.0016277345958296218,0.000568046295484797,0.01178894596496199
342.66529926332237,0.001432398206921604,0.0005217042861169585,0.008706547681570507
344.75216456669637,0.0012694158363960408,0.0004806119080103758,0.006637571340383719
346.8517390845831,0.00113206744353401,0.00044401284968936187,0.005204165354081549
348.96410021734636,0.0010152848260062686,0.000411281824437698,0.004178360350358836
351.08932583672566,0.0009151887741467885,0.000381898275677565,0.003422284259442677
353.22749428870713,0.0008287702872353579,0.00035542603678949045,0.0028504513302990034
355.37868439641153,0.0007536669674414447,0.0003314974529346382,0.0024082071045815334
357.54297546300023,0.0006880035378372311,0.00030980088043664096,0.0020595248839112034
359.72044727459865,0.0006302763466470018,0.00029007076700909905,0.0017799720350591707
361.91118010323754,0.0005792685471656411,0.00027207972146142976,0.0015525464149309621
364.1152547098121,0.0005339869989460878,0.0002556321297000165,0.0013651401016095623
366.3327523470595,0.0004936147673568587,0.00024055898188941188,0.0012089505981308982
368.56375476255386,0.00045747497106963364,0.0002267136551836281,0.001077459098464192
370.8083442017201,0.0004250029852686312,0.00021396845555503926,0.000965757328250893
373.066603410866,0.00039572486655222296,0.0002022117665446976,0.000870094109154282
375.33861564023215,0.0003692404590083189,0.00019134568623629304,0.0007875636929834168
377.6244646470617,0.0003452100567501677,0.0001812840592415583,0.0007158875551215521
379.92423469868737,0.0003233437930682826,0.0001719508300355701,0.0006532590283391351
382.23801057563816,0.000303393137834586,0.0001632786590783561,0.0005982309630326236
384.5658775747649,0.0002851440380816677,0.0001552077548941552,0.0005496333429946742
386.9079215123847,0.0002684113489269449,0.00014768488446081807,0.000506512079439937
389.26422872744433,0.0002530342849453927,0.00014066253148567538,0.0004680829915417157
391.6348860847033,0.0002388726839487459,0.00013409817786017952,0.00043369682053732896
394.0199809779359,0.00022580392162227107,0.00012795368812865666,0.00040281235802465523
396.41960133315325,0.00021372035071200136,0.00012219478045250498,0.00037497560916315475
398.8338356118445,0.0002025271653601311,0.00011679057046083026,0.00034980349163703424
401.2627728142378,0.0001921406118680214,0.0001117131767479998,0.00032697097715932627
403.70650248258147,0.00018248648318989642,0.00010693737868605361,0.00030620086978117234
406.1651147044451,0.00017349884692739113,0.00010244031877944775,0.000287255621217318
408.6387001160402,0.00016511896637917532,0.00009820124306627155,0.0002699307325221733
411.1273499055617,0.00015729438190922786,0.00009420127411193042,0.00025404940051642624
413.6311558165498,0.00014997812600453763,0.00009042321201054501,0.0002394581478875406
416.1502101512716,0.00014312805026901504,0.00008685135951499479,0.00022602323587819854
418.6846057741243,0.00013670624649608895,0.0000834713680166561,0.00021362770353313125
421.23443611505826,0.0001306785471037643,0.00008027010158396581,0.00020216891160374742
423.79979517302144,0.0001250140927545335,0.00007723551668350361,0.00019155649523431063
426.38077751942444,0.00011968495704209217,0.00007435655555360177,0.00018171064955775548
428.9774783016275,0.00011466581980740976,0.00007162305149009915,0.00017256068780448355
431.58999324644714,0.00010993368202799088,0.00006902564454989855,0.00016404382356809128
434.2184186636858,0.00010546761634520278,0.00006655570638478784,0.0001561041383118444
436.86285144968207,0.00010124854824227243,0.00006420527309578927,0.00014869170263372684
439.52338909088274,0.00009725906364444739,0.00006196698514498659,0.00014180903391468387
442.20012966743656,0.00009348323936710796,0.00005983403349137833,0.00013555082213456357
444.89317185681006,0.00008990649336533793,0.00005780011122811167,0.00012967180664809932
447.6026149374253,0.00008651545219121246,0.00005585937008524995,0.00012414253784375694
450.3285587923196,0.00008329783343858534,0.00005400638125352805,0.0001190169919062844
453.07110391282777,0.00008024234127371687,0.000052236100040121714,0.00011432896832694895
455.83035140228674,0.00007733857341562267,0.00005054383393980591,0.00010989182994427804
458.6064029797626,0.00007457693815622347,0.000048925213748014944,0.0001056884719472755
461.39936098380065,0.00007194858020453777,0.000047376167389686654,0.00010170320532851206
464.209328376198,0.00006944531429958905,0.000045892896177273647,0.00009792161939727715
467.03640874579906,0.00006705956567700361,0.00004447185324463768,0.00009433045956835172
469.8807063123146,0.00006478431659623357,0.00004310972393050407,0.00009091751851970512
472.7423259301636,0.00006261305823234479,0.000041803407915827106,0.0000876715390791037
475.6213730923387,0.00006053974732887026,0.00004055000293607541,0.0000845821274183844
478.51795393429535,0.00005855876708139816,0.000039346789913541186,0.00008163967532749729
481.4321752378642,0.00005666489178819448,0.00003819121936990503,0.00007883529050168755
484.3641444351879,0.00005485325485824815,0.00003708089899493011,0.00007616073391202569
487.31396961268115,0.000053119319820160376,0.00003601358226019162,0.00007360836345292947
490.28175951501566,0.00005145885401344984,0.00003498715798017566,0.00007117108315618715
493.267623549129,0.00004986790468402511,0.00003399964072916262,0.00006884229735799535
496.2716717882574,0.00004834277723572227,0.0000330491620389132,0.0000666158692701293
499.29401497599423,0.000046880015421009235,0.00003213396230150324,0.00006448608348490877
502.334764530372,0.00004547638327301713,0.00003125238331671794,0.00006244761199034559
505.3940325479701,0.00004412884860943753,0.000030402861423896967,0.00006049548332656586
508.471931808047,0.00004283456795363992,0.000029583921168335503,0.00005862505455822134
511.5685757766979,0.000041590872734589525,0.00002879416945454833,0.00005683198577174117
514.6840786110379,0.00004039525664535794,0.00002803229014414421,0.00005511221684263456
517.8185551634097,0.00003924536404929838,0.00002729703906029249,0.00005346194624563034
520.9721209856185,0.00003813897933684512,0.00002658723936479652,0.000051877611704398064
524.144892333191,0.00003707401714452326,0.0000259017772756228,0.00005035587250175339
527.3369861696616,0.00003604851335849119,0.000025239598097433007,0.000048893593291128066
530.5485201708842,0.00003506061683061208,0.00002459970253850903,0.00004748782926242574
533.77961272937,0.000034108581744064426,0.00002398114329175032,0.00004613581253961396
537.0303829586522,0.00003319076057122419,0.000023383021856945605,0.000044834939689863436
540.3009506976774,0.0000323055975713607,0.00002280448558755293,0.000043582760245548274
543.5914365152229,0.00003145162278269004,0.000022244724940794168,0.00004237696614546119
546.9019617143416,0.00003062744646511718,0.00002170297091849193,0.0000412153820111476
550.2326483368345,0.00002983175395690105,0.0000211784926818091,0.00004009595618602115
553.5836191677482,0.00002906330090834123,0.000020670595326628198,0.000039016752468703246
556.9549977399029,0.000028320908865083985,0.000020178617808644333,0.000037975942479491384
560.3469083384457,0.00002760346116742183,0.0000197019310056598,0.00003697179860668955
563.7594760054326,0.000026909899144214165,0.000019239935906758725,0.000036002687482337746
567.1928265444375,0.000026239218575185492,0.00001879109794371237,0.00003506706394216696
570.647086525191,0.000025590466400804676,0.000018350843282326366,0.00003416346543047192
