Frequency,Nominal,Min,Max
168.91733491393433,-3.1926375958428768,-3.2069927518245094,-3.1781049258047105
169.94605806193945,-3.193217372847993,-3.2077663034273067,-3.1784938308441806
170.9810462348799,-3.1938085278661363,-3.2085558784912314,-3.1788897224104704
172.0223375873724,-3.194411412137731,-3.209361998418591,-3.179292798270699
173.06997050639902,-3.1950263916538786,-3.2101852076672017,-3.179703263825595
174.12398361272238,-3.1956538479382983,-3.2110260750378936,-3.1801213324811135
175.1844157623093,-3.1962941788795294,-3.2118851950492346,-3.180547226041962
176.25130604776322,-3.196947799617207,-3.212763189406461,-3.1809811751285677
177.32469379976544,-3.1976151434865496,-3.2136607085722213,-3.181423419619125
178.4046185885249,-3.1982966630255794,-3.214578433447465,-3.1818742091184964
179.49112022523704,-3.198992831049976,-3.2155170771715955,-3.1823338034559088
180.58423876355138,-3.1997041418009404,-3.2164773870518815,-3.182802473213507
181.6840145010481,-3.2004311121719113,-3.217460146633071,-3.1832805002880353
182.79048798072358,-3.201174283020529,-3.2184661779192605,-3.1837681784880907
183.90369999248506,-3.2019342205728414,-3.2194963437612345,-3.184265814169605
185.02369157465426,-3.2027115179274097,-3.2205515504238367,-3.184773726912444
186.15050401548038,-3.203506796667707,-3.221632750349414,-3.1852922502412566
187.28417885466203,-3.2043207085920145,-3.2227409451350315,-3.1858217323939977
188.42475788487874,-3.2051539375709375,-3.2238771887429927,-3.1863625371418323
189.5722831533315,-3.206007201543648,-3.225042590966292,-3.18691504466449
190.72679696329294,-3.2068812546651175,-3.2262383211729153,-3.1874796524854823
191.8883418756667,-3.2077768896178163,-3.2274656123555348,-3.1880567764720236
193.05696071055655,-3.20869494010278,-3.228725765516054,-3.1886468519049393
194.2326965488449,-3.209636283526496,-3.2300201544177485,-3.189250334624343
195.41559273378093,-3.210601843901805,-3.2313502307414748,-3.189867702257419
196.6056928725785,-3.211592594982978,-3.232717529686604,-3.1904994555352717
197.8030408380236,-3.212609563657332,-3.234123676062077,-3.191146119706448
199.00768077009192,-3.2136538336182197,-3.2355703909183617,-3.191808246055554
200.21965707757582,-3.214726549347006,-3.2370594987771915,-3.192486413536163
201.4390144397216,-3.215828920434803,-3.238592935522899,-3.1931812305282072
202.6657978078766,-3.2169622262782793,-3.240172757027069,-3.1938933367310636
203.90005240714623,-3.2181278211878714,-3.2418011485872675,-3.1946234052047093
205.14182373806125,-3.219327139951301,-3.243480435270906,-3.1953721445726613
206.39115757825508,-3.2205617039004615,-3.245213093267161,-3.196140301401851
207.64809998415146,-3.2218331275356387,-3.2470017623634337,-3.1969286627762528
208.91269729266227,-3.2231431257677325,-3.2488492596784884,-3.197738059082927
210.18499612289574,-3.2244935218468376,-3.250758594802462,-3.1985693670312236
211.465043377875,-3.225886256054296,-3.252732986514782,-3.1994235129282442
212.75288624626722,-3.2273233952454223,-3.25477588127523,-3.200301476236313
214.0485722041232,-3.2288071433416587,-3.2568909737114957,-3.20120429344121
215.35214901662752,-3.230339852884264,-3.259082229359266,-3.202133062263309
216.66366473985943,-3.2319240377770058,-3.2613539099491664,-3.203088946247647
217.98316772256445,-3.2335623873631554,-3.2637106015795982,-3.204073179773318
219.31070660793665,-3.2352577820027215,-3.266157246167135,-3.2050870735276
220.646330335412,-3.2370133103398935,-3.2686991766280387,-3.2061320204959274
221.99008814247233,-3.238832288478652,-3.271342156317643,-3.207209502525358
223.3420295664607,-3.2407182813172577,-3.2740924233410578,-3.2083210975266594
224.70220444640734,-3.2426751263306977,-3.276956740451759,-3.2094684873887465
226.07066292486712,-3.2447069601352663,-3.279942451377636,-3.210653466689092
227.44745544976797,-3.246818248222689,-3.2830575445613546,-3.2118779522951497
228.83263277627066,-3.249013818314066,-3.2863107254788853,-3.2131439939650335
230.2262459686399,-3.2512988978586064,-3.2897114989135394,-3.2144537860709894
231.6283464021267,-3.2536791562909553,-3.293270262821437,-3.2158096805869945
233.0389857648625,-3.2561607527671343,-3.2969984157387886,-3.2172142015025065
234.45821605976445,-3.258750390226348,-3.300908480065493,-3.21867006084861
235.8860896064526,-3.2614553767791445,-3.3050142440308203,-3.220180176551125
237.32265904317862,-3.2642836956074666,-3.3093309257280055,-3.2217476923585355
238.7679773287663,-3.267244084786639,-3.313875363324417,-3.2233760001318226
240.22209774456388,-3.2703461287128546,-3.318666236450534,-3.2250687648296203
241.6850738964082,-3.2736003631544106,-3.3237243248936474,-3.2268299525770527
243.15695971660094,-3.277018396356425,-3.3290728121361566,-3.2286638622719552
244.63780946589677,-3.280613049137094,-3.334737643069931,-3.230575161260183
246.1276777355037,-3.284398517544777,-3.3407479475026567,-3.2325689257051
247.62661944909556,-3.288390562433225,-3.347136544004563,-3.2346506863886697
249.1346898648367,-3.292606731301587,-3.353940542434975,-3.2368264808171094
250.6519445774192,-3.297066618995313,-3.3612588075816094,-3.239102912668314
252.17843952011214,-3.3017921754519053,-3.3699774057672407,-3.24148721981817
253.71423096682383,-3.3068080707067056,-3.3794238506747805,-3.2439873524272214
255.25937553417614,-3.3121421299904195,-3.389695732980892,-3.246612062869212
256.8139301835917,-3.3178258551454576,-3.401156374922214,-3.2493710096533226
258.3779522233939,-3.323895053028624,-3.414433881592281,-3.2522748779511828
259.9514993109193,-3.3303905974231682,-3.4291351675030706,-3.255335519912427
261.5346294546434,-3.3373593587726864,-3.4455031812452903,-3.2585661186706654
263.1274010163189,-3.344855346508991,-3.463839479636305,-3.2619813808475895
264.7298727131275,-3.352941122931795,-3.4845229951795638,-3.2655977635126687
266.3421036198441,-3.3616895670433813,-3.5080364681484184,-3.2694337430248686
267.9641531710149,-3.371186093701952,-3.5350044231268813,-3.2735101350727076
269.5960811631483,-3.3815314712973423,-3.566248948226087,-3.2778504776783994
271.23794775691925,-3.39284543496475,-3.602873639497391,-3.282481492131235
272.8898134793871,-3.4052713699673203,-3.6463933433902262,-3.2874336410292058
274.551739226227,-3.4189824535457656,-3.698940518176382,-3.2927418082070012
276.2237862639748,-3.4341898127623756,-3.763603334443819,-3.2984461328385293
277.90601623228537,-3.4511535123418695,-3.8449950873883427,-3.3045930401770574
279.5984911462053,-3.470197582768286,-3.950229915099296,-3.311236525330618
281.3012733984588,-3.4917309239925505,-4.090567997586779,-3.3184397657755658
283.014425761748,-3.51627692856833,-4.283851061586875,-3.3262771653914287
284.73801139106683,-3.544516334574895,-4.556098372541488,-3.3348369713000205
286.4720938260294,-3.577350643742001,-4.933036016743297,-3.3442246603262413
288.21673699321224,-3.6159983566889244,-5.40551400564576,-3.35456737327549
289.9720052085111,-3.6621450565961036,-5.911051349655681,-3.3660197965288488
291.73796317951184,-3.718184398947336,-6.408247362527155,-3.3787720746959296
293.5146760078758,-3.7876166331511683,-6.910205773113459,-3.3930606236716216
295.3022091917398,-3.875724690953888,-7.407671563297062,-3.409183166255094
297.10062862813083,-3.9907331471747964,-7.837046707718658,-3.4275200483967074
298.9100006153953,-4.145720335042727,-8.170005342809443,-3.4485651232885663
300.73039185564284,-4.361152840952501,-8.404479021580453,-3.4729716065516447
302.56186945720566,-4.664874696119372,-8.571224358341269,-3.501622072537221
304.40450093711223,-5.076416909232291,-8.696217326738626,-3.535738718680526
306.25835422357636,-5.567389555904289,-8.798468838366926,-3.577063399995514
308.1234976585014,-6.071374665888092,-8.875653628095955,-3.6281637672935294
309.99999999999943,-6.567811417369681,-8.935888251083819,-3.692954546396258
311.88793042492637,-7.072619735682224,-8.984179967141662,-3.7628115848373263
313.7873585314319,-7.555874686934228,-9.023757572452126,-3.852092494475512
315.6983543415253,-7.951844544763617,-9.056787591693856,-3.969537577094162
317.6209883036567,-8.241004294414523,-9.084774861501057,-4.126813040995902
319.55533129531426,-8.446124678187465,-9.108796147340925,-4.334587304840057
321.50145462563694,-8.594304852069904,-9.12964188381048,-4.6275730735048395
323.4594300380434,-8.704790904972004,-9.147905307065878,-5.02783691553358
325.42932971287684,-8.7898049216018,-9.164040322656419,-5.513528269885076
327.41122627006564,-8.85704875728975,-9.178400153900952,-6.018359565037285
329.4051927718008,-8.91149127837037,-9.191263810628179,-6.514749201967022
331.41130272522923,-8.956440300709506,-9.202854626280992,-7.018810910548952
333.4296300851636,-8.994168015800998,-9.213353501991888,-7.50763482056271
335.4602492568085,-9.026280912130588,-9.222908540013528,-7.914948871617379
337.5032350985037,-9.053944440780437,-9.231642164879762,-8.214734302211898
339.5586629244835,-9.078023549397862,-9.239656464933287,-8.427400388855537
341.6266085076533,-9.099173169401027,-9.247037252516527,-8.580577527214317
343.707148082383,-9.117898074191142,-9.25385718781031,-8.694393137706033
345.80035834731723,-9.134593466791546,-9.260178209072691,-8.781690661703776
347.9063164682029,-9.149573124851706,-9.26605344265586,-8.850552828828121
350.0251000807338,-9.163089317372044,-9.271528718338924,-8.906178128712636
352.1567872934129,-9.175347159755926,-9.276643782030888,-8.952015470942055
354.3014566904315,-9.18651513379218,-9.28143327413963,-8.990426315223864
356.45918733456637,-9.196732914525398,-9.285927524828638,-9.023075393951999
358.6300587700943,-9.206117274186603,-9.290153204967602,-9.051167287639903
360.81415102572464,-9.214766592020382,-9.294133862454586,-9.075593944214223
363.01154461754936,-9.22276433917645,-9.297890366806824,-9.097029379877757
365.2223205520113,-9.230181800322498,-9.30144127983181,-9.115992151785285
367.44656032889054,-9.237080220055375,-9.304803166341959,-9.132887611997866
369.68434594430886,-9.243512511065543,-9.307990855938856,-9.148037141286142
371.93575989375233,-9.249524624990501,-9.311017664633697,-9.1616987937511
374.2008851751128,-9.255156661182886,-9.313895583319042,-9.174082148773067
376.47980529174725,-9.260443770043988,-9.31663543873995,-9.185217635740496
378.77260425555653,-9.26541689400129,-9.319247031538199,-9.194826980982405
381.079366590082,-9.270103379186496,-9.321739255093501,-9.203688077159622
383.4001773336217,-9.27452748339667,-9.324120198209801,-9.21188679230406
385.73512204236533,-9.278710800295373,-9.326397234153553,-9.21922966476734
388.08428679354824,-9.282672615539482,-9.32857709811579,-9.22562700090748
390.44775818862445,-9.286430207247435,-9.330665954817736,-9.231645299015106
392.8256233564594,-9.289999100702293,-9.332669457693672,-9.237317462276561
395.2179699565418,-9.293393285222635,-9.334592800851073,-9.242672693504211
397.62488618221545,-9.296625399600561,-9.336440764816565,-9.247737000845348
400.04646076393004,-9.299706891297992,-9.33821775691821,-9.252533622811443
402.48278297251255,-9.302648153635,-9.33992784702421,-9.257083387244943
404.93394262245795,-9.305458644440787,-9.341574799249596,-9.261405015893072
407.4000300752404,-9.308146989026056,-9.343162100152057,-9.265515383961938
409.8811362426443,-9.310721069842398,-9.344692983862515,-9.269429742223927
412.37735259011566,-9.313188104795,-9.346170454532434,-9.27316190783035
414.8887711401341,-9.315554715849785,-9.347597306426469,-9.276724428853575
417.4154844756051,-9.317826989310282,-9.348976141943776,-9.280128726681962
419.9575857432733,-9.320010528921209,-9.350309387813034,-9.283385219667966
422.51516865715587,-9.322110502775558,-9.35162510118639,-9.28650343084607
425.08832750199775,-9.324131684852922,-9.352909293868006,-9.289492082064005
427.6771571367472,-9.326078491892684,-9.354151886801086,-9.292359176484851
430.2817529980528,-9.327955016202276,-9.355354905498128,-9.295112071101975
432.9022111037816,-9.329765054914027,-9.356550259049747,-9.297757540649055
435.538628056559,-9.331512136131234,-9.357714794066343,-9.300301834073124
438.1911010473297,-9.333199542342754,-9.358842748340862,-9.302750724560894
440.85972785894097,-9.334830331433382,-9.359935853358593,-9.305109553960767
443.54460686974716,-9.336407355573273,-9.36099573280931,-9.30738327231946
446.2458370572364,-9.33793327823211,-9.362023910849203,-9.309576473148711
448.96351800167946,-9.33941058953173,-9.36302181961409,-9.31169342495046
451.6977498898008,-9.34084162012352,-9.363990806061917,-9.313738099455547
454.44863351847175,-9.3422285537534,-9.364932138213451,-9.315714196968722
457.2162702984266,-9.343573438656982,-9.365847010851986,-9.31762516916011
460.00076225800086,-9.344878197910017,-9.366736550736078,-9.31947423959826
462.8022120468927,-9.3461446388443,-9.367601821373142,-9.321264422281638
465.620722939947,-9.34737446162594,-9.368443827396508,-9.322998538392486
468.4563988409625,-9.348569267081736,-9.36926351858385,-9.324679231468888
471.3093442865224,-9.349730563849441,-9.370061793550843,-9.32630898116653
474.17966444984785,-9.350859774919108,-9.370839503150215,-9.32789011576078
477.06746514467534,-9.351958243625166,-9.371597453603336,-9.329424823521556
479.9728528291573,-9.353027239142312,-9.372336409388527,-9.330915163077801
482.8959346097869,-9.354067961532516,-9.373057095907882,-9.332363072874752
485.8368182453461,-9.355081546385339,-9.373760201952194,-9.33377037981529
488.79561215087864,-9.356069069089294,-9.374446381981567,-9.335138807166334
491.7724254016865,-9.357031548768045,-9.37511625823763,-9.336469981802182
494.7673677373509,-9.35796995191172,-9.375770422701663,-9.337765440848795
497.7805495657779,-9.358885195730558,-9.376409438911615,-9.339026637786008
500.8120819672685,-9.359778151255346,-9.377033843649732,-9.340254948058575
503.86207669861375,-9.360649646206674,-9.377644148511422,-9.341451674241599
506.93064619721434,-9.361500467652874,-9.378240841364988,-9.342618050801024
510.01790358522595,-9.3623313644746,-9.378824387711006,-9.343755248485817
513.1239626737292,-9.36314304965224,-9.3793952319493,-9.34486437838461
516.2489379669254,-9.363936202390867,-9.379953798560736,-9.345946495676355
519.3929446663576,-9.364711470096008,-9.380500493210505,-9.347002603101583
522.5560986751577,-9.365469470212354,-9.381035703778842,-9.348033654178238
525.7385166023189,-9.366210791936332,-9.381559801324745,-9.349040556183756
528.9403157669947,-9.366935997812549,-9.382073140987695,-9.350024172922993
532.1616142028237,-9.367645625223181,-9.38257606283199,-9.350985327299679
535.4025306622809,-9.36834018777861,-9.383068892637912,-9.351924803707544
538.6631846210557,-9.36902017661684,-9.383551942643583,-9.35284335025565
541.9436962824561,-9.369686061618602,-9.384025512241081,-9.353741680841205
545.24418658184,-9.3703382925445,-9.384489888630041,-9.35462047708192
548.5647771910736,-9.370977300099913,-9.384945347431767,-9.355480390118885
551.9055905230166,-9.371603496933,-9.385392153266615,-9.356322042299968
555.266749736035,-9.372217278570636,-9.385830560297148,-9.357146028752883
558.6483787385413,-9.37281902429675,-9.386260812739454,-9.35795291885627
562.0506021935626,-9.373409097977147,-9.386683145344758,-9.358743257616414
565.4735455233359,-9.373987848834588,-9.387097783853314,-9.359517566956594
568.9173349139321,-9.374555612177602,-9.38750494542245,-9.360276346925454
572.3820973199075,-9.375112710086182,-9.387904839030437,-9.3610200768303
