Frequency,Nominal,Min,Max
168.91733491393433,-49.7324091953714,-51.63276845503211,-47.76313855100788
169.94605806193945,-49.53624517119408,-51.45086896581254,-47.54989114435904
170.9810462348799,-49.33848901018402,-51.26769219344582,-47.33464271116212
172.0223375873724,-49.13910407112525,-51.083210929249375,-47.117343084481426
173.06997050639902,-48.93805255782844,-50.89739718525049,-46.89794034455212
174.12398361272238,-48.735295470635705,-50.71022216461654,-46.67638073683139
175.1844157623093,-48.53079255535121,-50.52165623066755,-46.45260858520177
176.25130604776322,-48.32450224943163,-50.331668874389024,-46.22656619997865
177.32469379976544,-48.11638162525838,-50.140228680357,-45.99819378034418
178.4046185885249,-47.90638633029951,-49.94730329098125,-45.767429310797596
179.49112022523704,-47.69447052395445,-49.75285936896596,-45.53420845117649
180.58423876355138,-47.480586810858334,-49.55686255788027,-45.298464419763846
181.6840145010481,-47.26468617040538,-49.359277440723204,-45.06012786895336
182.79048798072358,-47.046717882230894,-49.16006749635929,-44.81912675289702
183.90369999248506,-46.826629447371005,-48.95919505369227,-44.57538618650698
185.02369157465426,-46.6043665047954,-48.756621243434466,-44.32882829512559
186.15050401548038,-46.37987274298398,-48.55230594731875,-44.07937205411252
187.28417885466203,-46.15308980618961,-48.34620774458871,-43.82693311752735
188.42475788487874,-45.9239571949997,-48.13828385559012,-43.57142363500636
189.5722831533315,-45.692412160775355,-47.9284900822732,-43.31275205584416
190.72679696329294,-45.458389593510226,-47.7167807454004,-43.05082291919305
191.8883418756667,-45.22182190261105,-47.50310861823846,-42.78553662918383
193.05696071055655,-44.982638890057075,-47.28742485649587,-42.516789213649375
194.2326965488449,-44.740767615346414,-47.06967892424767,-42.24447206499664
195.41559273378093,-44.4961322515833,-46.84981851556891,-41.96847166161953
196.6056928725785,-44.24865393199983,-46.627789471574744,-41.68866926807407
197.8030408380236,-43.99825058613984,-46.403535692540586,-41.404940612044996
199.00768077009192,-43.74483676485787,-46.176999044747866,-41.11715553591621
200.21965707757582,-43.488323453205375,-45.94811926167149,-40.825177620513585
201.4390144397216,-43.22861787018426,-45.716833839091066,-40.52886377831282
202.6657978078766,-42.965623254247156,-45.48307792367262,-40.22806381309329
203.90005240714623,-42.69923863330999,-45.2467841945269,-39.92261994266499
205.14182373806125,-42.42935857791692,-45.00788273720657,-39.61236628089411
206.39115757825508,-42.155872936055346,-44.76630090955578,-39.29712827479544
207.64809998415146,-41.87866654796132,-44.521963198772056,-38.976722091938356
208.91269729266227,-41.597618939077314,-44.274791068981,-38.650953952816835
210.18499612289574,-41.31260398912461,-44.02470279855834,-38.319619402150806
211.465043377875,-41.02348957502816,-43.77161330636122,-37.98250251230187
212.75288624626722,-40.73013718517713,-43.51543396594943,-37.639375011083416
214.0485722041232,-40.43240150221842,-43.25607240678706,-37.28999532520298
215.35214901662752,-40.1301299512553,-42.99343230131518,-36.93410752936943
216.66366473985943,-39.8231622099551,-42.727413136674095,-36.571440189698855
217.98316772256445,-39.51132967665121,-42.45790996972873,-36.201705088426515
219.31070660793665,-39.19445489204818,-42.1848131639114,-35.82459581503467
220.646330335412,-38.872350909593635,-41.9080081062393,-35.43978620668537
221.99008814247233,-38.544820608958915,-41.62737490268907,-35.046928618242696
223.3420295664607,-38.21165594635599,-41.34278804991301,-34.64565199910003
224.70220444640734,-37.87263713459782,-41.0541160810597,-34.23555975040522
226.07066292486712,-37.52753174486432,-40.76122118321115,-33.8162273319807
227.44745544976797,-37.17609372104463,-40.463958783665674,-33.38719958312624
228.83263277627066,-36.818062296261985,-40.162177101975274,-32.94798771539127
230.2262459686399,-36.4531607997206,-39.855716664282795,-32.49806592809093
231.6283464021267,-36.081095340305104,-39.544409776091534,-32.036867588539174
233.0389857648625,-35.70155335136831,-39.22807994912933,-31.56378090833607
234.45821605976445,-35.31420197880652,-38.906541277432865,-31.078144034135022
235.8860896064526,-34.918686291777234,-38.57959775716391,-30.579239455571276
237.32265904317862,-34.5146272921792,-38.24704254396599,-30.066287613742087
238.7679773287663,-34.10161969518919,-37.90865714086158,-29.538439569874704
240.22209774456388,-33.67922944861117,-37.56421050875889,-28.99476856441582
241.6850738964082,-33.2469909533867,-37.21345809056265,-28.43426026018701
243.15695971660094,-32.8044039411529,-36.856140738639105,-27.855801417458743
244.63780946589677,-32.350929956977545,-36.491983533941095,-27.258166691154205
246.1276777355037,-31.885988386053057,-36.12069448341829,-26.640003167390752
247.62661944909556,-31.408951951818853,-35.741963080375946,-25.999812163530844
249.1346898648367,-30.919141599228777,-35.35545871014775,-25.335927696573783
250.6519445774192,-30.415820660085686,-34.96082888075143,-24.64649087062577
252.17843952011214,-29.898188176754118,-34.55769725501735,-23.929419233875553
253.71423096682383,-29.36537123514099,-34.14566145692268,-23.18236989336595
255.25937553417614,-28.81641612631574,-33.72429062040823,-22.402694830558044
256.8139301835917,-28.250278116847113,-33.293122643648104,-21.58738640306438
258.3779522233939,-27.6658095586684,-32.85166110540305,-20.7330104082339
259.9514993109193,-27.061746007146766,-32.39937179248204,-19.835623268888185
261.5346294546434,-26.436689937182976,-31.935678778174157,-18.890668809826696
263.1274010163189,-25.789091546471973,-31.459959980430312,-17.892848637365045
264.7298727131275,-25.117226005619592,-30.971542115107574,-16.835958215127032
266.3421036198441,-24.41916634732123,-30.46969494315062,-15.712678274413962
267.9641531710149,-23.69275096861768,-29.953624690423023,-14.514308266079816
269.5960811631483,-22.93554443410121,-29.42246649404717,-13.230425650657587
271.23794775691925,-22.14478989026954,-28.875275698313473,-11.848453714633361
272.8898134793871,-21.317350899787236,-28.311017784846996,-10.353126686466307
274.551739226227,-20.44963983539735,-27.72855667363823,-8.725869756582878
276.2237862639748,-19.537529077869653,-27.126641070942604,-6.944207730659739
277.90601623228537,-18.576240064233467,-26.503888463199225,-4.981608654811853
279.5984911462053,-17.560203638551823,-25.858766258041236,-2.8090375827481955
281.3012733984588,-16.482883071751516,-25.18956944748586,-0.40204157421369685
283.014425761748,-15.336548491406168,-24.494394005487294,2.23578255990929
284.73801139106683,-14.11198844792326,-23.771105019966328,5.007503027957636
286.4720938260294,-12.798141714721709,-23.01729828151484,7.680297458633586
288.21673699321224,-11.38163274249861,-22.23025368439776,10.670743210704313
289.9720052085111,-9.846205056894682,-21.40687830906621,12.521597489369816
291.73796317951184,-8.172090089580461,-20.54363640672342,12.873673603869854
293.5146760078758,-6.335487040306484,-19.636462638543495,14.144957610930373
295.3022091917398,-4.308744771203273,-18.68065376043864,17.17589578948879
297.10062862813083,-2.063065912209699,-17.670732397203945,17.420457586608798
298.9100006153953,0.42088024706760163,-16.600274520439985,14.657689284804377
300.73039185564284,3.1196737604532516,-15.461689675145145,13.216528505793757
302.56186945720566,5.881501818214238,-14.245940007217683,16.359356062198877
304.40450093711223,8.29998520473315,-12.942181400645033,17.872203591419783
306.25835422357636,9.843001639600908,-11.968045634277836,16.36819814026574
308.1234976585014,10.436802875266363,-12.090801032841796,13.218257164640594
309.99999999999943,10.39458161739267,-12.105988602530198,13.198525058533278
311.88793042492637,9.680306613574013,-12.014045278592217,16.42004490292908
313.7873585314319,7.98967176038979,-12.556533434173717,17.726033437071056
315.6983543415253,5.4877925351042975,-13.887423748386198,16.14190107620342
317.6209883036567,2.718369960929153,-15.126858892934948,13.216370869280647
319.55533129531426,0.04655623099261139,-16.286268922083234,16.052144685474506
321.50145462563694,-2.4022774436038996,-17.375160533926277,18.287394796127177
323.4594300380434,-4.6144089744197005,-18.401500800909467,17.12441353315558
325.42932971287684,-6.611704358225591,-19.372018175418667,14.081380627813312
327.41122627006564,-8.42311075966339,-20.292437890763928,14.638244574100547
329.4051927718008,-10.075766248809234,-21.16766652788351,13.674012429688505
331.41130272522923,-11.592855409839615,-22.0019375009004,10.88338775209063
333.4296300851636,-12.993591267556969,-22.798926507798033,8.21650311701841
335.4602492568085,-14.293769847600384,-23.56184381680486,5.775856322119056
337.5032350985037,-15.506396129356085,-24.29350858760852,3.0123745153022865
339.5586629244835,-16.64223564829262,-24.996409167277804,0.32120140762247007
341.6266085076533,-17.710263772679397,-25.67275235904202,-2.153061548198344
343.707148082383,-18.718020972468143,-26.32450395846994,-4.389589514013338
345.80035834731723,-19.671890988656948,-26.953422324527313,-6.408357489238022
347.9063164682029,-20.577318461159855,-27.561086356351826,-8.238173327595797
350.0251000807338,-21.438979817315218,-28.148918946373442,-9.906531096244143
352.1567872934129,-22.260918252274458,-28.718206751740603,-11.437054433508651
354.3014566904315,-23.046651090129,-29.270116950677355,-12.849355795772512
356.45918733456637,-23.799255809016323,-29.8057115150515,-14.159563927204298
358.6300587700943,-24.521439485125196,-30.32595942525974,-15.380952468470177
360.81415102572464,-25.215595262916114,-30.831747171269402,-16.524501847262854
363.01154461754936,-25.88384860133231,-31.32388781889788,-17.59935932151293
365.2223205520113,-26.528095404719608,-31.803128869119334,-18.613203468363345
367.44656032889054,-27.150033666330614,-32.27015909731937,-19.57252971871292
369.68434594430886,-27.751189889796596,-32.72561452666803,-20.482873707996724
371.93575989375233,-28.33294127903985,-33.17008366339203,-21.348986567463694
374.2008851751128,-28.896534477258978,-33.60411210035007,-22.17497328688915
376.47980529174725,-29.443101474374068,-34.028206577910275,-22.964402681796866
378.77260425555653,-29.97367317758264,-34.44283857688967,-23.720395437176972
381.079366590082,-30.489191042540817,-34.848447506611194,-24.44569512517369
383.4001773336217,-30.990517086548792,-35.24544354147014,-25.142725910752706
385.73512204236533,-31.47844254506632,-35.63421015138846,-25.813639774823322
388.08428679354824,-31.95369538522772,-36.01510636486396,-26.460355423192613
390.44775818862445,-32.41694685198228,-36.38846879774342,-27.08459055407614
392.8256233564594,-32.868817191945496,-36.75461347616942,-27.687888783452863
395.2179699565418,-33.309880675394965,-37.113837478208936,-28.27164224452721
397.62488618221545,-33.74067001684261,-37.46642041534105,-28.837110661679063
400.04646076393004,-34.16168027830415,-37.812625772156245,-29.385437533511446
402.48278297251255,-34.5733723260216,-38.152702120217064,-29.91766393146101
404.93394262245795,-34.976175900393315,-38.48688421997896,-30.434740320713296
407.4000300752404,-35.370492349770004,-38.815394022914695,-30.93753673205665
409.8811362426443,-35.75669707122208,-39.13844158447867,-31.42685155173965
412.37735259011566,-36.13514169508774,-39.456225897250164,-31.903419147568183
414.8887711401341,-36.50615604484051,-39.768935652474575,-32.36791651052382
417.4154844756051,-36.87004989938827,-40.07674993725249,-32.82096905993109
419.9575857432733,-37.22711458118226,-40.37983887378539,-33.263155734988025
422.51516865715587,-37.577624390357045,-40.678364206355354,-33.69501347502817
425.08832750199775,-37.92183790244076,-40.97247984107825,-34.11704117421741
427.6771571367472,-38.25999914489237,-41.26233234291298,-34.52970318274095
430.2817529980528,-38.59233866577201,-41.54806139392086,-34.93343241530698
432.9022111037816,-38.91907450617932,-41.82980021634137,-35.32863311851334
435.538628056559,-39.240413086659046,-42.10767596367357,-35.715683340921764
438.1911010473297,-39.556550016535624,-42.38181008262055,-36.09493714326568
440.85972785894097,-39.867670834069976,-42.652318648461325,-36.466726580848025
443.54460686974716,-40.173951684405225,-42.91931267615534,-36.83136348567626
446.2458370572364,-40.47555994146491,-43.18289840925498,-37.18914107208101
448.96351800167946,-40.772654779266475,-43.44317758849729,-37.540335386350485
451.6977498898008,-41.065387697503226,-43.70024770176518,-37.88520661818536
454.44863351847175,-41.35390300571319,-43.95420221694641,-38.2240002894564
457.2162702984266,-41.63833826988591,-44.20513079907433,-38.55694833376425
460.00076225800086,-41.91882472494713,-44.45311951300625,-38.88427007860221
462.8022120468927,-42.19548765619963,-44.6982510127789,-39.20617314046368
465.620722939947,-42.46844675247984,-44.94060471867794,-39.52285424197942
468.4563988409625,-42.737816433507774,-45.18025698296512,-39.83449995908372
471.3093442865224,-43.00370615365894,-45.41728124512356,-40.141287405269416
474.17966444984785,-43.26622068416536,-45.65174817740618,-40.443384859174365
477.06746514467534,-43.525460375556705,-45.88372582140487,-40.74095234103335
479.9728528291573,-43.781521401977685,-46.1132797162967,-41.034142142908685
482.8959346097869,-44.03449598886196,-46.34047301936822,-41.32309931707201
485.8368182453461,-44.284472625304076,-46.56536661936887,-41.607962126434934
488.79561215087864,-44.531536262346165,-46.78801924319935,-41.8888624605098
491.7724254016865,-44.775768498285245,-47.0084875563995,-42.16592622001515
494.7673677373509,-45.01724775200667,-47.22682625786304,-42.43927367291754
497.7805495657779,-45.25604942525989,-47.443088169172356,-42.70901978441547
500.8120819672685,-45.49224605471195,-47.657324318916274,-42.975274523119595
503.86207669861375,-45.72590745454117,-47.869584022324425,-43.238143145458004
506.93064619721434,-45.9571008502686,-48.07991495652737,-43.497726460137926
510.01790358522595,-46.185891004464885,-48.28836323172739,-43.754121074317396
513.1239626737292,-46.4123403349171,-48.49497345854371,-44.00741962298287
516.2489379669254,-46.636509025791774,-48.69978881177624,-44.25771098288842
519.3929446663576,-46.858455132286124,-48.902851090813925,-44.505080472285776
522.5560986751577,-47.078234679219605,-49.104200776897414,-44.74961003756243
525.7385166023189,-47.29590175398207,-49.30387708743044,-44.991378427803134
528.9403157669947,-47.511508594221716,-49.50191802752087,-45.230461358200664
532.1616142028237,-47.725105670625545,-49.698360438918805,-45.46693166315863
535.4025306622809,-47.93674176511872,-49.89324004650832,-45.70085943985709
538.6631846210557,-48.14646404478327,-50.08659150249794,-45.93231218298422
541.9436962824561,-48.35431813177423,-50.27844842844529,-46.16135491127858
545.24418658184,-48.56034816949071,-50.468843455241874,-46.388050286471426
548.5647771910736,-48.764596885239754,-50.657808261176065,-46.61245872517039
551.9055905230166,-48.96710564961383,-50.845373608183664,-46.834638504180894
555.266749736035,-49.16791453278656,-51.031569376388944,-47.05464585972179
558.6483787385413,-49.36706235791665,-51.216424597031825,-47.27253508095486
562.0506021935626,-49.564586751836515,-51.39996748387112,-47.488358598214774
565.4735455233359,-49.760524193189354,-51.58222546314739,-47.70216706629554
568.9173349139321,-49.95491005816763,-51.76322520218423,-47.91400944312222
572.3820973199075,-50.14777866399463,-51.94299263670157,-48.1239330641112
