Frequency,Nominal,Min,Max
168.91733491393433,0.0030081226129829407,0.0030216481284932113,0.002994429842646041
169.94605806193945,0.0029904567075656834,0.0030040818204091634,0.0029766680706508225
170.9810462348799,0.002972905042355802,0.0029866323753039753,0.002959018113450046
172.0223375873724,0.002955467142473026,0.0029692994141540924,0.002941479411790005
173.06997050639902,0.0029381425446188283,0.002952082574150709,0.0029240514141334844
174.12398361272238,0.0029209307974553773,0.0029349815093588755,0.0029067335768176938
175.1844157623093,0.002903831462010534,0.002917995891423028,0.0028895253642230783
176.25130604776322,0.002886844112110872,0.0029011254103226583,0.0028724262489537595
177.32469379976544,0.0028699683348448433,0.0028843697751821436,0.002855435712030394
178.4046185885249,0.002853203731058427,0.002867728715139176,0.0028385532430963444
179.49112022523704,0.0028365499158857777,0.0028512019802766097,0.002821778340638083
180.58423876355138,0.002820006519317653,0.0028347893426230427,0.002805110512220859
181.6840145010481,0.0028035731868106288,0.002818490597227934,0.0027885492747407327
182.79048798072358,0.0027872495799403925,0.00280230556331765,0.002772094154694173
183.90369999248506,0.002771035377102728,0.0027862340855394577,0.002755744688466521
185.02369157465426,0.0027549302742661324,0.002770276035301177,0.00273950042264073
186.15050401548038,0.0027389339857803933,0.0027544313122150215,0.0027233609143279235
187.28417885466203,0.0027230462452458725,0.0027386998456550037,0.0027073257315214407
188.42475788487874,0.0027072668064487084,0.002723081596438272,0.0026913944534761843
189.5722831533315,0.0026915954443676744,0.002707576558641867,0.0026755666711152774
190.72679696329294,0.0026760319562589936,0.0026921847615675606,0.0026598419874661675
191.8883418756667,0.0026605761628260816,0.0026769062718688917,0.0026442200181285677
193.05696071055655,0.002645227909481878,0.0026617411958560116,0.0026287003917768188
194.2326965488449,0.002629987067712261,0.002646689681995711,0.0026132827506994936
195.41559273378093,0.0026148535365499207,0.0026317519236259967,0.002597966751379368
196.6056928725785,0.0025998272441690802,0.0026169281619067707,0.002582752065117145
197.8030408380236,0.0025849081496126013,0.0026022186890307174,0.0025676383787026774
199.00768077009192,0.0025700962446642698,0.0025876238517213265,0.002552625395137805
200.21965707757582,0.002555391555880506,0.0025731440550482484,0.002537712834415314
201.4390144397216,0.002540794146797354,0.0025587797665938264,0.002522900434359013
202.6657978078766,0.0025263041203304496,0.002544531521008872,0.0025081879515304194
203.90005240714623,0.002511921621387725,0.002530399925000533,0.0024935751622081133
205.14182373806125,0.0024976468397169657,0.0025163856628005604,0.00247906186344649
206.39115757825508,0.002483480013013012,0.0025024895021686,0.0024646478742213246
207.64809998415146,0.0024694214303124106,0.002488712300992297,0.0024503330366703944
208.91269729266227,0.0024554714357068173,0.0024750550145543376,0.002436117217438304
210.18499612289574,0.0024416304324103738,0.0024615187035461152,0.002422000309135675
211.465043377875,0.0024278988872208375,0.002448104542918772,0.002407982231924027
212.75288624626722,0.002414277335419414,0.002434813831675204,0.00239406293523896
214.0485722041232,0.0024007663861602157,0.0024216480037215393,0.0023802423996657366
215.35214901662752,0.002387366728407157,0.0024086086399139313,0.0023665206389830093
216.66366473985943,0.0023740791374839997,0.002395697481456838,0.0023528977023923574
217.98316772256445,0.0023609044823124834,0.002382916444832668,0.0023393736769534244
219.31070660793665,0.0023478437334240967,0.002370267638470597,0.0023259486902469095
220.646330335412,0.0023348979718434506,0.0023577533813952034,0.002312622913290474
221.99008814247233,0.002322068398955644,0.002345376224134392,0.002299396563735805
223.3420295664607,0.0023093563474869006,0.0023331389722120784,0.0022862699093787703
224.70220444640734,0.002296763293747554,0.002321044712605806,0.0022732432720187954
226.07066292486712,0.002284290871309695,0.002309096843614726,0.002260317031708458
227.44745544976797,0.0022719408863192737,0.002297299108661508,0.0022474916314398773
228.83263277627066,0.0022597153346748467,0.0022856556346456296,0.0022347675823209765
230.2262459686399,0.0022476164213436987,0.002274170975578763,0.0022221454693021514
231.6283464021267,0.002235646582131877,0.0022628501623701293,0.002209625957522658
233.0389857648625,0.002223808508279456,0.002251698759796504,0.002197209799356127
234.45821605976445,0.0022121051743179726,0.002240722931895305,0.0021848978422465207
235.8860896064526,0.002200539869705999,0.0022299295172691688,0.0021726910374397263
237.32265904317862,0.002189116234854276,0.002219326116098601,0.0021605904497323056
238.7679773287663,0.0021778383022676,0.002208921191041095,0.002148597268378142
240.22209774456388,0.0021667105436717596,0.0021987241846706074,0.002136712819316485
241.6850738964082,0.0021557379241664088,0.002188745656706681,0.002124938578911788
243.15695971660094,0.0021449259646570303,0.0021789974450323437,0.002113276189427819
244.63780946589677,0.0021342808140813138,0.002169492855449978,0.0021017274764967625
246.1276777355037,0.0021238093332708566,0.0021602468863356717,0.00209029446888984
247.62661944909556,0.0021135191926955703,0.002151276495907416,0.002078979420951059
249.1346898648367,0.002103418986848442,0.0021426009218324434,0.0020677848381222045
250.6519445774192,0.0020935183686728123,0.002134278092833822,0.0020567135060677293
252.17843952011214,0.0020838282082533193,0.0021268612941554924,0.0020457685240062805
253.71423096682383,0.0020743607810393785,0.0021199126615324506,0.002034953342975446
255.25937553417614,0.002065129992219683,0.0021134848831798683,0.002024271809903525
256.8139301835917,0.0020561516456175173,0.00210779395381866,0.002013728218543773
258.3779522233939,0.0020474437677670604,0.002103213627322248,0.0020033273685519043
259.9514993109193,0.002039027000851012,0.0020994832262367464,0.001993074634268612
261.5346294546434,0.0020309250821975264,0.002096735196702276,0.0019829760451212032
263.1274010163189,0.0020231654334291263,0.002095134042033069,0.0019730383800029344
264.7298727131275,0.0020157798896725085,0.0020948865850178135,0.0019632692785528116
266.3421036198441,0.0020088056092665953,0.0020962564193356347,0.0019536773729794794
267.9641531710149,0.00200228621830959,0.002099584668824329,0.0019442724450002829
269.5960811631483,0.0019962732638984207,0.0021053204703779613,0.0019350656136687126
271.23794775691925,0.0019908280776602233,0.002114066832475027,0.0019260695614337004
272.8898134793871,0.001986024191190805,0.0021266514776000383,0.0019172988078424798
274.551739226227,0.001981950503609428,0.0021442394403685897,0.0019087700430470574
276.2237862639748,0.0019787154886604574,0.0021685173554946485,0.0019005025369607876
277.90601623228537,0.00197645286095233,0.002202003334143064,0.0018925186449063724
279.5984911462053,0.0019753293250581805,0.00224857657407306,0.0018848444374373451
281.3012733984588,0.001975555353114481,0.0023143660496242136,0.0018775104914928063
283.014425761748,0.001977400455667079,0.0024090505990495893,0.001870552893340521
284.73801139106683,0.00198121526789331,0.0025466412919735205,0.0018640145226660628
286.4720938260294,0.0019874642256438205,0.0027406406537868236,0.0018579467144327296
288.21673699321224,0.0019967751306988342,0.0029849559846042363,0.0018524114350935948
289.9720052085111,0.002010016407127674,0.0032443581596479846,0.0018474841692994503
291.73796317951184,0.002028421052818247,0.003495959981300862,0.0018432578037086975
293.5146760078758,0.002053791373917246,0.003746979270445914,0.001839847934736039
295.3022091917398,0.0020888456754758135,0.003992410179818504,0.0018374002493929003
297.10062862813083,0.0021378107137179137,0.004198256760798345,0.0018361009896471735
298.9100006153953,0.002207393137199221,0.004350127907123447,0.0018361921140667855
300.73039185564284,0.002308044185138547,0.004447885603257384,0.0018379938089723334
302.56186945720566,0.0024538381790264276,0.004508673638971607,0.0018419388493460197
304.40450093711223,0.00265415538144922,0.004546732947413856,0.0018486267214415009
306.25835422357636,0.0028932355827051186,0.004572348110523161,0.0018589119741914987
308.1234976585014,0.0031360454388647424,0.004584538858015301,0.0018740544044831833
309.99999999999943,0.003371934362483142,0.004587712213150916,0.0018959740989440443
311.88793042492637,0.003609124566024431,0.004584584755972013,0.001920145043235206
313.7873585314319,0.003832387676280625,0.004576907207607654,0.001953805802159348
315.6983543415253,0.004008812046667627,0.004565853745921225,0.0020011872678313215
317.6209883036567,0.0041294392303939205,0.004552239553837557,0.0020678819060366
319.55533129531426,0.004206603241620491,0.004536647617767277,0.0021588467732091537
321.50145462563694,0.004254494279779577,0.004519505630726234,0.00229081740866413
323.4594300380434,0.004283104378637913,0.004501134341283167,0.0024738963339945353
325.42932971287684,0.004298754827417271,0.004481778939012778,0.002696454185009476
327.41122627006564,0.004305420760880832,0.0044616300143716404,0.0029255309446536435
329.4051927718008,0.004305663415134766,0.004440837912766362,0.0031476569320973784
331.41130272522923,0.004301186274106105,0.004419522787196828,0.0033706709513385376
333.4296300851636,0.0042931586444436036,0.004397781780582915,0.0035835963118100752
335.4602492568085,0.0042824067175895,0.004375694250152103,0.00375514905276652
337.5032350985037,0.004269529481129354,0.0043533256295079995,0.0038737867801533605
339.5586629244835,0.004254971170364818,0.00433073032565263,0.003950016818152011
341.6266085076533,0.004239067894288095,0.004307953921159317,0.0039974676855675795
343.707148082383,0.004222078467706949,0.0042850348685604354,0.004025972845692744
345.80035834731723,0.004204205311767245,0.004262005808581337,0.004041781460822874
347.9063164682029,0.0041856089443377455,0.004238894606235581,0.004048817641782292
350.0251000807338,0.004166418232623692,0.004215725172856899,0.00404960179402735
352.1567872934129,0.004146737782005695,0.004192518123987688,0.004045804494599896
354.3014566904315,0.004126653350480045,0.004169291310161329,0.004038568742949161
356.45918733456637,0.004106235876784521,0.0041460602483572246,0.004028699783491466
358.6300587700943,0.004085544518759297,0.004122838475174976,0.0040167799082983
360.81415102572464,0.004064628974193258,0.004099637837824037,0.004003239988260834
363.01154461754936,0.004043531274185897,0.004076468735347991,0.0039884053681684215
365.2223205520113,0.004022287183701772,0.004053340319744829,0.003972526131345621
367.44656032889054,0.004000927306115802,0.004030260664557392,0.003955797563735994
369.68434594430886,0.003979477962232895,0.004007236906915172,0.003938374309317586
371.93575989375233,0.003957961895726219,0.003984275367783212,0.003920380365042269
374.2008851751128,0.003936398843706167,0.003961381654223797,0.003901916270521581
376.47980529174725,0.003914806001572684,0.003938560746735214,0.003883004531863525
378.77260425555653,0.0038931984043189373,0.003915817074148963,0.003863537511574428
381.079366590082,0.0038715892412969385,0.003893154578105949,0.003843851387869969
383.4001773336217,0.003849990117609612,0.0038705767687654577,0.003823987063319405
385.73512204236533,0.0038284112723989206,0.0038480867731072034,0.0038038692584648984
388.08428679354824,0.0038068617621017336,0.003825687376950659,0.0037834671237219827
390.44775818862445,0.0037853496150624943,0.003803381061624873,0.0037630181026664144
392.8256233564594,0.003763881962593772,0.0037811700360667983,0.003742537776606121
395.2179699565418,0.0037424651505670436,0.0037590562649993625,0.003722039882734661
397.62488618221545,0.003721104834826795,0.0037370414937366006,0.0037015365668633705
400.04646076393004,0.003699806063099386,0.003715127270077448,0.003681038595822964
402.48278297251255,0.003678573345575426,0.003693314963678997,0.003660555536842723
404.93394262245795,0.0036574107159517257,0.003671605783241141,0.0036400959097413702
407.4000300752404,0.003636321784403994,0.0036500007917854753,0.003619667316615558
409.8811362426443,0.003615309783707741,0.003628500920270303,0.003599276552811709
412.37735259011566,0.0035943776095193176,0.003607106979749103,0.003578929702256511
414.8887711401341,0.003573527855661673,0.0035858196722508145,0.0035586322196574957
417.4154844756051,0.0035527628451226603,0.0035646396005357293,0.0035383890016347716
419.9575857432733,0.0035320846573613294,0.003543567276860018,0.003518204448483554
422.51516865715587,0.003511495152424928,0.0035226128461290033,0.0034980825179753345
425.08832750199775,0.003490995992302637,0.0035017704559347747,0.003478026772368998
427.6771571367472,0.0034705886598781705,0.0034810358383034947,0.003458040419610301
430.2817529980528,0.003450274475790172,0.003460409295106169,0.003438126349540365
432.9022111037816,0.0034300546134647006,0.003439902097562913,0.0034182871658040245
435.538628056559,0.0034099301125466073,0.0034195051129343504,0.0033985252140417282
438.1911010473297,0.003389901890925032,0.0033992157336333114,0.003378842606859918
440.85972785894097,0.003369970755521455,0.0033790341098285143,0.003359241246000879
443.54460686974716,0.0033501374119861236,0.0033589603391936964,0.003339722842071374
446.2458370572364,0.0033304024734292976,0.0033389944712583536,0.0033202889321376225
448.96351800167946,0.0033107664682973346,0.003319136511361889,0.003300940895450714
451.6977498898008,0.0032912298474895157,0.003299386424252513,0.003281679967529844
454.44863351847175,0.0032717929907994025,0.0032797441373673773,0.0032625072527996814
457.2162702984266,0.0032524562127541467,0.0032602095438261916,0.00324342373595184
460.00076225800086,0.003233219767916143,0.00324078250516692,0.003224430292177951
462.8022120468927,0.00321408385570372,0.003221462853848924,0.003205527696402685
465.620722939947,0.0031950486247807846,0.003202250395546107,0.003186716631628639
468.4563988409625,0.003176114177059532,0.003183144911250157,0.003167997696490938
471.3093442865224,0.0031572805713552345,0.003164146159201818,0.0031493714121072595
474.17966444984785,0.0031385478267277086,0.003145253876666191,0.003130838228298545
477.06746514467534,0.0031199159255401536,0.0031264677815664235,0.0031123985292465955
479.9728528291573,0.0031013848162627037,0.0031077875739886325,0.0030940526386469343
482.8959346097869,0.0030829544160450185,0.003089212937569574,0.0030758008244084816
485.8368182453461,0.003064624613079664,0.0030707435407774713,0.0030576433029456816
488.79561215087864,0.0030463952687756796,0.003052379038095296,0.00303958024310352
491.7724254016865,0.0030282662197597472,0.0030341190711149534,0.0030216117697513733
494.7673677373509,0.003010237279720542,0.003015963269549941,0.003003737967077663
497.7805495657779,0.002992308241110275,0.002997911252173368,0.0029859588816137875
500.8120819672685,0.0029744788767160158,0.0029799626276875413,0.0029682745250127823
503.86207669861375,0.002956748941112147,0.0029621169955307476,0.0029506848766054448
506.93064619721434,0.002939118172004161,0.0029443739466263412,0.0029331898857542812
510.01790358522595,0.0029215862914730535,0.002926733064078782,0.002915789474023548
513.1239626737292,0.002904153007128646,0.0029091939238208415,0.0028984835371817807
516.2489379669254,0.0028868180131794044,0.0028917560952158032,0.002881271947051571
519.3929446663576,0.0028695809914256027,0.002874419141618187,0.002864154553219881
522.5560986751577,0.002852441612182052,0.0028571826208961607,0.0028471311846208656
525.7385166023189,0.0028353995351360337,0.002840046085918573,0.0028302016510020414
528.9403157669947,0.0028184544101455804,0.0028230090850092666,0.0028133657442835835
532.1616142028237,0.0028016058779827845,0.0028060711623711125,0.0027966232398195998
535.4025306622809,0.002784853571026393,0.0027892318584820013,0.0027799738975694327
538.6631846210557,0.0027681971139075796,0.0027724907104648387,0.0027634174631862595
541.9436962824561,0.002751636124112452,0.0027558472524334284,0.0027469536690296285
545.24418658184,0.002735170212544542,0.0027393010158159605,0.0027305822351079406
548.5647771910736,0.0027187989840502533,0.002722851529657701,0.002714302869956381
551.9055905230166,0.0027025220379099896,0.002706498320904352,0.0026981152714552837
555.266749736035,0.002686338968297467,0.0026902409146673995,0.0026820191275935016
558.6483787385413,0.002670249364709502,0.002674078834472724,0.002666014117180958
562.0506021935626,0.0026542528123683832,0.0026580116024935894,0.002650099910514177
565.4735455233359,0.002638348892598759,0.002642038739769085,0.0026342761699982976
568.9173349139321,0.00262253718318084,0.0026261597664089882,0.0026185425507287575
572.3820973199075,0.0026068172586815384,0.0026103742017859442,0.002602898701035594
