G04 #@! TF.GenerationSoftware,KiCad,Pcbnew,5.0.1-33cea8e~68~ubuntu16.04.1*
G04 #@! TF.CreationDate,2018-11-08T14:47:06+01:00*
G04 #@! TF.ProjectId,passband,7061737362616E642E6B696361645F70,rev?*
G04 #@! TF.SameCoordinates,Original*
G04 #@! TF.FileFunction,Paste,Bot*
G04 #@! TF.FilePolarity,Positive*
%FSLAX46Y46*%
G04 Gerber Fmt 4.6, Leading zero omitted, Abs format (unit mm)*
G04 Created by KiCad (PCBNEW 5.0.1-33cea8e~68~ubuntu16.04.1) date jeu. 08 nov. 2018 14:47:06 CET*
%MOMM*%
%LPD*%
G01*
G04 APERTURE LIST*
%ADD10C,0.100000*%
%ADD11C,0.950000*%
G04 APERTURE END LIST*
D10*
G04 #@! TO.C,R9*
G36*
X116160779Y-85301144D02*
X116183834Y-85304563D01*
X116206443Y-85310227D01*
X116228387Y-85318079D01*
X116249457Y-85328044D01*
X116269448Y-85340026D01*
X116288168Y-85353910D01*
X116305438Y-85369562D01*
X116321090Y-85386832D01*
X116334974Y-85405552D01*
X116346956Y-85425543D01*
X116356921Y-85446613D01*
X116364773Y-85468557D01*
X116370437Y-85491166D01*
X116373856Y-85514221D01*
X116375000Y-85537500D01*
X116375000Y-86112500D01*
X116373856Y-86135779D01*
X116370437Y-86158834D01*
X116364773Y-86181443D01*
X116356921Y-86203387D01*
X116346956Y-86224457D01*
X116334974Y-86244448D01*
X116321090Y-86263168D01*
X116305438Y-86280438D01*
X116288168Y-86296090D01*
X116269448Y-86309974D01*
X116249457Y-86321956D01*
X116228387Y-86331921D01*
X116206443Y-86339773D01*
X116183834Y-86345437D01*
X116160779Y-86348856D01*
X116137500Y-86350000D01*
X115662500Y-86350000D01*
X115639221Y-86348856D01*
X115616166Y-86345437D01*
X115593557Y-86339773D01*
X115571613Y-86331921D01*
X115550543Y-86321956D01*
X115530552Y-86309974D01*
X115511832Y-86296090D01*
X115494562Y-86280438D01*
X115478910Y-86263168D01*
X115465026Y-86244448D01*
X115453044Y-86224457D01*
X115443079Y-86203387D01*
X115435227Y-86181443D01*
X115429563Y-86158834D01*
X115426144Y-86135779D01*
X115425000Y-86112500D01*
X115425000Y-85537500D01*
X115426144Y-85514221D01*
X115429563Y-85491166D01*
X115435227Y-85468557D01*
X115443079Y-85446613D01*
X115453044Y-85425543D01*
X115465026Y-85405552D01*
X115478910Y-85386832D01*
X115494562Y-85369562D01*
X115511832Y-85353910D01*
X115530552Y-85340026D01*
X115550543Y-85328044D01*
X115571613Y-85318079D01*
X115593557Y-85310227D01*
X115616166Y-85304563D01*
X115639221Y-85301144D01*
X115662500Y-85300000D01*
X116137500Y-85300000D01*
X116160779Y-85301144D01*
X116160779Y-85301144D01*
G37*
D11*
X115900000Y-85825000D03*
D10*
G36*
X116160779Y-87051144D02*
X116183834Y-87054563D01*
X116206443Y-87060227D01*
X116228387Y-87068079D01*
X116249457Y-87078044D01*
X116269448Y-87090026D01*
X116288168Y-87103910D01*
X116305438Y-87119562D01*
X116321090Y-87136832D01*
X116334974Y-87155552D01*
X116346956Y-87175543D01*
X116356921Y-87196613D01*
X116364773Y-87218557D01*
X116370437Y-87241166D01*
X116373856Y-87264221D01*
X116375000Y-87287500D01*
X116375000Y-87862500D01*
X116373856Y-87885779D01*
X116370437Y-87908834D01*
X116364773Y-87931443D01*
X116356921Y-87953387D01*
X116346956Y-87974457D01*
X116334974Y-87994448D01*
X116321090Y-88013168D01*
X116305438Y-88030438D01*
X116288168Y-88046090D01*
X116269448Y-88059974D01*
X116249457Y-88071956D01*
X116228387Y-88081921D01*
X116206443Y-88089773D01*
X116183834Y-88095437D01*
X116160779Y-88098856D01*
X116137500Y-88100000D01*
X115662500Y-88100000D01*
X115639221Y-88098856D01*
X115616166Y-88095437D01*
X115593557Y-88089773D01*
X115571613Y-88081921D01*
X115550543Y-88071956D01*
X115530552Y-88059974D01*
X115511832Y-88046090D01*
X115494562Y-88030438D01*
X115478910Y-88013168D01*
X115465026Y-87994448D01*
X115453044Y-87974457D01*
X115443079Y-87953387D01*
X115435227Y-87931443D01*
X115429563Y-87908834D01*
X115426144Y-87885779D01*
X115425000Y-87862500D01*
X115425000Y-87287500D01*
X115426144Y-87264221D01*
X115429563Y-87241166D01*
X115435227Y-87218557D01*
X115443079Y-87196613D01*
X115453044Y-87175543D01*
X115465026Y-87155552D01*
X115478910Y-87136832D01*
X115494562Y-87119562D01*
X115511832Y-87103910D01*
X115530552Y-87090026D01*
X115550543Y-87078044D01*
X115571613Y-87068079D01*
X115593557Y-87060227D01*
X115616166Y-87054563D01*
X115639221Y-87051144D01*
X115662500Y-87050000D01*
X116137500Y-87050000D01*
X116160779Y-87051144D01*
X116160779Y-87051144D01*
G37*
D11*
X115900000Y-87575000D03*
G04 #@! TD*
D10*
G04 #@! TO.C,R11*
G36*
X114385779Y-88126144D02*
X114408834Y-88129563D01*
X114431443Y-88135227D01*
X114453387Y-88143079D01*
X114474457Y-88153044D01*
X114494448Y-88165026D01*
X114513168Y-88178910D01*
X114530438Y-88194562D01*
X114546090Y-88211832D01*
X114559974Y-88230552D01*
X114571956Y-88250543D01*
X114581921Y-88271613D01*
X114589773Y-88293557D01*
X114595437Y-88316166D01*
X114598856Y-88339221D01*
X114600000Y-88362500D01*
X114600000Y-88837500D01*
X114598856Y-88860779D01*
X114595437Y-88883834D01*
X114589773Y-88906443D01*
X114581921Y-88928387D01*
X114571956Y-88949457D01*
X114559974Y-88969448D01*
X114546090Y-88988168D01*
X114530438Y-89005438D01*
X114513168Y-89021090D01*
X114494448Y-89034974D01*
X114474457Y-89046956D01*
X114453387Y-89056921D01*
X114431443Y-89064773D01*
X114408834Y-89070437D01*
X114385779Y-89073856D01*
X114362500Y-89075000D01*
X113787500Y-89075000D01*
X113764221Y-89073856D01*
X113741166Y-89070437D01*
X113718557Y-89064773D01*
X113696613Y-89056921D01*
X113675543Y-89046956D01*
X113655552Y-89034974D01*
X113636832Y-89021090D01*
X113619562Y-89005438D01*
X113603910Y-88988168D01*
X113590026Y-88969448D01*
X113578044Y-88949457D01*
X113568079Y-88928387D01*
X113560227Y-88906443D01*
X113554563Y-88883834D01*
X113551144Y-88860779D01*
X113550000Y-88837500D01*
X113550000Y-88362500D01*
X113551144Y-88339221D01*
X113554563Y-88316166D01*
X113560227Y-88293557D01*
X113568079Y-88271613D01*
X113578044Y-88250543D01*
X113590026Y-88230552D01*
X113603910Y-88211832D01*
X113619562Y-88194562D01*
X113636832Y-88178910D01*
X113655552Y-88165026D01*
X113675543Y-88153044D01*
X113696613Y-88143079D01*
X113718557Y-88135227D01*
X113741166Y-88129563D01*
X113764221Y-88126144D01*
X113787500Y-88125000D01*
X114362500Y-88125000D01*
X114385779Y-88126144D01*
X114385779Y-88126144D01*
G37*
D11*
X114075000Y-88600000D03*
D10*
G36*
X112635779Y-88126144D02*
X112658834Y-88129563D01*
X112681443Y-88135227D01*
X112703387Y-88143079D01*
X112724457Y-88153044D01*
X112744448Y-88165026D01*
X112763168Y-88178910D01*
X112780438Y-88194562D01*
X112796090Y-88211832D01*
X112809974Y-88230552D01*
X112821956Y-88250543D01*
X112831921Y-88271613D01*
X112839773Y-88293557D01*
X112845437Y-88316166D01*
X112848856Y-88339221D01*
X112850000Y-88362500D01*
X112850000Y-88837500D01*
X112848856Y-88860779D01*
X112845437Y-88883834D01*
X112839773Y-88906443D01*
X112831921Y-88928387D01*
X112821956Y-88949457D01*
X112809974Y-88969448D01*
X112796090Y-88988168D01*
X112780438Y-89005438D01*
X112763168Y-89021090D01*
X112744448Y-89034974D01*
X112724457Y-89046956D01*
X112703387Y-89056921D01*
X112681443Y-89064773D01*
X112658834Y-89070437D01*
X112635779Y-89073856D01*
X112612500Y-89075000D01*
X112037500Y-89075000D01*
X112014221Y-89073856D01*
X111991166Y-89070437D01*
X111968557Y-89064773D01*
X111946613Y-89056921D01*
X111925543Y-89046956D01*
X111905552Y-89034974D01*
X111886832Y-89021090D01*
X111869562Y-89005438D01*
X111853910Y-88988168D01*
X111840026Y-88969448D01*
X111828044Y-88949457D01*
X111818079Y-88928387D01*
X111810227Y-88906443D01*
X111804563Y-88883834D01*
X111801144Y-88860779D01*
X111800000Y-88837500D01*
X111800000Y-88362500D01*
X111801144Y-88339221D01*
X111804563Y-88316166D01*
X111810227Y-88293557D01*
X111818079Y-88271613D01*
X111828044Y-88250543D01*
X111840026Y-88230552D01*
X111853910Y-88211832D01*
X111869562Y-88194562D01*
X111886832Y-88178910D01*
X111905552Y-88165026D01*
X111925543Y-88153044D01*
X111946613Y-88143079D01*
X111968557Y-88135227D01*
X111991166Y-88129563D01*
X112014221Y-88126144D01*
X112037500Y-88125000D01*
X112612500Y-88125000D01*
X112635779Y-88126144D01*
X112635779Y-88126144D01*
G37*
D11*
X112325000Y-88600000D03*
G04 #@! TD*
D10*
G04 #@! TO.C,R12*
G36*
X118860779Y-87151144D02*
X118883834Y-87154563D01*
X118906443Y-87160227D01*
X118928387Y-87168079D01*
X118949457Y-87178044D01*
X118969448Y-87190026D01*
X118988168Y-87203910D01*
X119005438Y-87219562D01*
X119021090Y-87236832D01*
X119034974Y-87255552D01*
X119046956Y-87275543D01*
X119056921Y-87296613D01*
X119064773Y-87318557D01*
X119070437Y-87341166D01*
X119073856Y-87364221D01*
X119075000Y-87387500D01*
X119075000Y-87962500D01*
X119073856Y-87985779D01*
X119070437Y-88008834D01*
X119064773Y-88031443D01*
X119056921Y-88053387D01*
X119046956Y-88074457D01*
X119034974Y-88094448D01*
X119021090Y-88113168D01*
X119005438Y-88130438D01*
X118988168Y-88146090D01*
X118969448Y-88159974D01*
X118949457Y-88171956D01*
X118928387Y-88181921D01*
X118906443Y-88189773D01*
X118883834Y-88195437D01*
X118860779Y-88198856D01*
X118837500Y-88200000D01*
X118362500Y-88200000D01*
X118339221Y-88198856D01*
X118316166Y-88195437D01*
X118293557Y-88189773D01*
X118271613Y-88181921D01*
X118250543Y-88171956D01*
X118230552Y-88159974D01*
X118211832Y-88146090D01*
X118194562Y-88130438D01*
X118178910Y-88113168D01*
X118165026Y-88094448D01*
X118153044Y-88074457D01*
X118143079Y-88053387D01*
X118135227Y-88031443D01*
X118129563Y-88008834D01*
X118126144Y-87985779D01*
X118125000Y-87962500D01*
X118125000Y-87387500D01*
X118126144Y-87364221D01*
X118129563Y-87341166D01*
X118135227Y-87318557D01*
X118143079Y-87296613D01*
X118153044Y-87275543D01*
X118165026Y-87255552D01*
X118178910Y-87236832D01*
X118194562Y-87219562D01*
X118211832Y-87203910D01*
X118230552Y-87190026D01*
X118250543Y-87178044D01*
X118271613Y-87168079D01*
X118293557Y-87160227D01*
X118316166Y-87154563D01*
X118339221Y-87151144D01*
X118362500Y-87150000D01*
X118837500Y-87150000D01*
X118860779Y-87151144D01*
X118860779Y-87151144D01*
G37*
D11*
X118600000Y-87675000D03*
D10*
G36*
X118860779Y-85401144D02*
X118883834Y-85404563D01*
X118906443Y-85410227D01*
X118928387Y-85418079D01*
X118949457Y-85428044D01*
X118969448Y-85440026D01*
X118988168Y-85453910D01*
X119005438Y-85469562D01*
X119021090Y-85486832D01*
X119034974Y-85505552D01*
X119046956Y-85525543D01*
X119056921Y-85546613D01*
X119064773Y-85568557D01*
X119070437Y-85591166D01*
X119073856Y-85614221D01*
X119075000Y-85637500D01*
X119075000Y-86212500D01*
X119073856Y-86235779D01*
X119070437Y-86258834D01*
X119064773Y-86281443D01*
X119056921Y-86303387D01*
X119046956Y-86324457D01*
X119034974Y-86344448D01*
X119021090Y-86363168D01*
X119005438Y-86380438D01*
X118988168Y-86396090D01*
X118969448Y-86409974D01*
X118949457Y-86421956D01*
X118928387Y-86431921D01*
X118906443Y-86439773D01*
X118883834Y-86445437D01*
X118860779Y-86448856D01*
X118837500Y-86450000D01*
X118362500Y-86450000D01*
X118339221Y-86448856D01*
X118316166Y-86445437D01*
X118293557Y-86439773D01*
X118271613Y-86431921D01*
X118250543Y-86421956D01*
X118230552Y-86409974D01*
X118211832Y-86396090D01*
X118194562Y-86380438D01*
X118178910Y-86363168D01*
X118165026Y-86344448D01*
X118153044Y-86324457D01*
X118143079Y-86303387D01*
X118135227Y-86281443D01*
X118129563Y-86258834D01*
X118126144Y-86235779D01*
X118125000Y-86212500D01*
X118125000Y-85637500D01*
X118126144Y-85614221D01*
X118129563Y-85591166D01*
X118135227Y-85568557D01*
X118143079Y-85546613D01*
X118153044Y-85525543D01*
X118165026Y-85505552D01*
X118178910Y-85486832D01*
X118194562Y-85469562D01*
X118211832Y-85453910D01*
X118230552Y-85440026D01*
X118250543Y-85428044D01*
X118271613Y-85418079D01*
X118293557Y-85410227D01*
X118316166Y-85404563D01*
X118339221Y-85401144D01*
X118362500Y-85400000D01*
X118837500Y-85400000D01*
X118860779Y-85401144D01*
X118860779Y-85401144D01*
G37*
D11*
X118600000Y-85925000D03*
G04 #@! TD*
M02*
