EESchema Schematic File Version 4
EELAYER 26 0
EELAYER END
$Descr A4 11693 8268
encoding utf-8
Sheet 1 1
Title ""
Date ""
Rev ""
Comp ""
Comment1 ""
Comment2 ""
Comment3 ""
Comment4 ""
$EndDescr
$Comp
L Connector:USB_B_Micro J1
U 1 1 5B9EB83F
P 1450 2700
F 0 "J1" H 1505 3167 50  0000 C CNN
F 1 "USB_B_Micro" H 1505 3076 50  0000 C CNN
F 2 "" H 1600 2650 50  0001 C CNN
F 3 "~" H 1600 2650 50  0001 C CNN
	1    1450 2700
	1    0    0    -1  
$EndComp
$Comp
L Device:C C1
U 1 1 5B9EB8BD
P 2050 2650
F 0 "C1" H 2165 2696 50  0000 L CNN
F 1 "10u" H 2165 2605 50  0000 L CNN
F 2 "" H 2088 2500 50  0001 C CNN
F 3 "~" H 2050 2650 50  0001 C CNN
	1    2050 2650
	1    0    0    -1  
$EndComp
$Comp
L custom:TP4056 U2
U 1 1 5B9ED251
P 4100 2300
F 0 "U2" H 4100 2425 50  0000 C CNN
F 1 "TP4056" H 4100 2334 50  0000 C CNN
F 2 "" H 4100 2300 50  0001 C CNN
F 3 "" H 4100 2300 50  0001 C CNN
	1    4100 2300
	1    0    0    -1  
$EndComp
Wire Wire Line
	1750 2500 2050 2500
$Comp
L power:GND #PWR0101
U 1 1 5B9ED35E
P 1450 3350
F 0 "#PWR0101" H 1450 3100 50  0001 C CNN
F 1 "GND" H 1455 3177 50  0000 C CNN
F 2 "" H 1450 3350 50  0001 C CNN
F 3 "" H 1450 3350 50  0001 C CNN
	1    1450 3350
	1    0    0    -1  
$EndComp
Wire Wire Line
	1450 3100 1450 3200
$Comp
L power:VBUS #PWR0102
U 1 1 5B9ED3C3
P 2050 2500
F 0 "#PWR0102" H 2050 2350 50  0001 C CNN
F 1 "VBUS" H 2065 2673 50  0000 C CNN
F 2 "" H 2050 2500 50  0001 C CNN
F 3 "" H 2050 2500 50  0001 C CNN
	1    2050 2500
	1    0    0    -1  
$EndComp
Connection ~ 2050 2500
Wire Wire Line
	1450 3200 2050 3200
Wire Wire Line
	2050 3200 2050 2800
Connection ~ 1450 3200
Wire Wire Line
	1450 3200 1450 3350
$Comp
L Device:R R2
U 1 1 5B9ED54C
P 4650 2500
F 0 "R2" V 4443 2500 50  0000 C CNN
F 1 "1K" V 4534 2500 50  0000 C CNN
F 2 "" V 4580 2500 50  0001 C CNN
F 3 "~" H 4650 2500 50  0001 C CNN
	1    4650 2500
	0    1    1    0   
$EndComp
$Comp
L Device:R R3
U 1 1 5B9ED5EE
P 4650 2600
F 0 "R3" V 4443 2600 50  0000 C CNN
F 1 "1K" V 4534 2600 50  0000 C CNN
F 2 "" V 4580 2600 50  0001 C CNN
F 3 "~" H 4650 2600 50  0001 C CNN
	1    4650 2600
	0    1    1    0   
$EndComp
$Comp
L Device:LED D1
U 1 1 5B9ED67E
P 4950 2500
F 0 "D1" H 4941 2716 50  0000 C CNN
F 1 "LEDR" H 4941 2625 50  0000 C CNN
F 2 "" H 4950 2500 50  0001 C CNN
F 3 "~" H 4950 2500 50  0001 C CNN
	1    4950 2500
	1    0    0    -1  
$EndComp
$Comp
L Device:LED D2
U 1 1 5B9ED6CE
P 5150 2600
F 0 "D2" H 5141 2816 50  0000 C CNN
F 1 "LEDG" H 5141 2725 50  0000 C CNN
F 2 "" H 5150 2600 50  0001 C CNN
F 3 "~" H 5150 2600 50  0001 C CNN
	1    5150 2600
	1    0    0    -1  
$EndComp
$Comp
L power:VBUS #PWR0103
U 1 1 5B9ED8E4
P 5300 2300
F 0 "#PWR0103" H 5300 2150 50  0001 C CNN
F 1 "VBUS" H 5315 2473 50  0000 C CNN
F 2 "" H 5300 2300 50  0001 C CNN
F 3 "" H 5300 2300 50  0001 C CNN
	1    5300 2300
	1    0    0    -1  
$EndComp
Wire Wire Line
	5300 2400 5300 2300
Wire Wire Line
	5300 2600 5300 2500
Connection ~ 5300 2400
Connection ~ 5300 2500
Wire Wire Line
	5300 2500 5300 2400
$Comp
L power:+BATT #PWR0104
U 1 1 5B9EDA1C
P 4850 2950
F 0 "#PWR0104" H 4850 2800 50  0001 C CNN
F 1 "+BATT" H 4865 3123 50  0000 C CNN
F 2 "" H 4850 2950 50  0001 C CNN
F 3 "" H 4850 2950 50  0001 C CNN
	1    4850 2950
	1    0    0    -1  
$EndComp
Wire Wire Line
	4500 2700 4500 2950
Wire Wire Line
	4500 2950 4850 2950
$Comp
L power:VBUS #PWR0105
U 1 1 5B9EDB15
P 3350 2850
F 0 "#PWR0105" H 3350 2700 50  0001 C CNN
F 1 "VBUS" H 3365 3023 50  0000 C CNN
F 2 "" H 3350 2850 50  0001 C CNN
F 3 "" H 3350 2850 50  0001 C CNN
	1    3350 2850
	1    0    0    -1  
$EndComp
Wire Wire Line
	3350 2850 3700 2850
Wire Wire Line
	3700 2850 3700 2700
$Comp
L Device:R R1
U 1 1 5B9EDC1F
P 3550 2500
F 0 "R1" V 3757 2500 50  0000 C CNN
F 1 "2K" V 3666 2500 50  0000 C CNN
F 2 "" V 3480 2500 50  0001 C CNN
F 3 "~" H 3550 2500 50  0001 C CNN
	1    3550 2500
	0    -1   -1   0   
$EndComp
$Comp
L power:GND #PWR0106
U 1 1 5B9EDCAB
P 3100 2600
F 0 "#PWR0106" H 3100 2350 50  0001 C CNN
F 1 "GND" H 3105 2427 50  0000 C CNN
F 2 "" H 3100 2600 50  0001 C CNN
F 3 "" H 3100 2600 50  0001 C CNN
	1    3100 2600
	1    0    0    -1  
$EndComp
Wire Wire Line
	3100 2600 3700 2600
Wire Wire Line
	3400 2500 3100 2500
Wire Wire Line
	3100 2500 3100 2600
Connection ~ 3100 2600
Wire Wire Line
	3100 2500 3100 2400
Wire Wire Line
	3100 2400 3700 2400
Connection ~ 3100 2500
Wire Wire Line
	4800 2600 5000 2600
Wire Wire Line
	5100 2500 5300 2500
Wire Wire Line
	4500 2400 5300 2400
$Comp
L custom:FS312F-G U1
U 1 1 5B9EEDE1
P 3800 3650
F 0 "U1" H 3800 3775 50  0000 C CNN
F 1 "FS312F-G" H 3800 3684 50  0000 C CNN
F 2 "" H 3800 3650 50  0001 C CNN
F 3 "" H 3800 3650 50  0001 C CNN
	1    3800 3650
	1    0    0    -1  
$EndComp
$Comp
L Device:Q_DUAL_NMOS_G1S2G2D2S1D1 Q1
U 1 1 5B9EEFEF
P 3650 4800
F 0 "Q1" V 3900 4800 50  0000 C CNN
F 1 "Q_DUAL_NMOS_G1S2G2D2S1D1" V 3991 4800 50  0000 C CNN
F 2 "Package_TO_SOT_SMD:SOT-23-6_Handsoldering" H 3850 4800 50  0001 C CNN
F 3 "~" H 3850 4800 50  0001 C CNN
	1    3650 4800
	0    1    1    0   
$EndComp
$Comp
L Device:Q_DUAL_NMOS_G1S2G2D2S1D1 Q1
U 2 1 5B9EF1DD
P 4350 5000
F 0 "Q1" V 4693 5000 50  0000 C CNN
F 1 "Q_DUAL_NMOS_G1S2G2D2S1D1" V 4602 5000 50  0000 C CNN
F 2 "Package_TO_SOT_SMD:SOT-23-6_Handsoldering" H 4550 5000 50  0001 C CNN
F 3 "~" H 4550 5000 50  0001 C CNN
	2    4350 5000
	0    -1   -1   0   
$EndComp
Wire Wire Line
	3350 3750 2550 3750
Wire Wire Line
	2550 3750 2550 5450
Wire Wire Line
	2550 5450 4350 5450
Wire Wire Line
	4350 5450 4350 5200
Wire Wire Line
	3350 3950 3250 3950
Wire Wire Line
	3250 3950 3250 4600
Wire Wire Line
	3250 4600 3650 4600
$Comp
L power:GND #PWR0107
U 1 1 5B9EFCBF
P 2800 5050
F 0 "#PWR0107" H 2800 4800 50  0001 C CNN
F 1 "GND" H 2805 4877 50  0000 C CNN
F 2 "" H 2800 5050 50  0001 C CNN
F 3 "" H 2800 5050 50  0001 C CNN
	1    2800 5050
	1    0    0    -1  
$EndComp
$Comp
L Device:R R4
U 1 1 5B9EFD8C
P 2800 4500
F 0 "R4" H 2870 4546 50  0000 L CNN
F 1 "2k" H 2870 4455 50  0000 L CNN
F 2 "" V 2730 4500 50  0001 C CNN
F 3 "~" H 2800 4500 50  0001 C CNN
	1    2800 4500
	1    0    0    -1  
$EndComp
Wire Wire Line
	2800 4350 2800 3850
Wire Wire Line
	2800 3850 3350 3850
Wire Wire Line
	2800 4650 2800 4900
Wire Wire Line
	3450 4900 2800 4900
Connection ~ 2800 4900
Wire Wire Line
	2800 4900 2800 5050
Wire Wire Line
	3850 4900 4150 4900
Wire Wire Line
	4250 3950 5000 3950
Wire Wire Line
	5000 3950 5000 4900
Wire Wire Line
	5000 4900 4550 4900
$Comp
L power:-BATT #PWR0108
U 1 1 5B9F14AD
P 5350 3950
F 0 "#PWR0108" H 5350 3800 50  0001 C CNN
F 1 "-BATT" H 5365 4123 50  0000 C CNN
F 2 "" H 5350 3950 50  0001 C CNN
F 3 "" H 5350 3950 50  0001 C CNN
	1    5350 3950
	1    0    0    -1  
$EndComp
Wire Wire Line
	5000 3950 5350 3950
Connection ~ 5000 3950
NoConn ~ 4250 3750
$Comp
L Device:C C2
U 1 1 5B9F25B4
P 5000 3800
F 0 "C2" H 5115 3846 50  0000 L CNN
F 1 "C" H 5115 3755 50  0000 L CNN
F 2 "" H 5038 3650 50  0001 C CNN
F 3 "~" H 5000 3800 50  0001 C CNN
	1    5000 3800
	1    0    0    -1  
$EndComp
$Comp
L Device:R R5
U 1 1 5B9F26FF
P 5150 3650
F 0 "R5" V 4943 3650 50  0000 C CNN
F 1 "R" V 5034 3650 50  0000 C CNN
F 2 "" V 5080 3650 50  0001 C CNN
F 3 "~" H 5150 3650 50  0001 C CNN
	1    5150 3650
	0    1    1    0   
$EndComp
$Comp
L power:+BATT #PWR0109
U 1 1 5B9F2787
P 5350 3600
F 0 "#PWR0109" H 5350 3450 50  0001 C CNN
F 1 "+BATT" H 5365 3773 50  0000 C CNN
F 2 "" H 5350 3600 50  0001 C CNN
F 3 "" H 5350 3600 50  0001 C CNN
	1    5350 3600
	1    0    0    -1  
$EndComp
Wire Wire Line
	5300 3650 5350 3650
Wire Wire Line
	5350 3650 5350 3600
Wire Wire Line
	5000 3650 4650 3650
Wire Wire Line
	4650 3650 4650 3850
Wire Wire Line
	4650 3850 4250 3850
Connection ~ 5000 3650
$Comp
L Switch:SW_SPDT SW1
U 1 1 5B9F38A5
P 6750 2800
F 0 "SW1" H 6750 3085 50  0000 C CNN
F 1 "SW_SPDT" H 6750 2994 50  0000 C CNN
F 2 "" H 6750 2800 50  0001 C CNN
F 3 "" H 6750 2800 50  0001 C CNN
	1    6750 2800
	1    0    0    -1  
$EndComp
$Comp
L power:+BATT #PWR0110
U 1 1 5B9F3960
P 6400 2600
F 0 "#PWR0110" H 6400 2450 50  0001 C CNN
F 1 "+BATT" H 6415 2773 50  0000 C CNN
F 2 "" H 6400 2600 50  0001 C CNN
F 3 "" H 6400 2600 50  0001 C CNN
	1    6400 2600
	1    0    0    -1  
$EndComp
Wire Wire Line
	6400 2600 6400 2800
Wire Wire Line
	6400 2800 6550 2800
$Comp
L custom:MT3608 U3
U 1 1 5B9F4C4A
P 8200 2950
F 0 "U3" H 8200 2385 50  0000 C CNN
F 1 "MT3608" H 8200 2476 50  0000 C CNN
F 2 "" H 8200 2950 50  0001 C CNN
F 3 "" H 8200 2950 50  0001 C CNN
	1    8200 2950
	-1   0    0    1   
$EndComp
$Comp
L Device:L L1
U 1 1 5B9F5CEF
P 8150 3150
F 0 "L1" V 7972 3150 50  0000 C CNN
F 1 "22uH" V 8063 3150 50  0000 C CNN
F 2 "" H 8150 3150 50  0001 C CNN
F 3 "~" H 8150 3150 50  0001 C CNN
	1    8150 3150
	0    1    1    0   
$EndComp
$Comp
L Device:D_Schottky D3
U 1 1 5B9F5D7C
P 8800 3150
F 0 "D3" H 8800 2934 50  0000 C CNN
F 1 "D_Schottky" H 8800 3025 50  0000 C CNN
F 2 "" H 8800 3150 50  0001 C CNN
F 3 "~" H 8800 3150 50  0001 C CNN
	1    8800 3150
	-1   0    0    1   
$EndComp
$Comp
L Device:R R6
U 1 1 5B9F6859
P 9000 2150
F 0 "R6" H 8930 2104 50  0000 R CNN
F 1 "7.5k" H 8930 2195 50  0000 R CNN
F 2 "" V 8930 2150 50  0001 C CNN
F 3 "~" H 9000 2150 50  0001 C CNN
	1    9000 2150
	-1   0    0    1   
$EndComp
$Comp
L Device:R R7
U 1 1 5B9F77D8
P 9000 2500
F 0 "R7" H 9070 2546 50  0000 L CNN
F 1 "1k" H 9070 2455 50  0000 L CNN
F 2 "" V 8930 2500 50  0001 C CNN
F 3 "~" H 9000 2500 50  0001 C CNN
	1    9000 2500
	1    0    0    -1  
$EndComp
$Comp
L Device:C C6
U 1 1 5B9F7889
P 9300 2150
F 0 "C6" H 9415 2196 50  0000 L CNN
F 1 "22uF" H 9415 2105 50  0000 L CNN
F 2 "" H 9338 2000 50  0001 C CNN
F 3 "~" H 9300 2150 50  0001 C CNN
	1    9300 2150
	1    0    0    -1  
$EndComp
$Comp
L Device:C C3
U 1 1 5B9F78F6
P 7400 3000
F 0 "C3" H 7515 3046 50  0000 L CNN
F 1 "22uF" H 7515 2955 50  0000 L CNN
F 2 "" H 7438 2850 50  0001 C CNN
F 3 "~" H 7400 3000 50  0001 C CNN
	1    7400 3000
	1    0    0    -1  
$EndComp
Wire Wire Line
	7800 2700 7650 2700
Wire Wire Line
	7400 2700 7400 2850
Connection ~ 7650 2700
Wire Wire Line
	7650 2700 7400 2700
Wire Wire Line
	8600 2800 8650 2800
Wire Wire Line
	8650 2800 8650 3150
Wire Wire Line
	9000 2000 9300 2000
$Comp
L power:GND #PWR0111
U 1 1 5B9FD6F7
P 9000 2700
F 0 "#PWR0111" H 9000 2450 50  0001 C CNN
F 1 "GND" H 9005 2527 50  0000 C CNN
F 2 "" H 9000 2700 50  0001 C CNN
F 3 "" H 9000 2700 50  0001 C CNN
	1    9000 2700
	1    0    0    -1  
$EndComp
Wire Wire Line
	9000 2700 9300 2700
$Comp
L power:GND #PWR0112
U 1 1 5B9FF2AC
P 7400 3150
F 0 "#PWR0112" H 7400 2900 50  0001 C CNN
F 1 "GND" H 7405 2977 50  0000 C CNN
F 2 "" H 7400 3150 50  0001 C CNN
F 3 "" H 7400 3150 50  0001 C CNN
	1    7400 3150
	1    0    0    -1  
$EndComp
Wire Wire Line
	9000 2300 9000 2350
Wire Wire Line
	7650 2700 7650 2800
Wire Wire Line
	7800 2800 7650 2800
Connection ~ 7650 2800
Wire Wire Line
	7650 2800 7650 3150
NoConn ~ 7800 2600
Wire Wire Line
	6950 2700 7150 2700
Connection ~ 7400 2700
$Comp
L Regulator_Linear:TLV71333PDBV U4
U 1 1 5BA064FF
P 8400 4650
F 0 "U4" H 8400 4992 50  0000 C CNN
F 1 "TLV71333PDBV" H 8400 4901 50  0000 C CNN
F 2 "Package_TO_SOT_SMD:SOT-23-5" H 8400 4975 50  0001 C CIN
F 3 "http://www.ti.com/lit/ds/symlink/tlv713p.pdf" H 8400 4650 50  0001 C CNN
	1    8400 4650
	1    0    0    -1  
$EndComp
Wire Wire Line
	7150 2700 7150 4550
Wire Wire Line
	7150 4550 7850 4550
Connection ~ 7150 2700
Wire Wire Line
	7150 2700 7400 2700
Wire Wire Line
	8000 4550 8000 4650
Wire Wire Line
	8000 4650 8100 4650
Connection ~ 8000 4550
Wire Wire Line
	8000 4550 8100 4550
$Comp
L power:GND #PWR0113
U 1 1 5BA088D6
P 8400 5000
F 0 "#PWR0113" H 8400 4750 50  0001 C CNN
F 1 "GND" H 8405 4827 50  0000 C CNN
F 2 "" H 8400 5000 50  0001 C CNN
F 3 "" H 8400 5000 50  0001 C CNN
	1    8400 5000
	1    0    0    -1  
$EndComp
$Comp
L Device:C C4
U 1 1 5BA08952
P 7850 4700
F 0 "C4" H 7965 4746 50  0000 L CNN
F 1 "22uF" H 7965 4655 50  0000 L CNN
F 2 "" H 7888 4550 50  0001 C CNN
F 3 "~" H 7850 4700 50  0001 C CNN
	1    7850 4700
	1    0    0    -1  
$EndComp
Connection ~ 7850 4550
Wire Wire Line
	7850 4550 8000 4550
$Comp
L Device:C C5
U 1 1 5BA089EA
P 8850 4700
F 0 "C5" H 8965 4746 50  0000 L CNN
F 1 "22uF" H 8965 4655 50  0000 L CNN
F 2 "" H 8888 4550 50  0001 C CNN
F 3 "~" H 8850 4700 50  0001 C CNN
	1    8850 4700
	1    0    0    -1  
$EndComp
Wire Wire Line
	8700 4550 8850 4550
Wire Wire Line
	7850 4950 8400 4950
$Comp
L Connector:Conn_01x02_Female J4
U 1 1 5BA0CF11
P 10000 2000
F 0 "J4" H 10027 1976 50  0000 L CNN
F 1 "Conn_01x02_Female" H 10027 1885 50  0000 L CNN
F 2 "" H 10000 2000 50  0001 C CNN
F 3 "~" H 10000 2000 50  0001 C CNN
	1    10000 2000
	1    0    0    -1  
$EndComp
$Comp
L Connector:Conn_01x02_Female J3
U 1 1 5BA0CFEB
P 9650 4550
F 0 "J3" H 9677 4526 50  0000 L CNN
F 1 "Conn_01x02_Female" H 9677 4435 50  0000 L CNN
F 2 "" H 9650 4550 50  0001 C CNN
F 3 "~" H 9650 4550 50  0001 C CNN
	1    9650 4550
	1    0    0    -1  
$EndComp
Connection ~ 9300 2000
Wire Wire Line
	9300 2700 9800 2700
Wire Wire Line
	8850 4550 9300 4550
Connection ~ 8850 4550
Wire Wire Line
	8300 3150 8650 3150
Wire Wire Line
	7650 3150 8000 3150
Wire Wire Line
	9300 2000 9450 2000
$Comp
L power:+5V #PWR0114
U 1 1 5BA259F0
P 9600 2000
F 0 "#PWR0114" H 9600 1850 50  0001 C CNN
F 1 "+5V" H 9615 2173 50  0000 C CNN
F 2 "" H 9600 2000 50  0001 C CNN
F 3 "" H 9600 2000 50  0001 C CNN
	1    9600 2000
	1    0    0    -1  
$EndComp
Connection ~ 9600 2000
Wire Wire Line
	9600 2000 9800 2000
$Comp
L power:+3.3V #PWR0115
U 1 1 5BA25A6C
P 9300 4550
F 0 "#PWR0115" H 9300 4400 50  0001 C CNN
F 1 "+3.3V" H 9315 4723 50  0000 C CNN
F 2 "" H 9300 4550 50  0001 C CNN
F 3 "" H 9300 4550 50  0001 C CNN
	1    9300 4550
	1    0    0    -1  
$EndComp
Connection ~ 9300 4550
Wire Wire Line
	9300 4550 9450 4550
$Comp
L Connector:Conn_01x02_Female J2
U 1 1 5BA2616B
P 6050 3650
F 0 "J2" H 6077 3626 50  0000 L CNN
F 1 "Conn_01x02_Female" H 6077 3535 50  0000 L CNN
F 2 "" H 6050 3650 50  0001 C CNN
F 3 "~" H 6050 3650 50  0001 C CNN
	1    6050 3650
	1    0    0    -1  
$EndComp
Wire Wire Line
	5350 3650 5850 3650
Connection ~ 5350 3650
Wire Wire Line
	5350 3950 5850 3950
Wire Wire Line
	5850 3950 5850 3750
Connection ~ 5350 3950
Connection ~ 8400 4950
Wire Wire Line
	8400 4950 8850 4950
Wire Wire Line
	7850 4850 7850 4950
Wire Wire Line
	8850 4850 8850 4950
Wire Wire Line
	9450 4950 8850 4950
Wire Wire Line
	9450 4650 9450 4950
Connection ~ 8850 4950
Wire Wire Line
	8400 4950 8400 5000
Wire Wire Line
	8600 2700 9000 2700
Wire Wire Line
	9000 2650 9000 2700
Connection ~ 9000 2700
Connection ~ 8650 3150
Wire Wire Line
	8600 2600 8800 2600
Wire Wire Line
	8800 2600 8800 2350
Wire Wire Line
	8800 2350 9000 2350
Connection ~ 9000 2350
Wire Wire Line
	8950 3150 9450 3150
Wire Wire Line
	9450 3150 9450 2000
Connection ~ 9450 2000
Wire Wire Line
	9450 2000 9600 2000
Connection ~ 9300 2700
Wire Wire Line
	9300 2300 9300 2700
Wire Wire Line
	9800 2100 9800 2700
$EndSCHEMATC
