PCBNEW-LibModule-V1  
# encoding utf-8
Units mm
$INDEX
SOIC127P600X175-8N
$EndINDEX
$MODULE SOIC127P600X175-8N
Po 0 0 0 15 00000000 00000000 ~~
Li SOIC127P600X175-8N
Cd 
Sc 00000000
At SMD
Op 0 0 0
.SolderMask 0
.SolderPaste 0
T0 -1.13935 -3.36932 1.01732 1.01732 0 0.05 N V 21 "SOIC127P600X175-8N"
T1 -0.49451 3.37679 1.01956 1.01956 0 0.05 N V 21 "VAL**"
DP 0 0 0 0 4 0 19
Dl -0.612958 -0.825
Dl 0.603 -0.825
Dl 0.603 0.838624
Dl -0.612958 0.838624
DC -4.285 -2.495 -4.085 -2.495 0 21
DC -4.285 -2.495 -4.085 -2.495 0 24
DS -1.95 -2.45 1.95 -2.45 0.127 24
DS -1.95 2.45 1.95 2.45 0.127 24
DS -1.95 -2.45 1.95 -2.45 0.127 21
DS -1.95 2.45 1.95 2.45 0.127 21
DS -1.95 -2.45 -1.95 2.45 0.127 24
DS 1.95 -2.45 1.95 2.45 0.127 24
DS -3.705 -2.7 3.705 -2.7 0.05 26
DS -3.705 2.7 3.705 2.7 0.05 26
DS -3.705 -2.7 -3.705 2.7 0.05 26
DS 3.705 -2.7 3.705 2.7 0.05 26
$PAD
Sh "1" R 1.66 0.59 0 0 0
At SMD N 00888000
.SolderMask 0
.SolderPaste 0
Ne 0 ""
Po -2.625 -1.905
$EndPAD
$PAD
Sh "2" R 1.66 0.59 0 0 0
At SMD N 00888000
.SolderMask 0
.SolderPaste 0
Ne 0 ""
Po -2.625 -0.635
$EndPAD
$PAD
Sh "3" R 1.66 0.59 0 0 0
At SMD N 00888000
.SolderMask 0
.SolderPaste 0
Ne 0 ""
Po -2.625 0.635
$EndPAD
$PAD
Sh "4" R 1.66 0.59 0 0 0
At SMD N 00888000
.SolderMask 0
.SolderPaste 0
Ne 0 ""
Po -2.625 1.905
$EndPAD
$PAD
Sh "5" R 1.66 0.59 0 0 0
At SMD N 00888000
.SolderMask 0
.SolderPaste 0
Ne 0 ""
Po 2.625 1.905
$EndPAD
$PAD
Sh "6" R 1.66 0.59 0 0 0
At SMD N 00888000
.SolderMask 0
.SolderPaste 0
Ne 0 ""
Po 2.625 0.635
$EndPAD
$PAD
Sh "7" R 1.66 0.59 0 0 0
At SMD N 00888000
.SolderMask 0
.SolderPaste 0
Ne 0 ""
Po 2.625 -0.635
$EndPAD
$PAD
Sh "8" R 1.66 0.59 0 0 0
At SMD N 00888000
.SolderMask 0
.SolderPaste 0
Ne 0 ""
Po 2.625 -1.905
$EndPAD
$PAD
Sh "9" R 2.41 3.3 0 0 0
At SMD N 00888000
.SolderMask 0
Ne 0 ""
Po 0 0
$EndPAD
$EndMODULE SOIC127P600X175-8N
