EESchema Schematic File Version 4
LIBS:passband-cache
EELAYER 26 0
EELAYER END
$Descr A4 11693 8268
encoding utf-8
Sheet 1 1
Title ""
Date ""
Rev ""
Comp ""
Comment1 ""
Comment2 ""
Comment3 ""
Comment4 ""
$EndDescr
$Comp
L Amplifier_Operational:LF353P U1
U 1 1 5BD0A335
P 3900 3500
F 0 "U1" H 4241 3121 50  0000 L CNN
F 1 "LF353P" H 4241 3030 50  0000 L CNN
F 2 "Package_DIP:DIP-8_W7.62mm" H 3950 3550 50  0001 C CNN
F 3 "http://www.ti.com/lit/ds/symlink/lm741.pdf" H 4050 3650 50  0001 C CNN
	1    3900 3500
	1    0    0    -1  
$EndComp
Wire Wire Line
	3800 3800 3950 3800
$Comp
L Device:R R5
U 1 1 5BD0A35E
P 3750 2550
F 0 "R5" V 3543 2550 50  0000 C CNN
F 1 "80k" V 3634 2550 50  0000 C CNN
F 2 "Potentiometer_THT:Potentiometer_Alps_RK163_Single_Horizontal" V 3680 2550 50  0001 C CNN
F 3 "~" H 3750 2550 50  0001 C CNN
	1    3750 2550
	0    1    1    0   
$EndComp
$Comp
L Device:R R1
U 1 1 5BD0A365
P 2600 3350
F 0 "R1" V 2393 3350 50  0000 C CNN
F 1 "40k" V 2484 3350 50  0000 C CNN
F 2 "Potentiometer_THT:Potentiometer_Alps_RK163_Single_Horizontal" V 2530 3350 50  0001 C CNN
F 3 "~" H 2600 3350 50  0001 C CNN
	1    2600 3350
	0    1    1    0   
$EndComp
$Comp
L Device:C C2
U 1 1 5BD0A36C
P 3750 2200
F 0 "C2" V 3498 2200 50  0000 C CNN
F 1 "100nF" V 3589 2200 50  0000 C CNN
F 2 "Capacitor_THT:C_Rect_L7.2mm_W2.5mm_P5.00mm_FKS2_FKP2_MKS2_MKP2" H 3788 2050 50  0001 C CNN
F 3 "~" H 3750 2200 50  0001 C CNN
	1    3750 2200
	0    1    1    0   
$EndComp
$Comp
L Device:C C1
U 1 1 5BD0A373
P 3000 3350
F 0 "C1" V 2748 3350 50  0000 C CNN
F 1 "100nF" V 2839 3350 50  0000 C CNN
F 2 "Capacitor_THT:C_Rect_L7.2mm_W2.5mm_P5.00mm_FKS2_FKP2_MKS2_MKP2" H 3038 3200 50  0001 C CNN
F 3 "~" H 3000 3350 50  0001 C CNN
	1    3000 3350
	0    1    1    0   
$EndComp
Wire Wire Line
	3150 3350 3150 3600
Wire Wire Line
	3150 3600 3600 3600
Wire Wire Line
	3600 2550 3150 2550
Wire Wire Line
	3900 2550 4200 2550
Wire Wire Line
	3900 2200 4200 2200
Wire Wire Line
	3600 2200 2850 2200
Wire Wire Line
	2750 3350 2850 3350
Connection ~ 2850 3350
$Comp
L Connector:Conn_01x02_Female J1
U 1 1 5BD0A38F
P 1900 3450
F 0 "J1" H 1794 3125 50  0000 C CNN
F 1 "In" H 1794 3216 50  0000 C CNN
F 2 "Connector_PinHeader_2.54mm:PinHeader_1x02_P2.54mm_Vertical" H 1900 3450 50  0001 C CNN
F 3 "~" H 1900 3450 50  0001 C CNN
	1    1900 3450
	-1   0    0    1   
$EndComp
$Comp
L power:GND #PWR0101
U 1 1 5BD0A396
P 2200 3550
F 0 "#PWR0101" H 2200 3300 50  0001 C CNN
F 1 "GND" H 2205 3377 50  0000 C CNN
F 2 "" H 2200 3550 50  0001 C CNN
F 3 "" H 2200 3550 50  0001 C CNN
	1    2200 3550
	1    0    0    -1  
$EndComp
Wire Wire Line
	4700 3500 4200 3500
Wire Wire Line
	2100 3350 2450 3350
Wire Wire Line
	2100 3450 2200 3450
Wire Wire Line
	2200 3450 2200 3550
$Comp
L Connector:Conn_01x02_Female J4
U 1 1 5BD0A3A9
P 5650 2550
F 0 "J4" H 5678 2526 50  0000 L CNN
F 1 "Power" H 5678 2435 50  0000 L CNN
F 2 "Connector_PinHeader_2.54mm:PinHeader_1x02_P2.54mm_Vertical" H 5650 2550 50  0001 C CNN
F 3 "~" H 5650 2550 50  0001 C CNN
	1    5650 2550
	1    0    0    -1  
$EndComp
$Comp
L Connector:Conn_01x02_Female J2
U 1 1 5BD0D104
P 4950 4350
F 0 "J2" H 4978 4326 50  0000 L CNN
F 1 "Amplified out" H 4978 4235 50  0000 L CNN
F 2 "Connector_PinHeader_2.54mm:PinHeader_1x02_P2.54mm_Vertical" H 4950 4350 50  0001 C CNN
F 3 "~" H 4950 4350 50  0001 C CNN
	1    4950 4350
	1    0    0    -1  
$EndComp
Wire Wire Line
	4200 4350 4250 4350
$Comp
L power:GND #PWR0102
U 1 1 5BD0EA67
P 4750 4500
F 0 "#PWR0102" H 4750 4250 50  0001 C CNN
F 1 "GND" H 4755 4327 50  0000 C CNN
F 2 "" H 4750 4500 50  0001 C CNN
F 3 "" H 4750 4500 50  0001 C CNN
	1    4750 4500
	1    0    0    -1  
$EndComp
Wire Wire Line
	4750 4450 4750 4500
$Comp
L Device:R R2
U 1 1 5BD0F895
P 2850 3550
F 0 "R2" H 2920 3596 50  0000 L CNN
F 1 "1k3" H 2920 3505 50  0000 L CNN
F 2 "Resistor_THT:R_Axial_DIN0207_L6.3mm_D2.5mm_P7.62mm_Horizontal" V 2780 3550 50  0001 C CNN
F 3 "~" H 2850 3550 50  0001 C CNN
	1    2850 3550
	1    0    0    -1  
$EndComp
Wire Wire Line
	2850 3350 2850 3400
$Comp
L power:GND #PWR0103
U 1 1 5BD10651
P 2850 3700
F 0 "#PWR0103" H 2850 3450 50  0001 C CNN
F 1 "GND" H 2855 3527 50  0000 C CNN
F 2 "" H 2850 3700 50  0001 C CNN
F 3 "" H 2850 3700 50  0001 C CNN
	1    2850 3700
	1    0    0    -1  
$EndComp
$Comp
L Device:R R6
U 1 1 5BD1093F
P 4650 2600
F 0 "R6" H 4720 2646 50  0000 L CNN
F 1 "100k" H 4720 2555 50  0000 L CNN
F 2 "Resistor_THT:R_Axial_DIN0207_L6.3mm_D2.5mm_P7.62mm_Horizontal" V 4580 2600 50  0001 C CNN
F 3 "~" H 4650 2600 50  0001 C CNN
	1    4650 2600
	1    0    0    -1  
$EndComp
$Comp
L Device:R R7
U 1 1 5BD10A85
P 4650 2900
F 0 "R7" H 4720 2946 50  0000 L CNN
F 1 "100k" H 4720 2855 50  0000 L CNN
F 2 "Resistor_THT:R_Axial_DIN0207_L6.3mm_D2.5mm_P7.62mm_Horizontal" V 4580 2900 50  0001 C CNN
F 3 "~" H 4650 2900 50  0001 C CNN
	1    4650 2900
	1    0    0    -1  
$EndComp
$Comp
L Device:C C3
U 1 1 5BD10B14
P 4900 2850
F 0 "C3" H 5015 2896 50  0000 L CNN
F 1 "10uf" H 5015 2805 50  0000 L CNN
F 2 "Capacitor_THT:CP_Radial_D5.0mm_P2.50mm" H 4938 2700 50  0001 C CNN
F 3 "~" H 4900 2850 50  0001 C CNN
	1    4900 2850
	1    0    0    -1  
$EndComp
Wire Wire Line
	4650 2450 4900 2450
Wire Wire Line
	4900 2450 4900 2700
Wire Wire Line
	4650 3050 4650 3150
Wire Wire Line
	4650 3150 4900 3150
Wire Wire Line
	4900 3150 4900 3000
$Comp
L power:-BATT #PWR0104
U 1 1 5BD1514A
P 4900 3250
F 0 "#PWR0104" H 4900 3100 50  0001 C CNN
F 1 "-BATT" H 4915 3423 50  0000 C CNN
F 2 "" H 4900 3250 50  0001 C CNN
F 3 "" H 4900 3250 50  0001 C CNN
	1    4900 3250
	-1   0    0    1   
$EndComp
$Comp
L power:+BATT #PWR0105
U 1 1 5BD15388
P 4900 2350
F 0 "#PWR0105" H 4900 2200 50  0001 C CNN
F 1 "+BATT" H 4915 2523 50  0000 C CNN
F 2 "" H 4900 2350 50  0001 C CNN
F 3 "" H 4900 2350 50  0001 C CNN
	1    4900 2350
	1    0    0    -1  
$EndComp
Wire Wire Line
	4900 2350 4900 2450
Connection ~ 4900 2450
Wire Wire Line
	4900 3150 4900 3250
Connection ~ 4900 3150
$Comp
L power:GND #PWR0106
U 1 1 5BD17143
P 4450 2800
F 0 "#PWR0106" H 4450 2550 50  0001 C CNN
F 1 "GND" H 4455 2627 50  0000 C CNN
F 2 "" H 4450 2800 50  0001 C CNN
F 3 "" H 4450 2800 50  0001 C CNN
	1    4450 2800
	1    0    0    -1  
$EndComp
Wire Wire Line
	4450 2800 4450 2750
Wire Wire Line
	4450 2750 4650 2750
Connection ~ 4650 2750
$Comp
L power:+BATT #PWR0107
U 1 1 5BD18227
P 5350 2500
F 0 "#PWR0107" H 5350 2350 50  0001 C CNN
F 1 "+BATT" H 5365 2673 50  0000 C CNN
F 2 "" H 5350 2500 50  0001 C CNN
F 3 "" H 5350 2500 50  0001 C CNN
	1    5350 2500
	1    0    0    -1  
$EndComp
Wire Wire Line
	5350 2500 5350 2550
Wire Wire Line
	5350 2550 5450 2550
Wire Wire Line
	5350 2650 5450 2650
$Comp
L power:+BATT #PWR0108
U 1 1 5BD1C560
P 3800 3200
F 0 "#PWR0108" H 3800 3050 50  0001 C CNN
F 1 "+BATT" H 3815 3373 50  0000 C CNN
F 2 "" H 3800 3200 50  0001 C CNN
F 3 "" H 3800 3200 50  0001 C CNN
	1    3800 3200
	1    0    0    -1  
$EndComp
$Comp
L power:+BATT #PWR0109
U 1 1 5BD1D6AD
P 3800 4050
F 0 "#PWR0109" H 3800 3900 50  0001 C CNN
F 1 "+BATT" H 3815 4223 50  0000 C CNN
F 2 "" H 3800 4050 50  0001 C CNN
F 3 "" H 3800 4050 50  0001 C CNN
	1    3800 4050
	1    0    0    -1  
$EndComp
$Comp
L power:-BATT #PWR0110
U 1 1 5BD21D5A
P 3950 3800
F 0 "#PWR0110" H 3950 3650 50  0001 C CNN
F 1 "-BATT" H 3965 3973 50  0000 C CNN
F 2 "" H 3950 3800 50  0001 C CNN
F 3 "" H 3950 3800 50  0001 C CNN
	1    3950 3800
	-1   0    0    1   
$EndComp
$Comp
L power:-BATT #PWR0111
U 1 1 5BD22E57
P 3900 4650
F 0 "#PWR0111" H 3900 4500 50  0001 C CNN
F 1 "-BATT" H 3915 4823 50  0000 C CNN
F 2 "" H 3900 4650 50  0001 C CNN
F 3 "" H 3900 4650 50  0001 C CNN
	1    3900 4650
	-1   0    0    1   
$EndComp
Wire Wire Line
	3800 4650 3900 4650
Connection ~ 4200 3500
$Comp
L power:GND #PWR0112
U 1 1 5BD2BA8E
P 3600 4250
F 0 "#PWR0112" H 3600 4000 50  0001 C CNN
F 1 "GND" V 3605 4122 50  0000 R CNN
F 2 "" H 3600 4250 50  0001 C CNN
F 3 "" H 3600 4250 50  0001 C CNN
	1    3600 4250
	0    1    1    0   
$EndComp
$Comp
L Device:R R4
U 1 1 5BD2D9B2
P 3650 5000
F 0 "R4" V 3443 5000 50  0000 C CNN
F 1 "10k" V 3534 5000 50  0000 C CNN
F 2 "Resistor_THT:R_Axial_DIN0207_L6.3mm_D2.5mm_P7.62mm_Horizontal" V 3580 5000 50  0001 C CNN
F 3 "~" H 3650 5000 50  0001 C CNN
	1    3650 5000
	0    1    1    0   
$EndComp
Wire Wire Line
	4250 5000 4250 4350
Connection ~ 4250 4350
Wire Wire Line
	4250 4350 4750 4350
Wire Wire Line
	3800 5000 4250 5000
Wire Wire Line
	3350 4450 3350 5000
Wire Wire Line
	3350 5000 3500 5000
Wire Wire Line
	3350 4450 3600 4450
$Comp
L Device:R R3
U 1 1 5BD3085B
P 3150 4150
F 0 "R3" H 3220 4196 50  0000 L CNN
F 1 "10k" H 3220 4105 50  0000 L CNN
F 2 "Resistor_THT:R_Axial_DIN0207_L6.3mm_D2.5mm_P7.62mm_Horizontal" V 3080 4150 50  0001 C CNN
F 3 "~" H 3150 4150 50  0001 C CNN
	1    3150 4150
	1    0    0    -1  
$EndComp
Wire Wire Line
	4700 3950 4700 3600
Connection ~ 3350 4450
Wire Wire Line
	3350 4450 3150 4450
Wire Wire Line
	3150 4450 3150 4300
Wire Wire Line
	3150 4000 3150 3950
Wire Wire Line
	3150 3950 4700 3950
$Comp
L Connector:Conn_01x02_Female J3
U 1 1 5BDCB6E4
P 5050 3600
F 0 "J3" H 5078 3576 50  0000 L CNN
F 1 "Out" H 5078 3485 50  0000 L CNN
F 2 "Connector_PinHeader_2.54mm:PinHeader_1x02_P2.54mm_Vertical" H 5050 3600 50  0001 C CNN
F 3 "~" H 5050 3600 50  0001 C CNN
	1    5050 3600
	1    0    0    -1  
$EndComp
$Comp
L power:GND #PWR0114
U 1 1 5BDCB6EB
P 4850 3750
F 0 "#PWR0114" H 4850 3500 50  0001 C CNN
F 1 "GND" H 4855 3577 50  0000 C CNN
F 2 "" H 4850 3750 50  0001 C CNN
F 3 "" H 4850 3750 50  0001 C CNN
	1    4850 3750
	1    0    0    -1  
$EndComp
Wire Wire Line
	4850 3750 4850 3700
Wire Wire Line
	4700 3600 4850 3600
Connection ~ 4700 3600
Wire Wire Line
	4700 3600 4700 3500
$Comp
L Connector:Conn_01x02_Female J5
U 1 1 5BDCD347
P 5650 3150
F 0 "J5" H 5678 3126 50  0000 L CNN
F 1 "Power" H 5678 3035 50  0000 L CNN
F 2 "Connector_PinHeader_2.54mm:PinHeader_1x02_P2.54mm_Vertical" H 5650 3150 50  0001 C CNN
F 3 "~" H 5650 3150 50  0001 C CNN
	1    5650 3150
	1    0    0    -1  
$EndComp
Wire Wire Line
	5350 3150 5450 3150
$Comp
L power:-BATT #PWR0115
U 1 1 5BDCD356
P 5350 3300
F 0 "#PWR0115" H 5350 3150 50  0001 C CNN
F 1 "-BATT" H 5365 3473 50  0000 C CNN
F 2 "" H 5350 3300 50  0001 C CNN
F 3 "" H 5350 3300 50  0001 C CNN
	1    5350 3300
	-1   0    0    1   
$EndComp
Wire Wire Line
	5350 3300 5350 3250
Wire Wire Line
	5350 3250 5450 3250
$Comp
L power:GND #PWR0116
U 1 1 5BDCDDC9
P 5250 2900
F 0 "#PWR0116" H 5250 2650 50  0001 C CNN
F 1 "GND" H 5255 2727 50  0000 C CNN
F 2 "" H 5250 2900 50  0001 C CNN
F 3 "" H 5250 2900 50  0001 C CNN
	1    5250 2900
	1    0    0    -1  
$EndComp
Wire Wire Line
	5350 2650 5350 2850
Wire Wire Line
	5350 2850 5250 2850
Wire Wire Line
	5250 2850 5250 2900
Connection ~ 5350 2850
Wire Wire Line
	5350 2850 5350 3150
$Comp
L Device:R R8
U 1 1 5BE305D6
P 3450 3400
F 0 "R8" V 3243 3400 50  0000 C CNN
F 1 "162" V 3334 3400 50  0000 C CNN
F 2 "Resistor_THT:R_Axial_DIN0207_L6.3mm_D2.5mm_P7.62mm_Horizontal" V 3380 3400 50  0001 C CNN
F 3 "~" H 3450 3400 50  0001 C CNN
	1    3450 3400
	0    1    1    0   
$EndComp
$Comp
L Device:R R9
U 1 1 5BE30651
P 3750 2850
F 0 "R9" V 3543 2850 50  0000 C CNN
F 1 "10k" V 3634 2850 50  0000 C CNN
F 2 "Resistor_THT:R_Axial_DIN0207_L6.3mm_D2.5mm_P7.62mm_Horizontal" V 3680 2850 50  0001 C CNN
F 3 "~" H 3750 2850 50  0001 C CNN
	1    3750 2850
	0    1    1    0   
$EndComp
Wire Wire Line
	4200 2200 4200 2550
Connection ~ 4200 2550
Wire Wire Line
	4200 2550 4200 2850
Wire Wire Line
	2850 2200 2850 3350
Wire Wire Line
	3150 2550 3150 3350
Connection ~ 3150 3350
Wire Wire Line
	3900 2850 4200 2850
Connection ~ 4200 2850
Wire Wire Line
	4200 2850 4200 3500
Wire Wire Line
	3600 2850 3600 3400
Connection ~ 3600 3400
$Comp
L power:GND #PWR0113
U 1 1 5BE3630C
P 3300 3400
F 0 "#PWR0113" H 3300 3150 50  0001 C CNN
F 1 "GND" H 3305 3227 50  0000 C CNN
F 2 "" H 3300 3400 50  0001 C CNN
F 3 "" H 3300 3400 50  0001 C CNN
	1    3300 3400
	1    0    0    -1  
$EndComp
$EndSCHEMATC
