EESchema Schematic File Version 4
LIBS:passband-cache
EELAYER 26 0
EELAYER END
$Descr A4 11693 8268
encoding utf-8
Sheet 1 1
Title ""
Date ""
Rev ""
Comp ""
Comment1 ""
Comment2 ""
Comment3 ""
Comment4 ""
$EndDescr
Wire Wire Line
	3800 3800 3950 3800
$Comp
L Connector:Conn_01x02_Female J4
U 1 1 5BD0A3A9
P 5650 1950
F 0 "J4" H 5678 1926 50  0000 L CNN
F 1 "Power" H 5678 1835 50  0000 L CNN
F 2 "Connector_PinHeader_2.54mm:PinHeader_1x02_P2.54mm_Vertical" H 5650 1950 50  0001 C CNN
F 3 "~" H 5650 1950 50  0001 C CNN
	1    5650 1950
	1    0    0    -1  
$EndComp
$Comp
L Connector:Conn_01x02_Female J2
U 1 1 5BD0D104
P 4950 4350
F 0 "J2" H 4978 4326 50  0000 L CNN
F 1 "Amplified out" H 4978 4235 50  0000 L CNN
F 2 "Connector_PinHeader_2.54mm:PinHeader_1x02_P2.54mm_Vertical" H 4950 4350 50  0001 C CNN
F 3 "~" H 4950 4350 50  0001 C CNN
	1    4950 4350
	1    0    0    -1  
$EndComp
$Comp
L Device:R R6
U 1 1 5BD1093F
P 4650 2000
F 0 "R6" H 4720 2046 50  0000 L CNN
F 1 "100k" H 4720 1955 50  0000 L CNN
F 2 "Resistor_SMD:R_0603_1608Metric_Pad1.05x0.95mm_HandSolder" V 4580 2000 50  0001 C CNN
F 3 "~" H 4650 2000 50  0001 C CNN
	1    4650 2000
	1    0    0    -1  
$EndComp
$Comp
L Device:R R7
U 1 1 5BD10A85
P 4650 2300
F 0 "R7" H 4720 2346 50  0000 L CNN
F 1 "100k" H 4720 2255 50  0000 L CNN
F 2 "Resistor_SMD:R_0603_1608Metric_Pad1.05x0.95mm_HandSolder" V 4580 2300 50  0001 C CNN
F 3 "~" H 4650 2300 50  0001 C CNN
	1    4650 2300
	1    0    0    -1  
$EndComp
$Comp
L Device:C C3
U 1 1 5BD10B14
P 4900 2250
F 0 "C3" H 5015 2296 50  0000 L CNN
F 1 "10uf" H 5015 2205 50  0000 L CNN
F 2 "Capacitor_SMD:C_0603_1608Metric_Pad1.05x0.95mm_HandSolder" H 4938 2100 50  0001 C CNN
F 3 "~" H 4900 2250 50  0001 C CNN
	1    4900 2250
	1    0    0    -1  
$EndComp
Wire Wire Line
	4650 1850 4900 1850
Wire Wire Line
	4900 1850 4900 2100
Wire Wire Line
	4650 2450 4650 2550
Wire Wire Line
	4650 2550 4900 2550
Wire Wire Line
	4900 2550 4900 2400
$Comp
L power:-BATT #PWR0104
U 1 1 5BD1514A
P 4900 2650
F 0 "#PWR0104" H 4900 2500 50  0001 C CNN
F 1 "-BATT" H 4915 2823 50  0000 C CNN
F 2 "" H 4900 2650 50  0001 C CNN
F 3 "" H 4900 2650 50  0001 C CNN
	1    4900 2650
	-1   0    0    1   
$EndComp
$Comp
L power:+BATT #PWR0105
U 1 1 5BD15388
P 4900 1750
F 0 "#PWR0105" H 4900 1600 50  0001 C CNN
F 1 "+BATT" H 4915 1923 50  0000 C CNN
F 2 "" H 4900 1750 50  0001 C CNN
F 3 "" H 4900 1750 50  0001 C CNN
	1    4900 1750
	1    0    0    -1  
$EndComp
Wire Wire Line
	4900 1750 4900 1850
Connection ~ 4900 1850
Wire Wire Line
	4900 2550 4900 2650
Connection ~ 4900 2550
$Comp
L power:GND #PWR0106
U 1 1 5BD17143
P 4450 2200
F 0 "#PWR0106" H 4450 1950 50  0001 C CNN
F 1 "GND" H 4455 2027 50  0000 C CNN
F 2 "" H 4450 2200 50  0001 C CNN
F 3 "" H 4450 2200 50  0001 C CNN
	1    4450 2200
	1    0    0    -1  
$EndComp
Wire Wire Line
	4450 2200 4450 2150
Wire Wire Line
	4450 2150 4650 2150
Connection ~ 4650 2150
$Comp
L power:+BATT #PWR0107
U 1 1 5BD18227
P 5350 1900
F 0 "#PWR0107" H 5350 1750 50  0001 C CNN
F 1 "+BATT" H 5365 2073 50  0000 C CNN
F 2 "" H 5350 1900 50  0001 C CNN
F 3 "" H 5350 1900 50  0001 C CNN
	1    5350 1900
	1    0    0    -1  
$EndComp
Wire Wire Line
	5350 1900 5350 1950
Wire Wire Line
	5350 1950 5450 1950
Wire Wire Line
	5350 2050 5450 2050
$Comp
L power:+BATT #PWR0109
U 1 1 5BD1D6AD
P 3800 4050
F 0 "#PWR0109" H 3800 3900 50  0001 C CNN
F 1 "+BATT" H 3815 4223 50  0000 C CNN
F 2 "" H 3800 4050 50  0001 C CNN
F 3 "" H 3800 4050 50  0001 C CNN
	1    3800 4050
	1    0    0    -1  
$EndComp
$Comp
L power:-BATT #PWR0110
U 1 1 5BD21D5A
P 3950 3800
F 0 "#PWR0110" H 3950 3650 50  0001 C CNN
F 1 "-BATT" H 3965 3973 50  0000 C CNN
F 2 "" H 3950 3800 50  0001 C CNN
F 3 "" H 3950 3800 50  0001 C CNN
	1    3950 3800
	-1   0    0    1   
$EndComp
$Comp
L power:-BATT #PWR0111
U 1 1 5BD22E57
P 3900 4650
F 0 "#PWR0111" H 3900 4500 50  0001 C CNN
F 1 "-BATT" H 3915 4823 50  0000 C CNN
F 2 "" H 3900 4650 50  0001 C CNN
F 3 "" H 3900 4650 50  0001 C CNN
	1    3900 4650
	-1   0    0    1   
$EndComp
Wire Wire Line
	3800 4650 3900 4650
$Comp
L Connector:Conn_01x02_Female J5
U 1 1 5BDCD347
P 5650 2550
F 0 "J5" H 5678 2526 50  0000 L CNN
F 1 "Power" H 5678 2435 50  0000 L CNN
F 2 "Connector_PinHeader_2.54mm:PinHeader_1x02_P2.54mm_Vertical" H 5650 2550 50  0001 C CNN
F 3 "~" H 5650 2550 50  0001 C CNN
	1    5650 2550
	1    0    0    -1  
$EndComp
Wire Wire Line
	5350 2550 5450 2550
$Comp
L power:-BATT #PWR0115
U 1 1 5BDCD356
P 5350 2700
F 0 "#PWR0115" H 5350 2550 50  0001 C CNN
F 1 "-BATT" H 5365 2873 50  0000 C CNN
F 2 "" H 5350 2700 50  0001 C CNN
F 3 "" H 5350 2700 50  0001 C CNN
	1    5350 2700
	-1   0    0    1   
$EndComp
Wire Wire Line
	5350 2700 5350 2650
Wire Wire Line
	5350 2650 5450 2650
$Comp
L power:GND #PWR0116
U 1 1 5BDCDDC9
P 5250 2300
F 0 "#PWR0116" H 5250 2050 50  0001 C CNN
F 1 "GND" H 5255 2127 50  0000 C CNN
F 2 "" H 5250 2300 50  0001 C CNN
F 3 "" H 5250 2300 50  0001 C CNN
	1    5250 2300
	1    0    0    -1  
$EndComp
Wire Wire Line
	5350 2050 5350 2250
Wire Wire Line
	5350 2250 5250 2250
Wire Wire Line
	5250 2250 5250 2300
Connection ~ 5350 2250
Wire Wire Line
	5350 2250 5350 2550
$Comp
L Device:R R2
U 1 1 5BE33327
P 2500 4850
F 0 "R2" V 2293 4850 50  0000 C CNN
F 1 "71.5k" V 2384 4850 50  0000 C CNN
F 2 "Resistor_SMD:R_0603_1608Metric_Pad1.05x0.95mm_HandSolder" V 2430 4850 50  0001 C CNN
F 3 "~" H 2500 4850 50  0001 C CNN
	1    2500 4850
	0    1    1    0   
$EndComp
$Comp
L Device:C C5
U 1 1 5BE3332E
P 3100 4450
F 0 "C5" V 2848 4450 50  0000 C CNN
F 1 "100nF" V 2939 4450 50  0000 C CNN
F 2 "Capacitor_SMD:C_0603_1608Metric_Pad1.05x0.95mm_HandSolder" H 3138 4300 50  0001 C CNN
F 3 "~" H 3100 4450 50  0001 C CNN
	1    3100 4450
	0    -1   -1   0   
$EndComp
$Comp
L Device:C C2
U 1 1 5BE33335
P 2900 4850
F 0 "C2" V 2648 4850 50  0000 C CNN
F 1 "100nF" V 2739 4850 50  0000 C CNN
F 2 "Capacitor_SMD:C_0603_1608Metric_Pad1.05x0.95mm_HandSolder" H 2938 4700 50  0001 C CNN
F 3 "~" H 2900 4850 50  0001 C CNN
	1    2900 4850
	0    1    1    0   
$EndComp
Wire Wire Line
	2650 4850 2750 4850
Connection ~ 2750 4850
$Comp
L Connector:Conn_01x02_Female J1
U 1 1 5BE33344
P 1650 4100
F 0 "J1" H 1544 3775 50  0000 C CNN
F 1 "In" H 1544 3866 50  0000 C CNN
F 2 "Connector_PinHeader_2.54mm:PinHeader_1x02_P2.54mm_Vertical" H 1650 4100 50  0001 C CNN
F 3 "~" H 1650 4100 50  0001 C CNN
	1    1650 4100
	-1   0    0    1   
$EndComp
$Comp
L power:GND #PWR0101
U 1 1 5BE3334B
P 1950 4200
F 0 "#PWR0101" H 1950 3950 50  0001 C CNN
F 1 "GND" H 1955 4027 50  0000 C CNN
F 2 "" H 1950 4200 50  0001 C CNN
F 3 "" H 1950 4200 50  0001 C CNN
	1    1950 4200
	1    0    0    -1  
$EndComp
Wire Wire Line
	1850 4000 2200 4000
Wire Wire Line
	1850 4100 1950 4100
Wire Wire Line
	1950 4100 1950 4200
$Comp
L Device:R R4
U 1 1 5BE33354
P 2750 5050
F 0 "R4" H 2820 5096 50  0000 L CNN
F 1 "511" H 2820 5005 50  0000 L CNN
F 2 "Resistor_SMD:R_0603_1608Metric_Pad1.05x0.95mm_HandSolder" V 2680 5050 50  0001 C CNN
F 3 "~" H 2750 5050 50  0001 C CNN
	1    2750 5050
	1    0    0    -1  
$EndComp
Wire Wire Line
	2750 4850 2750 4900
$Comp
L power:GND #PWR0102
U 1 1 5BE3335C
P 2750 5200
F 0 "#PWR0102" H 2750 4950 50  0001 C CNN
F 1 "GND" H 2755 5027 50  0000 C CNN
F 2 "" H 2750 5200 50  0001 C CNN
F 3 "" H 2750 5200 50  0001 C CNN
	1    2750 5200
	1    0    0    -1  
$EndComp
Wire Wire Line
	2750 4450 2950 4450
Wire Wire Line
	2750 4450 2750 4850
Text GLabel 4200 3500 2    50   Input ~ 0
filter1_out
Text GLabel 2350 4850 0    50   Input ~ 0
filter1_out
$Comp
L Device:R R10
U 1 1 5BE38DAD
P 3250 4650
F 0 "R10" V 3043 4650 50  0000 C CNN
F 1 "51.1k" V 3134 4650 50  0000 C CNN
F 2 "Resistor_SMD:R_0603_1608Metric_Pad1.05x0.95mm_HandSolder" V 3180 4650 50  0001 C CNN
F 3 "~" H 3250 4650 50  0001 C CNN
	1    3250 4650
	-1   0    0    1   
$EndComp
Wire Wire Line
	3050 4850 3250 4850
Wire Wire Line
	3250 4850 3250 4800
Wire Wire Line
	3250 4450 3250 4500
Wire Wire Line
	3250 4450 3600 4450
Connection ~ 3250 4450
$Comp
L Device:R R12
U 1 1 5BE40314
P 3550 4100
F 0 "R12" V 3343 4100 50  0000 C CNN
F 1 "9.76k" V 3434 4100 50  0000 C CNN
F 2 "Resistor_SMD:R_0603_1608Metric_Pad1.05x0.95mm_HandSolder" V 3480 4100 50  0001 C CNN
F 3 "~" H 3550 4100 50  0001 C CNN
	1    3550 4100
	-1   0    0    1   
$EndComp
$Comp
L Device:R R9
U 1 1 5BE41229
P 3400 4250
F 0 "R9" V 3193 4250 50  0000 C CNN
F 1 "162" V 3284 4250 50  0000 C CNN
F 2 "Resistor_SMD:R_0603_1608Metric_Pad1.05x0.95mm_HandSolder" V 3330 4250 50  0001 C CNN
F 3 "~" H 3400 4250 50  0001 C CNN
	1    3400 4250
	0    1    1    0   
$EndComp
$Comp
L power:GND #PWR0103
U 1 1 5BE41230
P 3250 4250
F 0 "#PWR0103" H 3250 4000 50  0001 C CNN
F 1 "GND" H 3255 4077 50  0000 C CNN
F 2 "" H 3250 4250 50  0001 C CNN
F 3 "" H 3250 4250 50  0001 C CNN
	1    3250 4250
	0    1    1    0   
$EndComp
Wire Wire Line
	4200 3950 4200 4350
$Comp
L Amplifier_Operational:LF353P U1
U 1 1 5BE473A4
P 3900 3500
F 0 "U1" H 4241 3121 50  0000 L CNN
F 1 "LF353P" H 4241 3030 50  0000 L CNN
F 2 "Package_DIP:DIP-8_W7.62mm" H 3950 3550 50  0001 C CNN
F 3 "http://www.ti.com/lit/ds/symlink/lm741.pdf" H 4050 3650 50  0001 C CNN
	1    3900 3500
	1    0    0    -1  
$EndComp
$Comp
L Device:R R1
U 1 1 5BE473AB
P 2350 4000
F 0 "R1" V 2143 4000 50  0000 C CNN
F 1 "71.5k" V 2234 4000 50  0000 C CNN
F 2 "Resistor_SMD:R_0603_1608Metric_Pad1.05x0.95mm_HandSolder" V 2280 4000 50  0001 C CNN
F 3 "~" H 2350 4000 50  0001 C CNN
	1    2350 4000
	0    1    1    0   
$EndComp
$Comp
L Device:C C4
U 1 1 5BE473B2
P 2950 3600
F 0 "C4" V 2698 3600 50  0000 C CNN
F 1 "100nF" V 2789 3600 50  0000 C CNN
F 2 "Capacitor_SMD:C_0603_1608Metric_Pad1.05x0.95mm_HandSolder" H 2988 3450 50  0001 C CNN
F 3 "~" H 2950 3600 50  0001 C CNN
	1    2950 3600
	0    -1   -1   0   
$EndComp
$Comp
L Device:C C1
U 1 1 5BE473B9
P 2750 4000
F 0 "C1" V 2498 4000 50  0000 C CNN
F 1 "100nF" V 2589 4000 50  0000 C CNN
F 2 "Capacitor_SMD:C_0603_1608Metric_Pad1.05x0.95mm_HandSolder" H 2788 3850 50  0001 C CNN
F 3 "~" H 2750 4000 50  0001 C CNN
	1    2750 4000
	0    1    1    0   
$EndComp
Wire Wire Line
	2500 4000 2600 4000
Connection ~ 2600 4000
$Comp
L Device:R R3
U 1 1 5BE473C2
P 2600 4200
F 0 "R3" H 2670 4246 50  0000 L CNN
F 1 "523" H 2670 4155 50  0000 L CNN
F 2 "Resistor_SMD:R_0603_1608Metric_Pad1.05x0.95mm_HandSolder" V 2530 4200 50  0001 C CNN
F 3 "~" H 2600 4200 50  0001 C CNN
	1    2600 4200
	1    0    0    -1  
$EndComp
Wire Wire Line
	2600 4000 2600 4050
$Comp
L power:GND #PWR0108
U 1 1 5BE473CA
P 2600 4350
F 0 "#PWR0108" H 2600 4100 50  0001 C CNN
F 1 "GND" H 2605 4177 50  0000 C CNN
F 2 "" H 2600 4350 50  0001 C CNN
F 3 "" H 2600 4350 50  0001 C CNN
	1    2600 4350
	1    0    0    -1  
$EndComp
Wire Wire Line
	2600 3600 2800 3600
Wire Wire Line
	2600 3600 2600 4000
$Comp
L Device:R R8
U 1 1 5BE473D3
P 3100 3800
F 0 "R8" V 2893 3800 50  0000 C CNN
F 1 "52.3k" V 2984 3800 50  0000 C CNN
F 2 "Resistor_SMD:R_0603_1608Metric_Pad1.05x0.95mm_HandSolder" V 3030 3800 50  0001 C CNN
F 3 "~" H 3100 3800 50  0001 C CNN
	1    3100 3800
	-1   0    0    1   
$EndComp
Wire Wire Line
	2900 4000 3100 4000
Wire Wire Line
	3100 4000 3100 3950
Wire Wire Line
	3100 3600 3100 3650
Connection ~ 3100 3600
$Comp
L Device:R R5
U 1 1 5BE473E6
P 3000 3400
F 0 "R5" V 2793 3400 50  0000 C CNN
F 1 "162" V 2884 3400 50  0000 C CNN
F 2 "Resistor_SMD:R_0603_1608Metric_Pad1.05x0.95mm_HandSolder" V 2930 3400 50  0001 C CNN
F 3 "~" H 3000 3400 50  0001 C CNN
	1    3000 3400
	0    1    1    0   
$EndComp
$Comp
L power:GND #PWR0112
U 1 1 5BE473ED
P 2850 3400
F 0 "#PWR0112" H 2850 3150 50  0001 C CNN
F 1 "GND" H 2855 3227 50  0000 C CNN
F 2 "" H 2850 3400 50  0001 C CNN
F 3 "" H 2850 3400 50  0001 C CNN
	1    2850 3400
	0    1    1    0   
$EndComp
Wire Wire Line
	3100 3600 3600 3600
Wire Wire Line
	4200 3100 4200 3500
Wire Wire Line
	3150 3100 4200 3100
Wire Wire Line
	4200 4350 4750 4350
Connection ~ 4200 4350
$Comp
L power:+BATT #PWR0113
U 1 1 5BE526DB
P 3800 3200
F 0 "#PWR0113" H 3800 3050 50  0001 C CNN
F 1 "+BATT" H 3815 3373 50  0000 C CNN
F 2 "" H 3800 3200 50  0001 C CNN
F 3 "" H 3800 3200 50  0001 C CNN
	1    3800 3200
	1    0    0    -1  
$EndComp
$Comp
L power:GND #PWR0114
U 1 1 5BE543C4
P 4750 4550
F 0 "#PWR0114" H 4750 4300 50  0001 C CNN
F 1 "GND" H 4755 4377 50  0000 C CNN
F 2 "" H 4750 4550 50  0001 C CNN
F 3 "" H 4750 4550 50  0001 C CNN
	1    4750 4550
	1    0    0    -1  
$EndComp
Wire Wire Line
	4750 4450 4750 4550
$Comp
L Device:R R11
U 1 1 5BE473DF
P 3150 3250
F 0 "R11" V 2943 3250 50  0000 C CNN
F 1 "9.76k" V 3034 3250 50  0000 C CNN
F 2 "Resistor_SMD:R_0603_1608Metric_Pad1.05x0.95mm_HandSolder" V 3080 3250 50  0001 C CNN
F 3 "~" H 3150 3250 50  0001 C CNN
	1    3150 3250
	-1   0    0    1   
$EndComp
Wire Wire Line
	3150 3400 3600 3400
Connection ~ 3150 3400
Wire Wire Line
	3250 4850 3250 5100
Wire Wire Line
	3250 5100 4200 5100
Wire Wire Line
	4200 5100 4200 4350
Connection ~ 3250 4850
Text GLabel 3300 4100 0    50   Input ~ 0
filter1_out
Connection ~ 3100 4000
Wire Wire Line
	3550 4250 3600 4250
Wire Wire Line
	3550 3950 4200 3950
Connection ~ 3550 4250
Wire Wire Line
	3300 4000 3300 4100
Wire Wire Line
	3100 4000 3300 4000
$EndSCHEMATC
