(export (version D)
  (design
    (source /home/hadrien/pcb/passband_filter/4th_order_v1_fixed/passband.sch)
    (date "mar. 04 déc. 2018 18:18:41 CET")
    (tool "Eeschema 5.0.1-33cea8e~68~ubuntu18.04.1")
    (sheet (number 1) (name /) (tstamps /)
      (title_block
        (title)
        (company)
        (rev)
        (date)
        (source passband.sch)
        (comment (number 1) (value ""))
        (comment (number 2) (value ""))
        (comment (number 3) (value ""))
        (comment (number 4) (value "")))))
  (components
    (comp (ref J4)
      (value Power)
      (footprint Connector_PinHeader_2.54mm:PinHeader_1x02_P2.54mm_Vertical)
      (datasheet ~)
      (libsource (lib Connector) (part Conn_01x02_Female) (description "Generic connector, single row, 01x02, script generated (kicad-library-utils/schlib/autogen/connector/)"))
      (sheetpath (names /) (tstamps /))
      (tstamp 5BD0A3A9))
    (comp (ref J2)
      (value "Amplified out")
      (footprint Connector_PinHeader_2.54mm:PinHeader_1x02_P2.54mm_Vertical)
      (datasheet ~)
      (libsource (lib Connector) (part Conn_01x02_Female) (description "Generic connector, single row, 01x02, script generated (kicad-library-utils/schlib/autogen/connector/)"))
      (sheetpath (names /) (tstamps /))
      (tstamp 5BD0D104))
    (comp (ref R6)
      (value 100k)
      (footprint Resistor_SMD:R_0603_1608Metric_Pad1.05x0.95mm_HandSolder)
      (datasheet ~)
      (libsource (lib Device) (part R) (description Resistor))
      (sheetpath (names /) (tstamps /))
      (tstamp 5BD1093F))
    (comp (ref R7)
      (value 100k)
      (footprint Resistor_SMD:R_0603_1608Metric_Pad1.05x0.95mm_HandSolder)
      (datasheet ~)
      (libsource (lib Device) (part R) (description Resistor))
      (sheetpath (names /) (tstamps /))
      (tstamp 5BD10A85))
    (comp (ref C3)
      (value 10uf)
      (footprint Capacitor_SMD:C_0603_1608Metric_Pad1.05x0.95mm_HandSolder)
      (datasheet ~)
      (libsource (lib Device) (part C) (description "Unpolarized capacitor"))
      (sheetpath (names /) (tstamps /))
      (tstamp 5BD10B14))
    (comp (ref J5)
      (value Power)
      (footprint Connector_PinHeader_2.54mm:PinHeader_1x02_P2.54mm_Vertical)
      (datasheet ~)
      (libsource (lib Connector) (part Conn_01x02_Female) (description "Generic connector, single row, 01x02, script generated (kicad-library-utils/schlib/autogen/connector/)"))
      (sheetpath (names /) (tstamps /))
      (tstamp 5BDCD347))
    (comp (ref R2)
      (value 71.5k)
      (footprint Resistor_SMD:R_0603_1608Metric_Pad1.05x0.95mm_HandSolder)
      (datasheet ~)
      (libsource (lib Device) (part R) (description Resistor))
      (sheetpath (names /) (tstamps /))
      (tstamp 5BE33327))
    (comp (ref C5)
      (value 100nF)
      (footprint Capacitor_SMD:C_0603_1608Metric_Pad1.05x0.95mm_HandSolder)
      (datasheet ~)
      (libsource (lib Device) (part C) (description "Unpolarized capacitor"))
      (sheetpath (names /) (tstamps /))
      (tstamp 5BE3332E))
    (comp (ref C2)
      (value 100nF)
      (footprint Capacitor_SMD:C_0603_1608Metric_Pad1.05x0.95mm_HandSolder)
      (datasheet ~)
      (libsource (lib Device) (part C) (description "Unpolarized capacitor"))
      (sheetpath (names /) (tstamps /))
      (tstamp 5BE33335))
    (comp (ref J1)
      (value In)
      (footprint Connector_PinHeader_2.54mm:PinHeader_1x02_P2.54mm_Vertical)
      (datasheet ~)
      (libsource (lib Connector) (part Conn_01x02_Female) (description "Generic connector, single row, 01x02, script generated (kicad-library-utils/schlib/autogen/connector/)"))
      (sheetpath (names /) (tstamps /))
      (tstamp 5BE33344))
    (comp (ref R4)
      (value 511)
      (footprint Resistor_SMD:R_0603_1608Metric_Pad1.05x0.95mm_HandSolder)
      (datasheet ~)
      (libsource (lib Device) (part R) (description Resistor))
      (sheetpath (names /) (tstamps /))
      (tstamp 5BE33354))
    (comp (ref R10)
      (value 51.1k)
      (footprint Resistor_SMD:R_0603_1608Metric_Pad1.05x0.95mm_HandSolder)
      (datasheet ~)
      (libsource (lib Device) (part R) (description Resistor))
      (sheetpath (names /) (tstamps /))
      (tstamp 5BE38DAD))
    (comp (ref R12)
      (value 9.76k)
      (footprint Resistor_SMD:R_0603_1608Metric_Pad1.05x0.95mm_HandSolder)
      (datasheet ~)
      (libsource (lib Device) (part R) (description Resistor))
      (sheetpath (names /) (tstamps /))
      (tstamp 5BE40314))
    (comp (ref R9)
      (value 162)
      (footprint Resistor_SMD:R_0603_1608Metric_Pad1.05x0.95mm_HandSolder)
      (datasheet ~)
      (libsource (lib Device) (part R) (description Resistor))
      (sheetpath (names /) (tstamps /))
      (tstamp 5BE41229))
    (comp (ref U1)
      (value LF353P)
      (footprint Package_DIP:DIP-8_W7.62mm)
      (datasheet http://www.ti.com/lit/ds/symlink/lm741.pdf)
      (libsource (lib Amplifier_Operational) (part LF353P) (description "Operational Amplifier, DIP-8/TO-99-8"))
      (sheetpath (names /) (tstamps /))
      (tstamp 5BE473A4))
    (comp (ref R1)
      (value 71.5k)
      (footprint Resistor_SMD:R_0603_1608Metric_Pad1.05x0.95mm_HandSolder)
      (datasheet ~)
      (libsource (lib Device) (part R) (description Resistor))
      (sheetpath (names /) (tstamps /))
      (tstamp 5BE473AB))
    (comp (ref C4)
      (value 100nF)
      (footprint Capacitor_SMD:C_0603_1608Metric_Pad1.05x0.95mm_HandSolder)
      (datasheet ~)
      (libsource (lib Device) (part C) (description "Unpolarized capacitor"))
      (sheetpath (names /) (tstamps /))
      (tstamp 5BE473B2))
    (comp (ref C1)
      (value 100nF)
      (footprint Capacitor_SMD:C_0603_1608Metric_Pad1.05x0.95mm_HandSolder)
      (datasheet ~)
      (libsource (lib Device) (part C) (description "Unpolarized capacitor"))
      (sheetpath (names /) (tstamps /))
      (tstamp 5BE473B9))
    (comp (ref R3)
      (value 523)
      (footprint Resistor_SMD:R_0603_1608Metric_Pad1.05x0.95mm_HandSolder)
      (datasheet ~)
      (libsource (lib Device) (part R) (description Resistor))
      (sheetpath (names /) (tstamps /))
      (tstamp 5BE473C2))
    (comp (ref R8)
      (value 52.3k)
      (footprint Resistor_SMD:R_0603_1608Metric_Pad1.05x0.95mm_HandSolder)
      (datasheet ~)
      (libsource (lib Device) (part R) (description Resistor))
      (sheetpath (names /) (tstamps /))
      (tstamp 5BE473D3))
    (comp (ref R5)
      (value 162)
      (footprint Resistor_SMD:R_0603_1608Metric_Pad1.05x0.95mm_HandSolder)
      (datasheet ~)
      (libsource (lib Device) (part R) (description Resistor))
      (sheetpath (names /) (tstamps /))
      (tstamp 5BE473E6))
    (comp (ref R11)
      (value 9.76k)
      (footprint Resistor_SMD:R_0603_1608Metric_Pad1.05x0.95mm_HandSolder)
      (datasheet ~)
      (libsource (lib Device) (part R) (description Resistor))
      (sheetpath (names /) (tstamps /))
      (tstamp 5BE473DF)))
  (libparts
    (libpart (lib Amplifier_Operational) (part LF353P)
      (aliases
        (alias AD8610)
        (alias LF155)
        (alias LF156)
        (alias LF256)
        (alias LF257)
        (alias LF355)
        (alias LF356)
        (alias LF357)
        (alias TL081)
        (alias TL061)
        (alias TL071))
      (description "Operational Amplifier, DIP-8/TO-99-8")
      (docs http://www.ti.com/lit/ds/symlink/lm741.pdf)
      (footprints
        (fp SOIC*3.9x4.9mm*P1.27mm*)
        (fp DIP*W7.62mm*)
        (fp TSSOP*3x3mm*P0.65mm*))
      (fields
        (field (name Reference) U)
        (field (name Value) LF353P))
      (pins
        (pin (num 1) (name ~) (type output))
        (pin (num 2) (name -) (type input))
        (pin (num 3) (name +) (type input))
        (pin (num 4) (name V-) (type power_in))
        (pin (num 5) (name +) (type input))
        (pin (num 6) (name -) (type input))
        (pin (num 7) (name ~) (type output))
        (pin (num 8) (name V+) (type power_in))))
    (libpart (lib Connector) (part Conn_01x02_Female)
      (description "Generic connector, single row, 01x02, script generated (kicad-library-utils/schlib/autogen/connector/)")
      (docs ~)
      (footprints
        (fp Connector*:*_1x??_*))
      (fields
        (field (name Reference) J)
        (field (name Value) Conn_01x02_Female))
      (pins
        (pin (num 1) (name Pin_1) (type passive))
        (pin (num 2) (name Pin_2) (type passive))))
    (libpart (lib Device) (part C)
      (description "Unpolarized capacitor")
      (docs ~)
      (footprints
        (fp C_*))
      (fields
        (field (name Reference) C)
        (field (name Value) C))
      (pins
        (pin (num 1) (name ~) (type passive))
        (pin (num 2) (name ~) (type passive))))
    (libpart (lib Device) (part R)
      (description Resistor)
      (docs ~)
      (footprints
        (fp R_*))
      (fields
        (field (name Reference) R)
        (field (name Value) R))
      (pins
        (pin (num 1) (name ~) (type passive))
        (pin (num 2) (name ~) (type passive)))))
  (libraries
    (library (logical Amplifier_Operational)
      (uri /home/hadrien/pcb/passband_filter/4th_order_v1_fixed/Amplifier_Operational.lib))
    (library (logical Connector)
      (uri /usr/share/kicad/library/Connector.lib))
    (library (logical Device)
      (uri /usr/share/kicad/library/Device.lib)))
  (nets
    (net (code 1) (name "Net-(C1-Pad2)")
      (node (ref C4) (pin 1))
      (node (ref R3) (pin 1))
      (node (ref C1) (pin 2))
      (node (ref R1) (pin 1)))
    (net (code 2) (name +BATT)
      (node (ref J4) (pin 1))
      (node (ref C3) (pin 1))
      (node (ref R6) (pin 1))
      (node (ref U1) (pin 8))
      (node (ref U1) (pin 8)))
    (net (code 3) (name "Net-(J1-Pad2)")
      (node (ref J1) (pin 2))
      (node (ref R1) (pin 2)))
    (net (code 4) (name GND)
      (node (ref R5) (pin 2))
      (node (ref J2) (pin 2))
      (node (ref J1) (pin 1))
      (node (ref R7) (pin 1))
      (node (ref R6) (pin 2))
      (node (ref R3) (pin 2))
      (node (ref J5) (pin 1))
      (node (ref J4) (pin 2))
      (node (ref R9) (pin 2))
      (node (ref R4) (pin 2)))
    (net (code 5) (name "Net-(R12-Pad1)")
      (node (ref R12) (pin 1))
      (node (ref R9) (pin 1))
      (node (ref U1) (pin 5)))
    (net (code 6) (name "Net-(C5-Pad2)")
      (node (ref U1) (pin 6))
      (node (ref C5) (pin 2))
      (node (ref R10) (pin 2)))
    (net (code 7) (name "Net-(C2-Pad1)")
      (node (ref J2) (pin 1))
      (node (ref R12) (pin 2))
      (node (ref U1) (pin 7))
      (node (ref R10) (pin 1))
      (node (ref C2) (pin 1)))
    (net (code 8) (name filter1_out)
      (node (ref R2) (pin 2))
      (node (ref R11) (pin 2))
      (node (ref U1) (pin 1))
      (node (ref R8) (pin 1))
      (node (ref C1) (pin 1)))
    (net (code 9) (name "Net-(R11-Pad1)")
      (node (ref R5) (pin 1))
      (node (ref R11) (pin 1))
      (node (ref U1) (pin 3)))
    (net (code 10) (name "Net-(C4-Pad2)")
      (node (ref R8) (pin 2))
      (node (ref U1) (pin 2))
      (node (ref C4) (pin 2)))
    (net (code 11) (name -BATT)
      (node (ref J5) (pin 2))
      (node (ref U1) (pin 4))
      (node (ref U1) (pin 4))
      (node (ref C3) (pin 2))
      (node (ref R7) (pin 2)))
    (net (code 12) (name "Net-(C2-Pad2)")
      (node (ref C2) (pin 2))
      (node (ref C5) (pin 1))
      (node (ref R4) (pin 1))
      (node (ref R2) (pin 1)))))