EESchema Schematic File Version 4
LIBS:esp8266_i2s-cache
EELAYER 26 0
EELAYER END
$Descr A3 16535 11693
encoding utf-8
Sheet 1 1
Title ""
Date ""
Rev ""
Comp ""
Comment1 ""
Comment2 ""
Comment3 ""
Comment4 ""
$EndDescr
$Comp
L RF_Module:ESP-12F U3
U 1 1 5B86C36B
P 5150 4000
F 0 "U3" H 5150 4978 50  0000 C CNN
F 1 "ESP-12F" H 5150 4887 50  0000 C CNN
F 2 "RF_Module:ESP-12E" H 5150 4000 50  0001 C CNN
F 3 "http://wiki.ai-thinker.com/_media/esp8266/esp8266_series_modules_user_manual_v1.1.pdf" H 4800 4100 50  0001 C CNN
	1    5150 4000
	1    0    0    -1  
$EndComp
$Comp
L FTDI:FTDI J3
U 1 1 5B87957B
P 5100 1300
F 0 "J3" V 5116 920 50  0000 R CNN
F 1 "UART" V 5025 920 50  0000 R CNN
F 2 "Connector_PinHeader_2.54mm:PinHeader_1x06_P2.54mm_Vertical" H 5100 1300 50  0001 C CNN
F 3 "~" H 5100 1300 50  0001 C CNN
	1    5100 1300
	0    -1   -1   0   
$EndComp
$Comp
L power:GND #PWR0101
U 1 1 5B8795EA
P 4750 1650
F 0 "#PWR0101" H 4750 1400 50  0001 C CNN
F 1 "GND" H 4755 1477 50  0000 C CNN
F 2 "" H 4750 1650 50  0001 C CNN
F 3 "" H 4750 1650 50  0001 C CNN
	1    4750 1650
	1    0    0    -1  
$EndComp
$Comp
L power:+3.3V #PWR0102
U 1 1 5B8796EF
P 4550 2800
F 0 "#PWR0102" H 4550 2650 50  0001 C CNN
F 1 "+3.3V" H 4565 2973 50  0000 C CNN
F 2 "" H 4550 2800 50  0001 C CNN
F 3 "" H 4550 2800 50  0001 C CNN
	1    4550 2800
	1    0    0    -1  
$EndComp
$Comp
L power:GND #PWR0103
U 1 1 5B87974C
P 5150 5400
F 0 "#PWR0103" H 5150 5150 50  0001 C CNN
F 1 "GND" H 5155 5227 50  0000 C CNN
F 2 "" H 5150 5400 50  0001 C CNN
F 3 "" H 5150 5400 50  0001 C CNN
	1    5150 5400
	1    0    0    -1  
$EndComp
Wire Wire Line
	4900 1500 4750 1500
Wire Wire Line
	4750 1500 4750 1650
Wire Wire Line
	6050 3700 5750 3700
Wire Wire Line
	5950 3500 5750 3500
Wire Wire Line
	6150 4100 5750 4100
Wire Wire Line
	6150 4100 6150 4300
Connection ~ 6150 4100
Text Notes 5900 4100 0    50   ~ 0
I_BCK
Text Notes 5900 4300 0    50   ~ 0
O_BCK
Wire Wire Line
	6250 4200 5750 4200
Wire Wire Line
	6250 4200 6250 3600
Wire Wire Line
	6250 3600 5750 3600
Text Notes 5900 3600 0    50   ~ 0
O_WS
Text Notes 5900 4200 0    50   ~ 0
I_WS
Text Notes 5900 3700 0    50   ~ 0
O_DATA
Text Notes 5900 4000 0    50   ~ 0
I_DATA
Connection ~ 6050 3700
$Comp
L power:+3.3V #PWR0104
U 1 1 5B87B91B
P 8750 2150
F 0 "#PWR0104" H 8750 2000 50  0001 C CNN
F 1 "+3.3V" H 8765 2323 50  0000 C CNN
F 2 "" H 8750 2150 50  0001 C CNN
F 3 "" H 8750 2150 50  0001 C CNN
	1    8750 2150
	1    0    0    -1  
$EndComp
NoConn ~ 5400 1500
NoConn ~ 5000 1500
$Comp
L Device:R R4
U 1 1 5B88D38D
P 3950 3050
F 0 "R4" H 4020 3096 50  0000 L CNN
F 1 "10k" H 4020 3005 50  0000 L CNN
F 2 "Resistor_SMD:R_0805_2012Metric_Pad1.15x1.40mm_HandSolder" V 3880 3050 50  0001 C CNN
F 3 "~" H 3950 3050 50  0001 C CNN
	1    3950 3050
	1    0    0    -1  
$EndComp
$Comp
L Device:R R3
U 1 1 5B88D3F9
P 3550 3050
F 0 "R3" H 3620 3096 50  0000 L CNN
F 1 "10k" H 3620 3005 50  0000 L CNN
F 2 "Resistor_SMD:R_0805_2012Metric_Pad1.15x1.40mm_HandSolder" V 3480 3050 50  0001 C CNN
F 3 "~" H 3550 3050 50  0001 C CNN
	1    3550 3050
	1    0    0    -1  
$EndComp
$Comp
L Device:C C5
U 1 1 5B88D472
P 4600 2950
F 0 "C5" H 4715 2996 50  0000 L CNN
F 1 "100uf" H 4715 2905 50  0000 L CNN
F 2 "Capacitor_SMD:C_1206_3216Metric_Pad1.42x1.75mm_HandSolder" H 4638 2800 50  0001 C CNN
F 3 "~" H 4600 2950 50  0001 C CNN
	1    4600 2950
	1    0    0    -1  
$EndComp
$Comp
L power:GND #PWR0105
U 1 1 5B88D500
P 4600 3100
F 0 "#PWR0105" H 4600 2850 50  0001 C CNN
F 1 "GND" H 4605 2927 50  0000 C CNN
F 2 "" H 4600 3100 50  0001 C CNN
F 3 "" H 4600 3100 50  0001 C CNN
	1    4600 3100
	1    0    0    -1  
$EndComp
Wire Wire Line
	4950 3200 5150 3200
Wire Wire Line
	4950 2800 4950 3200
Wire Wire Line
	4600 2800 4550 2800
Connection ~ 4600 2800
Connection ~ 4550 2800
Wire Wire Line
	3950 3600 4550 3600
Wire Wire Line
	3550 3500 4550 3500
Wire Wire Line
	4550 3500 4550 3400
Wire Wire Line
	5300 1500 5300 1750
Wire Wire Line
	5300 1750 5950 1750
Wire Wire Line
	5200 1500 5200 1850
Wire Wire Line
	5200 1850 6050 1850
Wire Wire Line
	5950 1750 5950 3500
Wire Wire Line
	6050 1850 6050 3700
Connection ~ 4950 2800
$Comp
L Device:R R6
U 1 1 5B8975CC
P 5850 3050
F 0 "R6" H 5920 3096 50  0000 L CNN
F 1 "10k" H 5920 3005 50  0000 L CNN
F 2 "Resistor_SMD:R_0805_2012Metric_Pad1.15x1.40mm_HandSolder" V 5780 3050 50  0001 C CNN
F 3 "~" H 5850 3050 50  0001 C CNN
	1    5850 3050
	1    0    0    -1  
$EndComp
$Comp
L Device:R R10
U 1 1 5B897619
P 6250 3050
F 0 "R10" H 6320 3096 50  0000 L CNN
F 1 "10k" H 6320 3005 50  0000 L CNN
F 2 "Resistor_SMD:R_0805_2012Metric_Pad1.15x1.40mm_HandSolder" V 6180 3050 50  0001 C CNN
F 3 "~" H 6250 3050 50  0001 C CNN
	1    6250 3050
	1    0    0    -1  
$EndComp
Wire Wire Line
	4600 2800 4950 2800
Wire Wire Line
	6250 2800 6250 2900
Connection ~ 6250 3600
Wire Wire Line
	5850 3200 5850 3400
Wire Wire Line
	5850 2900 5850 2800
Wire Wire Line
	3550 2800 3950 2800
Wire Wire Line
	3550 2800 3550 2900
Wire Wire Line
	3550 3200 3550 3500
Wire Wire Line
	3950 3200 3950 3600
Wire Wire Line
	3950 2900 3950 2800
Connection ~ 3950 2800
Wire Wire Line
	3950 2800 4550 2800
$Comp
L Device:R R9
U 1 1 5B8A1188
P 6150 4950
F 0 "R9" H 6220 4996 50  0000 L CNN
F 1 "10k" H 6220 4905 50  0000 L CNN
F 2 "Resistor_SMD:R_0805_2012Metric_Pad1.15x1.40mm_HandSolder" V 6080 4950 50  0001 C CNN
F 3 "~" H 6150 4950 50  0001 C CNN
	1    6150 4950
	1    0    0    -1  
$EndComp
Wire Wire Line
	5150 4700 5150 5250
Wire Wire Line
	5150 5250 5150 5400
Connection ~ 5150 5250
$Comp
L Switch:SW_Push SW2
U 1 1 5B8A42CC
P 3550 4500
F 0 "SW2" V 3596 4452 50  0000 R CNN
F 1 "RST" V 3505 4452 50  0000 R CNN
F 2 "Button_Switch_SMD:SW_SPST_FSMSM" H 3550 4700 50  0001 C CNN
F 3 "" H 3550 4700 50  0001 C CNN
	1    3550 4500
	0    -1   -1   0   
$EndComp
$Comp
L Switch:SW_Push SW3
U 1 1 5B8A43F5
P 5850 4900
F 0 "SW3" V 5896 4852 50  0000 R CNN
F 1 "FLSH" V 5805 4852 50  0000 R CNN
F 2 "Button_Switch_SMD:SW_SPST_FSMSM" H 5850 5100 50  0001 C CNN
F 3 "" H 5850 5100 50  0001 C CNN
	1    5850 4900
	0    -1   -1   0   
$EndComp
Wire Wire Line
	5750 4300 6150 4300
Wire Wire Line
	6150 5250 6150 5100
Wire Wire Line
	5150 5250 5850 5250
Wire Wire Line
	6150 4300 6150 4800
Connection ~ 6150 4300
Wire Wire Line
	5850 4700 5850 3400
Wire Wire Line
	5850 5100 5850 5250
Connection ~ 5850 5250
Wire Wire Line
	5850 5250 6150 5250
Wire Wire Line
	3550 3500 3550 4300
Connection ~ 3550 3500
Wire Wire Line
	3550 4700 3550 5250
Wire Wire Line
	3550 5250 5150 5250
Connection ~ 5850 2800
Wire Wire Line
	5850 2800 6250 2800
Connection ~ 5850 3400
Wire Wire Line
	4950 2800 5850 2800
Wire Wire Line
	5750 3400 5850 3400
NoConn ~ 4550 4500
NoConn ~ 4550 4400
NoConn ~ 4550 4300
NoConn ~ 4550 4200
NoConn ~ 4550 4100
NoConn ~ 4550 4000
NoConn ~ 4550 3800
NoConn ~ 5100 1500
$Comp
L PCM3060PWR:PCM3060PWR U7
U 1 1 5B8C81A1
P 10000 3750
F 0 "U7" H 10000 4820 50  0000 C CNN
F 1 "PCM3060PWR" H 10000 4729 50  0000 C CNN
F 2 "PCM3060PWR:SOP65P640X120-28N" H 10000 3750 50  0001 L BNN
F 3 "Good" H 10000 3750 50  0001 L BNN
F 4 "3.53 USD" H 10000 3750 50  0001 L BNN "Field4"
F 5 "PCM3060PWR" H 10000 3750 50  0001 L BNN "Field5"
F 6 "TSSOP-28 Texas Instruments" H 10000 3750 50  0001 L BNN "Field6"
F 7 "24-bit Asynchronous Stereo Audio Codec with 96/192kHz sampling rate 28-TSSOP -25 to 85" H 10000 3750 50  0001 L BNN "Field7"
F 8 "Texas Instruments" H 10000 3750 50  0001 L BNN "Field8"
	1    10000 3750
	1    0    0    -1  
$EndComp
$Comp
L power:GND #PWR0106
U 1 1 5B8CA3E3
P 8800 4850
F 0 "#PWR0106" H 8800 4600 50  0001 C CNN
F 1 "GND" H 8805 4677 50  0000 C CNN
F 2 "" H 8800 4850 50  0001 C CNN
F 3 "" H 8800 4850 50  0001 C CNN
	1    8800 4850
	1    0    0    -1  
$EndComp
Wire Wire Line
	8800 4850 8800 4750
Wire Wire Line
	8800 4650 8900 4650
Wire Wire Line
	8900 4750 8800 4750
Connection ~ 8800 4750
Wire Wire Line
	8800 4750 8800 4650
Wire Wire Line
	8900 4450 8800 4450
Wire Wire Line
	8800 4450 8800 4550
Connection ~ 8800 4650
Wire Wire Line
	8900 4550 8800 4550
Connection ~ 8800 4550
Wire Wire Line
	8800 4550 8800 4650
Text GLabel 6550 3600 2    50   Input ~ 0
O_WS
Text GLabel 6550 3700 2    50   Input ~ 0
O_DATA
Text GLabel 6550 4000 2    50   Input ~ 0
I_DATA
Text GLabel 6550 4100 2    50   Input ~ 0
I_BCK
Text GLabel 6550 4200 2    50   Input ~ 0
I_WS
Text GLabel 6550 4300 2    50   Input ~ 0
O_BCK
Text GLabel 11450 3250 2    50   Input ~ 0
O_WS
Text GLabel 8550 3550 0    50   Input ~ 0
O_DATA
Text GLabel 11450 4450 2    50   Input ~ 0
I_DATA
Text GLabel 11450 3350 2    50   Input ~ 0
I_BCK
Text GLabel 11450 3150 2    50   Input ~ 0
I_WS
Text GLabel 11450 3450 2    50   Input ~ 0
O_BCK
Wire Wire Line
	6250 3600 6550 3600
Wire Wire Line
	6050 3700 6550 3700
Wire Wire Line
	5750 4000 6550 4000
Wire Wire Line
	6150 4100 6550 4100
Wire Wire Line
	6550 4300 6150 4300
Wire Wire Line
	6250 4200 6550 4200
Connection ~ 6250 4200
NoConn ~ 11100 3950
NoConn ~ 11100 4150
Wire Wire Line
	11100 4450 11450 4450
Wire Wire Line
	11100 3450 11450 3450
Wire Wire Line
	11100 3350 11450 3350
Wire Wire Line
	11100 3250 11450 3250
Wire Wire Line
	11100 3150 11450 3150
Wire Wire Line
	11100 4250 11950 4250
$Comp
L power:GND #PWR0107
U 1 1 5B8DC3E5
P 12150 4550
F 0 "#PWR0107" H 12150 4300 50  0001 C CNN
F 1 "GND" H 12155 4377 50  0000 C CNN
F 2 "" H 12150 4550 50  0001 C CNN
F 3 "" H 12150 4550 50  0001 C CNN
	1    12150 4550
	1    0    0    -1  
$EndComp
NoConn ~ 11100 3650
NoConn ~ 11100 3750
$Comp
L power:GND #PWR0108
U 1 1 5B8E087F
P 12150 5700
F 0 "#PWR0108" H 12150 5450 50  0001 C CNN
F 1 "GND" H 12155 5527 50  0000 C CNN
F 2 "" H 12150 5700 50  0001 C CNN
F 3 "" H 12150 5700 50  0001 C CNN
	1    12150 5700
	1    0    0    -1  
$EndComp
Wire Wire Line
	12150 5400 12150 5700
Wire Wire Line
	8650 3750 8650 5400
Wire Wire Line
	8650 5400 11900 5400
Wire Wire Line
	11900 5400 11900 5200
Wire Wire Line
	8700 3850 8700 5300
Text GLabel 6600 3400 2    50   Input ~ 0
I2C_SCL
Text GLabel 6550 3800 2    50   Input ~ 0
I2C_SDA
Wire Wire Line
	5750 3800 6550 3800
Text GLabel 8550 3950 0    50   Input ~ 0
I2C_SCL
Wire Wire Line
	8550 3950 8900 3950
Text GLabel 11450 3050 2    50   Input ~ 0
I2C_SDA
Wire Wire Line
	11100 3050 11450 3050
Text GLabel 6550 3900 2    50   Input ~ 0
I2C_ADR
Text GLabel 6550 4400 2    50   Input ~ 0
PCM_RST
Wire Wire Line
	5750 3900 6550 3900
Text GLabel 8550 4050 0    50   Input ~ 0
I2C_ADR
Text GLabel 8550 3650 0    50   Input ~ 0
PCM_RST
Wire Wire Line
	8550 3550 8900 3550
Wire Wire Line
	8550 3650 8900 3650
Wire Wire Line
	8550 4050 8900 4050
$Comp
L Device:R R18
U 1 1 5B9011D5
P 8350 4400
F 0 "R18" H 8420 4446 50  0000 L CNN
F 1 "0" H 8420 4355 50  0000 L CNN
F 2 "Resistor_SMD:R_0805_2012Metric_Pad1.15x1.40mm_HandSolder" V 8280 4400 50  0001 C CNN
F 3 "~" H 8350 4400 50  0001 C CNN
	1    8350 4400
	1    0    0    -1  
$EndComp
Wire Wire Line
	8800 4450 8550 4450
Wire Wire Line
	8550 4450 8550 4550
Wire Wire Line
	8550 4550 8350 4550
Connection ~ 8800 4450
Wire Wire Line
	8350 4250 8350 4150
Wire Wire Line
	8350 4150 8900 4150
Text GLabel 8900 4250 0    50   Input ~ 0
VCOM
Wire Wire Line
	8900 3450 8900 3350
Text GLabel 8000 3350 0    50   Input ~ 0
I2S_MCLK
Text GLabel 6550 3500 2    50   Input ~ 0
CLK_RTC
Wire Wire Line
	5950 3500 6550 3500
Connection ~ 5950 3500
$Comp
L Device:R R19
U 1 1 5B9134E1
P 8600 2650
F 0 "R19" H 8670 2696 50  0000 L CNN
F 1 "0" H 8670 2605 50  0000 L CNN
F 2 "Resistor_SMD:R_0805_2012Metric_Pad1.15x1.40mm_HandSolder" V 8530 2650 50  0001 C CNN
F 3 "~" H 8600 2650 50  0001 C CNN
	1    8600 2650
	0    1    1    0   
$EndComp
$Comp
L Device:R R17
U 1 1 5B91B3D6
P 8200 3250
F 0 "R17" V 7993 3250 50  0000 C CNN
F 1 "0" V 8084 3250 50  0000 C CNN
F 2 "Resistor_SMD:R_0805_2012Metric_Pad1.15x1.40mm_HandSolder" V 8130 3250 50  0001 C CNN
F 3 "~" H 8200 3250 50  0001 C CNN
	1    8200 3250
	0    1    1    0   
$EndComp
Text GLabel 8000 3250 0    50   Input ~ 0
CLK_RTC
Wire Wire Line
	8000 3250 8050 3250
Wire Wire Line
	8000 3350 8350 3350
Text GLabel 8000 3150 0    50   Input ~ 0
I2C_SCL
$Comp
L Device:R R16
U 1 1 5B934314
P 8200 3150
F 0 "R16" V 7993 3150 50  0000 C CNN
F 1 "0" V 8084 3150 50  0000 C CNN
F 2 "Resistor_SMD:R_0805_2012Metric_Pad1.15x1.40mm_HandSolder" V 8130 3150 50  0001 C CNN
F 3 "~" H 8200 3150 50  0001 C CNN
	1    8200 3150
	0    1    1    0   
$EndComp
$Comp
L Device:R R15
U 1 1 5B936E9C
P 8200 3050
F 0 "R15" V 7993 3050 50  0000 C CNN
F 1 "0" V 8084 3050 50  0000 C CNN
F 2 "Resistor_SMD:R_0805_2012Metric_Pad1.15x1.40mm_HandSolder" V 8130 3050 50  0001 C CNN
F 3 "~" H 8200 3050 50  0001 C CNN
	1    8200 3050
	0    1    1    0   
$EndComp
Wire Wire Line
	8350 3050 8350 3150
Connection ~ 8350 3350
Connection ~ 8350 3150
Wire Wire Line
	8350 3150 8350 3250
Connection ~ 8350 3250
Wire Wire Line
	8350 3250 8350 3350
Wire Wire Line
	8000 3150 8050 3150
Text GLabel 8000 3050 0    50   Input ~ 0
I2C_SDA
Wire Wire Line
	8000 3050 8050 3050
$Comp
L Connector:AudioJack3_Ground J8
U 1 1 5B948E5F
P 12450 4150
F 0 "J8" H 12217 4079 50  0000 R CNN
F 1 "AudioJack3_Ground" H 12217 4170 50  0000 R CNN
F 2 "esp8266_i2s:Tayda_3.5mm_stereo_TRS_jack_A-853" H 12450 4150 50  0001 C CNN
F 3 "~" H 12450 4150 50  0001 C CNN
	1    12450 4150
	-1   0    0    1   
$EndComp
$Comp
L Connector:AudioJack3_Ground J9
U 1 1 5B948F0C
P 12450 5300
F 0 "J9" H 12217 5229 50  0000 R CNN
F 1 "AudioJack3_Ground" H 12217 5320 50  0000 R CNN
F 2 "esp8266_i2s:Tayda_3.5mm_stereo_TRS_jack_A-853" H 12450 5300 50  0001 C CNN
F 3 "~" H 12450 5300 50  0001 C CNN
	1    12450 5300
	-1   0    0    1   
$EndComp
Wire Wire Line
	12250 5400 12150 5400
Wire Wire Line
	12250 4250 12150 4250
Wire Wire Line
	12150 4250 12150 4550
$Comp
L power:+5V #PWR0109
U 1 1 5B9052D9
P 8450 2150
F 0 "#PWR0109" H 8450 2000 50  0001 C CNN
F 1 "+5V" H 8465 2323 50  0000 C CNN
F 2 "" H 8450 2150 50  0001 C CNN
F 3 "" H 8450 2150 50  0001 C CNN
	1    8450 2150
	1    0    0    -1  
$EndComp
$Comp
L Device:C C9
U 1 1 5B92DEB1
P 8900 2300
F 0 "C9" V 8648 2300 50  0000 C CNN
F 1 "100uf" V 8739 2300 50  0000 C CNN
F 2 "Capacitor_SMD:C_1206_3216Metric_Pad1.42x1.75mm_HandSolder" H 8938 2150 50  0001 C CNN
F 3 "~" H 8900 2300 50  0001 C CNN
	1    8900 2300
	0    1    1    0   
$EndComp
$Comp
L power:GND #PWR0110
U 1 1 5B92DF62
P 8150 2400
F 0 "#PWR0110" H 8150 2150 50  0001 C CNN
F 1 "GND" H 8155 2227 50  0000 C CNN
F 2 "" H 8150 2400 50  0001 C CNN
F 3 "" H 8150 2400 50  0001 C CNN
	1    8150 2400
	1    0    0    -1  
$EndComp
$Comp
L Device:C C8
U 1 1 5B93E59D
P 8300 2300
F 0 "C8" V 8048 2300 50  0000 C CNN
F 1 "100uf" V 8139 2300 50  0000 C CNN
F 2 "Capacitor_SMD:C_1206_3216Metric_Pad1.42x1.75mm_HandSolder" H 8338 2150 50  0001 C CNN
F 3 "~" H 8300 2300 50  0001 C CNN
	1    8300 2300
	0    1    1    0   
$EndComp
Connection ~ 8450 2650
Wire Wire Line
	8450 2650 8450 3150
Wire Wire Line
	8450 2150 8450 2300
Wire Wire Line
	8750 2150 8750 2300
Wire Wire Line
	8750 2650 8750 3050
Wire Wire Line
	8750 3050 8900 3050
Connection ~ 8750 2650
Wire Wire Line
	8450 3150 8900 3150
Connection ~ 8450 2300
Wire Wire Line
	8450 2300 8450 2650
Wire Wire Line
	8150 2300 8150 2400
Connection ~ 8750 2300
Wire Wire Line
	8750 2300 8750 2650
$Comp
L power:GND #PWR0111
U 1 1 5B96CD03
P 9050 2400
F 0 "#PWR0111" H 9050 2150 50  0001 C CNN
F 1 "GND" H 9055 2227 50  0000 C CNN
F 2 "" H 9050 2400 50  0001 C CNN
F 3 "" H 9050 2400 50  0001 C CNN
	1    9050 2400
	1    0    0    -1  
$EndComp
Wire Wire Line
	9050 2300 9050 2400
Wire Wire Line
	8350 3350 8900 3350
Connection ~ 8900 3350
$Comp
L Oscillator:NB3N511 U5
U 1 1 5B976BC2
P 7250 6700
F 0 "U5" H 7691 6796 50  0000 L CNN
F 1 "NB3N511" H 7691 6705 50  0000 L CNN
F 2 "Package_SO:SOIC-8_3.9x4.9mm_P1.27mm" H 7300 5950 50  0001 C CNN
F 3 "http://www.onsemi.com/pub/Collateral/NB3N511-D.PDF" H 7300 5850 50  0001 C CNN
	1    7250 6700
	1    0    0    -1  
$EndComp
$Comp
L power:+3.3V #PWR0112
U 1 1 5B97737D
P 7250 5900
F 0 "#PWR0112" H 7250 5750 50  0001 C CNN
F 1 "+3.3V" H 7265 6073 50  0000 C CNN
F 2 "" H 7250 5900 50  0001 C CNN
F 3 "" H 7250 5900 50  0001 C CNN
	1    7250 5900
	1    0    0    -1  
$EndComp
$Comp
L power:GND #PWR0113
U 1 1 5B9773E5
P 7550 6050
F 0 "#PWR0113" H 7550 5800 50  0001 C CNN
F 1 "GND" H 7555 5877 50  0000 C CNN
F 2 "" H 7550 6050 50  0001 C CNN
F 3 "" H 7550 6050 50  0001 C CNN
	1    7550 6050
	1    0    0    -1  
$EndComp
$Comp
L power:GND #PWR0114
U 1 1 5B9774CE
P 7250 7100
F 0 "#PWR0114" H 7250 6850 50  0001 C CNN
F 1 "GND" H 7255 6927 50  0000 C CNN
F 2 "" H 7250 7100 50  0001 C CNN
F 3 "" H 7250 7100 50  0001 C CNN
	1    7250 7100
	1    0    0    -1  
$EndComp
$Comp
L Device:C C6
U 1 1 5B97758A
P 7400 6000
F 0 "C6" V 7652 6000 50  0000 C CNN
F 1 "100uf" V 7561 6000 50  0000 C CNN
F 2 "Capacitor_SMD:C_1206_3216Metric_Pad1.42x1.75mm_HandSolder" H 7438 5850 50  0001 C CNN
F 3 "~" H 7400 6000 50  0001 C CNN
	1    7400 6000
	0    -1   -1   0   
$EndComp
Wire Wire Line
	7250 5900 7250 6000
Connection ~ 7250 6000
Wire Wire Line
	7250 6000 7250 6200
Wire Wire Line
	7550 6000 7550 6050
Text GLabel 8100 6700 2    50   Input ~ 0
BCLK_MULT
Text GLabel 8000 2950 0    50   Input ~ 0
BCLK_MULT
Wire Wire Line
	7650 6700 8100 6700
Text GLabel 6550 6500 0    50   Input ~ 0
O_BCK
$Comp
L Device:R R7
U 1 1 5B98C075
P 5900 6850
F 0 "R7" H 5970 6896 50  0000 L CNN
F 1 "0" H 5970 6805 50  0000 L CNN
F 2 "Resistor_SMD:R_0805_2012Metric_Pad1.15x1.40mm_HandSolder" V 5830 6850 50  0001 C CNN
F 3 "~" H 5900 6850 50  0001 C CNN
	1    5900 6850
	1    0    0    -1  
$EndComp
$Comp
L Device:R R8
U 1 1 5B98C107
P 6050 6850
F 0 "R8" H 6120 6896 50  0000 L CNN
F 1 "0" H 6120 6805 50  0000 L CNN
F 2 "Resistor_SMD:R_0805_2012Metric_Pad1.15x1.40mm_HandSolder" V 5980 6850 50  0001 C CNN
F 3 "~" H 6050 6850 50  0001 C CNN
	1    6050 6850
	1    0    0    -1  
$EndComp
$Comp
L Device:R R11
U 1 1 5B98F814
P 6300 6950
F 0 "R11" H 6370 6996 50  0000 L CNN
F 1 "0" H 6370 6905 50  0000 L CNN
F 2 "Resistor_SMD:R_0805_2012Metric_Pad1.15x1.40mm_HandSolder" V 6230 6950 50  0001 C CNN
F 3 "~" H 6300 6950 50  0001 C CNN
	1    6300 6950
	1    0    0    -1  
$EndComp
$Comp
L Device:R R12
U 1 1 5B992F1F
P 6450 6950
F 0 "R12" H 6520 6996 50  0000 L CNN
F 1 "0" H 6520 6905 50  0000 L CNN
F 2 "Resistor_SMD:R_0805_2012Metric_Pad1.15x1.40mm_HandSolder" V 6380 6950 50  0001 C CNN
F 3 "~" H 6450 6950 50  0001 C CNN
	1    6450 6950
	1    0    0    -1  
$EndComp
Wire Wire Line
	6850 6700 6050 6700
Connection ~ 6050 6700
Wire Wire Line
	6050 6700 5900 6700
$Comp
L power:+3.3V #PWR0115
U 1 1 5B999E8A
P 5900 7000
F 0 "#PWR0115" H 5900 6850 50  0001 C CNN
F 1 "+3.3V" H 5915 7173 50  0000 C CNN
F 2 "" H 5900 7000 50  0001 C CNN
F 3 "" H 5900 7000 50  0001 C CNN
	1    5900 7000
	-1   0    0    1   
$EndComp
$Comp
L power:GND #PWR0116
U 1 1 5B999F35
P 6050 7000
F 0 "#PWR0116" H 6050 6750 50  0001 C CNN
F 1 "GND" H 6055 6827 50  0000 C CNN
F 2 "" H 6050 7000 50  0001 C CNN
F 3 "" H 6050 7000 50  0001 C CNN
	1    6050 7000
	1    0    0    -1  
$EndComp
$Comp
L power:GND #PWR0117
U 1 1 5B999FA5
P 6450 7100
F 0 "#PWR0117" H 6450 6850 50  0001 C CNN
F 1 "GND" H 6455 6927 50  0000 C CNN
F 2 "" H 6450 7100 50  0001 C CNN
F 3 "" H 6450 7100 50  0001 C CNN
	1    6450 7100
	1    0    0    -1  
$EndComp
$Comp
L power:+3.3V #PWR0118
U 1 1 5B99A01C
P 6300 7100
F 0 "#PWR0118" H 6300 6950 50  0001 C CNN
F 1 "+3.3V" H 6315 7273 50  0000 C CNN
F 2 "" H 6300 7100 50  0001 C CNN
F 3 "" H 6300 7100 50  0001 C CNN
	1    6300 7100
	-1   0    0    1   
$EndComp
Wire Wire Line
	6850 6800 6450 6800
Connection ~ 6450 6800
Wire Wire Line
	6450 6800 6300 6800
$Comp
L power:GND #PWR0119
U 1 1 5B99DC9B
P 6850 6900
F 0 "#PWR0119" H 6850 6650 50  0001 C CNN
F 1 "GND" H 6855 6727 50  0000 C CNN
F 2 "" H 6850 6900 50  0001 C CNN
F 3 "" H 6850 6900 50  0001 C CNN
	1    6850 6900
	1    0    0    -1  
$EndComp
Wire Wire Line
	6550 6500 6850 6500
NoConn ~ 6850 6600
$Comp
L Device:R R14
U 1 1 5B9A5A48
P 8200 2950
F 0 "R14" V 7993 2950 50  0000 C CNN
F 1 "0" V 8084 2950 50  0000 C CNN
F 2 "Resistor_SMD:R_0805_2012Metric_Pad1.15x1.40mm_HandSolder" V 8130 2950 50  0001 C CNN
F 3 "~" H 8200 2950 50  0001 C CNN
	1    8200 2950
	0    1    1    0   
$EndComp
Wire Wire Line
	8000 2950 8050 2950
Wire Wire Line
	8350 2950 8350 3050
Connection ~ 8350 3050
$Comp
L Connector:USB_B_Micro J7
U 1 1 5B9EB83F
P 11200 9100
F 0 "J7" H 11255 9567 50  0000 C CNN
F 1 "USB_B_Micro" H 11255 9476 50  0000 C CNN
F 2 "esp8266_i2s:micro_usb" H 11350 9050 50  0001 C CNN
F 3 "~" H 11350 9050 50  0001 C CNN
	1    11200 9100
	1    0    0    -1  
$EndComp
$Comp
L Device:C C10
U 1 1 5B9EB8BD
P 11800 9050
F 0 "C10" H 11915 9096 50  0000 L CNN
F 1 "10uF" H 11915 9005 50  0000 L CNN
F 2 "Capacitor_SMD:C_1206_3216Metric_Pad1.42x1.75mm_HandSolder" H 11838 8900 50  0001 C CNN
F 3 "~" H 11800 9050 50  0001 C CNN
	1    11800 9050
	1    0    0    -1  
$EndComp
$Comp
L custom:TP4056 U6
U 1 1 5B9ED251
P 9400 10050
F 0 "U6" H 9400 10175 50  0000 C CNN
F 1 "TP4056" H 9400 10084 50  0000 C CNN
F 2 "Package_SO:HTSOP-8-1EP_3.9x4.9mm_P1.27mm" H 9400 10050 50  0001 C CNN
F 3 "" H 9400 10050 50  0001 C CNN
	1    9400 10050
	1    0    0    -1  
$EndComp
Wire Wire Line
	11500 8900 11800 8900
$Comp
L power:GND #PWR0124
U 1 1 5B9ED35E
P 11200 9750
F 0 "#PWR0124" H 11200 9500 50  0001 C CNN
F 1 "GND" H 11205 9577 50  0000 C CNN
F 2 "" H 11200 9750 50  0001 C CNN
F 3 "" H 11200 9750 50  0001 C CNN
	1    11200 9750
	1    0    0    -1  
$EndComp
Wire Wire Line
	11200 9500 11200 9600
$Comp
L power:VBUS #PWR0125
U 1 1 5B9ED3C3
P 11800 8900
F 0 "#PWR0125" H 11800 8750 50  0001 C CNN
F 1 "VBUS" H 11815 9073 50  0000 C CNN
F 2 "" H 11800 8900 50  0001 C CNN
F 3 "" H 11800 8900 50  0001 C CNN
	1    11800 8900
	1    0    0    -1  
$EndComp
Connection ~ 11800 8900
Wire Wire Line
	11200 9600 11800 9600
Wire Wire Line
	11800 9600 11800 9200
Connection ~ 11200 9600
Wire Wire Line
	11200 9600 11200 9750
$Comp
L Device:R R21
U 1 1 5B9ED54C
P 9950 10250
F 0 "R21" V 9743 10250 50  0000 C CNN
F 1 "1K" V 9834 10250 50  0000 C CNN
F 2 "Resistor_SMD:R_0805_2012Metric_Pad1.15x1.40mm_HandSolder" V 9880 10250 50  0001 C CNN
F 3 "~" H 9950 10250 50  0001 C CNN
	1    9950 10250
	0    1    1    0   
$EndComp
$Comp
L Device:R R22
U 1 1 5B9ED5EE
P 9950 10350
F 0 "R22" V 9743 10350 50  0000 C CNN
F 1 "1K" V 9834 10350 50  0000 C CNN
F 2 "Resistor_SMD:R_0805_2012Metric_Pad1.15x1.40mm_HandSolder" V 9880 10350 50  0001 C CNN
F 3 "~" H 9950 10350 50  0001 C CNN
	1    9950 10350
	0    1    1    0   
$EndComp
$Comp
L Device:LED D2
U 1 1 5B9ED67E
P 10250 10250
F 0 "D2" H 10241 10466 50  0000 C CNN
F 1 "LEDR" H 10241 10375 50  0000 C CNN
F 2 "LED_SMD:LED_0805_2012Metric_Pad1.15x1.40mm_HandSolder" H 10250 10250 50  0001 C CNN
F 3 "~" H 10250 10250 50  0001 C CNN
	1    10250 10250
	1    0    0    -1  
$EndComp
$Comp
L Device:LED D3
U 1 1 5B9ED6CE
P 10450 10350
F 0 "D3" H 10441 10566 50  0000 C CNN
F 1 "LEDG" H 10441 10475 50  0000 C CNN
F 2 "LED_SMD:LED_0805_2012Metric_Pad1.15x1.40mm_HandSolder" H 10450 10350 50  0001 C CNN
F 3 "~" H 10450 10350 50  0001 C CNN
	1    10450 10350
	1    0    0    -1  
$EndComp
$Comp
L power:VBUS #PWR0126
U 1 1 5B9ED8E4
P 10600 10050
F 0 "#PWR0126" H 10600 9900 50  0001 C CNN
F 1 "VBUS" H 10615 10223 50  0000 C CNN
F 2 "" H 10600 10050 50  0001 C CNN
F 3 "" H 10600 10050 50  0001 C CNN
	1    10600 10050
	1    0    0    -1  
$EndComp
Wire Wire Line
	10600 10150 10600 10050
Wire Wire Line
	10600 10350 10600 10250
Connection ~ 10600 10150
Connection ~ 10600 10250
Wire Wire Line
	10600 10250 10600 10150
$Comp
L power:+BATT #PWR0127
U 1 1 5B9EDA1C
P 10150 10700
F 0 "#PWR0127" H 10150 10550 50  0001 C CNN
F 1 "+BATT" H 10165 10873 50  0000 C CNN
F 2 "" H 10150 10700 50  0001 C CNN
F 3 "" H 10150 10700 50  0001 C CNN
	1    10150 10700
	1    0    0    -1  
$EndComp
Wire Wire Line
	9800 10450 9800 10700
Wire Wire Line
	9800 10700 10150 10700
$Comp
L power:VBUS #PWR0128
U 1 1 5B9EDB15
P 8650 10600
F 0 "#PWR0128" H 8650 10450 50  0001 C CNN
F 1 "VBUS" H 8665 10773 50  0000 C CNN
F 2 "" H 8650 10600 50  0001 C CNN
F 3 "" H 8650 10600 50  0001 C CNN
	1    8650 10600
	1    0    0    -1  
$EndComp
Wire Wire Line
	8650 10600 9000 10600
Wire Wire Line
	9000 10600 9000 10450
$Comp
L Device:R R20
U 1 1 5B9EDC1F
P 8850 10250
F 0 "R20" V 9057 10250 50  0000 C CNN
F 1 "2K" V 8966 10250 50  0000 C CNN
F 2 "Resistor_SMD:R_0805_2012Metric_Pad1.15x1.40mm_HandSolder" V 8780 10250 50  0001 C CNN
F 3 "~" H 8850 10250 50  0001 C CNN
	1    8850 10250
	0    -1   -1   0   
$EndComp
$Comp
L power:GND #PWR0129
U 1 1 5B9EDCAB
P 8400 10350
F 0 "#PWR0129" H 8400 10100 50  0001 C CNN
F 1 "GND" H 8405 10177 50  0000 C CNN
F 2 "" H 8400 10350 50  0001 C CNN
F 3 "" H 8400 10350 50  0001 C CNN
	1    8400 10350
	1    0    0    -1  
$EndComp
Wire Wire Line
	8400 10350 9000 10350
Wire Wire Line
	8700 10250 8400 10250
Wire Wire Line
	8400 10250 8400 10350
Connection ~ 8400 10350
Wire Wire Line
	8400 10250 8400 10150
Wire Wire Line
	8400 10150 9000 10150
Connection ~ 8400 10250
Wire Wire Line
	10100 10350 10300 10350
Wire Wire Line
	10400 10250 10600 10250
Wire Wire Line
	9800 10150 10600 10150
$Comp
L custom:FS312F-G U4
U 1 1 5B9EEDE1
P 6600 8800
F 0 "U4" H 6600 8925 50  0000 C CNN
F 1 "FS312F-G" H 6600 8834 50  0000 C CNN
F 2 "Package_TO_SOT_SMD:SOT-23-6_Handsoldering" H 6600 8800 50  0001 C CNN
F 3 "" H 6600 8800 50  0001 C CNN
	1    6600 8800
	1    0    0    -1  
$EndComp
$Comp
L Device:Q_DUAL_NMOS_G1S2G2D2S1D1 Q1
U 1 1 5B9EEFEF
P 6450 9950
F 0 "Q1" V 6700 9950 50  0000 C CNN
F 1 "DUAL_NMOSFET" V 6791 9950 50  0000 C CNN
F 2 "Package_TO_SOT_SMD:SOT-23-6_Handsoldering" H 6650 9950 50  0001 C CNN
F 3 "~" H 6650 9950 50  0001 C CNN
	1    6450 9950
	0    1    1    0   
$EndComp
$Comp
L Device:Q_DUAL_NMOS_G1S2G2D2S1D1 Q1
U 2 1 5B9EF1DD
P 7150 10150
F 0 "Q1" V 7493 10150 50  0000 C CNN
F 1 "DUAL_NMOSFET" V 7402 10150 50  0000 C CNN
F 2 "Package_TO_SOT_SMD:SOT-23-6_Handsoldering" H 7350 10150 50  0001 C CNN
F 3 "~" H 7350 10150 50  0001 C CNN
	2    7150 10150
	0    -1   -1   0   
$EndComp
Wire Wire Line
	6150 8900 5350 8900
Wire Wire Line
	5350 8900 5350 10600
Wire Wire Line
	5350 10600 7150 10600
Wire Wire Line
	7150 10600 7150 10350
Wire Wire Line
	6150 9100 6050 9100
Wire Wire Line
	6050 9100 6050 9750
Wire Wire Line
	6050 9750 6450 9750
$Comp
L power:GND #PWR0130
U 1 1 5B9EFCBF
P 5600 10200
F 0 "#PWR0130" H 5600 9950 50  0001 C CNN
F 1 "GND" H 5605 10027 50  0000 C CNN
F 2 "" H 5600 10200 50  0001 C CNN
F 3 "" H 5600 10200 50  0001 C CNN
	1    5600 10200
	1    0    0    -1  
$EndComp
$Comp
L Device:R R5
U 1 1 5B9EFD8C
P 5600 9650
F 0 "R5" H 5670 9696 50  0000 L CNN
F 1 "2k" H 5670 9605 50  0000 L CNN
F 2 "Resistor_SMD:R_0805_2012Metric_Pad1.15x1.40mm_HandSolder" V 5530 9650 50  0001 C CNN
F 3 "~" H 5600 9650 50  0001 C CNN
	1    5600 9650
	1    0    0    -1  
$EndComp
Wire Wire Line
	5600 9500 5600 9000
Wire Wire Line
	5600 9000 6150 9000
Wire Wire Line
	5600 9800 5600 10050
Wire Wire Line
	6250 10050 5600 10050
Connection ~ 5600 10050
Wire Wire Line
	5600 10050 5600 10200
Wire Wire Line
	6650 10050 6950 10050
Wire Wire Line
	7050 9100 7800 9100
Wire Wire Line
	7800 9100 7800 10050
Wire Wire Line
	7800 10050 7350 10050
$Comp
L power:-BATT #PWR0131
U 1 1 5B9F14AD
P 8150 9100
F 0 "#PWR0131" H 8150 8950 50  0001 C CNN
F 1 "-BATT" H 8165 9273 50  0000 C CNN
F 2 "" H 8150 9100 50  0001 C CNN
F 3 "" H 8150 9100 50  0001 C CNN
	1    8150 9100
	1    0    0    -1  
$EndComp
Wire Wire Line
	7800 9100 8150 9100
Connection ~ 7800 9100
NoConn ~ 7050 8900
$Comp
L Device:C C7
U 1 1 5B9F25B4
P 7800 8950
F 0 "C7" H 7915 8996 50  0000 L CNN
F 1 "22uF" H 7915 8905 50  0000 L CNN
F 2 "Capacitor_SMD:C_1206_3216Metric_Pad1.42x1.75mm_HandSolder" H 7838 8800 50  0001 C CNN
F 3 "~" H 7800 8950 50  0001 C CNN
	1    7800 8950
	1    0    0    -1  
$EndComp
$Comp
L Device:R R13
U 1 1 5B9F26FF
P 7950 8800
F 0 "R13" V 7743 8800 50  0000 C CNN
F 1 "100" V 7834 8800 50  0000 C CNN
F 2 "Resistor_SMD:R_0805_2012Metric_Pad1.15x1.40mm_HandSolder" V 7880 8800 50  0001 C CNN
F 3 "~" H 7950 8800 50  0001 C CNN
	1    7950 8800
	0    1    1    0   
$EndComp
$Comp
L power:+BATT #PWR0132
U 1 1 5B9F2787
P 8150 8750
F 0 "#PWR0132" H 8150 8600 50  0001 C CNN
F 1 "+BATT" H 8165 8923 50  0000 C CNN
F 2 "" H 8150 8750 50  0001 C CNN
F 3 "" H 8150 8750 50  0001 C CNN
	1    8150 8750
	1    0    0    -1  
$EndComp
Wire Wire Line
	8100 8800 8150 8800
Wire Wire Line
	8150 8800 8150 8750
Wire Wire Line
	7800 8800 7450 8800
Wire Wire Line
	7450 8800 7450 9000
Wire Wire Line
	7450 9000 7050 9000
Connection ~ 7800 8800
$Comp
L Switch:SW_SPDT SW1
U 1 1 5B9F38A5
P 1150 8600
F 0 "SW1" H 1150 8885 50  0000 C CNN
F 1 "SW_SPDT" H 1150 8794 50  0000 C CNN
F 2 "Button_Switch_THT:SW_CuK_OS102011MA1QN1_SPDT_Angled" H 1150 8600 50  0001 C CNN
F 3 "" H 1150 8600 50  0001 C CNN
	1    1150 8600
	1    0    0    -1  
$EndComp
$Comp
L power:+BATT #PWR0133
U 1 1 5B9F3960
P 800 8400
F 0 "#PWR0133" H 800 8250 50  0001 C CNN
F 1 "+BATT" H 815 8573 50  0000 C CNN
F 2 "" H 800 8400 50  0001 C CNN
F 3 "" H 800 8400 50  0001 C CNN
	1    800  8400
	1    0    0    -1  
$EndComp
Wire Wire Line
	800  8400 800  8600
Wire Wire Line
	800  8600 950  8600
$Comp
L custom:MT3608 U1
U 1 1 5B9F4C4A
P 2600 8750
F 0 "U1" H 2600 8185 50  0000 C CNN
F 1 "MT3608" H 2600 8276 50  0000 C CNN
F 2 "Package_TO_SOT_SMD:SOT-23-6_Handsoldering" H 2600 8750 50  0001 C CNN
F 3 "" H 2600 8750 50  0001 C CNN
	1    2600 8750
	-1   0    0    1   
$EndComp
$Comp
L Device:L L1
U 1 1 5B9F5CEF
P 2550 8950
F 0 "L1" V 2372 8950 50  0000 C CNN
F 1 "22uH" V 2463 8950 50  0000 C CNN
F 2 "Inductor_SMD:L_Taiyo-Yuden_NR-60xx_HandSoldering" H 2550 8950 50  0001 C CNN
F 3 "~" H 2550 8950 50  0001 C CNN
	1    2550 8950
	0    1    1    0   
$EndComp
$Comp
L Device:D_Schottky D1
U 1 1 5B9F5D7C
P 3200 8950
F 0 "D1" H 3200 8734 50  0000 C CNN
F 1 "D_Schottky" H 3200 8825 50  0000 C CNN
F 2 "Diode_SMD:D_SMA_Handsoldering" H 3200 8950 50  0001 C CNN
F 3 "~" H 3200 8950 50  0001 C CNN
	1    3200 8950
	-1   0    0    1   
$EndComp
$Comp
L Device:R R1
U 1 1 5B9F6859
P 3400 7950
F 0 "R1" H 3330 7904 50  0000 R CNN
F 1 "7.5k" H 3330 7995 50  0000 R CNN
F 2 "Resistor_SMD:R_0805_2012Metric_Pad1.15x1.40mm_HandSolder" V 3330 7950 50  0001 C CNN
F 3 "~" H 3400 7950 50  0001 C CNN
	1    3400 7950
	-1   0    0    1   
$EndComp
$Comp
L Device:R R2
U 1 1 5B9F77D8
P 3400 8300
F 0 "R2" H 3470 8346 50  0000 L CNN
F 1 "1k" H 3470 8255 50  0000 L CNN
F 2 "Resistor_SMD:R_0805_2012Metric_Pad1.15x1.40mm_HandSolder" V 3330 8300 50  0001 C CNN
F 3 "~" H 3400 8300 50  0001 C CNN
	1    3400 8300
	1    0    0    -1  
$EndComp
$Comp
L Device:C C4
U 1 1 5B9F7889
P 3700 7950
F 0 "C4" H 3815 7996 50  0000 L CNN
F 1 "22uF" H 3815 7905 50  0000 L CNN
F 2 "Capacitor_SMD:C_1206_3216Metric_Pad1.42x1.75mm_HandSolder" H 3738 7800 50  0001 C CNN
F 3 "~" H 3700 7950 50  0001 C CNN
	1    3700 7950
	1    0    0    -1  
$EndComp
$Comp
L Device:C C1
U 1 1 5B9F78F6
P 1800 8800
F 0 "C1" H 1915 8846 50  0000 L CNN
F 1 "22uF" H 1915 8755 50  0000 L CNN
F 2 "Capacitor_SMD:C_1206_3216Metric_Pad1.42x1.75mm_HandSolder" H 1838 8650 50  0001 C CNN
F 3 "~" H 1800 8800 50  0001 C CNN
	1    1800 8800
	1    0    0    -1  
$EndComp
Wire Wire Line
	2200 8500 2050 8500
Wire Wire Line
	1800 8500 1800 8650
Connection ~ 2050 8500
Wire Wire Line
	2050 8500 1800 8500
Wire Wire Line
	3000 8600 3050 8600
Wire Wire Line
	3050 8600 3050 8950
Wire Wire Line
	3400 7800 3700 7800
$Comp
L power:GND #PWR0134
U 1 1 5B9FD6F7
P 3400 8500
F 0 "#PWR0134" H 3400 8250 50  0001 C CNN
F 1 "GND" H 3405 8327 50  0000 C CNN
F 2 "" H 3400 8500 50  0001 C CNN
F 3 "" H 3400 8500 50  0001 C CNN
	1    3400 8500
	1    0    0    -1  
$EndComp
Wire Wire Line
	3400 8500 3700 8500
$Comp
L power:GND #PWR0135
U 1 1 5B9FF2AC
P 1800 8950
F 0 "#PWR0135" H 1800 8700 50  0001 C CNN
F 1 "GND" H 1805 8777 50  0000 C CNN
F 2 "" H 1800 8950 50  0001 C CNN
F 3 "" H 1800 8950 50  0001 C CNN
	1    1800 8950
	1    0    0    -1  
$EndComp
Wire Wire Line
	3400 8100 3400 8150
Wire Wire Line
	2050 8500 2050 8600
Wire Wire Line
	2200 8600 2050 8600
Connection ~ 2050 8600
Wire Wire Line
	2050 8600 2050 8950
NoConn ~ 2200 8400
Wire Wire Line
	1350 8500 1550 8500
Connection ~ 1800 8500
$Comp
L Regulator_Linear:TLV71333PDBV U2
U 1 1 5BA064FF
P 2800 10450
F 0 "U2" H 2800 10792 50  0000 C CNN
F 1 "TLV71333PDBV" H 2800 10701 50  0000 C CNN
F 2 "Package_TO_SOT_SMD:SOT-23-5_HandSoldering" H 2800 10775 50  0001 C CIN
F 3 "http://www.ti.com/lit/ds/symlink/tlv713p.pdf" H 2800 10450 50  0001 C CNN
	1    2800 10450
	1    0    0    -1  
$EndComp
Wire Wire Line
	1550 8500 1550 10350
Wire Wire Line
	1550 10350 2250 10350
Connection ~ 1550 8500
Wire Wire Line
	1550 8500 1800 8500
Wire Wire Line
	2400 10350 2400 10450
Wire Wire Line
	2400 10450 2500 10450
Connection ~ 2400 10350
Wire Wire Line
	2400 10350 2500 10350
$Comp
L power:GND #PWR0136
U 1 1 5BA088D6
P 2800 10800
F 0 "#PWR0136" H 2800 10550 50  0001 C CNN
F 1 "GND" H 2805 10627 50  0000 C CNN
F 2 "" H 2800 10800 50  0001 C CNN
F 3 "" H 2800 10800 50  0001 C CNN
	1    2800 10800
	1    0    0    -1  
$EndComp
$Comp
L Device:C C2
U 1 1 5BA08952
P 2250 10500
F 0 "C2" H 2365 10546 50  0000 L CNN
F 1 "22uF" H 2365 10455 50  0000 L CNN
F 2 "Capacitor_SMD:C_1206_3216Metric_Pad1.42x1.75mm_HandSolder" H 2288 10350 50  0001 C CNN
F 3 "~" H 2250 10500 50  0001 C CNN
	1    2250 10500
	1    0    0    -1  
$EndComp
Connection ~ 2250 10350
Wire Wire Line
	2250 10350 2400 10350
$Comp
L Device:C C3
U 1 1 5BA089EA
P 3250 10500
F 0 "C3" H 3365 10546 50  0000 L CNN
F 1 "22uF" H 3365 10455 50  0000 L CNN
F 2 "Capacitor_SMD:C_1206_3216Metric_Pad1.42x1.75mm_HandSolder" H 3288 10350 50  0001 C CNN
F 3 "~" H 3250 10500 50  0001 C CNN
	1    3250 10500
	1    0    0    -1  
$EndComp
Wire Wire Line
	3100 10350 3250 10350
Wire Wire Line
	2250 10750 2800 10750
$Comp
L Connector:Conn_01x02_Female J2
U 1 1 5BA0CF11
P 4400 7800
F 0 "J2" H 4427 7776 50  0000 L CNN
F 1 "Conn_01x02_Female" H 4427 7685 50  0000 L CNN
F 2 "Connector_PinHeader_2.54mm:PinHeader_1x02_P2.54mm_Vertical" H 4400 7800 50  0001 C CNN
F 3 "~" H 4400 7800 50  0001 C CNN
	1    4400 7800
	1    0    0    -1  
$EndComp
$Comp
L Connector:Conn_01x02_Female J1
U 1 1 5BA0CFEB
P 4050 10350
F 0 "J1" H 4077 10326 50  0000 L CNN
F 1 "Conn_01x02_Female" H 4077 10235 50  0000 L CNN
F 2 "Connector_PinHeader_2.54mm:PinHeader_1x02_P2.54mm_Vertical" H 4050 10350 50  0001 C CNN
F 3 "~" H 4050 10350 50  0001 C CNN
	1    4050 10350
	1    0    0    -1  
$EndComp
Connection ~ 3700 7800
Wire Wire Line
	3700 8500 4200 8500
Wire Wire Line
	3250 10350 3700 10350
Connection ~ 3250 10350
Wire Wire Line
	2700 8950 3050 8950
Wire Wire Line
	2050 8950 2400 8950
Wire Wire Line
	3700 7800 3850 7800
$Comp
L power:+5V #PWR0137
U 1 1 5BA259F0
P 4000 7800
F 0 "#PWR0137" H 4000 7650 50  0001 C CNN
F 1 "+5V" H 4015 7973 50  0000 C CNN
F 2 "" H 4000 7800 50  0001 C CNN
F 3 "" H 4000 7800 50  0001 C CNN
	1    4000 7800
	1    0    0    -1  
$EndComp
Connection ~ 4000 7800
Wire Wire Line
	4000 7800 4200 7800
$Comp
L power:+3.3V #PWR0138
U 1 1 5BA25A6C
P 3700 10350
F 0 "#PWR0138" H 3700 10200 50  0001 C CNN
F 1 "+3.3V" H 3715 10523 50  0000 C CNN
F 2 "" H 3700 10350 50  0001 C CNN
F 3 "" H 3700 10350 50  0001 C CNN
	1    3700 10350
	1    0    0    -1  
$EndComp
Connection ~ 3700 10350
Wire Wire Line
	3700 10350 3850 10350
$Comp
L Connector:Conn_01x02_Female J6
U 1 1 5BA2616B
P 8850 8800
F 0 "J6" H 8877 8776 50  0000 L CNN
F 1 "Conn_01x02_Female" H 8877 8685 50  0000 L CNN
F 2 "Connector_PinHeader_2.54mm:PinHeader_1x02_P2.54mm_Vertical" H 8850 8800 50  0001 C CNN
F 3 "~" H 8850 8800 50  0001 C CNN
	1    8850 8800
	1    0    0    -1  
$EndComp
Wire Wire Line
	8150 8800 8650 8800
Connection ~ 8150 8800
Wire Wire Line
	8150 9100 8650 9100
Wire Wire Line
	8650 9100 8650 8900
Connection ~ 8150 9100
Connection ~ 2800 10750
Wire Wire Line
	2800 10750 3250 10750
Wire Wire Line
	2250 10650 2250 10750
Wire Wire Line
	3250 10650 3250 10750
Wire Wire Line
	3850 10750 3250 10750
Wire Wire Line
	3850 10450 3850 10750
Connection ~ 3250 10750
Wire Wire Line
	2800 10750 2800 10800
Wire Wire Line
	3000 8500 3400 8500
Wire Wire Line
	3400 8450 3400 8500
Connection ~ 3400 8500
Connection ~ 3050 8950
Wire Wire Line
	3000 8400 3200 8400
Wire Wire Line
	3200 8400 3200 8150
Wire Wire Line
	3200 8150 3400 8150
Connection ~ 3400 8150
Wire Wire Line
	3350 8950 3850 8950
Wire Wire Line
	3850 8950 3850 7800
Connection ~ 3850 7800
Wire Wire Line
	3850 7800 4000 7800
Connection ~ 3700 8500
Wire Wire Line
	3700 8100 3700 8500
Wire Wire Line
	4200 7900 4200 8500
NoConn ~ 1350 8700
Wire Wire Line
	11950 4050 12250 4050
Wire Wire Line
	11950 4050 11950 4250
Wire Wire Line
	12250 4150 11500 4150
Wire Wire Line
	11500 4150 11500 4050
Wire Wire Line
	11500 4050 11100 4050
NoConn ~ 11500 9100
NoConn ~ 11500 9200
NoConn ~ 11500 9300
Wire Wire Line
	11100 9500 11100 9600
Wire Wire Line
	11100 9600 11200 9600
$Comp
L Device:R R23
U 1 1 5BACCD02
P 6400 4400
F 0 "R23" V 6193 4400 50  0000 C CNN
F 1 "0" V 6284 4400 50  0000 C CNN
F 2 "Resistor_SMD:R_0805_2012Metric_Pad1.15x1.40mm_HandSolder" V 6330 4400 50  0001 C CNN
F 3 "~" H 6400 4400 50  0001 C CNN
	1    6400 4400
	0    1    1    0   
$EndComp
$Comp
L Device:R R24
U 1 1 5BACCE0F
P 6400 4500
F 0 "R24" V 6193 4500 50  0000 C CNN
F 1 "0" V 6284 4500 50  0000 C CNN
F 2 "Resistor_SMD:R_0805_2012Metric_Pad1.15x1.40mm_HandSolder" V 6330 4500 50  0001 C CNN
F 3 "~" H 6400 4500 50  0001 C CNN
	1    6400 4500
	0    1    1    0   
$EndComp
Wire Wire Line
	5750 4400 6250 4400
Wire Wire Line
	6250 4400 6250 4500
Text GLabel 6550 4500 2    50   Input ~ 0
I2C_SCL
$Comp
L Device:R R25
U 1 1 5BAF8E0E
P 6450 3400
F 0 "R25" V 6243 3400 50  0000 C CNN
F 1 "0" V 6334 3400 50  0000 C CNN
F 2 "Resistor_SMD:R_0805_2012Metric_Pad1.15x1.40mm_HandSolder" V 6380 3400 50  0001 C CNN
F 3 "~" H 6450 3400 50  0001 C CNN
	1    6450 3400
	0    1    1    0   
$EndComp
Wire Wire Line
	6250 3200 6250 3600
Wire Wire Line
	5850 3400 6300 3400
Connection ~ 6250 4400
Wire Wire Line
	8900 3850 8700 3850
Wire Wire Line
	8900 3750 8650 3750
$Comp
L Device:C C12
U 1 1 5BACE212
P 12100 5200
F 0 "C12" V 11848 5200 50  0000 C CNN
F 1 "22uf" V 11939 5200 50  0000 C CNN
F 2 "Capacitor_SMD:C_1206_3216Metric_Pad1.42x1.75mm_HandSolder" H 12138 5050 50  0001 C CNN
F 3 "~" H 12100 5200 50  0001 C CNN
	1    12100 5200
	0    1    1    0   
$EndComp
$Comp
L Device:C C11
U 1 1 5BACE363
P 11650 5300
F 0 "C11" V 11398 5300 50  0000 C CNN
F 1 "22uf" V 11489 5300 50  0000 C CNN
F 2 "Capacitor_SMD:C_1206_3216Metric_Pad1.42x1.75mm_HandSolder" H 11688 5150 50  0001 C CNN
F 3 "~" H 11650 5300 50  0001 C CNN
	1    11650 5300
	0    1    1    0   
$EndComp
Wire Wire Line
	11900 5200 11950 5200
Wire Wire Line
	11800 5300 12250 5300
Wire Wire Line
	8700 5300 11500 5300
$Comp
L Connector_Generic:Conn_01x01 J4
U 1 1 5BAF9CEE
P 12350 6150
F 0 "J4" H 12430 6192 50  0000 L CNN
F 1 "Conn_01x01" H 12430 6101 50  0000 L CNN
F 2 "Connector_PinHeader_2.54mm:PinHeader_1x01_P2.54mm_Vertical" H 12350 6150 50  0001 C CNN
F 3 "~" H 12350 6150 50  0001 C CNN
	1    12350 6150
	1    0    0    -1  
$EndComp
Text GLabel 12150 6150 0    50   Input ~ 0
VCOM
$EndSCHEMATC
