(module micro_usb (layer F.Cu) (tedit 5BA2B9AA)
  (fp_text reference REF** (at 0.635 -5.215) (layer F.SilkS)
    (effects (font (size 1 1) (thickness 0.15)))
  )
  (fp_text value micro_usb (at 0.635 -6.85) (layer F.Fab)
    (effects (font (size 1 1) (thickness 0.15)))
  )
  (fp_line (start 2.7 -3.7) (end 2.7 3.7) (layer F.Adhes) (width 0.15))
  (fp_line (start 2.7 3.7) (end -2.2 3.7) (layer F.Adhes) (width 0.15))
  (fp_line (start 2.7 -3.7) (end -2.2 -3.7) (layer F.Adhes) (width 0.15))
  (fp_line (start -2.5 -3.7) (end -2.5 3.7) (layer F.Adhes) (width 0.15))
  (fp_line (start -1.45 4.445) (end -1.45 -4.445) (layer B.Adhes) (width 0.15))
  (pad 1 smd rect (at 2.675 -1.3) (size 1.35 0.4) (layers F.Cu F.Paste F.Mask))
  (pad "" np_thru_hole circle (at 2.15 -2) (size 0.7 0.7) (drill 0.7) (layers *.Cu *.Mask))
  (pad "" np_thru_hole circle (at 2.15 2) (size 0.7 0.7) (drill 0.7) (layers *.Cu *.Mask))
  (pad 6 thru_hole circle (at 0 2.825) (size 1.524 1.524) (drill oval 1.1 0.5) (layers *.Cu *.Mask)
    (zone_connect 0))
  (pad 6 thru_hole circle (at 0 -2.825) (size 1.524 1.524) (drill oval 1.1 0.5) (layers *.Cu *.Mask)
    (zone_connect 0))
  (pad 2 smd rect (at 2.675 -0.65) (size 1.35 0.4) (layers F.Cu F.Paste F.Mask))
  (pad 3 smd rect (at 2.675 0) (size 1.35 0.4) (layers F.Cu F.Paste F.Mask))
  (pad 4 smd rect (at 2.675 0.65) (size 1.35 0.4) (layers F.Cu F.Paste F.Mask))
  (pad 5 smd rect (at 2.675 1.3) (size 1.35 0.4) (layers F.Cu F.Paste F.Mask))
)
