PCBNEW-LibModule-V1  
# encoding utf-8
Units mm
$INDEX
SOP65P640X120-28N
$EndINDEX
$MODULE SOP65P640X120-28N
Po 0 0 0 15 00000000 00000000 ~~
Li SOP65P640X120-28N
Cd 
Sc 00000000
At SMD
Op 0 0 0
.SolderMask 0
.SolderPaste 0
T0 0.713908 -6.78209 1.64624 1.64624 0 0.05 N V 21 "SOP65P640X120-28N"
T1 1.757 6.5951 1.64412 1.64412 0 0.05 N V 21 "VAL**"
DS 2.2606 -4.7244 2.2606 -4.9022 0.1524 21
DS -2.2606 4.7244 -2.2606 4.9022 0.1524 21
DS -2.2606 4.9022 2.2606 4.9022 0.1524 21
DS 2.2606 4.9022 2.2606 4.7244 0.1524 21
DS 2.2606 -4.9022 0.3048 -4.9022 0.1524 21
DS 0.3048 -4.9022 -0.3048 -4.9022 0.1524 21
DS -0.3048 -4.9022 -2.2606 -4.9022 0.1524 21
DS -2.2606 -4.9022 -2.2606 -4.7244 0.1524 21
DA 0 -4.9022 -0.3048 -4.9022 -1800 0.1524 21
DS -2.2606 -4.064 -2.2606 -4.3688 0 24
DS -2.2606 -4.3688 -3.302 -4.3688 0 24
DS -3.302 -4.3688 -3.302 -4.064 0 24
DS -3.302 -4.064 -2.2606 -4.064 0 24
DS -2.2606 -3.429 -2.2606 -3.7338 0 24
DS -2.2606 -3.7338 -3.302 -3.7338 0 24
DS -3.302 -3.7338 -3.302 -3.429 0 24
DS -3.302 -3.429 -2.2606 -3.429 0 24
DS -2.2606 -2.7686 -2.2606 -3.0734 0 24
DS -2.2606 -3.0734 -3.302 -3.0734 0 24
DS -3.302 -3.0734 -3.302 -2.7686 0 24
DS -3.302 -2.7686 -2.2606 -2.7686 0 24
DS -2.2606 -2.1336 -2.2606 -2.413 0 24
DS -2.2606 -2.413 -3.302 -2.413 0 24
DS -3.302 -2.413 -3.302 -2.1336 0 24
DS -3.302 -2.1336 -2.2606 -2.1336 0 24
DS -2.2606 -1.4732 -2.2606 -1.778 0 24
DS -2.2606 -1.778 -3.302 -1.778 0 24
DS -3.302 -1.778 -3.302 -1.4732 0 24
DS -3.302 -1.4732 -2.2606 -1.4732 0 24
DS -2.2606 -0.8128 -2.2606 -1.1176 0 24
DS -2.2606 -1.1176 -3.302 -1.1176 0 24
DS -3.302 -1.1176 -3.302 -0.8128 0 24
DS -3.302 -0.8128 -2.2606 -0.8128 0 24
DS -2.2606 -0.1778 -2.2606 -0.4826 0 24
DS -2.2606 -0.4826 -3.302 -0.4826 0 24
DS -3.302 -0.4826 -3.302 -0.1778 0 24
DS -3.302 -0.1778 -2.2606 -0.1778 0 24
DS -2.2606 0.4826 -2.2606 0.1778 0 24
DS -2.2606 0.1778 -3.302 0.1778 0 24
DS -3.302 0.1778 -3.302 0.4826 0 24
DS -3.302 0.4826 -2.2606 0.4826 0 24
DS -2.2606 1.1176 -2.2606 0.8128 0 24
DS -2.2606 0.8128 -3.302 0.8128 0 24
DS -3.302 0.8128 -3.302 1.1176 0 24
DS -3.302 1.1176 -2.2606 1.1176 0 24
DS -2.2606 1.778 -2.2606 1.4732 0 24
DS -2.2606 1.4732 -3.302 1.4732 0 24
DS -3.302 1.4732 -3.302 1.778 0 24
DS -3.302 1.778 -2.2606 1.778 0 24
DS -2.2606 2.413 -2.2606 2.1336 0 24
DS -2.2606 2.1336 -3.302 2.1336 0 24
DS -3.302 2.1336 -3.302 2.413 0 24
DS -3.302 2.413 -2.2606 2.413 0 24
DS -2.2606 3.0734 -2.2606 2.7686 0 24
DS -2.2606 2.7686 -3.302 2.7686 0 24
DS -3.302 2.7686 -3.302 3.0734 0 24
DS -3.302 3.0734 -2.2606 3.0734 0 24
DS -2.2606 3.7338 -2.2606 3.429 0 24
DS -2.2606 3.429 -3.302 3.429 0 24
DS -3.302 3.429 -3.302 3.7338 0 24
DS -3.302 3.7338 -2.2606 3.7338 0 24
DS -2.2606 4.3688 -2.2606 4.064 0 24
DS -2.2606 4.064 -3.302 4.064 0 24
DS -3.302 4.064 -3.302 4.3688 0 24
DS -3.302 4.3688 -2.2606 4.3688 0 24
DS 2.2606 4.064 2.2606 4.3688 0 24
DS 2.2606 4.3688 3.302 4.3688 0 24
DS 3.302 4.3688 3.302 4.064 0 24
DS 3.302 4.064 2.2606 4.064 0 24
DS 2.2606 3.429 2.2606 3.7338 0 24
DS 2.2606 3.7338 3.302 3.7338 0 24
DS 3.302 3.7338 3.302 3.429 0 24
DS 3.302 3.429 2.2606 3.429 0 24
DS 2.2606 2.7686 2.2606 3.0734 0 24
DS 2.2606 3.0734 3.302 3.0734 0 24
DS 3.302 3.0734 3.302 2.7686 0 24
DS 3.302 2.7686 2.2606 2.7686 0 24
DS 2.2606 2.1336 2.2606 2.413 0 24
DS 2.2606 2.413 3.302 2.413 0 24
DS 3.302 2.413 3.302 2.1336 0 24
DS 3.302 2.1336 2.2606 2.1336 0 24
DS 2.2606 1.4732 2.2606 1.778 0 24
DS 2.2606 1.778 3.302 1.778 0 24
DS 3.302 1.778 3.302 1.4732 0 24
DS 3.302 1.4732 2.2606 1.4732 0 24
DS 2.2606 0.8128 2.2606 1.1176 0 24
DS 2.2606 1.1176 3.302 1.1176 0 24
DS 3.302 1.1176 3.302 0.8128 0 24
DS 3.302 0.8128 2.2606 0.8128 0 24
DS 2.2606 0.1778 2.2606 0.4826 0 24
DS 2.2606 0.4826 3.302 0.4826 0 24
DS 3.302 0.4826 3.302 0.1778 0 24
DS 3.302 0.1778 2.2606 0.1778 0 24
DS 2.2606 -0.4826 2.2606 -0.1778 0 24
DS 2.2606 -0.1778 3.302 -0.1778 0 24
DS 3.302 -0.1778 3.302 -0.4826 0 24
DS 3.302 -0.4826 2.2606 -0.4826 0 24
DS 2.2606 -1.1176 2.2606 -0.8128 0 24
DS 2.2606 -0.8128 3.302 -0.8128 0 24
DS 3.302 -0.8128 3.302 -1.1176 0 24
DS 3.302 -1.1176 2.2606 -1.1176 0 24
DS 2.2606 -1.778 2.2606 -1.4732 0 24
DS 2.2606 -1.4732 3.302 -1.4732 0 24
DS 3.302 -1.4732 3.302 -1.778 0 24
DS 3.302 -1.778 2.2606 -1.778 0 24
DS 2.2606 -2.413 2.2606 -2.1336 0 24
DS 2.2606 -2.1336 3.302 -2.1336 0 24
DS 3.302 -2.1336 3.302 -2.413 0 24
DS 3.302 -2.413 2.2606 -2.413 0 24
DS 2.2606 -3.0734 2.2606 -2.7686 0 24
DS 2.2606 -2.7686 3.302 -2.7686 0 24
DS 3.302 -2.7686 3.302 -3.0734 0 24
DS 3.302 -3.0734 2.2606 -3.0734 0 24
DS 2.2606 -3.7338 2.2606 -3.429 0 24
DS 2.2606 -3.429 3.302 -3.429 0 24
DS 3.302 -3.429 3.302 -3.7338 0 24
DS 3.302 -3.7338 2.2606 -3.7338 0 24
DS 2.2606 -4.3688 2.2606 -4.064 0 24
DS 2.2606 -4.064 3.302 -4.064 0 24
DS 3.302 -4.064 3.302 -4.3688 0 24
DS 3.302 -4.3688 2.2606 -4.3688 0 24
DS -2.2606 4.9022 2.2606 4.9022 0 24
DS 2.2606 4.9022 2.2606 -4.9022 0 24
DS 2.2606 -4.9022 0.3048 -4.9022 0 24
DS 0.3048 -4.9022 -0.3048 -4.9022 0 24
DS -0.3048 -4.9022 -2.2606 -4.9022 0 24
DS -2.2606 -4.9022 -2.2606 4.9022 0 24
DA 0 -4.9022 -0.3048 -4.9022 -1800 0 24
$PAD
Sh "1" R 1.4732 0.3556 0 0 0
At SMD N 00888000
.SolderMask 0
.SolderPaste 0
Ne 0 ""
Po -2.921 -4.2164
$EndPAD
$PAD
Sh "2" R 1.4732 0.3556 0 0 0
At SMD N 00888000
.SolderMask 0
.SolderPaste 0
Ne 0 ""
Po -2.921 -3.5814
$EndPAD
$PAD
Sh "3" R 1.4732 0.3556 0 0 0
At SMD N 00888000
.SolderMask 0
.SolderPaste 0
Ne 0 ""
Po -2.921 -2.921
$EndPAD
$PAD
Sh "4" R 1.4732 0.3556 0 0 0
At SMD N 00888000
.SolderMask 0
.SolderPaste 0
Ne 0 ""
Po -2.921 -2.286
$EndPAD
$PAD
Sh "5" R 1.4732 0.3556 0 0 0
At SMD N 00888000
.SolderMask 0
.SolderPaste 0
Ne 0 ""
Po -2.921 -1.6256
$EndPAD
$PAD
Sh "6" R 1.4732 0.3556 0 0 0
At SMD N 00888000
.SolderMask 0
.SolderPaste 0
Ne 0 ""
Po -2.921 -0.9652
$EndPAD
$PAD
Sh "7" R 1.4732 0.3556 0 0 0
At SMD N 00888000
.SolderMask 0
.SolderPaste 0
Ne 0 ""
Po -2.921 -0.3302
$EndPAD
$PAD
Sh "8" R 1.4732 0.3556 0 0 0
At SMD N 00888000
.SolderMask 0
.SolderPaste 0
Ne 0 ""
Po -2.921 0.3302
$EndPAD
$PAD
Sh "9" R 1.4732 0.3556 0 0 0
At SMD N 00888000
.SolderMask 0
.SolderPaste 0
Ne 0 ""
Po -2.921 0.9652
$EndPAD
$PAD
Sh "10" R 1.4732 0.3556 0 0 0
At SMD N 00888000
.SolderMask 0
.SolderPaste 0
Ne 0 ""
Po -2.921 1.6256
$EndPAD
$PAD
Sh "11" R 1.4732 0.3556 0 0 0
At SMD N 00888000
.SolderMask 0
.SolderPaste 0
Ne 0 ""
Po -2.921 2.286
$EndPAD
$PAD
Sh "12" R 1.4732 0.3556 0 0 0
At SMD N 00888000
.SolderMask 0
.SolderPaste 0
Ne 0 ""
Po -2.921 2.921
$EndPAD
$PAD
Sh "13" R 1.4732 0.3556 0 0 0
At SMD N 00888000
.SolderMask 0
.SolderPaste 0
Ne 0 ""
Po -2.921 3.5814
$EndPAD
$PAD
Sh "14" R 1.4732 0.3556 0 0 0
At SMD N 00888000
.SolderMask 0
.SolderPaste 0
Ne 0 ""
Po -2.921 4.2164
$EndPAD
$PAD
Sh "15" R 1.4732 0.3556 0 0 0
At SMD N 00888000
.SolderMask 0
.SolderPaste 0
Ne 0 ""
Po 2.921 4.2164
$EndPAD
$PAD
Sh "16" R 1.4732 0.3556 0 0 0
At SMD N 00888000
.SolderMask 0
.SolderPaste 0
Ne 0 ""
Po 2.921 3.5814
$EndPAD
$PAD
Sh "17" R 1.4732 0.3556 0 0 0
At SMD N 00888000
.SolderMask 0
.SolderPaste 0
Ne 0 ""
Po 2.921 2.921
$EndPAD
$PAD
Sh "18" R 1.4732 0.3556 0 0 0
At SMD N 00888000
.SolderMask 0
.SolderPaste 0
Ne 0 ""
Po 2.921 2.286
$EndPAD
$PAD
Sh "19" R 1.4732 0.3556 0 0 0
At SMD N 00888000
.SolderMask 0
.SolderPaste 0
Ne 0 ""
Po 2.921 1.6256
$EndPAD
$PAD
Sh "20" R 1.4732 0.3556 0 0 0
At SMD N 00888000
.SolderMask 0
.SolderPaste 0
Ne 0 ""
Po 2.921 0.9652
$EndPAD
$PAD
Sh "21" R 1.4732 0.3556 0 0 0
At SMD N 00888000
.SolderMask 0
.SolderPaste 0
Ne 0 ""
Po 2.921 0.3302
$EndPAD
$PAD
Sh "22" R 1.4732 0.3556 0 0 0
At SMD N 00888000
.SolderMask 0
.SolderPaste 0
Ne 0 ""
Po 2.921 -0.3302
$EndPAD
$PAD
Sh "23" R 1.4732 0.3556 0 0 0
At SMD N 00888000
.SolderMask 0
.SolderPaste 0
Ne 0 ""
Po 2.921 -0.9652
$EndPAD
$PAD
Sh "24" R 1.4732 0.3556 0 0 0
At SMD N 00888000
.SolderMask 0
.SolderPaste 0
Ne 0 ""
Po 2.921 -1.6256
$EndPAD
$PAD
Sh "25" R 1.4732 0.3556 0 0 0
At SMD N 00888000
.SolderMask 0
.SolderPaste 0
Ne 0 ""
Po 2.921 -2.286
$EndPAD
$PAD
Sh "26" R 1.4732 0.3556 0 0 0
At SMD N 00888000
.SolderMask 0
.SolderPaste 0
Ne 0 ""
Po 2.921 -2.921
$EndPAD
$PAD
Sh "27" R 1.4732 0.3556 0 0 0
At SMD N 00888000
.SolderMask 0
.SolderPaste 0
Ne 0 ""
Po 2.921 -3.5814
$EndPAD
$PAD
Sh "28" R 1.4732 0.3556 0 0 0
At SMD N 00888000
.SolderMask 0
.SolderPaste 0
Ne 0 ""
Po 2.921 -4.2164
$EndPAD
$EndMODULE SOP65P640X120-28N
