(kicad_pcb (version 20171130) (host pcbnew 5.0.0-fee4fd1~66~ubuntu18.04.1)

  (general
    (thickness 1.6)
    (drawings 10)
    (tracks 21)
    (zones 0)
    (modules 5)
    (nets 7)
  )

  (page A4)
  (layers
    (0 F.Cu signal)
    (31 B.Cu signal)
    (32 B.Adhes user)
    (33 F.Adhes user)
    (34 B.Paste user)
    (35 F.Paste user)
    (36 B.SilkS user)
    (37 F.SilkS user)
    (38 B.Mask user)
    (39 F.Mask user)
    (40 Dwgs.User user)
    (41 Cmts.User user)
    (42 Eco1.User user)
    (43 Eco2.User user)
    (44 Edge.Cuts user)
    (45 Margin user)
    (46 B.CrtYd user)
    (47 F.CrtYd user)
    (48 B.Fab user)
    (49 F.Fab user)
  )

  (setup
    (last_trace_width 0.25)
    (trace_clearance 0.2)
    (zone_clearance 0.508)
    (zone_45_only no)
    (trace_min 0.2)
    (segment_width 0.2)
    (edge_width 0.15)
    (via_size 0.8)
    (via_drill 0.4)
    (via_min_size 0.4)
    (via_min_drill 0.3)
    (uvia_size 0.3)
    (uvia_drill 0.1)
    (uvias_allowed no)
    (uvia_min_size 0.2)
    (uvia_min_drill 0.1)
    (pcb_text_width 0.3)
    (pcb_text_size 1.5 1.5)
    (mod_edge_width 0.15)
    (mod_text_size 1 1)
    (mod_text_width 0.15)
    (pad_size 1.524 1.524)
    (pad_drill 0.762)
    (pad_to_mask_clearance 0.2)
    (aux_axis_origin 0 0)
    (visible_elements FFFFFF7F)
    (pcbplotparams
      (layerselection 0x010fc_ffffffff)
      (usegerberextensions false)
      (usegerberattributes false)
      (usegerberadvancedattributes false)
      (creategerberjobfile false)
      (excludeedgelayer true)
      (linewidth 0.100000)
      (plotframeref false)
      (viasonmask false)
      (mode 1)
      (useauxorigin false)
      (hpglpennumber 1)
      (hpglpenspeed 20)
      (hpglpendiameter 15.000000)
      (psnegative false)
      (psa4output false)
      (plotreference true)
      (plotvalue true)
      (plotinvisibletext false)
      (padsonsilk false)
      (subtractmaskfromsilk false)
      (outputformat 1)
      (mirror false)
      (drillshape 1)
      (scaleselection 1)
      (outputdirectory ""))
  )

  (net 0 "")
  (net 1 GND)
  (net 2 "Net-(BT1-Pad1)")
  (net 3 +5V)
  (net 4 "Net-(J2-Pad2)")
  (net 5 "Net-(J2-Pad4)")
  (net 6 "Net-(J2-Pad3)")

  (net_class Default "This is the default net class."
    (clearance 0.2)
    (trace_width 0.25)
    (via_dia 0.8)
    (via_drill 0.4)
    (uvia_dia 0.3)
    (uvia_drill 0.1)
    (add_net +5V)
    (add_net GND)
    (add_net "Net-(BT1-Pad1)")
    (add_net "Net-(J2-Pad2)")
    (add_net "Net-(J2-Pad3)")
    (add_net "Net-(J2-Pad4)")
  )

  (module Battery:BatteryHolder_Keystone_3034_1x20mm (layer F.Cu) (tedit 595D9565) (tstamp 5BB9AE95)
    (at 109.695001 100.023077)
    (descr "Keystone 3034 SMD battery holder for 2020, 2025 and 2032 coincell batteries. http://www.keyelco.com/product-pdf.cfm?p=798")
    (tags "Keystone type 3034 coin cell retainer")
    (path /5BAD5928)
    (attr smd)
    (fp_text reference BT1 (at 0.004999 -5.523077) (layer F.SilkS)
      (effects (font (size 1 1) (thickness 0.15)))
    )
    (fp_text value Battery_Cell (at 0 11.5) (layer F.Fab)
      (effects (font (size 1 1) (thickness 0.15)))
    )
    (fp_text user %R (at 0 -2.9) (layer F.Fab)
      (effects (font (size 1 1) (thickness 0.15)))
    )
    (fp_circle (center 0 0) (end 0 10.25) (layer Dwgs.User) (width 0.15))
    (fp_arc (start 0 16.36) (end 6 8.55) (angle -75.1) (layer F.SilkS) (width 0.1))
    (fp_arc (start -7.31 6.85) (end -9.34 7.58) (angle -107.5) (layer F.SilkS) (width 0.1))
    (fp_line (start -10.78 3.63) (end -9.34 7.58) (layer F.SilkS) (width 0.1))
    (fp_line (start -8.7 -7.54) (end -10.78 -5.46) (layer F.SilkS) (width 0.1))
    (fp_line (start 8.7 -7.54) (end -8.7 -7.54) (layer F.SilkS) (width 0.1))
    (fp_line (start 8.7 -7.54) (end 10.78 -5.46) (layer F.SilkS) (width 0.1))
    (fp_line (start 10.78 3.63) (end 9.34 7.58) (layer F.SilkS) (width 0.1))
    (fp_arc (start 7.31 6.85) (end 6 8.55) (angle -107.5) (layer F.SilkS) (width 0.1))
    (fp_line (start -10.78 -5.46) (end -10.78 -3) (layer F.SilkS) (width 0.1))
    (fp_line (start -10.78 3) (end -10.78 3.63) (layer F.SilkS) (width 0.1))
    (fp_line (start 10.78 -5.46) (end 10.78 -3) (layer F.SilkS) (width 0.1))
    (fp_line (start 10.78 3) (end 10.78 3.63) (layer F.SilkS) (width 0.1))
    (fp_line (start -9.19 7.53) (end -10.63 3.6) (layer F.Fab) (width 0.1))
    (fp_line (start -10.63 3.6) (end -10.63 -5.4) (layer F.Fab) (width 0.1))
    (fp_line (start -10.63 -5.4) (end -8.64 -7.39) (layer F.Fab) (width 0.1))
    (fp_line (start -8.64 -7.39) (end 8.64 -7.39) (layer F.Fab) (width 0.1))
    (fp_line (start 8.64 -7.39) (end 10.63 -5.4) (layer F.Fab) (width 0.1))
    (fp_line (start 10.63 -5.4) (end 10.63 3.6) (layer F.Fab) (width 0.1))
    (fp_line (start 10.63 3.6) (end 9.19 7.53) (layer F.Fab) (width 0.1))
    (fp_arc (start 7.31 6.85) (end 6.1 8.43) (angle -107.5) (layer F.Fab) (width 0.1))
    (fp_arc (start 0 16.36) (end 6.1 8.43) (angle -75.1) (layer F.Fab) (width 0.1))
    (fp_arc (start -7.31 6.85) (end -9.19 7.53) (angle -107.5) (layer F.Fab) (width 0.1))
    (fp_line (start 11.87 -2.79) (end 10.88 -2.79) (layer F.CrtYd) (width 0.05))
    (fp_line (start 10.88 -2.79) (end 10.88 -5.5) (layer F.CrtYd) (width 0.05))
    (fp_line (start 10.88 -5.5) (end 8.74 -7.64) (layer F.CrtYd) (width 0.05))
    (fp_line (start 8.74 -7.64) (end 7.2 -7.64) (layer F.CrtYd) (width 0.05))
    (fp_arc (start 0 0) (end 7.2 -7.64) (angle -86.6) (layer F.CrtYd) (width 0.05))
    (fp_line (start -7.2 -7.64) (end -8.74 -7.64) (layer F.CrtYd) (width 0.05))
    (fp_line (start -8.74 -7.64) (end -10.88 -5.5) (layer F.CrtYd) (width 0.05))
    (fp_line (start -10.88 -5.5) (end -10.88 -2.79) (layer F.CrtYd) (width 0.05))
    (fp_line (start -10.88 -2.79) (end -11.87 -2.79) (layer F.CrtYd) (width 0.05))
    (fp_line (start -11.87 -2.79) (end -11.87 2.79) (layer F.CrtYd) (width 0.05))
    (fp_line (start -11.87 2.79) (end -10.88 2.79) (layer F.CrtYd) (width 0.05))
    (fp_line (start -10.88 2.79) (end -10.88 3.64) (layer F.CrtYd) (width 0.05))
    (fp_line (start -10.88 3.64) (end -9.44 7.62) (layer F.CrtYd) (width 0.05))
    (fp_arc (start -7.31 6.85) (end -9.43 7.62) (angle -106.9) (layer F.CrtYd) (width 0.05))
    (fp_arc (start 0 0) (end -5.96 8.64) (angle -69.1) (layer F.CrtYd) (width 0.05))
    (fp_arc (start 7.31 6.85) (end 5.96 8.64) (angle -106.9) (layer F.CrtYd) (width 0.05))
    (fp_line (start 9.43 7.63) (end 10.88 3.64) (layer F.CrtYd) (width 0.05))
    (fp_line (start 10.88 3.64) (end 10.88 2.79) (layer F.CrtYd) (width 0.05))
    (fp_line (start 10.88 2.79) (end 11.87 2.79) (layer F.CrtYd) (width 0.05))
    (fp_line (start 11.87 2.79) (end 11.87 -2.79) (layer F.CrtYd) (width 0.05))
    (pad 2 smd rect (at 0 0) (size 3.96 3.96) (layers F.Cu F.Paste F.Mask)
      (net 1 GND))
    (pad 1 smd rect (at 10.985 0) (size 1.27 5.08) (layers F.Cu F.Paste F.Mask)
      (net 2 "Net-(BT1-Pad1)"))
    (pad 1 smd rect (at -10.985 0) (size 1.27 5.08) (layers F.Cu F.Paste F.Mask)
      (net 2 "Net-(BT1-Pad1)"))
    (model ${KISYS3DMOD}/Battery.3dshapes/BatteryHolder_Keystone_3034_1x20mm.wrl
      (at (xyz 0 0 0))
      (scale (xyz 1 1 1))
      (rotate (xyz 0 0 0))
    )
  )

  (module LED_SMD:LED_1210_3225Metric_Pad1.42x2.65mm_HandSolder (layer B.Cu) (tedit 5BAD5FA9) (tstamp 5BB9AEA8)
    (at 109.7 99.8 180)
    (descr "LED SMD 1210 (3225 Metric), square (rectangular) end terminal, IPC_7351 nominal, (Body size source: http://www.tortai-tech.com/upload/download/2011102023233369053.pdf), generated with kicad-footprint-generator")
    (tags "LED handsolder")
    (path /5BAD58B5)
    (attr smd)
    (fp_text reference D1 (at -4 -0.1 180) (layer B.SilkS)
      (effects (font (size 1 1) (thickness 0.15)) (justify mirror))
    )
    (fp_text value LED (at 0 -2.28 180) (layer B.Fab)
      (effects (font (size 1 1) (thickness 0.15)) (justify mirror))
    )
    (fp_line (start 1.6 1.25) (end -0.975 1.25) (layer B.Fab) (width 0.1))
    (fp_line (start -0.975 1.25) (end -1.6 0.625) (layer B.Fab) (width 0.1))
    (fp_line (start -1.6 0.625) (end -1.6 -1.25) (layer B.Fab) (width 0.1))
    (fp_line (start -1.6 -1.25) (end 1.6 -1.25) (layer B.Fab) (width 0.1))
    (fp_line (start 1.6 -1.25) (end 1.6 1.25) (layer B.Fab) (width 0.1))
    (fp_line (start 1.6 1.585) (end -2.46 1.585) (layer B.SilkS) (width 0.12))
    (fp_line (start -2.46 1.585) (end -2.46 -1.585) (layer B.SilkS) (width 0.12))
    (fp_line (start -2.46 -1.585) (end 1.6 -1.585) (layer B.SilkS) (width 0.12))
    (fp_line (start -2.45 -1.58) (end -2.45 1.58) (layer B.CrtYd) (width 0.05))
    (fp_line (start -2.45 1.58) (end 2.45 1.58) (layer B.CrtYd) (width 0.05))
    (fp_line (start 2.45 1.58) (end 2.45 -1.58) (layer B.CrtYd) (width 0.05))
    (fp_line (start 2.45 -1.58) (end -2.45 -1.58) (layer B.CrtYd) (width 0.05))
    (fp_text user %R (at 0 0 180) (layer B.Fab)
      (effects (font (size 0.8 0.8) (thickness 0.12)) (justify mirror))
    )
    (pad 1 smd roundrect (at -1.4875 0 180) (size 1.425 2.65) (layers B.Cu B.Paste B.Mask) (roundrect_rratio 0.175439)
      (net 1 GND))
    (pad 2 smd roundrect (at 1.4875 0 180) (size 1.425 2.65) (layers B.Cu B.Paste B.Mask) (roundrect_rratio 0.175439)
      (net 2 "Net-(BT1-Pad1)"))
    (model ${KISYS3DMOD}/LED_SMD.3dshapes/LED_1210_3225Metric.wrl
      (at (xyz 0 0 0))
      (scale (xyz 1 1 1))
      (rotate (xyz 0 0 0))
    )
  )

  (module Connector_PinHeader_2.54mm:PinHeader_1x02_P2.54mm_Vertical (layer F.Cu) (tedit 59FED5CC) (tstamp 5BB9AEBE)
    (at 116.7 87.5 90)
    (descr "Through hole straight pin header, 1x02, 2.54mm pitch, single row")
    (tags "Through hole pin header THT 1x02 2.54mm single row")
    (path /5BAD5A4A)
    (fp_text reference J1 (at 0 -2.33 90) (layer F.SilkS)
      (effects (font (size 1 1) (thickness 0.15)))
    )
    (fp_text value Conn_01x02_Female (at 0 4.87 90) (layer F.Fab)
      (effects (font (size 1 1) (thickness 0.15)))
    )
    (fp_line (start -0.635 -1.27) (end 1.27 -1.27) (layer F.Fab) (width 0.1))
    (fp_line (start 1.27 -1.27) (end 1.27 3.81) (layer F.Fab) (width 0.1))
    (fp_line (start 1.27 3.81) (end -1.27 3.81) (layer F.Fab) (width 0.1))
    (fp_line (start -1.27 3.81) (end -1.27 -0.635) (layer F.Fab) (width 0.1))
    (fp_line (start -1.27 -0.635) (end -0.635 -1.27) (layer F.Fab) (width 0.1))
    (fp_line (start -1.33 3.87) (end 1.33 3.87) (layer F.SilkS) (width 0.12))
    (fp_line (start -1.33 1.27) (end -1.33 3.87) (layer F.SilkS) (width 0.12))
    (fp_line (start 1.33 1.27) (end 1.33 3.87) (layer F.SilkS) (width 0.12))
    (fp_line (start -1.33 1.27) (end 1.33 1.27) (layer F.SilkS) (width 0.12))
    (fp_line (start -1.33 0) (end -1.33 -1.33) (layer F.SilkS) (width 0.12))
    (fp_line (start -1.33 -1.33) (end 0 -1.33) (layer F.SilkS) (width 0.12))
    (fp_line (start -1.8 -1.8) (end -1.8 4.35) (layer F.CrtYd) (width 0.05))
    (fp_line (start -1.8 4.35) (end 1.8 4.35) (layer F.CrtYd) (width 0.05))
    (fp_line (start 1.8 4.35) (end 1.8 -1.8) (layer F.CrtYd) (width 0.05))
    (fp_line (start 1.8 -1.8) (end -1.8 -1.8) (layer F.CrtYd) (width 0.05))
    (fp_text user %R (at 0 1.27 180) (layer F.Fab)
      (effects (font (size 1 1) (thickness 0.15)))
    )
    (pad 1 thru_hole rect (at 0 0 90) (size 1.7 1.7) (drill 1) (layers *.Cu *.Mask)
      (net 3 +5V))
    (pad 2 thru_hole oval (at 0 2.54 90) (size 1.7 1.7) (drill 1) (layers *.Cu *.Mask)
      (net 1 GND))
    (model ${KISYS3DMOD}/Connector_PinHeader_2.54mm.3dshapes/PinHeader_1x02_P2.54mm_Vertical.wrl
      (at (xyz 0 0 0))
      (scale (xyz 1 1 1))
      (rotate (xyz 0 0 0))
    )
  )

  (module Connector_USB:USB_Micro-B_Molex-105017-0001 (layer F.Cu) (tedit 5A1DC0BE) (tstamp 5BB9AEE7)
    (at 109.7 85.6375 180)
    (descr http://www.molex.com/pdm_docs/sd/1050170001_sd.pdf)
    (tags "Micro-USB SMD Typ-B")
    (path /5BAD5B1A)
    (attr smd)
    (fp_text reference J2 (at -0.1 0.2375 180) (layer F.SilkS)
      (effects (font (size 1 1) (thickness 0.15)))
    )
    (fp_text value USB_B_Micro (at 0.3 4.3375 180) (layer F.Fab)
      (effects (font (size 1 1) (thickness 0.15)))
    )
    (fp_text user "PCB Edge" (at 0 2.6875 180) (layer Dwgs.User)
      (effects (font (size 0.5 0.5) (thickness 0.08)))
    )
    (fp_text user %R (at 0 0.8875 180) (layer F.Fab)
      (effects (font (size 1 1) (thickness 0.15)))
    )
    (fp_line (start -4.4 3.64) (end 4.4 3.64) (layer F.CrtYd) (width 0.05))
    (fp_line (start 4.4 -2.46) (end 4.4 3.64) (layer F.CrtYd) (width 0.05))
    (fp_line (start -4.4 -2.46) (end 4.4 -2.46) (layer F.CrtYd) (width 0.05))
    (fp_line (start -4.4 3.64) (end -4.4 -2.46) (layer F.CrtYd) (width 0.05))
    (fp_line (start -3.9 -1.7625) (end -3.45 -1.7625) (layer F.SilkS) (width 0.12))
    (fp_line (start -3.9 0.0875) (end -3.9 -1.7625) (layer F.SilkS) (width 0.12))
    (fp_line (start 3.9 2.6375) (end 3.9 2.3875) (layer F.SilkS) (width 0.12))
    (fp_line (start 3.75 3.3875) (end 3.75 -1.6125) (layer F.Fab) (width 0.1))
    (fp_line (start -3 2.689204) (end 3 2.689204) (layer F.Fab) (width 0.1))
    (fp_line (start -3.75 3.389204) (end 3.75 3.389204) (layer F.Fab) (width 0.1))
    (fp_line (start -3.75 -1.6125) (end 3.75 -1.6125) (layer F.Fab) (width 0.1))
    (fp_line (start -3.75 3.3875) (end -3.75 -1.6125) (layer F.Fab) (width 0.1))
    (fp_line (start -3.9 2.6375) (end -3.9 2.3875) (layer F.SilkS) (width 0.12))
    (fp_line (start 3.9 0.0875) (end 3.9 -1.7625) (layer F.SilkS) (width 0.12))
    (fp_line (start 3.9 -1.7625) (end 3.45 -1.7625) (layer F.SilkS) (width 0.12))
    (fp_line (start -1.7 -2.3125) (end -1.25 -2.3125) (layer F.SilkS) (width 0.12))
    (fp_line (start -1.7 -2.3125) (end -1.7 -1.8625) (layer F.SilkS) (width 0.12))
    (fp_line (start -1.3 -1.7125) (end -1.5 -1.9125) (layer F.Fab) (width 0.1))
    (fp_line (start -1.1 -1.9125) (end -1.3 -1.7125) (layer F.Fab) (width 0.1))
    (fp_line (start -1.5 -2.1225) (end -1.1 -2.1225) (layer F.Fab) (width 0.1))
    (fp_line (start -1.5 -2.1225) (end -1.5 -1.9125) (layer F.Fab) (width 0.1))
    (fp_line (start -1.1 -2.1225) (end -1.1 -1.9125) (layer F.Fab) (width 0.1))
    (pad 6 smd rect (at 1 1.2375 180) (size 1.5 1.9) (layers F.Cu F.Paste F.Mask)
      (net 1 GND))
    (pad 6 thru_hole circle (at -2.5 -1.4625 180) (size 1.45 1.45) (drill 0.85) (layers *.Cu *.Mask)
      (net 1 GND))
    (pad 2 smd rect (at -0.65 -1.4625 180) (size 0.4 1.35) (layers F.Cu F.Paste F.Mask)
      (net 4 "Net-(J2-Pad2)"))
    (pad 1 smd rect (at -1.3 -1.4625 180) (size 0.4 1.35) (layers F.Cu F.Paste F.Mask)
      (net 3 +5V))
    (pad 5 smd rect (at 1.3 -1.4625 180) (size 0.4 1.35) (layers F.Cu F.Paste F.Mask)
      (net 1 GND))
    (pad 4 smd rect (at 0.65 -1.4625 180) (size 0.4 1.35) (layers F.Cu F.Paste F.Mask)
      (net 5 "Net-(J2-Pad4)"))
    (pad 3 smd rect (at 0 -1.4625 180) (size 0.4 1.35) (layers F.Cu F.Paste F.Mask)
      (net 6 "Net-(J2-Pad3)"))
    (pad 6 thru_hole circle (at 2.5 -1.4625 180) (size 1.45 1.45) (drill 0.85) (layers *.Cu *.Mask)
      (net 1 GND))
    (pad 6 smd rect (at -1 1.2375 180) (size 1.5 1.9) (layers F.Cu F.Paste F.Mask)
      (net 1 GND))
    (pad 6 thru_hole oval (at -3.5 1.2375) (size 1.2 1.9) (drill oval 0.6 1.3) (layers *.Cu *.Mask)
      (net 1 GND))
    (pad 6 thru_hole oval (at 3.5 1.2375 180) (size 1.2 1.9) (drill oval 0.6 1.3) (layers *.Cu *.Mask)
      (net 1 GND))
    (pad 6 smd rect (at 2.9 1.2375 180) (size 1.2 1.9) (layers F.Cu F.Mask)
      (net 1 GND))
    (pad 6 smd rect (at -2.9 1.2375 180) (size 1.2 1.9) (layers F.Cu F.Mask)
      (net 1 GND))
    (model ${KISYS3DMOD}/Connector_USB.3dshapes/USB_Micro-B_Molex-105017-0001.wrl
      (at (xyz 0 0 0))
      (scale (xyz 1 1 1))
      (rotate (xyz 0 0 0))
    )
  )

  (module Resistor_SMD:R_2010_5025Metric_Pad1.52x2.65mm_HandSolder (layer F.Cu) (tedit 5BAD5E59) (tstamp 5BB9AEF8)
    (at 100.8 87.9 270)
    (descr "Resistor SMD 2010 (5025 Metric), square (rectangular) end terminal, IPC_7351 nominal with elongated pad for handsoldering. (Body size source: http://www.tortai-tech.com/upload/download/2011102023233369053.pdf), generated with kicad-footprint-generator")
    (tags "resistor handsolder")
    (path /5BAD5991)
    (attr smd)
    (fp_text reference R1 (at 0 -2.28 270) (layer F.SilkS)
      (effects (font (size 1 1) (thickness 0.15)))
    )
    (fp_text value 200 (at 0 2.28 270) (layer F.SilkS)
      (effects (font (size 1 1) (thickness 0.15)))
    )
    (fp_line (start -2.5 1.25) (end -2.5 -1.25) (layer F.Fab) (width 0.1))
    (fp_line (start -2.5 -1.25) (end 2.5 -1.25) (layer F.Fab) (width 0.1))
    (fp_line (start 2.5 -1.25) (end 2.5 1.25) (layer F.Fab) (width 0.1))
    (fp_line (start 2.5 1.25) (end -2.5 1.25) (layer F.Fab) (width 0.1))
    (fp_line (start -1.402064 -1.36) (end 1.402064 -1.36) (layer F.SilkS) (width 0.12))
    (fp_line (start -1.402064 1.36) (end 1.402064 1.36) (layer F.SilkS) (width 0.12))
    (fp_line (start -3.35 1.58) (end -3.35 -1.58) (layer F.CrtYd) (width 0.05))
    (fp_line (start -3.35 -1.58) (end 3.35 -1.58) (layer F.CrtYd) (width 0.05))
    (fp_line (start 3.35 -1.58) (end 3.35 1.58) (layer F.CrtYd) (width 0.05))
    (fp_line (start 3.35 1.58) (end -3.35 1.58) (layer F.CrtYd) (width 0.05))
    (fp_text user %R (at 0 0 270) (layer F.Fab)
      (effects (font (size 1 1) (thickness 0.15)))
    )
    (pad 1 smd roundrect (at -2.3375 0 270) (size 1.525 2.65) (layers F.Cu F.Paste F.Mask) (roundrect_rratio 0.163934)
      (net 3 +5V))
    (pad 2 smd roundrect (at 2.3375 0 270) (size 1.525 2.65) (layers F.Cu F.Paste F.Mask) (roundrect_rratio 0.163934)
      (net 2 "Net-(BT1-Pad1)"))
    (model ${KISYS3DMOD}/Resistor_SMD.3dshapes/R_2010_5025Metric.wrl
      (at (xyz 0 0 0))
      (scale (xyz 1 1 1))
      (rotate (xyz 0 0 0))
    )
  )

  (gr_text "! Ne pas insérer la pile \nsi alimentation USB !" (at 112.2 90.7) (layer F.SilkS) (tstamp 5BB9B576)
    (effects (font (size 1 1) (thickness 0.2)))
  )
  (gr_text "! Ne pas insérer la pile \nsi alimentation USB  !" (at 109 95.9) (layer B.SilkS)
    (effects (font (size 1 1) (thickness 0.2)) (justify mirror))
  )
  (gr_text GND (at 119.4 85) (layer F.SilkS) (tstamp 5BB9B523)
    (effects (font (size 1 1) (thickness 0.2)))
  )
  (gr_text 5V (at 116.6 85.3) (layer F.SilkS) (tstamp 5BB9B51E)
    (effects (font (size 1 1) (thickness 0.2)))
  )
  (gr_text GND (at 119.3 91.2 90) (layer B.SilkS)
    (effects (font (size 1.5 1.5) (thickness 0.3)) (justify mirror))
  )
  (gr_text 5V (at 116.7 90.6 90) (layer B.SilkS)
    (effects (font (size 1.5 1.5) (thickness 0.3)) (justify mirror))
  )
  (gr_line (start 96.9 106.4) (end 96.9 83) (layer Edge.Cuts) (width 0.15))
  (gr_line (start 122.5 106.4) (end 96.9 106.4) (layer Edge.Cuts) (width 0.15))
  (gr_line (start 122.5 83) (end 122.5 106.4) (layer Edge.Cuts) (width 0.15))
  (gr_line (start 96.9 83) (end 122.5 83) (layer Edge.Cuts) (width 0.15))

  (segment (start 113.2 84.75) (end 113.2 84.4) (width 0.25) (layer F.Cu) (net 1))
  (segment (start 114.61 86.16) (end 113.2 84.75) (width 0.25) (layer F.Cu) (net 1))
  (segment (start 118.7 86.16) (end 114.61 86.16) (width 0.25) (layer F.Cu) (net 1))
  (segment (start 112.2 98.7875) (end 112.2 87.1) (width 0.25) (layer B.Cu) (net 1))
  (segment (start 111.1875 99.8) (end 112.2 98.7875) (width 0.25) (layer B.Cu) (net 1))
  (segment (start 98.710001 92.327499) (end 100.8 90.2375) (width 0.25) (layer F.Cu) (net 2))
  (segment (start 98.710001 100.023077) (end 98.710001 92.327499) (width 0.25) (layer F.Cu) (net 2))
  (via (at 103.7 99.7) (size 0.8) (drill 0.4) (layers F.Cu B.Cu) (net 2))
  (segment (start 98.710001 100.023077) (end 103.376923 100.023077) (width 0.25) (layer F.Cu) (net 2))
  (segment (start 103.376923 100.023077) (end 103.7 99.7) (width 0.25) (layer F.Cu) (net 2))
  (segment (start 108.1125 99.7) (end 108.2125 99.8) (width 0.25) (layer B.Cu) (net 2))
  (segment (start 103.7 99.7) (end 108.1125 99.7) (width 0.25) (layer B.Cu) (net 2))
  (segment (start 111 88.025) (end 111.675 88.7) (width 0.25) (layer F.Cu) (net 3))
  (segment (start 111 87.1) (end 111 88.025) (width 0.25) (layer F.Cu) (net 3))
  (segment (start 101.63321 86.39571) (end 100.8 85.5625) (width 0.25) (layer F.Cu) (net 3))
  (segment (start 103.5375 88.3) (end 101.63321 86.39571) (width 0.25) (layer F.Cu) (net 3))
  (segment (start 111 88.025) (end 110.725 88.3) (width 0.25) (layer F.Cu) (net 3))
  (segment (start 110.725 88.3) (end 103.5375 88.3) (width 0.25) (layer F.Cu) (net 3))
  (segment (start 116.6 88.7) (end 111.675 88.7) (width 0.25) (layer F.Cu) (net 3))
  (segment (start 116.7 88.6) (end 116.6 88.7) (width 0.25) (layer F.Cu) (net 3))
  (segment (start 116.7 87.5) (end 116.7 88.6) (width 0.25) (layer F.Cu) (net 3))

  (zone (net 1) (net_name GND) (layer F.Cu) (tstamp 0) (hatch edge 0.508)
    (connect_pads (clearance 0.508))
    (min_thickness 0.254)
    (fill yes (arc_segments 16) (thermal_gap 0.508) (thermal_bridge_width 0.508))
    (polygon
      (pts
        (xy 96.9 83) (xy 122.5 83) (xy 122.5 106.4) (xy 96.9 106.4)
      )
    )
    (filled_polygon
      (pts
        (xy 104.965 83.923) (xy 104.965 84.273) (xy 108.573 84.273) (xy 108.573 84.253) (xy 108.827 84.253)
        (xy 108.827 84.273) (xy 110.573 84.273) (xy 110.573 84.253) (xy 110.827 84.253) (xy 110.827 84.273)
        (xy 114.435 84.273) (xy 114.435 83.923) (xy 114.369386 83.71) (xy 121.79 83.71) (xy 121.790001 97.050995)
        (xy 121.77281 97.025268) (xy 121.562766 96.88492) (xy 121.315001 96.835637) (xy 120.045001 96.835637) (xy 119.797236 96.88492)
        (xy 119.587192 97.025268) (xy 119.446844 97.235312) (xy 119.397561 97.483077) (xy 119.397561 102.563077) (xy 119.446844 102.810842)
        (xy 119.587192 103.020886) (xy 119.797236 103.161234) (xy 120.045001 103.210517) (xy 121.315001 103.210517) (xy 121.562766 103.161234)
        (xy 121.77281 103.020886) (xy 121.790001 102.995158) (xy 121.790001 105.69) (xy 97.61 105.69) (xy 97.61 103.010122)
        (xy 97.617192 103.020886) (xy 97.827236 103.161234) (xy 98.075001 103.210517) (xy 99.345001 103.210517) (xy 99.592766 103.161234)
        (xy 99.80281 103.020886) (xy 99.943158 102.810842) (xy 99.992441 102.563077) (xy 99.992441 100.783077) (xy 103.302076 100.783077)
        (xy 103.376923 100.797965) (xy 103.45177 100.783077) (xy 103.451775 100.783077) (xy 103.67346 100.738981) (xy 103.679418 100.735)
        (xy 103.905874 100.735) (xy 104.28628 100.577431) (xy 104.554884 100.308827) (xy 107.080001 100.308827) (xy 107.080001 102.129387)
        (xy 107.176674 102.362776) (xy 107.355303 102.541404) (xy 107.588692 102.638077) (xy 109.409251 102.638077) (xy 109.568001 102.479327)
        (xy 109.568001 100.150077) (xy 109.822001 100.150077) (xy 109.822001 102.479327) (xy 109.980751 102.638077) (xy 111.80131 102.638077)
        (xy 112.034699 102.541404) (xy 112.213328 102.362776) (xy 112.310001 102.129387) (xy 112.310001 100.308827) (xy 112.151251 100.150077)
        (xy 109.822001 100.150077) (xy 109.568001 100.150077) (xy 107.238751 100.150077) (xy 107.080001 100.308827) (xy 104.554884 100.308827)
        (xy 104.577431 100.28628) (xy 104.735 99.905874) (xy 104.735 99.494126) (xy 104.577431 99.11372) (xy 104.28628 98.822569)
        (xy 103.905874 98.665) (xy 103.494126 98.665) (xy 103.11372 98.822569) (xy 102.822569 99.11372) (xy 102.760703 99.263077)
        (xy 99.992441 99.263077) (xy 99.992441 97.916767) (xy 107.080001 97.916767) (xy 107.080001 99.737327) (xy 107.238751 99.896077)
        (xy 109.568001 99.896077) (xy 109.568001 97.566827) (xy 109.822001 97.566827) (xy 109.822001 99.896077) (xy 112.151251 99.896077)
        (xy 112.310001 99.737327) (xy 112.310001 97.916767) (xy 112.213328 97.683378) (xy 112.034699 97.50475) (xy 111.80131 97.408077)
        (xy 109.980751 97.408077) (xy 109.822001 97.566827) (xy 109.568001 97.566827) (xy 109.409251 97.408077) (xy 107.588692 97.408077)
        (xy 107.355303 97.50475) (xy 107.176674 97.683378) (xy 107.080001 97.916767) (xy 99.992441 97.916767) (xy 99.992441 97.483077)
        (xy 99.943158 97.235312) (xy 99.80281 97.025268) (xy 99.592766 96.88492) (xy 99.470001 96.860501) (xy 99.470001 92.6423)
        (xy 100.464862 91.64744) (xy 101.875001 91.64744) (xy 102.218436 91.579127) (xy 102.509586 91.384586) (xy 102.704127 91.093436)
        (xy 102.77244 90.750001) (xy 102.77244 89.724999) (xy 102.704127 89.381564) (xy 102.509586 89.090414) (xy 102.218436 88.895873)
        (xy 101.875001 88.82756) (xy 99.724999 88.82756) (xy 99.381564 88.895873) (xy 99.090414 89.090414) (xy 98.895873 89.381564)
        (xy 98.82756 89.724999) (xy 98.82756 90.750001) (xy 98.891458 91.071241) (xy 98.225529 91.73717) (xy 98.162073 91.77957)
        (xy 98.119673 91.843026) (xy 98.119672 91.843027) (xy 97.994098 92.030962) (xy 97.935113 92.327499) (xy 97.950002 92.402351)
        (xy 97.950001 96.860501) (xy 97.827236 96.88492) (xy 97.617192 97.025268) (xy 97.61 97.036032) (xy 97.61 85.049999)
        (xy 98.82756 85.049999) (xy 98.82756 86.075001) (xy 98.895873 86.418436) (xy 99.090414 86.709586) (xy 99.381564 86.904127)
        (xy 99.724999 86.97244) (xy 101.135138 86.97244) (xy 101.148737 86.986039) (xy 101.14874 86.986041) (xy 102.947171 88.784473)
        (xy 102.989571 88.847929) (xy 103.053027 88.890329) (xy 103.240962 89.015904) (xy 103.289105 89.02548) (xy 103.462648 89.06)
        (xy 103.462652 89.06) (xy 103.5375 89.074888) (xy 103.612348 89.06) (xy 110.650153 89.06) (xy 110.725 89.074888)
        (xy 110.799847 89.06) (xy 110.799852 89.06) (xy 110.933595 89.033397) (xy 111.084671 89.184473) (xy 111.127071 89.247929)
        (xy 111.378463 89.415904) (xy 111.600148 89.46) (xy 111.600152 89.46) (xy 111.674999 89.474888) (xy 111.749846 89.46)
        (xy 116.525153 89.46) (xy 116.6 89.474888) (xy 116.674847 89.46) (xy 116.674852 89.46) (xy 116.896537 89.415904)
        (xy 117.147929 89.247929) (xy 117.187983 89.187983) (xy 117.247929 89.147929) (xy 117.348483 88.99744) (xy 117.55 88.99744)
        (xy 117.797765 88.948157) (xy 118.007809 88.807809) (xy 118.148157 88.597765) (xy 118.168739 88.494292) (xy 118.473076 88.771645)
        (xy 118.88311 88.941476) (xy 119.113 88.820155) (xy 119.113 87.627) (xy 119.367 87.627) (xy 119.367 88.820155)
        (xy 119.59689 88.941476) (xy 120.006924 88.771645) (xy 120.435183 88.381358) (xy 120.681486 87.856892) (xy 120.560819 87.627)
        (xy 119.367 87.627) (xy 119.113 87.627) (xy 119.093 87.627) (xy 119.093 87.373) (xy 119.113 87.373)
        (xy 119.113 86.179845) (xy 119.367 86.179845) (xy 119.367 87.373) (xy 120.560819 87.373) (xy 120.681486 87.143108)
        (xy 120.435183 86.618642) (xy 120.006924 86.228355) (xy 119.59689 86.058524) (xy 119.367 86.179845) (xy 119.113 86.179845)
        (xy 118.88311 86.058524) (xy 118.473076 86.228355) (xy 118.168739 86.505708) (xy 118.148157 86.402235) (xy 118.007809 86.192191)
        (xy 117.797765 86.051843) (xy 117.55 86.00256) (xy 115.85 86.00256) (xy 115.602235 86.051843) (xy 115.392191 86.192191)
        (xy 115.251843 86.402235) (xy 115.20256 86.65) (xy 115.20256 87.94) (xy 113.219608 87.94) (xy 113.1534 87.873792)
        (xy 113.391753 87.808878) (xy 113.572312 87.298854) (xy 113.543949 86.758556) (xy 113.391753 86.391122) (xy 113.153398 86.326207)
        (xy 112.379605 87.1) (xy 112.393748 87.114143) (xy 112.214143 87.293748) (xy 112.2 87.279605) (xy 112.185858 87.293748)
        (xy 112.006253 87.114143) (xy 112.020395 87.1) (xy 112.006253 87.085858) (xy 112.185858 86.906253) (xy 112.2 86.920395)
        (xy 112.973793 86.146602) (xy 112.929781 85.985) (xy 113.326309 85.985) (xy 113.482328 85.920375) (xy 113.517609 85.943462)
        (xy 113.555281 85.939592) (xy 113.983474 85.71308) (xy 114.29239 85.339947) (xy 114.435 84.877) (xy 114.435 84.527)
        (xy 110.827 84.527) (xy 110.827 84.547) (xy 110.573 84.547) (xy 110.573 84.527) (xy 108.827 84.527)
        (xy 108.827 84.547) (xy 108.573 84.547) (xy 108.573 84.527) (xy 104.965 84.527) (xy 104.965 84.877)
        (xy 105.10761 85.339947) (xy 105.416526 85.71308) (xy 105.844719 85.939592) (xy 105.882391 85.943462) (xy 105.917672 85.920375)
        (xy 106.073691 85.985) (xy 106.470219 85.985) (xy 106.426207 86.146602) (xy 107.2 86.920395) (xy 107.214143 86.906253)
        (xy 107.393748 87.085858) (xy 107.379605 87.1) (xy 107.393748 87.114143) (xy 107.214143 87.293748) (xy 107.2 87.279605)
        (xy 107.185858 87.293748) (xy 107.006253 87.114143) (xy 107.020395 87.1) (xy 106.246602 86.326207) (xy 106.008247 86.391122)
        (xy 105.827688 86.901146) (xy 105.856051 87.441444) (xy 105.896874 87.54) (xy 103.852302 87.54) (xy 102.708542 86.396241)
        (xy 102.77244 86.075001) (xy 102.77244 85.049999) (xy 102.704127 84.706564) (xy 102.509586 84.415414) (xy 102.218436 84.220873)
        (xy 101.875001 84.15256) (xy 99.724999 84.15256) (xy 99.381564 84.220873) (xy 99.090414 84.415414) (xy 98.895873 84.706564)
        (xy 98.82756 85.049999) (xy 97.61 85.049999) (xy 97.61 83.71) (xy 105.030614 83.71)
      )
    )
  )
  (zone (net 1) (net_name GND) (layer B.Cu) (tstamp 0) (hatch edge 0.508)
    (connect_pads (clearance 0.508))
    (min_thickness 0.254)
    (fill yes (arc_segments 16) (thermal_gap 0.508) (thermal_bridge_width 0.508))
    (polygon
      (pts
        (xy 96.9 83) (xy 122.5 83) (xy 122.5 106.4) (xy 96.9 106.4)
      )
    )
    (filled_polygon
      (pts
        (xy 104.965 83.923) (xy 104.965 84.273) (xy 106.073 84.273) (xy 106.073 84.253) (xy 106.327 84.253)
        (xy 106.327 84.273) (xy 107.435 84.273) (xy 107.435 83.923) (xy 107.369386 83.71) (xy 112.030614 83.71)
        (xy 111.965 83.923) (xy 111.965 84.273) (xy 113.073 84.273) (xy 113.073 84.253) (xy 113.327 84.253)
        (xy 113.327 84.273) (xy 114.435 84.273) (xy 114.435 83.923) (xy 114.369386 83.71) (xy 121.79 83.71)
        (xy 121.790001 105.69) (xy 97.61 105.69) (xy 97.61 99.494126) (xy 102.665 99.494126) (xy 102.665 99.905874)
        (xy 102.822569 100.28628) (xy 103.11372 100.577431) (xy 103.494126 100.735) (xy 103.905874 100.735) (xy 104.28628 100.577431)
        (xy 104.403711 100.46) (xy 106.85256 100.46) (xy 106.85256 100.875) (xy 106.920874 101.218435) (xy 107.115414 101.509586)
        (xy 107.406565 101.704126) (xy 107.75 101.77244) (xy 108.675 101.77244) (xy 109.018435 101.704126) (xy 109.309586 101.509586)
        (xy 109.504126 101.218435) (xy 109.57244 100.875) (xy 109.57244 100.08575) (xy 109.84 100.08575) (xy 109.84 101.25131)
        (xy 109.936673 101.484699) (xy 110.115302 101.663327) (xy 110.348691 101.76) (xy 110.90175 101.76) (xy 111.0605 101.60125)
        (xy 111.0605 99.927) (xy 111.3145 99.927) (xy 111.3145 101.60125) (xy 111.47325 101.76) (xy 112.026309 101.76)
        (xy 112.259698 101.663327) (xy 112.438327 101.484699) (xy 112.535 101.25131) (xy 112.535 100.08575) (xy 112.37625 99.927)
        (xy 111.3145 99.927) (xy 111.0605 99.927) (xy 109.99875 99.927) (xy 109.84 100.08575) (xy 109.57244 100.08575)
        (xy 109.57244 98.725) (xy 109.504126 98.381565) (xy 109.48216 98.34869) (xy 109.84 98.34869) (xy 109.84 99.51425)
        (xy 109.99875 99.673) (xy 111.0605 99.673) (xy 111.0605 97.99875) (xy 111.3145 97.99875) (xy 111.3145 99.673)
        (xy 112.37625 99.673) (xy 112.535 99.51425) (xy 112.535 98.34869) (xy 112.438327 98.115301) (xy 112.259698 97.936673)
        (xy 112.026309 97.84) (xy 111.47325 97.84) (xy 111.3145 97.99875) (xy 111.0605 97.99875) (xy 110.90175 97.84)
        (xy 110.348691 97.84) (xy 110.115302 97.936673) (xy 109.936673 98.115301) (xy 109.84 98.34869) (xy 109.48216 98.34869)
        (xy 109.309586 98.090414) (xy 109.018435 97.895874) (xy 108.675 97.82756) (xy 107.75 97.82756) (xy 107.406565 97.895874)
        (xy 107.115414 98.090414) (xy 106.920874 98.381565) (xy 106.85256 98.725) (xy 106.85256 98.94) (xy 104.403711 98.94)
        (xy 104.28628 98.822569) (xy 103.905874 98.665) (xy 103.494126 98.665) (xy 103.11372 98.822569) (xy 102.822569 99.11372)
        (xy 102.665 99.494126) (xy 97.61 99.494126) (xy 97.61 88.053398) (xy 106.426207 88.053398) (xy 106.491122 88.291753)
        (xy 107.001146 88.472312) (xy 107.541444 88.443949) (xy 107.908878 88.291753) (xy 107.973793 88.053398) (xy 111.426207 88.053398)
        (xy 111.491122 88.291753) (xy 112.001146 88.472312) (xy 112.541444 88.443949) (xy 112.908878 88.291753) (xy 112.973793 88.053398)
        (xy 112.2 87.279605) (xy 111.426207 88.053398) (xy 107.973793 88.053398) (xy 107.2 87.279605) (xy 106.426207 88.053398)
        (xy 97.61 88.053398) (xy 97.61 86.901146) (xy 105.827688 86.901146) (xy 105.856051 87.441444) (xy 106.008247 87.808878)
        (xy 106.246602 87.873793) (xy 107.020395 87.1) (xy 107.379605 87.1) (xy 108.153398 87.873793) (xy 108.391753 87.808878)
        (xy 108.572312 87.298854) (xy 108.551435 86.901146) (xy 110.827688 86.901146) (xy 110.856051 87.441444) (xy 111.008247 87.808878)
        (xy 111.246602 87.873793) (xy 112.020395 87.1) (xy 112.379605 87.1) (xy 113.153398 87.873793) (xy 113.391753 87.808878)
        (xy 113.572312 87.298854) (xy 113.543949 86.758556) (xy 113.498984 86.65) (xy 115.20256 86.65) (xy 115.20256 88.35)
        (xy 115.251843 88.597765) (xy 115.392191 88.807809) (xy 115.602235 88.948157) (xy 115.85 88.99744) (xy 117.55 88.99744)
        (xy 117.797765 88.948157) (xy 118.007809 88.807809) (xy 118.148157 88.597765) (xy 118.168739 88.494292) (xy 118.473076 88.771645)
        (xy 118.88311 88.941476) (xy 119.113 88.820155) (xy 119.113 87.627) (xy 119.367 87.627) (xy 119.367 88.820155)
        (xy 119.59689 88.941476) (xy 120.006924 88.771645) (xy 120.435183 88.381358) (xy 120.681486 87.856892) (xy 120.560819 87.627)
        (xy 119.367 87.627) (xy 119.113 87.627) (xy 119.093 87.627) (xy 119.093 87.373) (xy 119.113 87.373)
        (xy 119.113 86.179845) (xy 119.367 86.179845) (xy 119.367 87.373) (xy 120.560819 87.373) (xy 120.681486 87.143108)
        (xy 120.435183 86.618642) (xy 120.006924 86.228355) (xy 119.59689 86.058524) (xy 119.367 86.179845) (xy 119.113 86.179845)
        (xy 118.88311 86.058524) (xy 118.473076 86.228355) (xy 118.168739 86.505708) (xy 118.148157 86.402235) (xy 118.007809 86.192191)
        (xy 117.797765 86.051843) (xy 117.55 86.00256) (xy 115.85 86.00256) (xy 115.602235 86.051843) (xy 115.392191 86.192191)
        (xy 115.251843 86.402235) (xy 115.20256 86.65) (xy 113.498984 86.65) (xy 113.391753 86.391122) (xy 113.153398 86.326207)
        (xy 112.379605 87.1) (xy 112.020395 87.1) (xy 111.246602 86.326207) (xy 111.008247 86.391122) (xy 110.827688 86.901146)
        (xy 108.551435 86.901146) (xy 108.543949 86.758556) (xy 108.391753 86.391122) (xy 108.153398 86.326207) (xy 107.379605 87.1)
        (xy 107.020395 87.1) (xy 106.246602 86.326207) (xy 106.008247 86.391122) (xy 105.827688 86.901146) (xy 97.61 86.901146)
        (xy 97.61 84.527) (xy 104.965 84.527) (xy 104.965 84.877) (xy 105.10761 85.339947) (xy 105.416526 85.71308)
        (xy 105.844719 85.939592) (xy 105.882391 85.943462) (xy 106.073 85.818731) (xy 106.073 84.527) (xy 106.327 84.527)
        (xy 106.327 85.818731) (xy 106.486988 85.923424) (xy 106.426207 86.146602) (xy 107.2 86.920395) (xy 107.973793 86.146602)
        (xy 111.426207 86.146602) (xy 112.2 86.920395) (xy 112.973793 86.146602) (xy 112.913012 85.923424) (xy 113.073 85.818731)
        (xy 113.073 84.527) (xy 113.327 84.527) (xy 113.327 85.818731) (xy 113.517609 85.943462) (xy 113.555281 85.939592)
        (xy 113.983474 85.71308) (xy 114.29239 85.339947) (xy 114.435 84.877) (xy 114.435 84.527) (xy 113.327 84.527)
        (xy 113.073 84.527) (xy 111.965 84.527) (xy 111.965 84.877) (xy 112.10761 85.339947) (xy 112.416526 85.71308)
        (xy 112.535768 85.776158) (xy 112.398854 85.727688) (xy 111.858556 85.756051) (xy 111.491122 85.908247) (xy 111.426207 86.146602)
        (xy 107.973793 86.146602) (xy 107.908878 85.908247) (xy 107.398854 85.727688) (xy 106.907055 85.753505) (xy 106.983474 85.71308)
        (xy 107.29239 85.339947) (xy 107.435 84.877) (xy 107.435 84.527) (xy 106.327 84.527) (xy 106.073 84.527)
        (xy 104.965 84.527) (xy 97.61 84.527) (xy 97.61 83.71) (xy 105.030614 83.71)
      )
    )
  )
)
