EESchema Schematic File Version 4
EELAYER 26 0
EELAYER END
$Descr A4 11693 8268
encoding utf-8
Sheet 1 1
Title ""
Date ""
Rev ""
Comp ""
Comment1 ""
Comment2 ""
Comment3 ""
Comment4 ""
$EndDescr
$Comp
L Device:LED D1
U 1 1 5BAD58B5
P 5400 3150
F 0 "D1" V 5438 3033 50  0000 R CNN
F 1 "LED" V 5347 3033 50  0000 R CNN
F 2 "LED_SMD:LED_1210_3225Metric_Pad1.42x2.65mm_HandSolder" H 5400 3150 50  0001 C CNN
F 3 "~" H 5400 3150 50  0001 C CNN
	1    5400 3150
	0    -1   -1   0   
$EndComp
$Comp
L Device:Battery_Cell BT1
U 1 1 5BAD5928
P 6050 3450
F 0 "BT1" H 6168 3546 50  0000 L CNN
F 1 "Battery_Cell" H 6168 3455 50  0000 L CNN
F 2 "Battery:BatteryHolder_Keystone_3034_1x20mm" V 6050 3510 50  0001 C CNN
F 3 "~" V 6050 3510 50  0001 C CNN
	1    6050 3450
	1    0    0    -1  
$EndComp
$Comp
L Device:R R1
U 1 1 5BAD5991
P 6050 2650
F 0 "R1" H 6120 2696 50  0000 L CNN
F 1 "200" H 6120 2605 50  0000 L CNN
F 2 "Resistor_SMD:R_2010_5025Metric_Pad1.52x2.65mm_HandSolder" V 5980 2650 50  0001 C CNN
F 3 "~" H 6050 2650 50  0001 C CNN
	1    6050 2650
	1    0    0    -1  
$EndComp
$Comp
L Connector:Conn_01x02_Female J1
U 1 1 5BAD5A4A
P 7000 2400
F 0 "J1" H 7027 2376 50  0000 L CNN
F 1 "Conn_01x02_Female" H 7027 2285 50  0000 L CNN
F 2 "Connector_PinHeader_2.54mm:PinHeader_1x02_P2.54mm_Vertical" H 7000 2400 50  0001 C CNN
F 3 "~" H 7000 2400 50  0001 C CNN
	1    7000 2400
	0    -1   -1   0   
$EndComp
$Comp
L Connector:USB_B_Micro J2
U 1 1 5BAD5B1A
P 7450 3350
F 0 "J2" H 7221 3248 50  0000 R CNN
F 1 "USB_B_Micro" H 7221 3339 50  0000 R CNN
F 2 "Connector_USB:USB_Micro-B_Molex-105017-0001" H 7600 3300 50  0001 C CNN
F 3 "~" H 7600 3300 50  0001 C CNN
	1    7450 3350
	-1   0    0    1   
$EndComp
$Comp
L power:GND #PWR0101
U 1 1 5BAD5CDA
P 6050 3550
F 0 "#PWR0101" H 6050 3300 50  0001 C CNN
F 1 "GND" H 6055 3377 50  0000 C CNN
F 2 "" H 6050 3550 50  0001 C CNN
F 3 "" H 6050 3550 50  0001 C CNN
	1    6050 3550
	1    0    0    -1  
$EndComp
$Comp
L power:GND #PWR0102
U 1 1 5BAD5D6E
P 5400 3550
F 0 "#PWR0102" H 5400 3300 50  0001 C CNN
F 1 "GND" H 5405 3377 50  0000 C CNN
F 2 "" H 5400 3550 50  0001 C CNN
F 3 "" H 5400 3550 50  0001 C CNN
	1    5400 3550
	1    0    0    -1  
$EndComp
$Comp
L power:GND #PWR0103
U 1 1 5BAD5D9F
P 7100 2850
F 0 "#PWR0103" H 7100 2600 50  0001 C CNN
F 1 "GND" H 7105 2677 50  0000 C CNN
F 2 "" H 7100 2850 50  0001 C CNN
F 3 "" H 7100 2850 50  0001 C CNN
	1    7100 2850
	1    0    0    -1  
$EndComp
Wire Wire Line
	7100 2600 7100 2800
Wire Wire Line
	7450 2950 7450 2800
Wire Wire Line
	7450 2800 7100 2800
Connection ~ 7100 2800
Wire Wire Line
	7100 2800 7100 2850
Wire Wire Line
	7550 2950 7550 2800
Wire Wire Line
	7550 2800 7450 2800
Connection ~ 7450 2800
$Comp
L power:+5V #PWR0104
U 1 1 5BAD5E5D
P 7000 3550
F 0 "#PWR0104" H 7000 3400 50  0001 C CNN
F 1 "+5V" H 7015 3723 50  0000 C CNN
F 2 "" H 7000 3550 50  0001 C CNN
F 3 "" H 7000 3550 50  0001 C CNN
	1    7000 3550
	1    0    0    -1  
$EndComp
Wire Wire Line
	7000 3550 7150 3550
$Comp
L power:+5V #PWR0105
U 1 1 5BAD5EA3
P 6050 2500
F 0 "#PWR0105" H 6050 2350 50  0001 C CNN
F 1 "+5V" H 6065 2673 50  0000 C CNN
F 2 "" H 6050 2500 50  0001 C CNN
F 3 "" H 6050 2500 50  0001 C CNN
	1    6050 2500
	1    0    0    -1  
$EndComp
Wire Wire Line
	5400 3000 5400 2950
Wire Wire Line
	5400 2950 6050 2950
Wire Wire Line
	6050 2950 6050 2800
Wire Wire Line
	5400 3550 5400 3300
Wire Wire Line
	6050 2950 6050 3250
Connection ~ 6050 2950
$Comp
L power:+5V #PWR0106
U 1 1 5BAD6558
P 7000 2800
F 0 "#PWR0106" H 7000 2650 50  0001 C CNN
F 1 "+5V" H 7015 2973 50  0000 C CNN
F 2 "" H 7000 2800 50  0001 C CNN
F 3 "" H 7000 2800 50  0001 C CNN
	1    7000 2800
	-1   0    0    1   
$EndComp
Wire Wire Line
	7000 2800 7000 2600
$EndSCHEMATC
