G04 #@! TF.GenerationSoftware,KiCad,Pcbnew,5.0.1-33cea8e~68~ubuntu16.04.1*
G04 #@! TF.CreationDate,2018-11-08T14:38:30+01:00*
G04 #@! TF.ProjectId,led,6C65642E6B696361645F706362000000,rev?*
G04 #@! TF.SameCoordinates,Original*
G04 #@! TF.FileFunction,Soldermask,Bot*
G04 #@! TF.FilePolarity,Negative*
%FSLAX46Y46*%
G04 Gerber Fmt 4.6, Leading zero omitted, Abs format (unit mm)*
G04 Created by KiCad (PCBNEW 5.0.1-33cea8e~68~ubuntu16.04.1) date jeu. 08 nov. 2018 14:38:30 CET*
%MOMM*%
%LPD*%
G01*
G04 APERTURE LIST*
%ADD10C,0.100000*%
G04 APERTURE END LIST*
D10*
G36*
X106750000Y-103250000D02*
X105050000Y-103250000D01*
X105050000Y-101550000D01*
X106750000Y-101550000D01*
X106750000Y-103250000D01*
X106750000Y-103250000D01*
G37*
G36*
X90406630Y-95262299D02*
X90566855Y-95310903D01*
X90714520Y-95389831D01*
X90843949Y-95496051D01*
X90950169Y-95625480D01*
X91029097Y-95773145D01*
X91077701Y-95933370D01*
X91094112Y-96100000D01*
X91077701Y-96266630D01*
X91029097Y-96426855D01*
X90950169Y-96574520D01*
X90843949Y-96703949D01*
X90714520Y-96810169D01*
X90566855Y-96889097D01*
X90406630Y-96937701D01*
X90281752Y-96950000D01*
X90198248Y-96950000D01*
X90073370Y-96937701D01*
X89913145Y-96889097D01*
X89765480Y-96810169D01*
X89636051Y-96703949D01*
X89529831Y-96574520D01*
X89450903Y-96426855D01*
X89402299Y-96266630D01*
X89385888Y-96100000D01*
X89402299Y-95933370D01*
X89450903Y-95773145D01*
X89529831Y-95625480D01*
X89636051Y-95496051D01*
X89765480Y-95389831D01*
X89913145Y-95310903D01*
X90073370Y-95262299D01*
X90198248Y-95250000D01*
X90281752Y-95250000D01*
X90406630Y-95262299D01*
X90406630Y-95262299D01*
G37*
G36*
X88550000Y-96950000D02*
X86850000Y-96950000D01*
X86850000Y-95250000D01*
X88550000Y-95250000D01*
X88550000Y-96950000D01*
X88550000Y-96950000D01*
G37*
G36*
X104297649Y-94687717D02*
X104336827Y-94691576D01*
X104412227Y-94714448D01*
X104487629Y-94737321D01*
X104626608Y-94811608D01*
X104748422Y-94911578D01*
X104848392Y-95033392D01*
X104922679Y-95172371D01*
X104922679Y-95172372D01*
X104968424Y-95323173D01*
X104983870Y-95480000D01*
X104969542Y-95625480D01*
X104968424Y-95636826D01*
X104922679Y-95787629D01*
X104848392Y-95926608D01*
X104748422Y-96048422D01*
X104626608Y-96148392D01*
X104487629Y-96222679D01*
X104412227Y-96245552D01*
X104336827Y-96268424D01*
X104297649Y-96272283D01*
X104219295Y-96280000D01*
X104140705Y-96280000D01*
X104062351Y-96272283D01*
X104023173Y-96268424D01*
X103947773Y-96245552D01*
X103872371Y-96222679D01*
X103733392Y-96148392D01*
X103611578Y-96048422D01*
X103511608Y-95926608D01*
X103437321Y-95787629D01*
X103391576Y-95636826D01*
X103390459Y-95625480D01*
X103376130Y-95480000D01*
X103391576Y-95323173D01*
X103437321Y-95172372D01*
X103437321Y-95172371D01*
X103511608Y-95033392D01*
X103611578Y-94911578D01*
X103733392Y-94811608D01*
X103872371Y-94737321D01*
X103947773Y-94714448D01*
X104023173Y-94691576D01*
X104062351Y-94687717D01*
X104140705Y-94680000D01*
X104219295Y-94680000D01*
X104297649Y-94687717D01*
X104297649Y-94687717D01*
G37*
G36*
X111917649Y-94687717D02*
X111956827Y-94691576D01*
X112032227Y-94714448D01*
X112107629Y-94737321D01*
X112246608Y-94811608D01*
X112368422Y-94911578D01*
X112468392Y-95033392D01*
X112542679Y-95172371D01*
X112542679Y-95172372D01*
X112588424Y-95323173D01*
X112603870Y-95480000D01*
X112589542Y-95625480D01*
X112588424Y-95636826D01*
X112542679Y-95787629D01*
X112468392Y-95926608D01*
X112368422Y-96048422D01*
X112246608Y-96148392D01*
X112107629Y-96222679D01*
X112032227Y-96245552D01*
X111956827Y-96268424D01*
X111917649Y-96272283D01*
X111839295Y-96280000D01*
X111760705Y-96280000D01*
X111682351Y-96272283D01*
X111643173Y-96268424D01*
X111567773Y-96245552D01*
X111492371Y-96222679D01*
X111353392Y-96148392D01*
X111231578Y-96048422D01*
X111131608Y-95926608D01*
X111057321Y-95787629D01*
X111011576Y-95636826D01*
X111010459Y-95625480D01*
X110996130Y-95480000D01*
X111011576Y-95323173D01*
X111057321Y-95172372D01*
X111057321Y-95172371D01*
X111131608Y-95033392D01*
X111231578Y-94911578D01*
X111353392Y-94811608D01*
X111492371Y-94737321D01*
X111567773Y-94714448D01*
X111643173Y-94691576D01*
X111682351Y-94687717D01*
X111760705Y-94680000D01*
X111839295Y-94680000D01*
X111917649Y-94687717D01*
X111917649Y-94687717D01*
G37*
G36*
X98580000Y-94720000D02*
X95880000Y-94720000D01*
X95880000Y-91220000D01*
X98580000Y-91220000D01*
X98580000Y-94720000D01*
X98580000Y-94720000D01*
G37*
G36*
X111917649Y-92147717D02*
X111956827Y-92151576D01*
X112032227Y-92174448D01*
X112107629Y-92197321D01*
X112246608Y-92271608D01*
X112368422Y-92371578D01*
X112468392Y-92493392D01*
X112542679Y-92632371D01*
X112588424Y-92783174D01*
X112603870Y-92940000D01*
X112588424Y-93096826D01*
X112542679Y-93247629D01*
X112468392Y-93386608D01*
X112368422Y-93508422D01*
X112246608Y-93608392D01*
X112107629Y-93682679D01*
X112032228Y-93705551D01*
X111956827Y-93728424D01*
X111917649Y-93732283D01*
X111839295Y-93740000D01*
X111760705Y-93740000D01*
X111682351Y-93732283D01*
X111643173Y-93728424D01*
X111567772Y-93705551D01*
X111492371Y-93682679D01*
X111353392Y-93608392D01*
X111231578Y-93508422D01*
X111131608Y-93386608D01*
X111057321Y-93247629D01*
X111011576Y-93096826D01*
X110996130Y-92940000D01*
X111011576Y-92783174D01*
X111057321Y-92632371D01*
X111131608Y-92493392D01*
X111231578Y-92371578D01*
X111353392Y-92271608D01*
X111492371Y-92197321D01*
X111567773Y-92174448D01*
X111643173Y-92151576D01*
X111682351Y-92147717D01*
X111760705Y-92140000D01*
X111839295Y-92140000D01*
X111917649Y-92147717D01*
X111917649Y-92147717D01*
G37*
G36*
X104297649Y-92147717D02*
X104336827Y-92151576D01*
X104412227Y-92174448D01*
X104487629Y-92197321D01*
X104626608Y-92271608D01*
X104748422Y-92371578D01*
X104848392Y-92493392D01*
X104922679Y-92632371D01*
X104968424Y-92783174D01*
X104983870Y-92940000D01*
X104968424Y-93096826D01*
X104922679Y-93247629D01*
X104848392Y-93386608D01*
X104748422Y-93508422D01*
X104626608Y-93608392D01*
X104487629Y-93682679D01*
X104412228Y-93705551D01*
X104336827Y-93728424D01*
X104297649Y-93732283D01*
X104219295Y-93740000D01*
X104140705Y-93740000D01*
X104062351Y-93732283D01*
X104023173Y-93728424D01*
X103947772Y-93705551D01*
X103872371Y-93682679D01*
X103733392Y-93608392D01*
X103611578Y-93508422D01*
X103511608Y-93386608D01*
X103437321Y-93247629D01*
X103391576Y-93096826D01*
X103376130Y-92940000D01*
X103391576Y-92783174D01*
X103437321Y-92632371D01*
X103511608Y-92493392D01*
X103611578Y-92371578D01*
X103733392Y-92271608D01*
X103872371Y-92197321D01*
X103947773Y-92174448D01*
X104023173Y-92151576D01*
X104062351Y-92147717D01*
X104140705Y-92140000D01*
X104219295Y-92140000D01*
X104297649Y-92147717D01*
X104297649Y-92147717D01*
G37*
G36*
X85880000Y-88790000D02*
X85340178Y-88790000D01*
X85315792Y-88792402D01*
X85292343Y-88799515D01*
X85270732Y-88811066D01*
X85251790Y-88826612D01*
X85236244Y-88845554D01*
X85224693Y-88867165D01*
X85217580Y-88890614D01*
X85215178Y-88915000D01*
X85217580Y-88939386D01*
X85224693Y-88962835D01*
X85236244Y-88984446D01*
X85251790Y-89003388D01*
X85270732Y-89018934D01*
X85292343Y-89030485D01*
X85327926Y-89039398D01*
X85495639Y-89055916D01*
X85702986Y-89118815D01*
X85702988Y-89118816D01*
X85894084Y-89220958D01*
X86061581Y-89358419D01*
X86199042Y-89525916D01*
X86301184Y-89717012D01*
X86301185Y-89717014D01*
X86364084Y-89924361D01*
X86385322Y-90140000D01*
X86364084Y-90355639D01*
X86303054Y-90556826D01*
X86301184Y-90562988D01*
X86199042Y-90754084D01*
X86061581Y-90921581D01*
X85894084Y-91059042D01*
X85702988Y-91161184D01*
X85702986Y-91161185D01*
X85495639Y-91224084D01*
X85334038Y-91240000D01*
X83925962Y-91240000D01*
X83764361Y-91224084D01*
X83557014Y-91161185D01*
X83557012Y-91161184D01*
X83365916Y-91059042D01*
X83198419Y-90921581D01*
X83060958Y-90754084D01*
X82958816Y-90562988D01*
X82956947Y-90556826D01*
X82895916Y-90355639D01*
X82874678Y-90140000D01*
X82895916Y-89924361D01*
X82958815Y-89717014D01*
X82958816Y-89717012D01*
X83060958Y-89525916D01*
X83198419Y-89358419D01*
X83365916Y-89220958D01*
X83557012Y-89118816D01*
X83557014Y-89118815D01*
X83764361Y-89055916D01*
X83932074Y-89039398D01*
X83956108Y-89034618D01*
X83978747Y-89025240D01*
X83999121Y-89011626D01*
X84016448Y-88994299D01*
X84030062Y-88973925D01*
X84039440Y-88951286D01*
X84044220Y-88927252D01*
X84044220Y-88902748D01*
X84039440Y-88878714D01*
X84030062Y-88856075D01*
X84016448Y-88835701D01*
X83999121Y-88818374D01*
X83978747Y-88804760D01*
X83956108Y-88795382D01*
X83919822Y-88790000D01*
X83380000Y-88790000D01*
X83380000Y-87290000D01*
X85880000Y-87290000D01*
X85880000Y-88790000D01*
X85880000Y-88790000D01*
G37*
G36*
X111917649Y-89607717D02*
X111956827Y-89611576D01*
X112032227Y-89634448D01*
X112107629Y-89657321D01*
X112246608Y-89731608D01*
X112368422Y-89831578D01*
X112468392Y-89953392D01*
X112542679Y-90092371D01*
X112542679Y-90092372D01*
X112588424Y-90243173D01*
X112603870Y-90400000D01*
X112588424Y-90556827D01*
X112586555Y-90562988D01*
X112542679Y-90707629D01*
X112468392Y-90846608D01*
X112368422Y-90968422D01*
X112246608Y-91068392D01*
X112107629Y-91142679D01*
X112046625Y-91161184D01*
X111956827Y-91188424D01*
X111917649Y-91192283D01*
X111839295Y-91200000D01*
X111760705Y-91200000D01*
X111682351Y-91192283D01*
X111643173Y-91188424D01*
X111553375Y-91161184D01*
X111492371Y-91142679D01*
X111353392Y-91068392D01*
X111231578Y-90968422D01*
X111131608Y-90846608D01*
X111057321Y-90707629D01*
X111013445Y-90562988D01*
X111011576Y-90556827D01*
X110996130Y-90400000D01*
X111011576Y-90243173D01*
X111057321Y-90092372D01*
X111057321Y-90092371D01*
X111131608Y-89953392D01*
X111231578Y-89831578D01*
X111353392Y-89731608D01*
X111492371Y-89657321D01*
X111567773Y-89634448D01*
X111643173Y-89611576D01*
X111682351Y-89607717D01*
X111760705Y-89600000D01*
X111839295Y-89600000D01*
X111917649Y-89607717D01*
X111917649Y-89607717D01*
G37*
G36*
X104297649Y-89607717D02*
X104336827Y-89611576D01*
X104412227Y-89634448D01*
X104487629Y-89657321D01*
X104626608Y-89731608D01*
X104748422Y-89831578D01*
X104848392Y-89953392D01*
X104922679Y-90092371D01*
X104922679Y-90092372D01*
X104968424Y-90243173D01*
X104983870Y-90400000D01*
X104968424Y-90556827D01*
X104966555Y-90562988D01*
X104922679Y-90707629D01*
X104848392Y-90846608D01*
X104748422Y-90968422D01*
X104626608Y-91068392D01*
X104487629Y-91142679D01*
X104426625Y-91161184D01*
X104336827Y-91188424D01*
X104297649Y-91192283D01*
X104219295Y-91200000D01*
X104140705Y-91200000D01*
X104062351Y-91192283D01*
X104023173Y-91188424D01*
X103933375Y-91161184D01*
X103872371Y-91142679D01*
X103733392Y-91068392D01*
X103611578Y-90968422D01*
X103511608Y-90846608D01*
X103437321Y-90707629D01*
X103393445Y-90562988D01*
X103391576Y-90556827D01*
X103376130Y-90400000D01*
X103391576Y-90243173D01*
X103437321Y-90092372D01*
X103437321Y-90092371D01*
X103511608Y-89953392D01*
X103611578Y-89831578D01*
X103733392Y-89731608D01*
X103872371Y-89657321D01*
X103947773Y-89634448D01*
X104023173Y-89611576D01*
X104062351Y-89607717D01*
X104140705Y-89600000D01*
X104219295Y-89600000D01*
X104297649Y-89607717D01*
X104297649Y-89607717D01*
G37*
G36*
X99411312Y-83879523D02*
X99929982Y-84094363D01*
X100396772Y-84406262D01*
X100793738Y-84803228D01*
X101105637Y-85270018D01*
X101320477Y-85788688D01*
X101430000Y-86339298D01*
X101430000Y-86900702D01*
X101320477Y-87451312D01*
X101105637Y-87969982D01*
X100793738Y-88436772D01*
X100396772Y-88833738D01*
X99929982Y-89145637D01*
X99411312Y-89360477D01*
X98860702Y-89470000D01*
X98299298Y-89470000D01*
X97748688Y-89360477D01*
X97230018Y-89145637D01*
X96763228Y-88833738D01*
X96366262Y-88436772D01*
X96054363Y-87969982D01*
X95839523Y-87451312D01*
X95730000Y-86900702D01*
X95730000Y-86339298D01*
X95839523Y-85788688D01*
X96054363Y-85270018D01*
X96366262Y-84803228D01*
X96763228Y-84406262D01*
X97230018Y-84094363D01*
X97748688Y-83879523D01*
X98299298Y-83770000D01*
X98860702Y-83770000D01*
X99411312Y-83879523D01*
X99411312Y-83879523D01*
G37*
G36*
X104297649Y-87067717D02*
X104336827Y-87071576D01*
X104412227Y-87094448D01*
X104487629Y-87117321D01*
X104626608Y-87191608D01*
X104748422Y-87291578D01*
X104848392Y-87413392D01*
X104922679Y-87552371D01*
X104968424Y-87703174D01*
X104983870Y-87860000D01*
X104968424Y-88016826D01*
X104922679Y-88167629D01*
X104848392Y-88306608D01*
X104748422Y-88428422D01*
X104626608Y-88528392D01*
X104487629Y-88602679D01*
X104412227Y-88625552D01*
X104336827Y-88648424D01*
X104297649Y-88652283D01*
X104219295Y-88660000D01*
X104140705Y-88660000D01*
X104062351Y-88652283D01*
X104023173Y-88648424D01*
X103947773Y-88625552D01*
X103872371Y-88602679D01*
X103733392Y-88528392D01*
X103611578Y-88428422D01*
X103511608Y-88306608D01*
X103437321Y-88167629D01*
X103391576Y-88016826D01*
X103376130Y-87860000D01*
X103391576Y-87703174D01*
X103437321Y-87552371D01*
X103511608Y-87413392D01*
X103611578Y-87291578D01*
X103733392Y-87191608D01*
X103872371Y-87117321D01*
X103947773Y-87094448D01*
X104023173Y-87071576D01*
X104062351Y-87067717D01*
X104140705Y-87060000D01*
X104219295Y-87060000D01*
X104297649Y-87067717D01*
X104297649Y-87067717D01*
G37*
G36*
X111917649Y-87067717D02*
X111956827Y-87071576D01*
X112032227Y-87094448D01*
X112107629Y-87117321D01*
X112246608Y-87191608D01*
X112368422Y-87291578D01*
X112468392Y-87413392D01*
X112542679Y-87552371D01*
X112588424Y-87703174D01*
X112603870Y-87860000D01*
X112588424Y-88016826D01*
X112542679Y-88167629D01*
X112468392Y-88306608D01*
X112368422Y-88428422D01*
X112246608Y-88528392D01*
X112107629Y-88602679D01*
X112032227Y-88625552D01*
X111956827Y-88648424D01*
X111917649Y-88652283D01*
X111839295Y-88660000D01*
X111760705Y-88660000D01*
X111682351Y-88652283D01*
X111643173Y-88648424D01*
X111567773Y-88625552D01*
X111492371Y-88602679D01*
X111353392Y-88528392D01*
X111231578Y-88428422D01*
X111131608Y-88306608D01*
X111057321Y-88167629D01*
X111011576Y-88016826D01*
X110996130Y-87860000D01*
X111011576Y-87703174D01*
X111057321Y-87552371D01*
X111131608Y-87413392D01*
X111231578Y-87291578D01*
X111353392Y-87191608D01*
X111492371Y-87117321D01*
X111567773Y-87094448D01*
X111643173Y-87071576D01*
X111682351Y-87067717D01*
X111760705Y-87060000D01*
X111839295Y-87060000D01*
X111917649Y-87067717D01*
X111917649Y-87067717D01*
G37*
G36*
X85277027Y-85300852D02*
X85418401Y-85343738D01*
X85548694Y-85413380D01*
X85662896Y-85507104D01*
X85756620Y-85621306D01*
X85826262Y-85751599D01*
X85869148Y-85892973D01*
X85883628Y-86040000D01*
X85869148Y-86187027D01*
X85826262Y-86328401D01*
X85756620Y-86458694D01*
X85662896Y-86572896D01*
X85548694Y-86666620D01*
X85418401Y-86736262D01*
X85277027Y-86779148D01*
X85166839Y-86790000D01*
X84093161Y-86790000D01*
X83982973Y-86779148D01*
X83841599Y-86736262D01*
X83711306Y-86666620D01*
X83597104Y-86572896D01*
X83503380Y-86458694D01*
X83433738Y-86328401D01*
X83390852Y-86187027D01*
X83376372Y-86040000D01*
X83390852Y-85892973D01*
X83433738Y-85751599D01*
X83503380Y-85621306D01*
X83597104Y-85507104D01*
X83711306Y-85413380D01*
X83841599Y-85343738D01*
X83982973Y-85300852D01*
X84093161Y-85290000D01*
X85166839Y-85290000D01*
X85277027Y-85300852D01*
X85277027Y-85300852D01*
G37*
G36*
X111917649Y-84527717D02*
X111956827Y-84531576D01*
X112032227Y-84554448D01*
X112107629Y-84577321D01*
X112246608Y-84651608D01*
X112368422Y-84751578D01*
X112468392Y-84873392D01*
X112542679Y-85012371D01*
X112542679Y-85012372D01*
X112588424Y-85163173D01*
X112603870Y-85320000D01*
X112588424Y-85476827D01*
X112579239Y-85507105D01*
X112542679Y-85627629D01*
X112468392Y-85766608D01*
X112368422Y-85888422D01*
X112246608Y-85988392D01*
X112107629Y-86062679D01*
X112032227Y-86085552D01*
X111956827Y-86108424D01*
X111917649Y-86112283D01*
X111839295Y-86120000D01*
X111760705Y-86120000D01*
X111682351Y-86112283D01*
X111643173Y-86108424D01*
X111567773Y-86085552D01*
X111492371Y-86062679D01*
X111353392Y-85988392D01*
X111231578Y-85888422D01*
X111131608Y-85766608D01*
X111057321Y-85627629D01*
X111020761Y-85507105D01*
X111011576Y-85476827D01*
X110996130Y-85320000D01*
X111011576Y-85163173D01*
X111057321Y-85012372D01*
X111057321Y-85012371D01*
X111131608Y-84873392D01*
X111231578Y-84751578D01*
X111353392Y-84651608D01*
X111492371Y-84577321D01*
X111567773Y-84554448D01*
X111643173Y-84531576D01*
X111682351Y-84527717D01*
X111760705Y-84520000D01*
X111839295Y-84520000D01*
X111917649Y-84527717D01*
X111917649Y-84527717D01*
G37*
G36*
X104297649Y-84527717D02*
X104336827Y-84531576D01*
X104412227Y-84554448D01*
X104487629Y-84577321D01*
X104626608Y-84651608D01*
X104748422Y-84751578D01*
X104848392Y-84873392D01*
X104922679Y-85012371D01*
X104922679Y-85012372D01*
X104968424Y-85163173D01*
X104983870Y-85320000D01*
X104968424Y-85476827D01*
X104959239Y-85507105D01*
X104922679Y-85627629D01*
X104848392Y-85766608D01*
X104748422Y-85888422D01*
X104626608Y-85988392D01*
X104487629Y-86062679D01*
X104412227Y-86085552D01*
X104336827Y-86108424D01*
X104297649Y-86112283D01*
X104219295Y-86120000D01*
X104140705Y-86120000D01*
X104062351Y-86112283D01*
X104023173Y-86108424D01*
X103947773Y-86085552D01*
X103872371Y-86062679D01*
X103733392Y-85988392D01*
X103611578Y-85888422D01*
X103511608Y-85766608D01*
X103437321Y-85627629D01*
X103400761Y-85507105D01*
X103391576Y-85476827D01*
X103376130Y-85320000D01*
X103391576Y-85163173D01*
X103437321Y-85012372D01*
X103437321Y-85012371D01*
X103511608Y-84873392D01*
X103611578Y-84751578D01*
X103733392Y-84651608D01*
X103872371Y-84577321D01*
X103947773Y-84554448D01*
X104023173Y-84531576D01*
X104062351Y-84527717D01*
X104140705Y-84520000D01*
X104219295Y-84520000D01*
X104297649Y-84527717D01*
X104297649Y-84527717D01*
G37*
G36*
X85495639Y-80855916D02*
X85702986Y-80918815D01*
X85702988Y-80918816D01*
X85894084Y-81020958D01*
X86061581Y-81158419D01*
X86199042Y-81325916D01*
X86301184Y-81517012D01*
X86301185Y-81517014D01*
X86364084Y-81724361D01*
X86385322Y-81940000D01*
X86364084Y-82155639D01*
X86310162Y-82333394D01*
X86301184Y-82362988D01*
X86199042Y-82554084D01*
X86061581Y-82721581D01*
X85894084Y-82859042D01*
X85748557Y-82936827D01*
X85702986Y-82961185D01*
X85495639Y-83024084D01*
X85334038Y-83040000D01*
X85172979Y-83040000D01*
X85148593Y-83042402D01*
X85125144Y-83049515D01*
X85103533Y-83061066D01*
X85084591Y-83076612D01*
X85069045Y-83095554D01*
X85057494Y-83117165D01*
X85050381Y-83140614D01*
X85047979Y-83165000D01*
X85050381Y-83189386D01*
X85057494Y-83212835D01*
X85069045Y-83234446D01*
X85084591Y-83253388D01*
X85103533Y-83268934D01*
X85125144Y-83280485D01*
X85148593Y-83287598D01*
X85160727Y-83289398D01*
X85277027Y-83300852D01*
X85418401Y-83343738D01*
X85548694Y-83413380D01*
X85662896Y-83507104D01*
X85756620Y-83621306D01*
X85826262Y-83751599D01*
X85869148Y-83892973D01*
X85883628Y-84040000D01*
X85869148Y-84187027D01*
X85826262Y-84328401D01*
X85756620Y-84458694D01*
X85662896Y-84572896D01*
X85548694Y-84666620D01*
X85418401Y-84736262D01*
X85277027Y-84779148D01*
X85166839Y-84790000D01*
X84093161Y-84790000D01*
X83982973Y-84779148D01*
X83841599Y-84736262D01*
X83711306Y-84666620D01*
X83597104Y-84572896D01*
X83503380Y-84458694D01*
X83433738Y-84328401D01*
X83390852Y-84187027D01*
X83376372Y-84040000D01*
X83390852Y-83892973D01*
X83433738Y-83751599D01*
X83503380Y-83621306D01*
X83597104Y-83507104D01*
X83711306Y-83413380D01*
X83841599Y-83343738D01*
X83982973Y-83300852D01*
X84099273Y-83289398D01*
X84123306Y-83284618D01*
X84145945Y-83275240D01*
X84166320Y-83261626D01*
X84183647Y-83244299D01*
X84197261Y-83223925D01*
X84206638Y-83201286D01*
X84211419Y-83177252D01*
X84211419Y-83152748D01*
X84206639Y-83128715D01*
X84197261Y-83106076D01*
X84183647Y-83085701D01*
X84166320Y-83068374D01*
X84145946Y-83054760D01*
X84123307Y-83045383D01*
X84099273Y-83040602D01*
X84087021Y-83040000D01*
X83925962Y-83040000D01*
X83764361Y-83024084D01*
X83557014Y-82961185D01*
X83511443Y-82936827D01*
X83365916Y-82859042D01*
X83198419Y-82721581D01*
X83060958Y-82554084D01*
X82958816Y-82362988D01*
X82949839Y-82333394D01*
X82895916Y-82155639D01*
X82874678Y-81940000D01*
X82895916Y-81724361D01*
X82958815Y-81517014D01*
X82958816Y-81517012D01*
X83060958Y-81325916D01*
X83198419Y-81158419D01*
X83365916Y-81020958D01*
X83557012Y-80918816D01*
X83557014Y-80918815D01*
X83764361Y-80855916D01*
X83925962Y-80840000D01*
X85334038Y-80840000D01*
X85495639Y-80855916D01*
X85495639Y-80855916D01*
G37*
G36*
X111917649Y-81987717D02*
X111956827Y-81991576D01*
X112032228Y-82014449D01*
X112107629Y-82037321D01*
X112246608Y-82111608D01*
X112368422Y-82211578D01*
X112468392Y-82333392D01*
X112542679Y-82472371D01*
X112588424Y-82623174D01*
X112603870Y-82780000D01*
X112588424Y-82936826D01*
X112542679Y-83087629D01*
X112468392Y-83226608D01*
X112368422Y-83348422D01*
X112246608Y-83448392D01*
X112107629Y-83522679D01*
X112032228Y-83545551D01*
X111956827Y-83568424D01*
X111917649Y-83572283D01*
X111839295Y-83580000D01*
X111760705Y-83580000D01*
X111682351Y-83572283D01*
X111643173Y-83568424D01*
X111567772Y-83545551D01*
X111492371Y-83522679D01*
X111353392Y-83448392D01*
X111231578Y-83348422D01*
X111131608Y-83226608D01*
X111057321Y-83087629D01*
X111011576Y-82936826D01*
X110996130Y-82780000D01*
X111011576Y-82623174D01*
X111057321Y-82472371D01*
X111131608Y-82333392D01*
X111231578Y-82211578D01*
X111353392Y-82111608D01*
X111492371Y-82037321D01*
X111567772Y-82014449D01*
X111643173Y-81991576D01*
X111682351Y-81987717D01*
X111760705Y-81980000D01*
X111839295Y-81980000D01*
X111917649Y-81987717D01*
X111917649Y-81987717D01*
G37*
G36*
X104297649Y-81987717D02*
X104336827Y-81991576D01*
X104412228Y-82014449D01*
X104487629Y-82037321D01*
X104626608Y-82111608D01*
X104748422Y-82211578D01*
X104848392Y-82333392D01*
X104922679Y-82472371D01*
X104968424Y-82623174D01*
X104983870Y-82780000D01*
X104968424Y-82936826D01*
X104922679Y-83087629D01*
X104848392Y-83226608D01*
X104748422Y-83348422D01*
X104626608Y-83448392D01*
X104487629Y-83522679D01*
X104412228Y-83545551D01*
X104336827Y-83568424D01*
X104297649Y-83572283D01*
X104219295Y-83580000D01*
X104140705Y-83580000D01*
X104062351Y-83572283D01*
X104023173Y-83568424D01*
X103947772Y-83545551D01*
X103872371Y-83522679D01*
X103733392Y-83448392D01*
X103611578Y-83348422D01*
X103511608Y-83226608D01*
X103437321Y-83087629D01*
X103391576Y-82936826D01*
X103376130Y-82780000D01*
X103391576Y-82623174D01*
X103437321Y-82472371D01*
X103511608Y-82333392D01*
X103611578Y-82211578D01*
X103733392Y-82111608D01*
X103872371Y-82037321D01*
X103947772Y-82014449D01*
X104023173Y-81991576D01*
X104062351Y-81987717D01*
X104140705Y-81980000D01*
X104219295Y-81980000D01*
X104297649Y-81987717D01*
X104297649Y-81987717D01*
G37*
G36*
X101280000Y-82020000D02*
X98580000Y-82020000D01*
X98580000Y-78520000D01*
X101280000Y-78520000D01*
X101280000Y-82020000D01*
X101280000Y-82020000D01*
G37*
G36*
X104297649Y-79447717D02*
X104336827Y-79451576D01*
X104412228Y-79474449D01*
X104487629Y-79497321D01*
X104626608Y-79571608D01*
X104748422Y-79671578D01*
X104848392Y-79793392D01*
X104922679Y-79932371D01*
X104968424Y-80083174D01*
X104983870Y-80240000D01*
X104968424Y-80396826D01*
X104922679Y-80547629D01*
X104848392Y-80686608D01*
X104748422Y-80808422D01*
X104626608Y-80908392D01*
X104487629Y-80982679D01*
X104412227Y-81005552D01*
X104336827Y-81028424D01*
X104297649Y-81032283D01*
X104219295Y-81040000D01*
X104140705Y-81040000D01*
X104062351Y-81032283D01*
X104023173Y-81028424D01*
X103947772Y-81005551D01*
X103872371Y-80982679D01*
X103733392Y-80908392D01*
X103611578Y-80808422D01*
X103511608Y-80686608D01*
X103437321Y-80547629D01*
X103391576Y-80396826D01*
X103376130Y-80240000D01*
X103391576Y-80083174D01*
X103437321Y-79932371D01*
X103511608Y-79793392D01*
X103611578Y-79671578D01*
X103733392Y-79571608D01*
X103872371Y-79497321D01*
X103947773Y-79474448D01*
X104023173Y-79451576D01*
X104062351Y-79447717D01*
X104140705Y-79440000D01*
X104219295Y-79440000D01*
X104297649Y-79447717D01*
X104297649Y-79447717D01*
G37*
G36*
X111917649Y-79447717D02*
X111956827Y-79451576D01*
X112032228Y-79474449D01*
X112107629Y-79497321D01*
X112246608Y-79571608D01*
X112368422Y-79671578D01*
X112468392Y-79793392D01*
X112542679Y-79932371D01*
X112588424Y-80083174D01*
X112603870Y-80240000D01*
X112588424Y-80396826D01*
X112542679Y-80547629D01*
X112468392Y-80686608D01*
X112368422Y-80808422D01*
X112246608Y-80908392D01*
X112107629Y-80982679D01*
X112032227Y-81005552D01*
X111956827Y-81028424D01*
X111917649Y-81032283D01*
X111839295Y-81040000D01*
X111760705Y-81040000D01*
X111682351Y-81032283D01*
X111643173Y-81028424D01*
X111567772Y-81005551D01*
X111492371Y-80982679D01*
X111353392Y-80908392D01*
X111231578Y-80808422D01*
X111131608Y-80686608D01*
X111057321Y-80547629D01*
X111011576Y-80396826D01*
X110996130Y-80240000D01*
X111011576Y-80083174D01*
X111057321Y-79932371D01*
X111131608Y-79793392D01*
X111231578Y-79671578D01*
X111353392Y-79571608D01*
X111492371Y-79497321D01*
X111567773Y-79474448D01*
X111643173Y-79451576D01*
X111682351Y-79447717D01*
X111760705Y-79440000D01*
X111839295Y-79440000D01*
X111917649Y-79447717D01*
X111917649Y-79447717D01*
G37*
G36*
X104297649Y-76907717D02*
X104336827Y-76911576D01*
X104412227Y-76934448D01*
X104487629Y-76957321D01*
X104626608Y-77031608D01*
X104748422Y-77131578D01*
X104848392Y-77253392D01*
X104922679Y-77392371D01*
X104968424Y-77543174D01*
X104983870Y-77700000D01*
X104968424Y-77856826D01*
X104922679Y-78007629D01*
X104848392Y-78146608D01*
X104748422Y-78268422D01*
X104626608Y-78368392D01*
X104487629Y-78442679D01*
X104412227Y-78465552D01*
X104336827Y-78488424D01*
X104297649Y-78492283D01*
X104219295Y-78500000D01*
X104140705Y-78500000D01*
X104062351Y-78492283D01*
X104023173Y-78488424D01*
X103947773Y-78465552D01*
X103872371Y-78442679D01*
X103733392Y-78368392D01*
X103611578Y-78268422D01*
X103511608Y-78146608D01*
X103437321Y-78007629D01*
X103391576Y-77856826D01*
X103376130Y-77700000D01*
X103391576Y-77543174D01*
X103437321Y-77392371D01*
X103511608Y-77253392D01*
X103611578Y-77131578D01*
X103733392Y-77031608D01*
X103872371Y-76957321D01*
X103947772Y-76934449D01*
X104023173Y-76911576D01*
X104062351Y-76907717D01*
X104140705Y-76900000D01*
X104219295Y-76900000D01*
X104297649Y-76907717D01*
X104297649Y-76907717D01*
G37*
G36*
X112600000Y-78500000D02*
X111000000Y-78500000D01*
X111000000Y-76900000D01*
X112600000Y-76900000D01*
X112600000Y-78500000D01*
X112600000Y-78500000D01*
G37*
G36*
X84950000Y-77950000D02*
X83250000Y-77950000D01*
X83250000Y-76250000D01*
X84950000Y-76250000D01*
X84950000Y-77950000D01*
X84950000Y-77950000D01*
G37*
G36*
X95850000Y-70550000D02*
X94150000Y-70550000D01*
X94150000Y-68850000D01*
X95850000Y-68850000D01*
X95850000Y-70550000D01*
X95850000Y-70550000D01*
G37*
M02*
